#. Lowndes: Version 2
#. SourceFilename: W:\Recordings\Guildford\Guildford.20220621-2115.s12t12.3.wav
#. Tower: Guildford Cathedral
#. RingingName: Touch 3
#. RingingDateTime: 20220621-2115
#. Rungon: 
#. Tenor: 12
#. NumBellsRinging: 12
#. Creator: HawkEar Team Edition V1 for Guildford Cathedral
#. CreatorVersion: 1.1.0.3
#. TranscribedFor: Guildford band
#. TranscriptionDateTime: 20220622-1647
#. FirstBlowMs: 7710
#. Touchdb: -15.5128
#. TraindB: -9.73, -8.5, -6.1, -3.11, -3.16, -3.1, -3.98, -4.12, -5.95, -5.43, -4.92, -3
#. TrainedOn: 20220102-1438
#. TrainDataRecordedOn: 20210813-1741
#. TrainParams: -ft:y -ws:0.05 -hs:0.01 -co:0.9 -sw:40 -ts:
#. GainParams: -fh:6000 -fl:200
#. OnsetParams: -mb:80 -mf:10 -ng:0.3 -oo:0
#. WriteParams: -hb:y
#. AnalParams: -au:y -xp:n -sg:n -hsg:-1
#. ExpString: 
#. Association: 
#. Calling: 
#. Compositionname: 
#. Method: 
#. Footnotes: 
#. Ringers: 
#. Stage: 
H 1 0X1e1e
H 2 0X1ef0
H 3 0X1fae
H 4 0X20c6
H 5 0X2170
H 6 0X2224
H 7 0X2314
H 8 0X23d2
H 9 0X24b8
H O 0X259e
H E 0X2684
H T 0X27ce
B 1 0X2878
B 2 0X2936
B 3 0X2a12
B 4 0X2a9e
B 5 0X2b5c
B 6 0X2c7e
B 7 0X2d50
B 8 0X2e22
B 9 0X2ef4
B O 0X2fb2
B E 0X3066
B T 0X3174
H 1 0X332c
H 2 0X33fe
H 3 0X34bc
H 4 0X3584
H 5 0X3624
H 6 0X3714
H 7 0X37dc
H 8 0X3890
H 9 0X3976
H O 0X3a5c
H E 0X3b2e
H T 0X3c00
B 1 0X3cbe
B 2 0X3d7c
B 3 0X3e44
B 4 0X3ee4
B 5 0X3f98
B 6 0X409c
B 7 0X41a0
B 8 0X422c
B 9 0X4308
B O 0X43d0
B E 0X44c0
B T 0X457e
H 1 0X4768
H 2 0X4830
H 3 0X48d0
H 4 0X498e
H 5 0X4a4c
H 6 0X4b1e
H 7 0X4c04
H 8 0X4cc2
H 9 0X4d76
H O 0X4e70
H E 0X4f24
H T 0X4fec
B 1 0X508c
B 2 0X5154
B 3 0X521c
B 4 0X52c6
B 5 0X5384
B 6 0X5456
B 7 0X5564
B 8 0X560e
B 9 0X571c
B O 0X57ee
B E 0X58b6
B T 0X5992
H 1 0X5b22
H 2 0X5bcc
H 3 0X5c94
H 4 0X5d48
H 5 0X5e10
H 6 0X5ec4
H 7 0X5fbe
H 8 0X607c
H 9 0X613a
H O 0X6252
H E 0X631a
H T 0X63e2
B 1 0X6464
B 2 0X652c
B 3 0X661c
B 4 0X66a8
B 5 0X6766
B 6 0X682e
B 7 0X691e
B 8 0X69c8
B 9 0X6ad6
B O 0X6ba8
B E 0X6c70
B T 0X6d42
H 1 0X6f0e
H 2 0X6fcc
H 3 0X706c
H 4 0X7116
H 5 0X71e8
H 6 0X7292
H 7 0X7378
H 8 0X7436
H 9 0X751c
H O 0X7616
H E 0X76c0
H T 0X7792
B 1 0X7846
B 2 0X7918
B 3 0X79cc
B 4 0X7a76
B 5 0X7b52
B 6 0X7bfc
B 7 0X7cec
B 8 0X7d96
B 9 0X7e90
B O 0X7f4e
B E 0X802a
B T 0X8110
H 1 0X82be
H 2 0X8386
H 3 0X8430
H 4 0X84e4
H 5 0X85a2
H 6 0X8656
H 7 0X8750
H 8 0X8804
H 9 0X88cc
H O 0X89d0
H E 0X8a52
H T 0X8b24
B 1 0X8bce
B 2 0X8caa
B 3 0X8d90
B 4 0X8dfe
B 5 0X8eee
B 6 0X8fa2
B 7 0X90b0
B 8 0X915a
B 9 0X9240
B O 0X92e0
B E 0X93da
B T 0X94b6
H 1 0X9650
H 2 0X9722
H 3 0X97ea
H 4 0X9880
H 5 0X993e
H 6 0X99f2
H 7 0X9b00
H 8 0X9baa
H 9 0X9c86
H O 0X9d80
H E 0X9e48
H T 0X9f10
B 1 0X9fba
B 2 0Xa078
B 3 0Xa140
B 4 0Xa1d6
B 5 0Xa29e
B 6 0Xa352
B 7 0Xa442
B 8 0Xa500
B 9 0Xa5d2
B O 0Xa6a4
B E 0Xa78a
B T 0Xa866
H 1 0Xaa1e
H 2 0Xaad2
H 3 0Xab5e
H 4 0Xac44
H 5 0Xad16
H 6 0Xadc0
H 7 0Xaeba
H 8 0Xaf8c
H 9 0Xb00e
H O 0Xb0f4
H E 0Xb1ee
H T 0Xb298
B 1 0Xb360
B 2 0Xb400
B 3 0Xb4b4
B 4 0Xb590
B 5 0Xb64e
B 6 0Xb73e
B 7 0Xb824
B 8 0Xb8d8
B 9 0Xb9a0
B O 0Xba68
B E 0Xbb6c
B T 0Xbc20
H 2 0Xbde2
H 1 0Xbed2
H 3 0Xbf68
H 5 0Xc012
H 4 0Xc0d0
H 7 0Xc1a2
H 6 0Xc242
H 9 0Xc328
H 8 0Xc40e
H E 0Xc4f4
H O 0Xc5e4
H T 0Xc68e
B 2 0Xc72e
B 3 0Xc7f6
B 1 0Xc8e6
B 4 0Xc9ae
B 5 0Xca44
B 6 0Xcada
B 7 0Xcbd4
B 8 0Xcc88
B 9 0Xcd78
B O 0Xce22
B E 0Xcf08
B T 0Xcfee
H 3 0Xd188
H 2 0Xd232
H 4 0Xd368
H 1 0Xd430
H 6 0Xd48a
H 5 0Xd584
H 8 0Xd642
H 7 0Xd71e
H 9 0Xd7be
H E 0Xd8ae
H O 0Xd99e
H T 0Xda3e
B 2 0Xdb1a
B 3 0Xdbba
B 4 0Xdc8c
B 6 0Xdd22
B 1 0Xde12
B 8 0Xde9e
B 5 0Xdf70
B 9 0Xe0b0
B 7 0Xe164
B O 0Xe218
B E 0Xe2f4
B T 0Xe3b2
H 2 0Xe56a
H 4 0Xe646
H 3 0Xe72c
H 1 0Xe7e0
H 6 0Xe86c
H 5 0Xe93e
H 8 0Xe9ca
H 7 0Xead8
H 9 0Xeb96
H E 0Xec72
H O 0Xed58
H T 0Xedee
B 4 0Xeee8
B 2 0Xef92
B 3 0Xf06e
B 6 0Xf0dc
B 1 0Xf1e0
B 8 0Xf26c
B 5 0Xf35c
B 9 0Xf456
B 7 0Xf51e
B O 0Xf5e6
B E 0Xf6cc
B T 0Xf78a
H 4 0Xf8e8
H 3 0Xf9f6
H 2 0Xfaaa
H 1 0Xfb86
H 6 0Xfc26
H 5 0Xfd2a
H 8 0Xfdca
H 7 0Xfea6
H 9 0Xff5a
H E 0X0018
H O 0X011c
H T 0X01bc
B 3 0X02ac
B 4 0X036a
B 2 0X0428
B 6 0X04d2
B 1 0X05b8
B 8 0X064e
B 5 0X0752
B 9 0X0824
B 7 0X08f6
B O 0X09c8
B E 0X0a90
B T 0X0b58
H 4 0X0ce8
H 3 0X0dd8
H 6 0X0ea0
H 2 0X0f90
H 8 0X104e
H 1 0X110c
H 9 0X11de
H 5 0X129c
H O 0X1364
H 7 0X1422
H E 0X14d6
H T 0X158a
B 4 0X1684
B 6 0X1710
B 3 0X1814
B 8 0X18dc
B 2 0X19c2
B 9 0X1a80
B 1 0X1b48
B O 0X1bf2
B 5 0X1ce2
B E 0X1ddc
B 7 0X1e9a
B T 0X1f44
H 6 0X20f2
H 4 0X21c4
H 3 0X2282
H 2 0X2368
H 8 0X241c
H 1 0X24f8
H 9 0X257a
H 5 0X26a6
H O 0X270a
H 7 0X27d2
H E 0X287c
H T 0X298a
B 6 0X2a48
B 3 0X2b60
B 4 0X2c1e
B 8 0X2ce6
B 2 0X2db8
B 9 0X2e76
B 1 0X2f20
B O 0X2fb6
B 5 0X3088
B E 0X3164
B 7 0X3240
B T 0X331c
H 3 0X34c0
H 6 0X3574
H 4 0X3664
H 2 0X377c
H 8 0X3826
H 1 0X38ee
H 9 0X3984
H 5 0X3a60
H O 0X3af6
H 7 0X3be6
H E 0X3c7c
H T 0X3d44
B 3 0X3e2a
B 4 0X3ef2
B 6 0X3fce
B 8 0X408c
B 2 0X4186
B 9 0X426c
B 1 0X432a
B O 0X43ac
B 5 0X447e
B E 0X4532
B 7 0X460e
B T 0X46cc
H 4 0X4870
H 3 0X494c
H 8 0X4a32
H 6 0X4adc
H 9 0X4bc2
H 2 0X4cbc
H O 0X4d84
H 1 0X4e42
H 5 0X4f0a
H 7 0X4ff0
H E 0X5072
H T 0X5130
B 3 0X51f8
B 4 0X52b6
B 8 0X537e
B 9 0X5450
B 6 0X5536
B O 0X55e0
B 2 0X56da
B 5 0X57b6
B 1 0X5888
B E 0X5932
B 7 0X5a18
B T 0X5af4
H 3 0X5c52
H 8 0X5d4c
H 4 0X5dd8
H 6 0X5e8c
H 9 0X5f72
H 2 0X6094
H O 0X60f8
H 1 0X61e8
H 5 0X62ba
H 7 0X63d2
H E 0X645e
H T 0X651c
B 8 0X6602
B 3 0X66ca
B 4 0X6760
B 9 0X6832
B 6 0X68f0
B O 0X69b8
B 2 0X6a94
B 5 0X6b66
B 1 0X6c60
B E 0X6d00
B 7 0X6ddc
B T 0X6ecc
H 8 0X7098
H 4 0X7142
H 3 0X71f6
H 6 0X72aa
H 9 0X7354
H 2 0X7462
H O 0X74e4
H 1 0X75d4
H 5 0X769c
H 7 0X77aa
H E 0X7822
H T 0X78ea
B 4 0X79a8
B 8 0X7aa2
B 3 0X7b92
B 9 0X7c5a
B 6 0X7d18
B O 0X7dd6
B 2 0X7e9e
B 5 0X7f5c
B 1 0X8024
B E 0X80ce
B 7 0X81b4
B T 0X829a
H 8 0X845c
H 4 0X8510
H 9 0X85d8
H 3 0X86b4
H O 0X8786
H 6 0X8844
H 5 0X8934
H 2 0X8a42
H E 0X8a9c
H 1 0X8b64
H 7 0X8c4a
H T 0X8cc2
B 8 0X8db2
B 9 0X8eb6
B 4 0X8f56
B O 0X9028
B 3 0X910e
B 5 0X91d6
B 6 0X92bc
B E 0X9348
B 2 0X947e
B 7 0X9546
B 1 0X95d2
B T 0X9668
H 9 0X985c
H 8 0X9942
H 4 0X99d8
H 3 0X9abe
H O 0X9b7c
H 6 0X9c1c
H 5 0X9cf8
H 2 0X9e2e
H E 0X9e92
H 1 0X9f6e
H 7 0Xa040
H T 0Xa0ea
B 9 0Xa1e4
B 4 0Xa2a2
B 8 0Xa374
B O 0Xa450
B 3 0Xa4fa
B 5 0Xa5a4
B 6 0Xa69e
B E 0Xa752
B 2 0Xa842
B 7 0Xa914
B 1 0Xa9c8
B T 0Xaa86
H 4 0Xac5c
H 9 0Xad06
H 8 0Xae1e
H 3 0Xaec8
H O 0Xaf7c
H 6 0Xb03a
H 5 0Xb120
H 2 0Xb238
H E 0Xb292
H 1 0Xb378
H 7 0Xb45e
H T 0Xb4fe
B 4 0Xb5bc
B 8 0Xb698
B 9 0Xb792
B O 0Xb828
B 3 0Xb92c
B 5 0Xb9cc
B 6 0Xbab2
B E 0Xbb70
B 2 0Xbc38
B 7 0Xbd1e
B 1 0Xbde6
B T 0Xbe90
H 8 0Xc048
H 4 0Xc11a
H O 0Xc1e2
H 9 0Xc2aa
H 5 0Xc390
H 3 0Xc430
H E 0Xc50c
H 6 0Xc5fc
H 7 0Xc6d8
H 2 0Xc7be
H 1 0Xc872
H T 0Xc908
B 4 0Xc9da
B 8 0Xcab6
B O 0Xcb60
B 5 0Xcc32
B 9 0Xccfa
B E 0Xcdb8
B 3 0Xce6c
B 7 0Xcf70
B 6 0Xd02e
B 1 0Xd100
B 2 0Xd1dc
B T 0Xd29a
H 4 0Xd45c
H O 0Xd4f2
H 8 0Xd5ec
H 9 0Xd682
H 5 0Xd77c
H 3 0Xd812
H E 0Xd8bc
H 6 0Xd9b6
H 7 0Xdac4
H 2 0Xdbb4
H 1 0Xdc7c
H T 0Xdd12
B O 0Xdde4
B 4 0Xdea2
B 8 0Xdf74
B 5 0Xe00a
B 9 0Xe104
B E 0Xe1b8
B 3 0Xe2bc
B 7 0Xe370
B 6 0Xe438
B 1 0Xe4ec
B 2 0Xe5c8
B T 0Xe690
H O 0Xe852
H 8 0Xe942
H 4 0Xea00
H 9 0Xeabe
H 5 0Xeb7c
H 3 0Xec44
H E 0Xecf8
H 6 0Xedb6
H 7 0Xeec4
H 2 0Xefb4
H 1 0Xf086
H T 0Xf108
B 8 0Xf1ee
B O 0Xf2c0
B 4 0Xf3b0
B 5 0Xf46e
B 9 0Xf52c
B E 0Xf5e0
B 3 0Xf6ee
B 7 0Xf798
B 6 0Xf856
B 1 0Xf900
B 2 0Xf9be
B T 0Xfa86
H O 0Xfc66
H 8 0Xfd38
H 5 0Xfe0a
H 4 0Xff04
H E 0Xff90
H 9 0X008a
H 7 0X018e
H 3 0X0206
H 1 0X02ce
H 6 0X035a
H 2 0X0472
H T 0X051c
B O 0X05ee
B 5 0X06e8
B 8 0X07a6
B E 0X0878
B 4 0X092c
B 7 0X0a3a
B 9 0X0ada
B 1 0X0b7a
B 3 0X0c7e
B 2 0X0d3c
B 6 0X0de6
B T 0X0eae
H 5 0X1098
H O 0X112e
H 8 0X1214
H 4 0X1318
H E 0X139a
H 9 0X1480
H 7 0X1552
H 3 0X1624
H 1 0X16f6
H 6 0X17a0
H 2 0X187c
H T 0X1930
B 5 0X1a20
B 8 0X1b06
B O 0X1be2
B E 0X1cc8
B 4 0X1d9a
B 7 0X1e26
B 9 0X1ee4
B 1 0X1f98
B 3 0X209c
B 2 0X213c
B 6 0X2204
B T 0X22e0
H 8 0X24c0
H 5 0X259c
H O 0X260a
H 4 0X2736
H E 0X27cc
H 9 0X28bc
H 7 0X2984
H 3 0X2a6a
H 1 0X2b50
H 6 0X2bbe
H 2 0X2cae
H T 0X2d80
B 8 0X2e3e
B O 0X2efc
B 5 0X2fba
B E 0X30aa
B 4 0X3186
B 7 0X326c
B 9 0X333e
B 1 0X3410
B 3 0X34ba
B 2 0X35a0
B 6 0X364a
B T 0X3712
H O 0X38ac
H 8 0X39b0
H E 0X3a32
H 5 0X3b36
H 7 0X3c4e
H 4 0X3cda
H 1 0X3dd4
H 9 0X3e92
H 2 0X3f8c
H 3 0X4022
H 6 0X4112
H T 0X41a8
B 8 0X425c
B O 0X4324
B E 0X43d8
B 7 0X44fa
B 5 0X45ae
B 1 0X4658
B 4 0X4716
B 2 0X4810
B 9 0X491e
B 6 0X49c8
B 3 0X4a72
B T 0X4b4e
H 8 0X4cfc
H E 0X4d9c
H O 0X4e8c
H 5 0X4f5e
H 7 0X5058
H 4 0X510c
H 1 0X51fc
H 9 0X52c4
H 2 0X535a
H 3 0X540e
H 6 0X54ea
H T 0X55c6
B E 0X56ac
B 8 0X577e
B O 0X581e
B 7 0X590e
B 5 0X59b8
B 1 0X5a8a
B 4 0X5b70
B 2 0X5c42
B 9 0X5d1e
B 6 0X5dbe
B 3 0X5e90
B T 0X5f58
H E 0X60de
H O 0X61b0
H 8 0X62aa
H 5 0X639a
H 7 0X64a8
H 4 0X6552
H 1 0X6606
H 9 0X66c4
H 2 0X6782
H 3 0X6836
H 6 0X6908
H T 0X69ee
B O 0X6a84
B E 0X6b56
B 8 0X6c78
B 7 0X6d4a
B 5 0X6e08
B 1 0X6ed0
B 4 0X6f98
B 2 0X707e
B 9 0X7132
B 6 0X71d2
B 3 0X72d6
B T 0X736c
H E 0X7524
H O 0X7614
H 7 0X76dc
H 8 0X77c2
H 1 0X788a
H 5 0X795c
H 2 0X7a6a
H 4 0X7b1e
H 6 0X7bd2
H 9 0X7c90
H 3 0X7d4e
H T 0X7dda
B E 0X7eca
B 7 0X7fb0
B O 0X8064
B 1 0X8140
B 8 0X8226
B 2 0X8302
B 5 0X838e
B 6 0X8488
B 4 0X855a
B 3 0X8640
B 9 0X8708
B T 0X87a8
H 7 0X894c
H E 0X8a0a
H O 0X8af0
H 8 0X8bea
H 1 0X8cbc
H 5 0X8d5c
H 2 0X8e4c
H 4 0X8f28
H 6 0X8faa
H 9 0X90a4
H 3 0X9158
H T 0X9220
B 7 0X9310
B O 0X93d8
B E 0X94be
B 1 0X9586
B 8 0X966c
B 2 0X9734
B 5 0X97d4
B 6 0X98ba
B 4 0X998c
B 3 0X9a68
B 9 0X9b1c
B T 0X9be4
H O 0X9d88
H 7 0X9e64
H E 0X9f18
H 8 0Xa030
H 1 0Xa0ee
H 5 0Xa198
H 2 0Xa29c
H 4 0Xa364
H 6 0Xa3e6
H 9 0Xa4e0
H 3 0Xa59e
H T 0Xa670
B O 0Xa742
B E 0Xa828
B 7 0Xa8f0
B 1 0Xa9a4
B 8 0Xaabc
B 2 0Xab66
B 5 0Xabfc
B 6 0Xad00
B 4 0Xadb4
B 3 0Xaea4
B 9 0Xaf6c
B T 0Xb034
H E 0Xb1e2
H O 0Xb2c8
H 1 0Xb372
H 7 0Xb49e
H 2 0Xb548
H 8 0Xb606
H 6 0Xb6c4
H 5 0Xb7a0
H 3 0Xb84a
H 4 0Xb91c
H 9 0Xb9c6
H T 0Xbab6
B O 0Xbba6
B E 0Xbc82
B 1 0Xbd18
B 2 0Xbdfe
B 7 0Xbf02
B 6 0Xbfac
B 8 0Xc056
B 3 0Xc132
B 5 0Xc1dc
B 9 0Xc308
B 4 0Xc3b2
B T 0Xc470
H O 0Xc600
H 1 0Xc6dc
H E 0Xc77c
H 7 0Xc8b2
H 2 0Xc98e
H 8 0Xca2e
H 6 0Xcaec
H 5 0Xcbd2
H 3 0Xcc9a
H 4 0Xcd4e
H 9 0Xce2a
H T 0Xced4
B 1 0Xcf9c
B O 0Xd032
B E 0Xd10e
B 2 0Xd244
B 7 0Xd320
B 6 0Xd3de
B 8 0Xd49c
B 3 0Xd58c
B 5 0Xd618
B 9 0Xd71c
B 4 0Xd816
B T 0Xd8ac
H 1 0Xda50
H E 0Xdad2
H O 0Xdb9a
H 7 0Xdca8
H 2 0Xdda2
H 8 0Xde88
H 6 0Xdf28
H 5 0Xe018
H 3 0Xe0cc
H 4 0Xe194
H 9 0Xe252
H T 0Xe31a
B E 0Xe3ec
B 1 0Xe4c8
B O 0Xe590
B 2 0Xe68a
B 7 0Xe766
B 6 0Xe810
B 8 0Xe8d8
B 3 0Xe9b4
B 5 0Xea68
B 9 0Xeb1c
B 4 0Xec16
B T 0Xecde
H 1 0Xeebe
H E 0Xef90
H 2 0Xf03a
H O 0Xf0f8
H 6 0Xf1d4
H 7 0Xf2e2
H 3 0Xf364
H 8 0Xf422
H 9 0Xf4e0
H 5 0Xf5da
H 4 0Xf6a2
H T 0Xf74c
B 1 0Xf846
B 2 0Xf940
B E 0Xf9cc
B 6 0Xfad0
B O 0Xfb52
B 3 0Xfc2e
B 7 0Xfd3c
B 9 0Xfdc8
B 8 0Xfeae
B 4 0Xff80
B 5 0X000c
B T 0X00de
H 2 0X0318
H 1 0X03ea
H E 0X044e
H O 0X0566
H 6 0X0610
H 7 0X0700
H 3 0X07aa
H 8 0X087c
H 9 0X0912
H 5 0X09ee
H 4 0X0aa2
H T 0X0b9c
B 2 0X0c96
B E 0X0d4a
B 1 0X0e26
B 6 0X0ee4
B O 0X0fa2
B 3 0X1060
B 7 0X1150
B 9 0X122c
B 8 0X131c
B 4 0X13d0
B 5 0X1470
B T 0X154c
H E 0X1718
H 2 0X17fe
H 1 0X18da
H O 0X19ac
H 6 0X1a4c
H 7 0X1b3c
H 3 0X1bdc
H 8 0X1cc2
H 9 0X1d58
H 5 0X1e2a
H 4 0X1f38
H T 0X200a
B E 0X2122
B 1 0X21a4
B 2 0X2276
B 6 0X2334
B O 0X23e8
B 3 0X24e2
B 7 0X25c8
B 9 0X265e
B 8 0X274e
B 4 0X2802
B 5 0X28c0
B T 0X29b0
H 1 0X2b7c
H E 0X2c4e
H 6 0X2d16
H 2 0X2dfc
H 3 0X2eba
H O 0X2f8c
H 9 0X3040
H 7 0X3108
H 4 0X31e4
H 8 0X328e
H 5 0X3342
H T 0X3446
B E 0X3540
B 1 0X35e0
B 6 0X369e
B 3 0X3784
B 2 0X3856
B 9 0X3928
B O 0X3a04
B 4 0X3aae
B 7 0X3b8a
B 5 0X3c5c
B 8 0X3d42
B T 0X3e0a
H E 0X3fe0
H 6 0X408a
H 1 0X4166
H 2 0X4260
H 3 0X42e2
H O 0X43c8
H 9 0X445e
H 7 0X4558
H 4 0X462a
H 8 0X46fc
H 5 0X47c4
H T 0X48aa
B 6 0X497c
B E 0X4a58
B 1 0X4ae4
B 3 0X4bca
B 2 0X4c9c
B 9 0X4d8c
B O 0X4e4a
B 4 0X4f1c
B 7 0X4fee
B 5 0X50ac
B 8 0X51a6
B T 0X5278
H 6 0X53f4
H 1 0X54ee
H E 0X5598
H 2 0X56ba
H 3 0X5764
H O 0X5804
H 9 0X58c2
H 7 0X59c6
H 4 0X5ab6
H 8 0X5b7e
H 5 0X5c1e
H T 0X5ce6
B 1 0X5db8
B 6 0X5e62
B E 0X5f34
B 3 0X5fe8
B 2 0X60f6
B 9 0X61c8
B O 0X627c
B 4 0X6380
B 7 0X643e
B 5 0X651a
B 8 0X65f6
B T 0X66be
H 6 0X684e
H 1 0X6948
H 3 0X69e8
H E 0X6a9c
H 9 0X6b82
H 2 0X6c54
H 4 0X6d30
H O 0X6dbc
H 5 0X6ed4
H 7 0X6fd8
H 8 0X708c
H T 0X715e
B 6 0X71fe
B 3 0X72d0
B 1 0X7398
B 9 0X7456
B E 0X7514
B 4 0X75dc
B 2 0X76b8
B 5 0X7794
B O 0X7820
B 8 0X794c
B 7 0X7a46
B T 0X7b18
H 3 0X7c9e
H 6 0X7d48
H 1 0X7e56
H E 0X7f0a
H 9 0X7fe6
H 2 0X80cc
H 4 0X8158
H O 0X8202
H 5 0X82d4
H 7 0X840a
H 8 0X8496
H T 0X8568
B 3 0X864e
B 1 0X8720
B 6 0X87ca
B 9 0X88a6
B E 0X8982
B 4 0X8a5e
B 2 0X8b30
B 5 0X8bda
B O 0X8c7a
B 8 0X8d7e
B 7 0X8e5a
B T 0X8f22
H 1 0X90e4
H 3 0X91ac
H 6 0X924c
H E 0X9364
H 9 0X9418
H 2 0X94ea
H 4 0X95b2
H O 0X965c
H 5 0X972e
H 7 0X983c
H 8 0X98fa
H T 0X9990
B 1 0X9a76
B 6 0X9b0c
B 3 0X9c1a
B 9 0X9d00
B E 0X9dbe
B 4 0X9e90
B 2 0X9f62
B 5 0Xa034
B O 0Xa0e8
B 8 0Xa1c4
B 7 0Xa2a0
B T 0Xa35e
H 6 0Xa4d0
H 1 0Xa5fc
H 9 0Xa6ec
H 3 0Xa78c
H 4 0Xa872
H E 0Xa93a
H 5 0Xaa02
H 2 0Xab10
H 8 0Xabce
H O 0Xacaa
H 7 0Xad54
H T 0Xadf4
B 1 0Xaea8
B 6 0Xaf66
B 9 0Xb038
B 4 0Xb178
B 3 0Xb236
B 5 0Xb2f4
B E 0Xb3b2
B 8 0Xb4b6
B 2 0Xb556
B 7 0Xb61e
B O 0Xb70e
B T 0Xb7e0
H 1 0Xb98e
H 9 0Xba1a
H 6 0Xbae2
H 3 0Xbbdc
H 4 0Xbcb8
H E 0Xbd80
H 5 0Xbe3e
H 2 0Xbf4c
H 8 0Xc014
H O 0Xc0e6
H 7 0Xc1ae
H T 0Xc262
B 9 0Xc32a
B 1 0Xc3f2
B 6 0Xc492
B 4 0Xc5a0
B 3 0Xc69a
B 5 0Xc74e
B E 0Xc7f8
B 8 0Xc8e8
B 2 0Xc992
B 7 0Xca78
B O 0Xcb4a
B T 0Xcc30
H 9 0Xcdde
H 6 0Xceba
H 1 0Xcf8c
H 3 0Xd040
H 4 0Xd112
H E 0Xd1bc
H 5 0Xd298
H 2 0Xd3c4
H 8 0Xd46e
H O 0Xd536
H 7 0Xd608
H T 0Xd6a8
B 6 0Xd7ac
B 9 0Xd87e
B 1 0Xd946
B 4 0Xda0e
B 3 0Xdacc
B 5 0Xdb8a
B E 0Xdc52
B 8 0Xdd56
B 2 0Xde0a
B 7 0Xdefa
B O 0Xdfb8
B T 0Xe076
H 9 0Xe24c
H 6 0Xe300
H 4 0Xe404
H 1 0Xe4e0
H 5 0Xe580
H 3 0Xe65c
H 8 0Xe724
H E 0Xe7e2
H 2 0Xe8f0
H O 0Xe986
H 7 0Xea4e
H T 0Xeb16
B 9 0Xec24
B 4 0Xecd8
B 6 0Xed82
B 5 0Xee9a
B 1 0Xef62
B 8 0Xf048
B 3 0Xf0d4
B 2 0Xf1c4
B E 0Xf23c
B 7 0Xf336
B O 0Xf3fe
B T 0Xf4ee
H 4 0Xf6c4
H 9 0Xf782
H 6 0Xf84a
H 1 0Xf93a
H 5 0Xf9c6
H 3 0Xfaa2
H 8 0Xfb7e
H E 0Xfc28
H 2 0Xfcfa
H O 0Xfdc2
H 7 0Xfea8
H T 0Xff52
B 4 0X0038
B 6 0X0128
B 9 0X020e
B 5 0X02f4
B 1 0X039e
B 8 0X0498
B 3 0X054c
B 2 0X05ce
B E 0X068c
B 7 0X0772
B O 0X0844
B T 0X092a
H 6 0X0af6
H 4 0X0bd2
H 9 0X0c9a
H 1 0X0d8a
H 5 0X0e3e
H 3 0X0f10
H 8 0X0fec
H E 0X108c
H 2 0X114a
H O 0X1212
H 7 0X12d0
H T 0X13ac
B 6 0X1488
B 9 0X15a0
B 4 0X1636
B 5 0X171c
B 1 0X17f8
B 8 0X18e8
B 3 0X19c4
B 2 0X1a6e
B E 0X1ad2
B 7 0X1bd6
B O 0X1c94
B T 0X1d7a
H 9 0X1f64
H 6 0X2036
H 5 0X20f4
H 4 0X21da
H 8 0X22b6
H 1 0X2310
H 2 0X245a
H 3 0X2518
H 7 0X25fe
H E 0X266c
H O 0X278e
H T 0X282e
B 6 0X28e2
B 9 0X29d2
B 5 0X2a86
B 8 0X2b6c
B 4 0X2c48
B 2 0X2d2e
B 1 0X2e0a
B 7 0X2ebe
B 3 0X2f90
B O 0X3062
B E 0X30f8
B T 0X31fc
H 6 0X3378
H 5 0X345e
H 9 0X353a
H 4 0X360c
H 8 0X36ca
H 1 0X37ce
H 2 0X38c8
H 3 0X395e
H 7 0X3a58
H E 0X3ada
H O 0X3bca
H T 0X3c74
B 5 0X3d64
B 6 0X3dfa
B 9 0X3f12
B 8 0X3fda
B 4 0X40a2
B 2 0X417e
B 1 0X4264
B 7 0X432c
B 3 0X43e0
B O 0X4480
B E 0X4566
B T 0X4642
H 5 0X480e
H 9 0X48b8
H 6 0X498a
H 4 0X4a98
H 8 0X4b56
H 1 0X4c1e
H 2 0X4cd2
H 3 0X4d9a
H 7 0X4ea8
H E 0X4f2a
H O 0X5010
H T 0X50b0
B 9 0X516e
B 5 0X527c
B 6 0X5362
B 8 0X5420
B 4 0X5524
B 2 0X55c4
B 1 0X5696
B 7 0X575e
B 3 0X5844
B O 0X58bc
B E 0X5998
B T 0X5a6a
H 5 0X5c54
H 9 0X5d1c
H 8 0X5e2a
H 6 0X5eca
H 2 0X5fce
H 4 0X60aa
H 7 0X617c
H 1 0X621c
H O 0X62b2
H 3 0X6384
H E 0X641a
H T 0X64f6
B 5 0X660e
B 8 0X66fe
B 9 0X67e4
B 2 0X6898
B 6 0X6942
B 7 0X6a3c
B 4 0X6b04
B O 0X6ba4
B 1 0X6c80
B E 0X6d20
B 3 0X6e24
B T 0X6ec4
H 8 0X70a4
H 5 0X71a8
H 9 0X72a2
H 6 0X732e
H 2 0X741e
H 4 0X74c8
H 7 0X75c2
H 1 0X768a
H O 0X770c
H 3 0X77e8
H E 0X7888
H T 0X795a
B 8 0X7a5e
B 9 0X7b4e
B 5 0X7c16
B 2 0X7d1a
B 6 0X7dc4
B 7 0X7eaa
B 4 0X7f86
B O 0X8008
B 1 0X80d0
B E 0X817a
B 3 0X8274
B T 0X8328
H 9 0X853a
H 8 0X860c
H 5 0X86ca
H 6 0X8774
H 2 0X8878
H 4 0X8954
H 7 0X8a12
H 1 0X8a94
H O 0X8b84
H 3 0X8c56
H E 0X8cb0
H T 0X8da0
B 9 0X8ec2
B 5 0X8fbc
B 8 0X9084
B 2 0X916a
B 6 0X9232
B 7 0X9304
B 4 0X93cc
B O 0X948a
B 1 0X9548
B E 0X95b6
B 3 0X96c4
B T 0X97b4
H 5 0X996c
H 9 0X9a66
H 2 0X9b2e
H 8 0X9bec
H 7 0X9cdc
H 6 0X9dc2
H O 0X9e62
H 4 0X9eee
H 1 0X9ff2
H 3 0Xa09c
H E 0Xa16e
H T 0Xa1c8
B 9 0Xa330
B 5 0Xa420
B 2 0Xa4fc
B 7 0Xa5c4
B 8 0Xa664
B O 0Xa740
B 6 0Xa81c
B 1 0Xa8da
B 4 0Xa9ac
B E 0Xaa74
B 3 0Xab5a
B T 0Xabbe
H 9 0Xadbc
H 2 0Xaeac
H 5 0Xaf60
H 8 0Xb032
H 7 0Xb10e
H 6 0Xb1d6
H O 0Xb2a8
H 4 0Xb366
H 1 0Xb442
H 3 0Xb528
H E 0Xb5b4
H T 0Xb668
B 2 0Xb794
B 9 0Xb848
B 5 0Xb906
B 7 0Xba00
B 8 0Xbaaa
B O 0Xbb68
B 6 0Xbc1c
B 1 0Xbcee
B 4 0Xbe10
B E 0Xbeba
B 3 0Xbfbe
B T 0Xc04a
H 2 0Xc202
H 5 0Xc2b6
H 9 0Xc3ba
H 8 0Xc45a
H 7 0Xc54a
H 6 0Xc61c
H O 0Xc6e4
H 4 0Xc7ac
H 1 0Xc874
H 3 0Xc95a
H E 0Xc9fa
H T 0Xcaea
B 5 0Xcbc6
B 2 0Xccac
B 9 0Xcd6a
B 7 0Xce28
B 8 0Xceaa
B O 0Xcf9a
B 6 0Xd076
B 1 0Xd15c
B 4 0Xd238
B E 0Xd31e
B 3 0Xd3b4
B T 0Xd486
H 2 0Xd65c
H 5 0Xd72e
H 7 0Xd850
H 9 0Xd8d2
H O 0Xd9cc
H 8 0Xda44
H 1 0Xdb2a
H 6 0Xdbc0
H E 0Xdcb0
H 4 0Xddbe
H 3 0Xde90
H T 0Xdf08
B 2 0Xe016
B 7 0Xe0fc
B 5 0Xe1d8
B O 0Xe296
B 9 0Xe37c
B 1 0Xe426
B 8 0Xe4bc
B E 0Xe5b6
B 6 0Xe6b0
B 3 0Xe78c
B 4 0Xe84a
B T 0Xe8c2
H 7 0Xeafc
H 2 0Xebce
H 5 0Xec5a
H 9 0Xed22
H O 0Xee12
H 8 0Xeec6
H 1 0Xef98
H 6 0Xf06a
H E 0Xf114
H 4 0Xf1f0
H 3 0Xf2ae
H T 0Xf38a
B 7 0Xf498
B 5 0Xf57e
B 2 0Xf66e
B O 0Xf6f0
B 9 0Xf7c2
B 1 0Xf876
B 8 0Xf948
B E 0Xfa1a
B 6 0Xfaf6
B 3 0Xfbdc
B 4 0Xfc72
B T 0Xfd26
H 5 0Xff38
H 7 0X0032
H 2 0X010e
H 9 0X0190
H O 0X026c
H 8 0X035c
H 1 0X041a
H 6 0X0488
H E 0X0582
H 4 0X0668
H 3 0X071c
H T 0X07ee
B 5 0X08b6
B 2 0X09ba
B 7 0X0a96
B O 0X0b54
B 9 0X0c1c
B 1 0X0cf8
B 8 0X0dde
B E 0X0e9c
B 6 0X0f3c
B 3 0X1040
B 4 0X10f4
B T 0X11b2
H 2 0X13a6
H 5 0X1450
H O 0X1540
H 7 0X15f4
H 1 0X16c6
H 9 0X1766
H E 0X1842
H 8 0X1932
H 3 0X1a0e
H 6 0X1a9a
H 4 0X1b94
H T 0X1c34
B 5 0X1d4c
B 2 0X1e3c
B O 0X1ec8
B 1 0X1f7c
B 7 0X206c
B E 0X212a
B 9 0X2210
B 3 0X2300
B 8 0X23d2
B 4 0X2472
B 6 0X2544
B T 0X25f8
H 5 0X27ce
H O 0X28aa
H 2 0X2986
H 7 0X2a58
H 1 0X2b20
H 9 0X2bde
H E 0X2c9c
H 8 0X2d82
H 3 0X2e54
H 6 0X2ee0
H 4 0X2fee
H T 0X30ac
B O 0X31e2
B 5 0X325a
B 2 0X3340
B 1 0X3426
B 7 0X34e4
B E 0X3584
B 9 0X3674
B 3 0X375a
B 8 0X382c
B 4 0X38d6
B 6 0X3980
B T 0X3a52
H O 0X3c5a
H 2 0X3d2c
H 5 0X3db8
H 7 0X3eda
H 1 0X3fac
H 9 0X402e
H E 0X4114
H 8 0X41fa
H 3 0X42b8
H 6 0X433a
H 4 0X4470
H T 0X4506
B 2 0X463c
B O 0X468c
B 5 0X4754
B 1 0X486c
B 7 0X4966
B E 0X4a2e
B 9 0X4ad8
B 3 0X4bb4
B 8 0X4ca4
B 4 0X4d4e
B 6 0X4e16
B T 0X4ed4
H O 0X5096
H 2 0X5186
H 1 0X5262
H 5 0X5302
H E 0X53c0
H 7 0X54b0
H 3 0X558c
H 9 0X5640
H 4 0X5712
H 8 0X5820
H 6 0X58e8
H T 0X59a6
B O 0X5a78
B 1 0X5b22
B 2 0X5bfe
B E 0X5cb2
B 5 0X5d66
B 3 0X5e7e
B 7 0X5f46
B 4 0X5fe6
B 9 0X60d6
B 6 0X61b2
B 8 0X625c
B T 0X636a
H 1 0X6536
H O 0X65a4
H 2 0X66b2
H 5 0X6766
H E 0X67fc
H 7 0X6900
H 3 0X69be
H 9 0X6ab8
H 4 0X6b80
H 8 0X6c7a
H 6 0X6d06
H T 0X6e0a
B 1 0X6ed2
B 2 0X6fa4
B O 0X7030
B E 0X712a
B 5 0X71e8
B 3 0X72d8
B 7 0X73a0
B 4 0X7454
B 9 0X7530
B 6 0X75e4
B 8 0X76c0
B T 0X77a6
H 2 0X7990
H 1 0X7a80
H O 0X7aee
H 5 0X7bde
H E 0X7c6a
H 7 0X7d82
H 3 0X7e54
H 9 0X7ee0
H 4 0X7fe4
H 8 0X80de
H 6 0X817e
H T 0X8250
B 2 0X8340
B O 0X8408
B 1 0X84bc
B E 0X858e
B 5 0X8638
B 3 0X8750
B 7 0X880e
B 4 0X88ae
B 9 0X89b2
B 6 0X8a48
B 8 0X8b42
B T 0X8c28
H O 0X8e12
H 2 0X8ed0
H E 0X8f84
H 1 0X9056
H 3 0X9128
H 5 0X91e6
H 4 0X92d6
H 7 0X93a8
H 6 0X9452
H 9 0X94fc
H 8 0X9614
H T 0X96f0
B 2 0X97cc
B O 0X9862
B E 0X9948
B 3 0X9a24
B 1 0X9af6
B 4 0X9b8c
B 5 0X9c4a
B 6 0X9d30
B 7 0X9e0c
B 8 0X9ede
B 9 0X9fa6
B T 0Xa06e
H 2 0Xa276
H E 0Xa334
H O 0Xa41a
H 1 0Xa4e2
H 3 0Xa5aa
H 5 0Xa668
H 4 0Xa74e
H 7 0Xa7f8
H 6 0Xa884
H 9 0Xa960
H 8 0Xaa46
H T 0Xab2c
B E 0Xac3a
B 2 0Xad02
B O 0Xadca
B 3 0Xae9c
B 1 0Xaf5a
B 4 0Xb00e
B 5 0Xb0cc
B 6 0Xb1b2
B 7 0Xb284
B 8 0Xb338
B 9 0Xb414
B T 0Xb4d2
H E 0Xb694
H O 0Xb7a2
H 2 0Xb87e
H 1 0Xb950
H 3 0Xba22
H 5 0Xbab8
H 4 0Xbba8
H 7 0Xbc52
H 6 0Xbcfc
H 9 0Xbdd8
H 8 0Xbeb4
H T 0Xbf86
B O 0Xc06c
B E 0Xc134
B 2 0Xc224
B 3 0Xc2f6
B 1 0Xc3c8
B 4 0Xc468
B 5 0Xc530
B 6 0Xc602
B 7 0Xc6f2
B 8 0Xc79c
B 9 0Xc88c
B T 0Xc940
H E 0Xcb02
H O 0Xcbf2
H 3 0Xcc88
H 2 0Xcd82
H 4 0Xce54
H 1 0Xcf30
H 6 0Xcfc6
H 5 0Xd0b6
H 8 0Xd188
H 7 0Xd25a
H 9 0Xd30e
H T 0Xd3f4
B E 0Xd4e4
B 3 0Xd598
B O 0Xd638
B 4 0Xd700
B 2 0Xd804
B 6 0Xd8a4
B 1 0Xd980
B 8 0Xda84
B 5 0Xdb38
B 9 0Xdc14
B 7 0Xdcd2
B T 0Xdda4
H 3 0Xdf66
H E 0Xe04c
H O 0Xe11e
H 2 0Xe222
H 4 0Xe2b8
H 1 0Xe394
H 6 0Xe420
H 5 0Xe506
H 8 0Xe5b0
H 7 0Xe68c
H 9 0Xe718
H T 0Xe83a
B 3 0Xe916
B O 0Xe9ca
B E 0Xeac4
B 4 0Xeb8c
B 2 0Xec86
B 6 0Xed12
B 1 0Xede4
B 8 0Xeed4
B 5 0Xef6a
B 9 0Xf05a
B 7 0Xf12c
B T 0Xf1f4
H O 0Xf3e8
H 3 0Xf47e
H E 0Xf564
H 2 0Xf67c
H 4 0Xf6cc
H 1 0Xf7f8
H 6 0Xf8a2
H 5 0Xf992
H 8 0Xfa5a
H 7 0Xfb04
H 9 0Xfb9a
H T 0Xfc9e
B O 0Xfd84
B E 0Xfe7e
B 3 0Xff28
B 4 0Xffb4
B 2 0X00a4
B 6 0X016c
B 1 0X025c
B 8 0X032e
B 5 0X03ec
B 9 0X04be
B 7 0X05a4
B T 0X0662
H E 0X084c
H O 0X093c
H 4 0X09a0
H 3 0X0aa4
H 6 0X0b58
H 2 0X0c5c
H 8 0X0d1a
H 1 0X0df6
H 9 0X0ea0
H 5 0X0f72
H 7 0X1076
H T 0X1120
B O 0X11d4
B E 0X12d8
B 4 0X13b4
B 6 0X1454
B 3 0X156c
B 8 0X162a
B 2 0X16fc
B 9 0X17b0
B 1 0X1882
B 7 0X1954
B 5 0X1a12
B T 0X1af8
H O 0X1c7e
H 4 0X1d46
H 6 0X1de6
H E 0X1e18
H 3 0X1f1c
H 2 0X20fc
H 8 0X21c4
H 1 0X228c
H 9 0X2318
H 5 0X2408
H 7 0X24da
H T 0X25ac
B 4 0X2660
B O 0X26ce
B E 0X27b4
B 6 0X289a
B 3 0X2976
B 8 0X2a98
B 2 0X2b74
B 9 0X2c3c
B 1 0X2cf0
B 7 0X2dc2
B 5 0X2ea8
B T 0X2f84
H 4 0X310a
H E 0X31aa
H O 0X329a
H 3 0X334e
H 6 0X3420
H 2 0X354c
H 8 0X360a
H 1 0X36d2
H 9 0X377c
H 5 0X3862
H 7 0X392a
H T 0X3a24
B E 0X3b00
B 4 0X3c04
B O 0X3c4a
B 6 0X3d4e
B 3 0X3e34
B 8 0X3ef2
B 2 0X3fb0
B 9 0X40b4
B 1 0X4154
B 7 0X4226
B 5 0X42e4
B T 0X43d4
H 4 0X4596
H E 0X4622
H 6 0X473a
H O 0X4802
H 8 0X48e8
H 3 0X49ce
H 9 0X4a50
H 2 0X4b5e
H 7 0X4c30
H 1 0X4cc6
H 5 0X4d84
H T 0X4e6a
B 4 0X4f1e
B 6 0X4ffa
B E 0X50a4
B 8 0X51d0
B O 0X527a
B 9 0X5388
B 3 0X545a
B 7 0X5522
B 2 0X55cc
B 5 0X569e
B 1 0X5770
B T 0X5824
H 6 0X59be
H 4 0X5ac2
H E 0X5b26
H O 0X5c5c
H 8 0X5d2e
H 3 0X5e0a
H 9 0X5ebe
H 2 0X5fe0
H 7 0X609e
H 1 0X6166
H 5 0X6238
H T 0X62d8
B 6 0X6382
B E 0X6436
B 4 0X6508
B 8 0X663e
B O 0X66e8
B 9 0X679c
B 3 0X6896
B 7 0X6968
B 2 0X6a1c
B 5 0X6b02
B 1 0X6bca
B T 0X6c9c
H E 0X6e40
H 6 0X6ef4
H 4 0X6fb2
H O 0X70ac
H 8 0X719c
H 3 0X7278
H 9 0X7318
H 2 0X7430
H 7 0X74d0
H 1 0X758e
H 5 0X7660
H T 0X7732
B E 0X7818
B 4 0X78ea
B 6 0X7980
B 8 0X7a7a
B O 0X7b38
B 9 0X7c32
B 3 0X7cfa
B 7 0X7dcc
B 2 0X7e80
B 5 0X7f48
B 1 0X8024
B T 0X80d8
H 4 0X82a4
H E 0X8362
H 8 0X845c
H 6 0X851a
H 9 0X85e2
H O 0X86be
H 7 0X87a4
H 3 0X886c
H 5 0X893e
H 2 0X8a10
H 1 0X8aec
H T 0X8b82
B E 0X8c68
B 4 0X8d3a
B 8 0X8e0c
B 9 0X8ef2
B 6 0X8f92
B 7 0X9078
B O 0X9136
B 5 0X9230
B 3 0X92ee
B 1 0X937a
B 2 0X9492
B T 0X951e
H E 0X96d6
H 8 0X97f8
H 4 0X98ca
H 6 0X9960
H 9 0X9a1e
H O 0X9b22
H 7 0X9bea
H 3 0X9cb2
H 5 0X9d5c
H 2 0X9e38
H 1 0X9f14
H T 0X9fdc
B 8 0Xa0d6
B E 0Xa16c
B 4 0Xa25c
B 9 0Xa338
B 6 0Xa39c
B 7 0Xa4c8
B O 0Xa590
B 5 0Xa630
B 3 0Xa716
B 1 0Xa7b6
B 2 0Xa8c4
B T 0Xa964
H 8 0Xab76
H 4 0Xac2a
H E 0Xacca
H 6 0Xad88
H 9 0Xae46
H O 0Xaf68
H 7 0Xb03a
H 3 0Xb10c
H 5 0Xb1ca
H 2 0Xb29c
H 1 0Xb36e
H T 0Xb404
B 4 0Xb4d6
B 8 0Xb5ee
B E 0Xb684
B 9 0Xb742
B 6 0Xb7f6
B 7 0Xb904
B O 0Xb9d6
B 5 0Xba6c
B 3 0Xbb98
B 1 0Xbc42
B 2 0Xbcd8
B T 0Xbdb4
H 8 0Xbfa8
H 4 0Xc08e
H 9 0Xc142
H E 0Xc200
H 7 0Xc2fa
H 6 0Xc3a4
H 5 0Xc462
H O 0Xc55c
H 1 0Xc624
H 3 0Xc70a
H 2 0Xc7b4
H T 0Xc868
B 8 0Xc94e
B 9 0Xca3e
B 4 0Xcb06
B 7 0Xcbc4
B E 0Xcc8c
B 5 0Xcd22
B 6 0Xce08
B 1 0Xcee4
B O 0Xcf84
B 2 0Xd09c
B 3 0Xd15a
B T 0Xd218
H 9 0Xd3f8
H 8 0Xd4de
H 4 0Xd5a6
H E 0Xd664
H 7 0Xd768
H 6 0Xd7d6
H 5 0Xd8c6
H O 0Xd97a
H 1 0Xda42
H 3 0Xdb0a
H 2 0Xdc04
H T 0Xdcae
B 9 0Xdd6c
B 4 0Xde84
B 8 0Xdf2e
B 7 0Xe00a
B E 0Xe0dc
B 5 0Xe1a4
B 6 0Xe294
B 1 0Xe352
B O 0Xe3d4
B 2 0Xe50a
B 3 0Xe5aa
B T 0Xe654
H 4 0Xe82a
H 9 0Xe8e8
H 8 0Xe9ce
H E 0Xeac8
H 7 0Xeba4
H 6 0Xec58
H 5 0Xed20
H O 0Xedd4
H 1 0Xee9c
H 3 0Xef8c
H 2 0Xf054
H T 0Xf108
B 4 0Xf1e4
B 8 0Xf2ac
B 9 0Xf39c
B 7 0Xf478
B E 0Xf518
B 5 0Xf608
B 6 0Xf70c
B 1 0Xf7d4
B O 0Xf81a
B 2 0Xf932
B 3 0Xf9fa
B T 0Xfacc
H 8 0Xfc8e
H 4 0Xfd7e
H 7 0Xfe6e
H 9 0Xfedc
H 5 0Xffea
H E 0X009e
H 1 0X017a
H 6 0X0238
H 2 0X033c
H O 0X03c8
H 3 0X0486
H T 0X056c
B 4 0X062a
B 8 0X0724
B 7 0X07ec
B 5 0X08d2
B 9 0X099a
B 1 0X0a80
B E 0X0ae4
B 2 0X0c10
B 6 0X0c9c
B 3 0X0db4
B O 0X0e2c
B T 0X0f44
H 4 0X10ca
H 7 0X11c4
H 8 0X126e
H 9 0X1336
H 5 0X1430
H E 0X1516
H 1 0X15d4
H 6 0X1674
H 2 0X1782
H O 0X1822
H 3 0X18d6
H T 0X19c6
B 7 0X1a84
B 4 0X1b60
B 8 0X1c32
B 5 0X1d18
B 9 0X1dc2
B 1 0X1ec6
B E 0X1f52
B 2 0X2060
B 6 0X20f6
B 3 0X222c
B O 0X229a
B T 0X2380
H 7 0X2574
H 8 0X2632
H 4 0X2718
H 9 0X2786
H 5 0X2858
H E 0X2934
H 1 0X2a10
H 6 0X2ac4
H 2 0X2bd2
H O 0X2c72
H 3 0X2d30
H T 0X2e02
B 8 0X2f06
B 7 0X3000
B 4 0X30a0
B 5 0X3168
B 9 0X3258
B 1 0X3302
B E 0X3384
B 2 0X3492
B 6 0X3564
B 3 0X367c
B O 0X36cc
B T 0X37b2
H 7 0X39b0
H 8 0X3a96
H 5 0X3b40
H 4 0X3c44
H 1 0X3d34
H 9 0X3dca
H 2 0X3e92
H E 0X3f1e
H 6 0X405e
H O 0X40d6
H 3 0X418a
H T 0X4270
B 7 0X436a
B 5 0X443c
B 8 0X450e
B 1 0X45d6
B 4 0X46b2
B 2 0X478e
B 9 0X4856
B 6 0X490a
B E 0X49a0
B 3 0X4a9a
B O 0X4b44
B T 0X4c34
H 5 0X4e1e
H 7 0X4f18
H 8 0X4fcc
H 4 0X50a8
H 1 0X5170
H 9 0X5224
H 2 0X5300
H E 0X538c
H 6 0X5486
H O 0X5530
H 3 0X55da
H T 0X56d4
B 5 0X57ce
B 8 0X58aa
B 7 0X5986
B 1 0X5a3a
B 4 0X5b16
B 2 0X5c06
B 9 0X5cc4
B 6 0X5d78
B E 0X5dfa
B 3 0X5f12
B O 0X5f94
B T 0X6084
H 8 0X6282
H 5 0X637c
H 7 0X646c
H 4 0X6502
H 1 0X65fc
H 9 0X6688
H 2 0X6764
H E 0X6818
H 6 0X68e0
H O 0X69a8
H 3 0X6a66
H T 0X6b2e
B 8 0X6c46
B 7 0X6d40
B 5 0X6e12
B 1 0X6ec6
B 4 0X6f70
B 2 0X7074
B 9 0X7128
B 6 0X71c8
B E 0X729a
B 3 0X73a8
B O 0X743e
B T 0X7510
H 7 0X7704
H 8 0X77f4
H 1 0X78c6
H 5 0X7970
H 2 0X7a56
H 4 0X7b46
H 6 0X7bf0
H 9 0X7ca4
H 3 0X7d80
H E 0X7e34
H O 0X7f1a
H T 0X7f92
B 8 0X80c8
B 7 0X8190
B 1 0X8258
B 2 0X8348
B 5 0X83e8
B 6 0X84d8
B 4 0X85be
B 3 0X86a4
B 9 0X8744
B O 0X8820
B E 0X88e8
B T 0X899c
H 8 0X8b72
H 1 0X8c44
H 7 0X8d52
H 5 0X8e10
H 2 0X8ef6
H 4 0X8f8c
H 6 0X9022
H 9 0X9108
H 3 0X91e4
H E 0X92a2
H O 0X937e
H T 0X9432
B 1 0X9518
B 8 0X9612
B 7 0X96ee
B 2 0X97c0
B 5 0X984c
B 6 0X993c
B 4 0X9a04
B 3 0X9aea
B 9 0X9ba8
B O 0X9c66
B E 0X9d24
B T 0X9e00
H 1 0X9fc2
H 7 0Xa0bc
H 8 0Xa198
H 5 0Xa24c
H 2 0Xa332
H 4 0Xa40e
H 6 0Xa486
H 9 0Xa576
H 3 0Xa65c
H E 0Xa6fc
H O 0Xa7f6
H T 0Xa8c8
B 7 0Xa986
B 1 0Xaa62
B 8 0Xab70
B 2 0Xac38
B 5 0Xaca6
B 6 0Xada0
B 4 0Xae4a
B 3 0Xaf58
B 9 0Xb02a
B O 0Xb0e8
B E 0Xb1ba
B T 0Xb2a0
H 1 0Xb46c
H 7 0Xb548
H 2 0Xb610
H 8 0Xb6d8
H 6 0Xb7aa
H 5 0Xb868
H 3 0Xb93a
H 4 0Xb9da
H O 0Xbaac
H 9 0Xbb38
H E 0Xbc32
H T 0Xbd36
B 1 0Xbdea
B 2 0Xbee4
B 7 0Xbfb6
B 6 0Xc07e
B 8 0Xc146
B 3 0Xc204
B 5 0Xc2f4
B O 0Xc380
B 4 0Xc470
B E 0Xc524
B 9 0Xc5e2
B T 0Xc6c8
H 2 0Xc8d0
H 1 0Xc9ac
H 7 0Xca92
H 8 0Xcb28
H 6 0Xcc04
H 5 0Xccd6
H 3 0Xcd80
H 4 0Xce7a
H O 0Xcf06
H 9 0Xcfc4
H E 0Xd08c
H T 0Xd15e
B 2 0Xd2bc
B 7 0Xd38e
B 1 0Xd42e
B 6 0Xd4ec
B 8 0Xd5b4
B 3 0Xd67c
B 5 0Xd758
B O 0Xd7da
B 4 0Xd8fc
B E 0Xd960
B 9 0Xda96
B T 0Xdb40
H 7 0Xdd7a
H 2 0Xde42
H 1 0Xdf0a
H 8 0Xdfd2
H 6 0Xe05e
H 5 0Xe144
H 3 0Xe20c
H 4 0Xe2ca
H O 0Xe37e
H 9 0Xe450
H E 0Xe4f0
H T 0Xe5d6
B 7 0Xe70c
B 1 0Xe7c0
B 2 0Xe8b0
B 6 0Xe95a
B 8 0Xea54
B 3 0Xeb30
B 5 0Xebd0
B O 0Xec5c
B 4 0Xed6a
B E 0Xedd8
B 9 0Xef18
B T 0Xefd6
H 1 0Xf1b6
H 7 0Xf2d8
H 6 0Xf378
H 2 0Xf454
H 3 0Xf4ea
H 8 0Xf5bc
H O 0Xf6ac
H 5 0Xf756
H 4 0Xf80a
H E 0Xf8f0
H 9 0Xf9cc
H T 0Xfa8a
B 7 0Xfb84
B 1 0Xfc2e
B 6 0Xfcb0
B 3 0Xfdb4
B 2 0Xfe86
B O 0Xff4e
B 8 0X0048
B 4 0X00f2
B 5 0X01c4
B 9 0X02be
B E 0X0386
B T 0X046c
H 7 0X0660
H 6 0X06f6
H 1 0X07dc
H 2 0X0872
H 3 0X094e
H 8 0X0a16
H O 0X0afc
H 5 0X0b92
H 4 0X0c78
H E 0X0d54
H 9 0X0e08
H T 0X0ee4
B 6 0X0fac
B 7 0X10b0
B 1 0X1146
B 3 0X1218
B 2 0X12ea
B O 0X1394
B 8 0X1498
B 4 0X1574
B 5 0X163c
B 9 0X170e
B E 0X17e0
B T 0X189e
H 6 0X1a38
H 1 0X1b28
H 7 0X1c2c
H 2 0X1cfe
H 3 0X1d9e
H 8 0X1e8e
H O 0X1f56
H 5 0X201e
H 4 0X210e
H E 0X21b8
H 9 0X2262
H T 0X2348
B 1 0X23fc
B 6 0X2492
B 7 0X25aa
B 3 0X269a
B 2 0X274e
B O 0X27f8
B 8 0X28e8
B 4 0X2a00
B 5 0X2aaa
B 9 0X2b68
B E 0X2c3a
B T 0X2d16
H 6 0X2ec4
H 1 0X2f96
H 3 0X3068
H 7 0X3144
H O 0X3216
H 2 0X32de
H 4 0X3392
H 8 0X345a
H 9 0X3540
H 5 0X3630
H E 0X36a8
H T 0X3784
B 6 0X384c
B 3 0X3950
B 1 0X3a04
B O 0X3acc
B 7 0X3bc6
B 4 0X3c5c
B 2 0X3d42
B 9 0X3e3c
B 8 0X3f04
B E 0X3fa4
B 5 0X40bc
B T 0X418e
H 3 0X4346
H 6 0X43c8
H 1 0X44cc
H 7 0X45b2
H O 0X4670
H 2 0X4724
H 4 0X4800
H 8 0X48d2
H 9 0X497c
H 5 0X4a94
H E 0X4b0c
H T 0X4bf2
B 3 0X4cc4
B 1 0X4da0
B 6 0X4e68
B O 0X4f3a
B 7 0X5020
B 4 0X50de
B 2 0X519c
B 9 0X5296
B 8 0X5372
B E 0X5430
B 5 0X5516
B T 0X55b6
H 1 0X5796
H 3 0X5854
H 6 0X591c
H 7 0X5a2a
H O 0X5af2
H 2 0X5b60
H 4 0X5c46
H 8 0X5d22
H 9 0X5e08
H 5 0X5eee
H E 0X5fa2
H T 0X6060
B 1 0X611e
B 6 0X61aa
B 3 0X62e0
B O 0X639e
B 7 0X6498
B 4 0X654c
B 2 0X661e
B 9 0X66f0
B 8 0X67e0
B E 0X689e
B 5 0X698e
B T 0X6a2e
H 6 0X6baa
H 1 0X6cae
H O 0X6d76
H 3 0X6e3e
H 4 0X6f06
H 7 0X700a
H 9 0X70c8
H 2 0X71ae
H 8 0X7294
H E 0X7334
H 5 0X7424
H T 0X74f6
B 1 0X758c
B 6 0X762c
B O 0X7708
B 4 0X77f8
B 3 0X78de
B 9 0X79b0
B 7 0X7a96
B 8 0X7b9a
B 2 0X7c3a
B 5 0X7ce4
B E 0X7db6
B T 0X7eb0
H 1 0X8072
H O 0X80f4
H 6 0X81bc
H 3 0X82ac
H 4 0X8374
H 7 0X8482
H 9 0X8518
H 2 0X85fe
H 8 0X86da
H E 0X87b6
H 5 0X887e
H T 0X8928
B O 0X8a22
B 1 0X8aea
B 6 0X8b76
B 4 0X8c84
B 3 0X8d7e
B 9 0X8df6
B 7 0X8ee6
B 8 0X8fe0
B 2 0X9076
B 5 0X917a
B E 0X9224
B T 0X9300
H O 0X94e0
H 6 0X9594
H 1 0X9698
H 3 0X9760
H 4 0X981e
H 7 0X9918
H 9 0X999a
H 2 0X9a94
H 8 0X9b66
H E 0X9bf2
H 5 0X9ce2
H T 0X9daa
B 6 0X9e9a
B O 0X9f30
B 1 0Xa016
B 4 0Xa0f2
B 3 0Xa1e2
B 9 0Xa2b4
B 7 0Xa39a
B 8 0Xa462
B 2 0Xa4f8
B 5 0Xa5de
B E 0Xa674
B T 0Xa778
H O 0Xa944
H 6 0Xa9f8
H 4 0Xab06
H 1 0Xabce
H 9 0Xacc8
H 3 0Xad4a
H 8 0Xae1c
H 7 0Xaf16
H 5 0Xafb6
H 2 0Xb0c4
H E 0Xb100
H T 0Xb20e
B O 0Xb2fe
B 4 0Xb3b2
B 6 0Xb498
B 9 0Xb588
B 1 0Xb646
B 8 0Xb718
B 3 0Xb7e0
B 5 0Xb8a8
B 7 0Xb9b6
B E 0Xba2e
B 2 0Xbb0a
B T 0Xbbdc
H 4 0Xbdd0
H O 0Xbe5c
H 6 0Xbf4c
H 1 0Xc03c
H 9 0Xc0fa
H 3 0Xc1ae
H 8 0Xc276
H 7 0Xc35c
H 5 0Xc424
H 2 0Xc500
H E 0Xc564
H T 0Xc65e
B 4 0Xc730
B 6 0Xc816
B O 0Xc8ca
B 9 0Xc9ec
B 1 0Xca78
B 8 0Xcb72
B 3 0Xcc4e
B 5 0Xcd16
B 7 0Xcdf2
B E 0Xce7e
B 2 0Xcf64
B T 0Xd036
H 6 0Xd1f8
H 4 0Xd2fc
H O 0Xd392
H 1 0Xd46e
H 9 0Xd54a
H 3 0Xd5f4
H 8 0Xd6da
H 7 0Xd7ac
H 5 0Xd888
H 2 0Xd96e
H E 0Xd9c8
H T 0Xdac2
B 6 0Xdbb2
B O 0Xdc66
B 4 0Xdd60
B 9 0Xde32
B 1 0Xdef0
B 8 0Xdfcc
B 3 0Xe0bc
B 5 0Xe170
B 7 0Xe242
B E 0Xe2ce
B 2 0Xe3c8
B T 0Xe49a
H O 0Xe648
H 6 0Xe71a
H 9 0Xe7f6
H 4 0Xe8e6
H 8 0Xe9a4
H 1 0Xea80
H 5 0Xeb34
H 3 0Xec1a
H E 0Xecc4
H 7 0Xedd2
H 2 0Xeeae
H T 0Xef1c
B 6 0Xefd0
B O 0Xf07a
B 9 0Xf1b0
B 8 0Xf2a0
B 4 0Xf34a
B 5 0Xf444
B 1 0Xf50c
B E 0Xf5ac
B 3 0Xf6a6
B 2 0Xf75a
B 7 0Xf854
B T 0Xf8ea
H 6 0Xfaca
H 9 0Xfb7e
H O 0Xfc82
H 4 0Xfd2c
H 8 0Xfe12
H 1 0Xfec6
H 5 0Xff98
H 3 0X007e
H E 0X010a
H 7 0X020e
H 2 0X02d6
H T 0X039e
B 9 0X0498
B 6 0X0542
B O 0X061e
B 8 0X0704
B 4 0X07c2
B 5 0X088a
B 1 0X0952
B E 0X0a1a
B 3 0X0b0a
B 2 0X0bc8
B 7 0X0c86
B T 0X0d76
H 9 0X0f2e
H O 0X1000
H 6 0X10be
H 4 0X11cc
H 8 0X128a
H 1 0X135c
H 5 0X1410
H 3 0X14d8
H E 0X153c
H 7 0X1640
H 2 0X1730
H T 0X1816
B O 0X18d4
B 9 0X199c
B 6 0X1aa0
B 8 0X1b86
B 4 0X1c08
B 5 0X1cee
B 1 0X1dca
B E 0X1e74
B 3 0X1f5a
B 2 0X200e
B 7 0X20fe
B T 0X21c6
H 9 0X23a6
H O 0X2478
H 8 0X2536
H 6 0X261c
H 5 0X26e4
H 4 0X27ca
H E 0X284c
H 1 0X293c
H 2 0X2a36
H 3 0X2ae0
H 7 0X2bda
H T 0X2c5c
B 9 0X2d60
B 8 0X2e46
B O 0X2ee6
B 5 0X2ff4
B 6 0X30a8
B E 0X3134
B 4 0X3206
B 2 0X32ec
B 1 0X33b4
B 7 0X34a4
B 3 0X358a
B T 0X3620
H 8 0X37e2
H 9 0X38be
H O 0X39b8
H 6 0X3a6c
H 5 0X3b70
H 4 0X3c06
H E 0X3c88
H 1 0X3d6e
H 2 0X3e5e
H 3 0X3f3a
H 7 0X402a
H T 0X40ca
B 8 0X41b0
B O 0X4278
B 9 0X4368
B 5 0X4430
B 6 0X4516
B E 0X4598
B 4 0X4660
B 2 0X4750
B 1 0X482c
B 7 0X48fe
B 3 0X49e4
B T 0X4a70
H O 0X4c64
H 8 0X4d5e
H 9 0X4dea
H 6 0X4ec6
H 5 0X4fc0
H 4 0X5074
H E 0X50f6
H 1 0X51d2
H 2 0X52ea
H 3 0X53a8
H 7 0X547a
H T 0X5542
B O 0X55f6
B 9 0X56d2
B 8 0X57ea
B 5 0X58b2
B 6 0X59ac
B E 0X5a06
B 4 0X5aba
B 2 0X5baa
B 1 0X5c72
B 7 0X5d58
B 3 0X5e3e
B T 0X5f06
H 9 0X60b4
H O 0X6190
H 5 0X6276
H 8 0X633e
H E 0X63f2
H 6 0X64ec
H 2 0X65c8
H 4 0X667c
H 7 0X6780
H 1 0X67f8
H 3 0X68c0
H T 0X69c4
B O 0X6a82
B 9 0X6b68
B 5 0X6c3a
B E 0X6d0c
B 8 0X6dd4
B 2 0X6ec4
B 6 0X6f3c
B 7 0X7072
B 4 0X711c
B 3 0X720c
B 1 0X72b6
B T 0X7388
H O 0X7522
H 5 0X763a
H 9 0X76ee
H 8 0X77b6
H E 0X7856
H 6 0X7946
H 2 0X7a2c
H 4 0X7afe
H 7 0X7bda
H 1 0X7c70
H 3 0X7d56
H T 0X7e3c
B 5 0X7f22
B O 0X7fae
B 9 0X808a
B E 0X815c
B 8 0X8256
B 2 0X8328
B 6 0X83e6
B 7 0X84ae
B 4 0X8576
B 3 0X8684
B 1 0X8710
B T 0X87d8
H 5 0X899a
H 9 0X8a58
H O 0X8b2a
H 8 0X8c1a
H E 0X8cce
H 6 0X8dc8
H 2 0X8e90
H 4 0X8f8a
H 7 0X9048
H 1 0X911a
H 3 0X91ba
H T 0X926e
B 9 0X9372
B 5 0X9430
B O 0X94f8
B E 0X95fc
B 8 0X96f6
B 2 0X97be
B 6 0X985e
B 7 0X9944
B 4 0X99ee
B 3 0X9af2
B 1 0X9b6a
B T 0X9c32
H 5 0X9e12
H 9 0X9f02
H E 0X9fc0
H O 0Xa0b0
H 2 0Xa18c
H 8 0Xa27c
H 7 0Xa344
H 6 0Xa40c
H 3 0Xa4b6
H 4 0Xa54c
H 1 0Xa646
H T 0Xa6f0
B 5 0Xa7d6
B E 0Xa8b2
B 9 0Xa984
B 2 0Xaa7e
B O 0Xab0a
B 7 0Xabfa
B 8 0Xacfe
B 3 0Xadb2
B 6 0Xae2a
B 1 0Xaf1a
B 4 0Xafec
B T 0Xb0b4
H E 0Xb28a
H 5 0Xb38e
H 9 0Xb42e
H O 0Xb514
H 2 0Xb5fa
H 8 0Xb6ea
H 7 0Xb79e
H 6 0Xb834
H 3 0Xb92e
H 4 0Xb9ba
H 1 0Xbab4
H T 0Xbb5e
B E 0Xbc4e
B 9 0Xbd34
B 5 0Xbdfc
B 2 0Xbeec
B O 0Xbf50
B 7 0Xc040
B 8 0Xc14e
B 3 0Xc22a
B 6 0Xc2ac
B 1 0Xc39c
B 4 0Xc46e
B T 0Xc518
H 9 0Xc702
H E 0Xc7c0
H 5 0Xc89c
H O 0Xc96e
H 2 0Xca4a
H 8 0Xcb30
H 7 0Xcc0c
H 6 0Xcc84
H 3 0Xcd9c
H 4 0Xce5a
H 1 0Xcf2c
H T 0Xcfc2
B 9 0Xd0a8
B 5 0Xd1b6
B E 0Xd288
B 2 0Xd36e
B O 0Xd3f0
B 7 0Xd4ea
B 8 0Xd5b2
B 3 0Xd684
B 6 0Xd72e
B 1 0Xd81e
B 4 0Xd8d2
B T 0Xd99a
H 5 0Xdb70
H 9 0Xdc42
H 2 0Xdd00
H E 0Xdddc
H 7 0Xdecc
H O 0Xdf8a
H 3 0Xe03e
H 8 0Xe106
H 1 0Xe1f6
H 6 0Xe278
H 4 0Xe368
H T 0Xe44e
B 9 0Xe548
B 5 0Xe64c
B 2 0Xe700
B 7 0Xe7be
B E 0Xe872
B 3 0Xe944
B O 0Xe9e4
B 1 0Xead4
B 8 0Xebba
B 4 0Xec32
B 6 0Xecfa
B T 0Xee08
H 9 0Xefb6
H 2 0Xf0b0
H 5 0Xf1a0
H E 0Xf25e
H 7 0Xf33a
H O 0Xf402
H 3 0Xf470
H 8 0Xf59c
H 1 0Xf65a
H 6 0Xf6b4
H 4 0Xf786
H T 0Xf88a
B 2 0Xf984
B 9 0Xfa6a
B 5 0Xfb46
B 7 0Xfc22
B E 0Xfccc
B 3 0Xfda8
B O 0Xfe5c
B 1 0Xff2e
B 8 0X0032
B 4 0X00be
B 6 0X0172
B T 0X0258
H 2 0X042e
H 5 0X0500
H 9 0X05c8
H E 0X0686
H 7 0X0776
H O 0X0848
H 3 0X08fc
H 8 0X0a0a
H 1 0X0ac8
H 6 0X0b36
H 4 0X0c08
H T 0X0d2a
B 5 0X0df2
B 2 0X0ece
B 9 0X0fa0
B 7 0X107c
B E 0X10fe
B 3 0X1202
B O 0X128e
B 1 0X137e
B 8 0X148c
B 4 0X14e6
B 6 0X15fe
B T 0X16da
H 2 0X187e
H 5 0X196e
H 7 0X1a7c
H 9 0X1b26
H 3 0X1bf8
H E 0X1c84
H 1 0X1d2e
H O 0X1e00
H 4 0X1ee6
H 8 0X1fae
H 6 0X209e
H T 0X2184
B 2 0X224c
B 7 0X235a
B 5 0X240e
B 3 0X24e0
B 9 0X2594
B 1 0X2648
B E 0X26f2
B 4 0X27d8
B O 0X2882
B 6 0X2986
B 8 0X2a62
B T 0X2b3e
H 7 0X2d1e
H 2 0X2e0e
H 5 0X2eae
H 9 0X2f8a
H 3 0X305c
H E 0X30d4
H 1 0X31b0
H O 0X326e
H 4 0X335e
H 8 0X344e
H 6 0X34da
H T 0X35de
B 7 0X36d8
B 5 0X37aa
B 2 0X3890
B 3 0X3944
B 9 0X3a34
B 1 0X3ab6
B E 0X3b38
B 4 0X3c14
B O 0X3ce6
B 6 0X3dea
B 8 0X3ec6
B T 0X3f98
H 5 0X4178
H 7 0X4272
H 2 0X433a
H 9 0X43da
H 3 0X44a2
H E 0X456a
H 1 0X4628
H O 0X46f0
H 4 0X47ae
H 8 0X489e
H 6 0X4952
H T 0X4a4c
B 5 0X4b46
B 2 0X4c36
B 7 0X4ce0
B 3 0X4da8
B 9 0X4e52
B 1 0X4f1a
B E 0X4fba
B 4 0X50a0
B O 0X5168
B 6 0X524e
B 8 0X5316
B T 0X5406
H 2 0X55fa
H 5 0X5690
H 3 0X576c
H 7 0X585c
H 1 0X58fc
H 9 0X59d8
H 4 0X5a82
H E 0X5b18
H 6 0X5c08
H O 0X5cd0
H 8 0X5dc0
H T 0X5e9c
B 5 0X5f96
B 2 0X6068
B 3 0X613a
B 1 0X61f8
B 7 0X62c0
B 4 0X6388
B 9 0X6450
B 6 0X6504
B E 0X65a4
B 8 0X66a8
B O 0X6766
B T 0X6856
H 5 0X6a22
H 3 0X6b12
H 2 0X6bc6
H 7 0X6cac
H 1 0X6d60
H 9 0X6e32
H 4 0X6efa
H E 0X6fb8
H 6 0X706c
H O 0X7148
H 8 0X7210
H T 0X72ec
B 3 0X73be
B 5 0X74cc
B 2 0X7576
B 1 0X7648
B 7 0X772e
B 4 0X77ec
B 9 0X78aa
B 6 0X7954
B E 0X79f4
B 8 0X7b16
B O 0X7bca
B T 0X7cba
H 3 0X7e54
H 2 0X7f08
H 5 0X7fd0
H 7 0X80e8
H 1 0X81a6
H 9 0X828c
H 4 0X8340
H E 0X8408
H 6 0X84c6
H O 0X8584
H 8 0X8660
H T 0X8750
B 2 0X8822
B 3 0X88e0
B 5 0X89bc
B 1 0X8a8e
B 7 0X8b56
B 4 0X8c1e
B 9 0X8cdc
B 6 0X8d86
B E 0X8e58
B 8 0X8f5c
B O 0X901a
B T 0X9100
H 3 0X92ae
H 2 0X9394
H 1 0X945c
H 5 0X9506
H 4 0X9614
H 7 0X96be
H 6 0X977c
H 9 0X9826
H 8 0X993e
H E 0X99f2
H O 0X9b0a
H T 0X9baa
B 3 0X9c4a
B 1 0X9cfe
B 2 0X9de4
B 4 0X9e8e
B 5 0X9f74
B 6 0Xa05a
B 7 0Xa136
B 8 0Xa1fe
B 9 0Xa2da
B O 0Xa3a2
B E 0Xa474
B T 0Xa53c
H 1 0Xa6f4
H 3 0Xa7d0
H 2 0Xa88e
H 5 0Xa94c
H 4 0Xaa32
H 7 0Xaafa
H 6 0Xabb8
H 9 0Xac8a
H 8 0Xad7a
H E 0Xae4c
H O 0Xaf3c
H T 0Xafe6
B 1 0Xb090
B 2 0Xb176
B 3 0Xb22a
B 4 0Xb2de
B 5 0Xb3b0
B 6 0Xb48c
B 7 0Xb57c
B 8 0Xb644
B 9 0Xb6e4
B O 0Xb7c0
B E 0Xb8b0
B T 0Xb978
H 1 0Xbb58
H 2 0Xbc20
H 3 0Xbcca
H 4 0Xbd88
H 5 0Xbe46
H 6 0Xbf18
H 7 0Xbfea
H 8 0Xc0bc
H 9 0Xc134
H O 0Xc256
H E 0Xc328
H T 0Xc3e6
B 1 0Xc4a4
B 2 0Xc576
B 3 0Xc648
B 4 0Xc710
B 5 0Xc7ec
B 6 0Xc8be
B 7 0Xc9ae
B 8 0Xca6c
B 9 0Xcb0c
B O 0Xcbde
B E 0Xccec
B T 0Xcd8c
H 1 0Xcf4e
H 2 0Xd034
H 3 0Xd0de
H 4 0Xd17e
H 5 0Xd246
H 6 0Xd322
H 7 0Xd3fe
H 8 0Xd4ee
H 9 0Xd5ca
H O 0Xd6ce
H E 0Xd7a0
H T 0Xd836
B 1 0Xd8d6
B 2 0Xd9bc
B 3 0Xda8e
B 4 0Xdb42
B 5 0Xdc00
B 6 0Xdcdc
B 7 0Xdde0
B 8 0Xdea8
B 9 0Xdf84
B O 0Xe06a
B E 0Xe146
B T 0Xe272
