   *** Text-formatted Bell Statistics
       ------------------------------------------------------------------------------
         Bell Number:       1    2    3    4    5    6    7    8    9    0    E    T  
       ------------------------------------------------------------------------------
         Mean Error: All    23   14    5    7   -1   -2   17  -12  -12    7  -20  -26 
                      Hs    25    8    0    6  -10   -6   21  -11  -18    1  -37  -33 
                      Bs    20   21   11    8    8    2   14  -14   -5   13   -3  -19 
        
         Std  Error: All    32   30   26   37   27   27   33   25   27   30   38   27 
                      Hs    34   29   24   38   27   28   31   26   27   29   36   29 
                      Bs    29   30   27   36   25   26   35   24   26   30   33   22 
        
         Rms  Error: All    39   33   27   37   27   27   38   28   30   30   43   37 
                      Hs    42   30   24   38   28   28   37   28   32   29   51   44 
                      Bs    35   36   29   37   26   26   38   27   27   32   33   29 
       ------------------------------------------------------------------------------
