#. Lowndes: Version 2
#. SourceFilename: W:\Recordings\Guildford\Guildford.20220610-2045.s12t12.3.wav
#. Tower: Guildford Cathedral
#. RingingName: Touch 3
#. RingingDateTime: 20220610-2045
#. Rungon: 
#. Tenor: 12
#. NumBellsRinging: 12
#. Creator: HawkEar Team Edition V1 for Guildford Cathedral
#. CreatorVersion: 1.1.0.3
#. TranscribedFor: Guildford band
#. TranscriptionDateTime: 20220622-1614
#. FirstBlowMs: 38570
#. Touchdb: -19.1061
#. TraindB: -9.73, -8.5, -6.1, -3.11, -3.16, -3.1, -3.98, -4.12, -5.95, -5.43, -4.92, -3
#. TrainedOn: 20220102-1438
#. TrainDataRecordedOn: 20210813-1741
#. TrainParams: -ft:y -ws:0.05 -hs:0.01 -co:0.9 -sw:40 -ts:
#. GainParams: -fh:6000 -fl:200
#. OnsetParams: -mb:80 -mf:10 -ng:0.3 -oo:0
#. WriteParams: -hb:y
#. AnalParams: -au:y -xp:n -sg:n -hsg:-1
#. ExpString: 
#. Association: 
#. Calling: 
#. Compositionname: 
#. Method: 
#. Footnotes: 
#. Ringers: 
#. Stage: 
H 1 0X96aa
H 2 0X979a
H 3 0X9880
H 4 0X9966
H 5 0X9a42
H 6 0X9aec
H 7 0X9bf0
H 8 0X9ca4
H 9 0X9d94
H O 0X9e84
H E 0X9f1a
H T 0Xa00a
B 1 0Xa154
B 2 0Xa230
B 3 0Xa2e4
B 4 0Xa398
B 5 0Xa44c
B 6 0Xa532
B 7 0Xa5f0
B 8 0Xa69a
B 9 0Xa794
B O 0Xa898
B E 0Xa96a
B T 0Xaa14
H 1 0Xac3a
H 2 0Xad02
H 3 0Xadc0
H 4 0Xae4c
H 5 0Xaf0a
H 6 0Xafc8
H 7 0Xb0cc
H 8 0Xb16c
H 9 0Xb25c
H O 0Xb32e
H E 0Xb3e2
H T 0Xb4c8
B 1 0Xb5cc
B 2 0Xb694
B 3 0Xb748
B 4 0Xb806
B 5 0Xb8b0
B 6 0Xb98c
B 7 0Xba54
B 8 0Xbb1c
B 9 0Xbc02
B O 0Xbcb6
B E 0Xbdb0
B T 0Xbe82
H 1 0Xc076
H 2 0Xc12a
H 3 0Xc1de
H 4 0Xc2b0
H 5 0Xc350
H 6 0Xc404
H 7 0Xc4f4
H 8 0Xc5bc
H 9 0Xc6a2
H O 0Xc742
H E 0Xc7ce
H T 0Xc8f0
B 1 0Xc9cc
B 2 0Xca94
B 3 0Xcb5c
B 4 0Xcc24
B 5 0Xccd8
B 6 0Xcd6e
B 7 0Xce4a
B 8 0Xcf26
B 9 0Xd034
B O 0Xd0fc
B E 0Xd1a6
B T 0Xd26e
H 1 0Xd462
H 2 0Xd4ee
H 3 0Xd598
H 4 0Xd688
H 5 0Xd732
H 6 0Xd7fa
H 7 0Xd8e0
H 8 0Xd9a8
H 9 0Xda70
H O 0Xdb4c
H E 0Xdbf6
H T 0Xdcd2
B 1 0Xddc2
B 2 0Xde94
B 3 0Xdf3e
B 4 0Xdff2
B 5 0Xe09c
B 6 0Xe182
B 7 0Xe254
B 8 0Xe2fe
B 9 0Xe402
B O 0Xe4ca
B E 0Xe59c
B T 0Xe646
H 1 0Xe826
H 2 0Xe8da
H 3 0Xe9a2
H 4 0Xea60
H 5 0Xeb00
H 6 0Xebdc
H 7 0Xecd6
H 8 0Xed76
H 9 0Xee52
H O 0Xef1a
H E 0Xefe2
H T 0Xf0b4
B 1 0Xf190
B 2 0Xf258
B 3 0Xf30c
B 4 0Xf3c0
B 5 0Xf488
B 6 0Xf546
B 7 0Xf636
B 8 0Xf6ea
B 9 0Xf7bc
B O 0Xf88e
B E 0Xf97e
B T 0Xfa32
H 1 0Xfbd6
H 2 0Xfc80
H 3 0Xfd48
H 4 0Xfe38
H 5 0Xfeec
H 6 0Xffb4
H 7 0X00ae
H 8 0X0158
H 9 0X0220
H O 0X02fc
H E 0X03ba
H T 0X0478
B 1 0X054a
B 2 0X061c
B 3 0X06d0
B 4 0X07ac
B 5 0X0856
B 6 0X090a
B 7 0X0a04
B 8 0X0ab8
B 9 0X0bbc
B O 0X0c5c
B E 0X0d2e
B T 0X0df6
H 1 0X0fc2
H 2 0X1044
H 3 0X1102
H 4 0X1210
H 5 0X12ba
H 6 0X136e
H 7 0X149a
H 8 0X153a
H 9 0X15e4
H O 0X16ca
H E 0X1760
H T 0X1846
B 1 0X1922
B 2 0X19b8
B 3 0X1a80
B 4 0X1b48
B 5 0X1c06
B 6 0X1cf6
B 7 0X1dd2
B 8 0X1e72
B 9 0X1f62
B O 0X203e
B E 0X2110
B T 0X21b0
H 1 0X237c
H 2 0X241c
H 3 0X24d0
H 4 0X258e
H 5 0X2660
H 6 0X2746
H 7 0X284a
H 8 0X28e0
H 9 0X2994
H O 0X2a7a
H E 0X2b56
H T 0X2c28
B 1 0X2ce6
B 2 0X2da4
B 3 0X2e62
B 4 0X2ef8
B 5 0X2fca
B 6 0X309c
B 7 0X3196
B 8 0X3240
B 9 0X331c
B O 0X3402
B E 0X3498
B T 0X357e
H 1 0X3768
H 2 0X37ea
H 3 0X38a8
H 4 0X395c
H 5 0X3a38
H 6 0X3ae2
H 7 0X3bf0
H 8 0X3ca4
H 9 0X3d4e
H O 0X3e34
H E 0X3ede
H T 0X3f9c
B 1 0X40c8
B 2 0X4168
B 3 0X4226
B 4 0X42e4
B 5 0X43a2
B 6 0X4460
B 7 0X453c
B 8 0X45f0
B 9 0X46cc
B O 0X478a
B E 0X487a
B T 0X4938
H 1 0X4b18
H 2 0X4bae
H 3 0X4c76
H 4 0X4d3e
H 5 0X4e10
H 6 0X4e92
H 7 0X4fbe
H 8 0X507c
H 9 0X5130
H O 0X51ee
H E 0X52b6
H T 0X5388
B 1 0X543c
B 2 0X54f0
B 3 0X55b8
B 4 0X5694
B 5 0X575c
B 6 0X582e
B 7 0X591e
B 8 0X59aa
B 9 0X5a9a
B O 0X5b8a
B E 0X5c48
B T 0X5d10
H 2 0X5ebe
H 1 0X5fb8
H 3 0X604e
H 5 0X612a
H 4 0X61f2
H 7 0X62d8
H 6 0X6382
H 9 0X642c
H 8 0X64f4
H E 0X65b2
H O 0X668e
H T 0X6760
B 2 0X6828
B 3 0X68dc
B 1 0X69cc
B 4 0X6a94
B 5 0X6b48
B 6 0X6c24
B 7 0X6d0a
B 8 0X6db4
B 9 0X6eae
B O 0X6f4e
B E 0X7016
B T 0X70c0
H 3 0X72aa
H 2 0X735e
H 4 0X743a
H 1 0X7516
H 6 0X75ac
H 5 0X766a
H 8 0X7750
H 7 0X782c
H 9 0X791c
H E 0X79bc
H O 0X7a84
H T 0X7b2e
B 2 0X7c46
B 3 0X7cc8
B 4 0X7d90
B 6 0X7e4e
B 1 0X7f2a
B 8 0X8006
B 5 0X80e2
B 9 0X8196
B 7 0X8268
B O 0X8330
B E 0X83f8
B T 0X84c0
H 2 0X8664
H 4 0X872c
H 3 0X8812
H 1 0X88d0
H 6 0X8966
H 5 0X8a60
H 8 0X8b28
H 7 0X8c18
H 9 0X8c7c
H E 0X8d6c
H O 0X8e3e
H T 0X8efc
B 4 0X9000
B 2 0X90c8
B 3 0X9186
B 6 0X9262
B 1 0X9320
B 8 0X93e8
B 5 0X94c4
B 9 0X9550
B 7 0X9618
B O 0X9708
B E 0X97bc
B T 0X988e
H 4 0X9a5a
H 3 0X9b2c
H 2 0X9bcc
H 1 0X9cc6
H 6 0X9d70
H 5 0X9e56
H 8 0X9f14
H 7 0X9fd2
H 9 0Xa09a
H E 0Xa14e
H O 0Xa202
H T 0Xa2e8
B 3 0Xa40a
B 4 0Xa4f0
B 2 0Xa590
B 6 0Xa662
B 1 0Xa6f8
B 8 0Xa7b6
B 5 0Xa89c
B 9 0Xa946
B 7 0Xaa4a
B O 0Xaafe
B E 0Xabb2
B T 0Xac70
H 4 0Xae6e
H 3 0Xaf36
H 6 0Xaffe
H 2 0Xb0da
H 8 0Xb18e
H 1 0Xb256
H 9 0Xb2f6
H 5 0Xb3b4
H O 0Xb490
H 7 0Xb594
H E 0Xb60c
H T 0Xb6e8
B 4 0Xb7c4
B 6 0Xb882
B 3 0Xb986
B 8 0Xba3a
B 2 0Xbb34
B 9 0Xbbde
B 1 0Xbc9c
B O 0Xbd8c
B 5 0Xbe0e
B E 0Xbeae
B 7 0Xbfa8
B T 0Xc08e
H 6 0Xc25a
H 4 0Xc318
H 3 0Xc3e0
H 2 0Xc4b2
H 8 0Xc58e
H 1 0Xc674
H 9 0Xc6e2
H 5 0Xc7c8
H O 0Xc8a4
H 7 0Xc94e
H E 0Xc9da
H T 0Xcaac
B 6 0Xcbba
B 3 0Xcca0
B 4 0Xcd86
B 8 0Xce3a
B 2 0Xcf0c
B 9 0Xcffc
B 1 0Xd088
B O 0Xd182
B 5 0Xd222
B E 0Xd2a4
B 7 0Xd3bc
B T 0Xd466
H 3 0Xd650
H 6 0Xd6fa
H 4 0Xd7ea
H 2 0Xd8da
H 8 0Xd97a
H 1 0Xda56
H 9 0Xdb00
H 5 0Xdbc8
H O 0Xdca4
H 7 0Xdd62
H E 0Xddf8
H T 0Xdeb6
B 3 0Xdfec
B 4 0Xe0b4
B 6 0Xe14a
B 8 0Xe226
B 2 0Xe30c
B 9 0Xe3de
B 1 0Xe46a
B O 0Xe58c
B 5 0Xe636
B E 0Xe6d6
B 7 0Xe7a8
B T 0Xe870
H 4 0Xea1e
H 3 0Xeafa
H 8 0Xebd6
H 6 0Xecc6
H 9 0Xed52
H 2 0Xee24
H O 0Xef14
H 1 0Xefd2
H 5 0Xf07c
H 7 0Xf162
H E 0Xf1f8
H T 0Xf2c0
B 3 0Xf3e2
B 4 0Xf48c
B 8 0Xf554
B 9 0Xf626
B 6 0Xf70c
B O 0Xf806
B 2 0Xf892
B 5 0Xf964
B 1 0Xfa2c
B E 0Xfae0
B 7 0Xfb94
B T 0Xfc66
H 3 0Xfe46
H 8 0Xff04
H 4 0Xffc2
H 6 0X00b2
H 9 0X0152
H 2 0X024c
H O 0X031e
H 1 0X03e6
H 5 0X047c
H 7 0X056c
H E 0X0602
H T 0X06ca
B 8 0X07ec
B 3 0X08aa
B 4 0X0972
B 9 0X0a12
B 6 0X0b16
B O 0X0bf2
B 2 0X0c88
B 5 0X0d78
B 1 0X0e36
B E 0X0efe
B 7 0X0f94
B T 0X105c
H 8 0X121e
H 4 0X132c
H 3 0X13f4
H 6 0X14bc
H 9 0X1566
H 2 0X1660
H O 0X171e
H 1 0X1804
H 5 0X1872
H 7 0X196c
H E 0X19f8
H T 0X1aca
B 4 0X1bce
B 8 0X1c82
B 3 0X1d90
B 9 0X1e30
B 6 0X1eee
B O 0X2006
B 2 0X2088
B 5 0X2146
B 1 0X224a
B E 0X22d6
B 7 0X23b2
B T 0X247a
H 8 0X263c
H 4 0X270e
H 9 0X27d6
H 3 0X289e
H O 0X298e
H 6 0X2a2e
H 5 0X2b28
H 2 0X2bfa
H E 0X2c68
H 1 0X2d8a
H 7 0X2e34
H T 0X2ee8
B 8 0X2fa6
B 9 0X30b4
B 4 0X317c
B O 0X3276
B 3 0X3334
B 5 0X33fc
B 6 0X34c4
B E 0X3578
B 2 0X3636
B 7 0X3708
B 1 0X380c
B T 0X388e
H 9 0X3a64
H 8 0X3b2c
H 4 0X3bea
H 3 0X3cda
H O 0X3dc0
H 6 0X3e6a
H 5 0X3f3c
H 2 0X4040
H E 0X40b8
H 1 0X41a8
H 7 0X42a2
H T 0X42de
B 9 0X43c4
B 4 0X44b4
B 8 0X4586
B O 0X469e
B 3 0X475c
B 5 0X481a
B 6 0X48f6
B E 0X49aa
B 2 0X4a68
B 7 0X4b58
B 1 0X4c34
B T 0X4cc0
H 4 0X4e78
H 9 0X4f36
H 8 0X4ff4
H 3 0X5102
H O 0X51de
H 6 0X52c4
H 5 0X536e
H 2 0X544a
H E 0X54cc
H 1 0X55bc
H 7 0X56ca
H T 0X574c
B 4 0X5800
B 8 0X58b4
B 9 0X5990
B O 0X5ab2
B 3 0X5b98
B 5 0X5c2e
B 6 0X5d28
B E 0X5dd2
B 2 0X5e7c
B 7 0X5f6c
B 1 0X6066
B T 0X60f2
H 8 0X62e6
H 4 0X6390
H O 0X644e
H 9 0X6516
H 5 0X65fc
H 3 0X66b0
H E 0X676e
H 6 0X685e
H 7 0X6962
H 2 0X69ee
H 1 0X6af2
H T 0X6b60
B 4 0X6c82
B 8 0X6d2c
B O 0X6dfe
B 5 0X6eda
B 9 0X6f8e
B E 0X7056
B 3 0X7150
B 7 0X7218
B 6 0X72c2
B 1 0X73b2
B 2 0X7452
B T 0X7506
H 4 0X76be
H O 0X77cc
H 8 0X7862
H 9 0X793e
H 5 0X7a42
H 3 0X7b1e
H E 0X7b82
H 6 0X7c5e
H 7 0X7d6c
H 2 0X7e20
H 1 0X7efc
H T 0X7f92
B O 0X808c
B 4 0X8172
B 8 0X81ea
B 5 0X82ee
B 9 0X83d4
B E 0X849c
B 3 0X8578
B 7 0X864a
B 6 0X871c
B 1 0X879e
B 2 0X8866
B T 0X8942
H O 0X8afa
H 8 0X8bc2
H 4 0X8c9e
H 9 0X8da2
H 5 0X8e4c
H 3 0X8f1e
H E 0X8fbe
H 6 0X90cc
H 7 0X91b2
H 2 0X9266
H 1 0X932e
H T 0X93ba
B 8 0X94aa
B O 0X9590
B 4 0X964e
B 5 0X972a
B 9 0X97c0
B E 0X98ba
B 3 0X998c
B 7 0X9a86
B 6 0X9b30
B 1 0X9bf8
B 2 0X9cc0
B T 0X9d7e
H O 0X9f4a
H 8 0Xa012
H 5 0Xa0e4
H 4 0Xa1b6
H E 0Xa24c
H 9 0Xa31e
H 7 0Xa454
H 3 0Xa4f4
H 1 0Xa5e4
H 6 0Xa67a
H 2 0Xa738
H T 0Xa800
B O 0Xa918
B 5 0Xa9f4
B 8 0Xaa94
B E 0Xab84
B 4 0Xac56
B 7 0Xad1e
B 9 0Xadbe
B 1 0Xaeae
B 3 0Xaf76
B 2 0Xb02a
B 6 0Xb0e8
B T 0Xb1ba
H 5 0Xb390
H O 0Xb458
H 8 0Xb502
H 4 0Xb62e
H E 0Xb6a6
H 9 0Xb7a0
H 7 0Xb886
H 3 0Xb93a
H 1 0Xb9e4
H 6 0Xbad4
H 2 0Xbb88
H T 0Xbc32
B 5 0Xbd2c
B 8 0Xbdf4
B O 0Xbeda
B E 0Xbfc0
B 4 0Xc092
B 7 0Xc178
B 9 0Xc1f0
B 1 0Xc2b8
B 3 0Xc376
B 2 0Xc45c
B 6 0Xc538
B T 0Xc5f6
H 8 0Xc7b8
H 5 0Xc89e
H O 0Xc952
H 4 0Xca38
H E 0Xcae2
H 9 0Xcbbe
H 7 0Xccb8
H 3 0Xcd58
H 1 0Xce2a
H 6 0Xcf24
H 2 0Xcf88
H T 0Xd06e
B 8 0Xd136
B O 0Xd23a
B 5 0Xd316
B E 0Xd3ca
B 4 0Xd492
B 7 0Xd5be
B 9 0Xd64a
B 1 0Xd708
B 3 0Xd7c6
B 2 0Xd884
B 6 0Xd992
B T 0Xda3c
H O 0Xdc1c
H 8 0Xdcc6
H E 0Xdd98
H 5 0Xde74
H 7 0Xdf64
H 4 0Xe040
H 1 0Xe112
H 9 0Xe1bc
H 2 0Xe28e
H 3 0Xe34c
H 6 0Xe400
H T 0Xe4b4
B 8 0Xe590
B O 0Xe69e
B E 0Xe770
B 7 0Xe842
B 5 0Xe90a
B 1 0Xe9e6
B 4 0Xea9a
B 2 0Xeb8a
B 9 0Xec52
B 6 0Xecc0
B 3 0Xedba
B T 0Xee6e
H 8 0Xf06c
H E 0Xf120
H O 0Xf1e8
H 5 0Xf2c4
H 7 0Xf3be
H 4 0Xf486
H 1 0Xf544
H 9 0Xf5f8
H 2 0Xf6b6
H 3 0Xf76a
H 6 0Xf846
H T 0Xf904
B E 0Xfa08
B 8 0Xfae4
B O 0Xfbc0
B 7 0Xfca6
B 5 0Xfd6e
B 1 0Xfe40
B 4 0Xfef4
B 2 0Xffbc
B 9 0X008e
B 6 0X0142
B 3 0X0200
B T 0X02be
H E 0X0444
H O 0X055c
H 8 0X062e
H 5 0X070a
H 7 0X0836
H 4 0X08c2
H 1 0X0980
H 9 0X0a48
H 2 0X0af2
H 3 0X0bba
H 6 0X0ca0
H T 0X0d5e
B O 0X0e44
B E 0X0f02
B 8 0X0fb6
B 7 0X10f6
B 5 0X11a0
B 1 0X1272
B 4 0X1344
B 2 0X1420
B 9 0X14ca
B 6 0X157e
B 3 0X161e
B T 0X16fa
H E 0X18bc
H O 0X19ac
H 7 0X1a9c
H 8 0X1b3c
H 1 0X1c68
H 5 0X1cea
H 2 0X1de4
H 4 0X1ede
H 6 0X1f56
H 9 0X201e
H 3 0X20aa
H T 0X219a
B E 0X22bc
B 7 0X2398
B O 0X2456
B 1 0X2532
B 8 0X25e6
B 2 0X26c2
B 5 0X2758
B 6 0X285c
B 4 0X292e
B 3 0X29d8
B 9 0X2aa0
B T 0X2b54
H 7 0X2d66
H E 0X2e06
H O 0X2ee2
H 8 0X2faa
H 1 0X309a
H 5 0X3130
H 2 0X3216
H 4 0X3324
H 6 0X33ce
H 9 0X3464
H 3 0X3540
H T 0X35ea
B 7 0X36f8
B O 0X384c
B E 0X38e2
B 1 0X3982
B 8 0X3a5e
B 2 0X3b12
B 5 0X3ba8
B 6 0X3ca2
B 4 0X3d88
B 3 0X3e78
B 9 0X3ee6
B T 0X3fb8
H O 0X41e8
H 7 0X429c
H E 0X431e
H 8 0X4440
H 1 0X44fe
H 5 0X459e
H 2 0X4670
H 4 0X4774
H 6 0X4814
H 9 0X48dc
H 3 0X497c
H T 0X4a76
B O 0X4b48
B E 0X4c42
B 7 0X4d28
B 1 0X4dbe
B 8 0X4e9a
B 2 0X4f62
B 5 0X5020
B 6 0X50f2
B 4 0X51ce
B 3 0X5296
B 9 0X5336
B T 0X541c
H E 0X55d4
H O 0X56c4
H 1 0X57aa
H 7 0X5872
H 2 0X5912
H 8 0X59f8
H 6 0X5ac0
H 5 0X5b88
H 3 0X5c78
H 4 0X5d36
H 9 0X5dc2
H T 0X5e8a
B O 0X5f66
B E 0X6060
B 1 0X6132
B 2 0X6218
B 7 0X62b8
B 6 0X63bc
B 8 0X6470
B 3 0X6556
B 5 0X65f6
B 9 0X66dc
B 4 0X6786
B T 0X684e
H O 0X69fc
H 1 0X6b00
H E 0X6b64
H 7 0X6c86
H 2 0X6d44
H 8 0X6e20
H 6 0X6ef2
H 5 0X6fe2
H 3 0X70b4
H 4 0X719a
H 9 0X7212
H T 0X72e4
B 1 0X73de
B O 0X7492
B E 0X7578
B 2 0X762c
B 7 0X76ea
B 6 0X77d0
B 8 0X788e
B 3 0X7992
B 5 0X7a32
B 9 0X7b18
B 4 0X7bea
B T 0X7ca8
H 1 0X7e74
H E 0X7f00
H O 0X8018
H 7 0X8108
H 2 0X8180
H 8 0X825c
H 6 0X8338
H 5 0X841e
H 3 0X84c8
H 4 0X85cc
H 9 0X8662
H T 0X8716
B E 0X881a
B 1 0X8928
B O 0X89e6
B 2 0X8a68
B 7 0X8b6c
B 6 0X8c34
B 8 0X8cf2
B 3 0X8dba
B 5 0X8e5a
B 9 0X8f5e
B 4 0X9030
B T 0X90da
H 1 0X9300
H E 0X9396
H 2 0X9454
H O 0X9526
H 6 0X9602
H 7 0X9698
H 3 0X977e
H 8 0X9850
H 9 0X990e
H 5 0X99b8
H 4 0X9a8a
H T 0X9b70
B 1 0X9c56
B 2 0X9d46
B E 0X9df0
B 6 0X9efe
B O 0X9f9e
B 3 0Xa052
B 7 0Xa16a
B 9 0Xa200
B 8 0Xa2b4
B 4 0Xa372
B 5 0Xa444
B T 0Xa50c
H 2 0Xa6ec
H 1 0Xa7d2
H E 0Xa85e
H O 0Xa94e
H 6 0Xaa20
H 7 0Xaafc
H 3 0Xabba
H 8 0Xac78
H 9 0Xad40
H 5 0Xae26
H 4 0Xaee4
H T 0Xafa2
B 2 0Xb074
B E 0Xb164
B 1 0Xb240
B 6 0Xb2d6
B O 0Xb3b2
B 3 0Xb4b6
B 7 0Xb588
B 9 0Xb63c
B 8 0Xb6fa
B 4 0Xb7c2
B 5 0Xb880
B T 0Xb952
H E 0Xbb14
H 2 0Xbbdc
H 1 0Xbce0
H O 0Xbda8
H 6 0Xbe52
H 7 0Xbf56
H 3 0Xbff6
H 8 0Xc0b4
H 9 0Xc17c
H 5 0Xc24e
H 4 0Xc334
H T 0Xc3e8
B E 0Xc4ec
B 1 0Xc5d2
B 2 0Xc65e
B 6 0Xc74e
B O 0Xc816
B 3 0Xc92e
B 7 0Xc9c4
B 9 0Xca8c
B 8 0Xcb40
B 4 0Xcc12
B 5 0Xccda
B T 0Xcd84
H 1 0Xcfb4
H E 0Xd040
H 6 0Xd112
H 2 0Xd1e4
H 3 0Xd2ca
H O 0Xd392
H 9 0Xd450
H 7 0Xd50e
H 4 0Xd608
H 8 0Xd6bc
H 5 0Xd75c
H T 0Xd838
B E 0Xd950
B 1 0Xd9fa
B 6 0Xdaa4
B 3 0Xdba8
B 2 0Xdc70
B 9 0Xdd2e
B O 0Xde14
B 4 0Xdeb4
B 7 0Xdf9a
B 5 0Xe04e
B 8 0Xe134
B T 0Xe1fc
H E 0Xe3d2
H 6 0Xe472
H 1 0Xe53a
H 2 0Xe648
H 3 0Xe6e8
H O 0Xe7a6
H 9 0Xe85a
H 7 0Xe968
H 4 0Xea1c
H 8 0Xeada
H 5 0Xebb6
H T 0Xec9c
B 6 0Xed5a
B E 0Xee5e
B 1 0Xeeea
B 3 0Xefbc
B 2 0Xf0c0
B 9 0Xf156
B O 0Xf232
B 4 0Xf2dc
B 7 0Xf3b8
B 5 0Xf49e
B 8 0Xf548
B T 0Xf624
H 6 0Xf796
H 1 0Xf8d6
H E 0Xf96c
H 2 0Xfa7a
H 3 0Xfb2e
H O 0Xfbe2
H 9 0Xfc8c
H 7 0Xfda4
H 4 0Xfe30
H 8 0Xff02
H 5 0Xffb6
H T 0X0088
B 1 0X01be
B 6 0X025e
B E 0X033a
B 3 0X040c
B 2 0X04ca
B 9 0X0592
B O 0X068c
B 4 0X072c
B 7 0X07e0
B 5 0X08b2
B 8 0X0966
B T 0X0a42
H 6 0X0c0e
H 1 0X0cf4
H 3 0X0dc6
H E 0X0e8e
H 9 0X0f56
H 2 0X1028
H 4 0X110e
H O 0X11c2
H 5 0X1276
H 7 0X1384
H 8 0X1438
H T 0X14ec
B 6 0X15aa
B 3 0X16c2
B 1 0X178a
B 9 0X1852
B E 0X192e
B 4 0X1a0a
B 2 0X1aa0
B 5 0X1b68
B O 0X1c30
B 8 0X1d3e
B 7 0X1dde
B T 0X1eb0
H 3 0X2068
H 6 0X2108
H 1 0X2220
H E 0X22b6
H 9 0X23c4
H 2 0X248c
H 4 0X254a
H O 0X25fe
H 5 0X2680
H 7 0X27a2
H 8 0X286a
H T 0X2932
B 3 0X2a22
B 1 0X2b08
B 6 0X2b76
B 9 0X2c84
B E 0X2d60
B 4 0X2e14
B 2 0X2edc
B 5 0X2fa4
B O 0X3080
B 8 0X3148
B 7 0X3210
B T 0X32f6
H 1 0X34e0
H 3 0X3594
H 6 0X362a
H E 0X3710
H 9 0X3814
H 2 0X38be
H 4 0X39ae
H O 0X3a44
H 5 0X3ad0
H 7 0X3bd4
H 8 0X3c92
H T 0X3d5a
B 1 0X3e4a
B 6 0X3efe
B 3 0X400c
B 9 0X40ca
B E 0X419c
B 4 0X4282
B 2 0X432c
B 5 0X4412
B O 0X44da
B 8 0X4584
B 7 0X467e
B T 0X470a
H 6 0X48f4
H 1 0X49da
H 9 0X4a84
H 3 0X4b6a
H 4 0X4c46
H E 0X4cc8
H 5 0X4dc2
H 2 0X4ec6
H 8 0X4f5c
H O 0X502e
H 7 0X50f6
H T 0X51be
B 1 0X5286
B 6 0X5380
B 9 0X5452
B 4 0X5538
B 3 0X5614
B 5 0X56b4
B E 0X575e
B 8 0X584e
B 2 0X5916
B 7 0X59f2
B O 0X5ac4
B T 0X5b82
H 1 0X5d26
H 9 0X5e02
H 6 0X5ea2
H 3 0X5fba
H 4 0X6082
H E 0X6122
H 5 0X61fe
H 2 0X630c
H 8 0X63ac
H O 0X6492
H 7 0X6578
H T 0X6640
B 9 0X66e0
B 1 0X67c6
B 6 0X685c
B 4 0X696a
B 3 0X6a46
B 5 0X6b0e
B E 0X6bb8
B 8 0X6c9e
B 2 0X6d52
B 7 0X6e42
B O 0X6f14
B T 0X6fe6
H 9 0X7194
H 6 0X7252
H 1 0X736a
H 3 0X73f6
H 4 0X74b4
H E 0X7568
H 5 0X7658
H 2 0X7752
H 8 0X7806
H O 0X78ce
H 7 0X79d2
H T 0X7a5e
B 6 0X7b58
B 9 0X7c34
B 1 0X7d06
B 4 0X7df6
B 3 0X7e96
B 5 0X7f54
B E 0X8008
B 8 0X80da
B 2 0X81a2
B 7 0X82a6
B O 0X8378
B T 0X842c
H 9 0X8616
H 6 0X86c0
H 4 0X87a6
H 1 0X8896
H 5 0X8940
H 3 0X8a12
H 8 0X8ad0
H E 0X8b70
H 2 0X8c60
H O 0X8d3c
H 7 0X8e0e
H T 0X8eae
B 9 0X8fb2
B 4 0X9084
B 6 0X912e
B 5 0X9250
B 1 0X9304
B 8 0X93a4
B 3 0X94a8
B 2 0X9552
B E 0X95e8
B 7 0X9750
B O 0X97be
B T 0X9886
H 4 0X9a52
H 9 0X9b1a
H 6 0X9bec
H 1 0X9cdc
H 5 0X9d9a
H 3 0X9e6c
H 8 0X9f2a
H E 0X9ffc
H 2 0Xa07e
H O 0Xa182
H 7 0Xa27c
H T 0Xa326
B 4 0Xa402
B 6 0Xa4fc
B 9 0Xa5c4
B 5 0Xa696
B 1 0Xa740
B 8 0Xa7fe
B 3 0Xa8f8
B 2 0Xa9ac
B E 0Xaa2e
B 7 0Xab3c
B O 0Xac18
B T 0Xace0
H 6 0Xaea2
H 4 0Xaf7e
H 9 0Xb046
H 1 0Xb122
H 5 0Xb1b8
H 3 0Xb294
H 8 0Xb37a
H E 0Xb442
H 2 0Xb500
H O 0Xb5aa
H 7 0Xb6ae
H T 0Xb76c
B 6 0Xb866
B 9 0Xb906
B 4 0Xb9c4
B 5 0Xbab4
B 1 0Xbbae
B 8 0Xbc4e
B 3 0Xbd16
B 2 0Xbdfc
B E 0Xbea6
B 7 0Xbf96
B O 0Xc05e
B T 0Xc112
H 9 0Xc2e8
H 6 0Xc3ba
H 5 0Xc478
H 4 0Xc54a
H 8 0Xc608
H 1 0Xc716
H 2 0Xc7ac
H 3 0Xc860
H 7 0Xc978
H E 0Xc9fa
H O 0Xcafe
H T 0Xcbc6
B 6 0Xcc8e
B 9 0Xcd56
B 5 0Xce46
B 8 0Xcefa
B 4 0Xcf68
B 2 0Xd0b2
B 1 0Xd166
B 7 0Xd238
B 3 0Xd2f6
B O 0Xd3b4
B E 0Xd49a
B T 0Xd576
H 6 0Xd6ca
H 5 0Xd7ce
H 9 0Xd8a0
H 4 0Xd97c
H 8 0Xda26
H 1 0Xdb20
H 2 0Xdbca
H 3 0Xdc88
H 7 0Xddb4
H E 0Xde22
H O 0Xdf30
H T 0Xdfda
B 5 0Xe0c0
B 6 0Xe17e
B 9 0Xe21e
B 8 0Xe304
B 4 0Xe412
B 2 0Xe4b2
B 1 0Xe57a
B 7 0Xe64c
B 3 0Xe728
B O 0Xe7dc
B E 0Xe8a4
B T 0Xe976
H 5 0Xeb10
H 9 0Xebf6
H 6 0Xecbe
H 4 0Xedc2
H 8 0Xee6c
H 1 0Xef3e
H 2 0Xefc0
H 3 0Xf0b0
H 7 0Xf1be
H E 0Xf268
H O 0Xf33a
H T 0Xf416
B 9 0Xf4de
B 5 0Xf5c4
B 6 0Xf68c
B 8 0Xf740
B 4 0Xf84e
B 2 0Xf8e4
B 1 0Xf9a2
B 7 0Xfa7e
B 3 0Xfb1e
B O 0Xfbfa
B E 0Xfccc
B T 0Xfd8a
H 5 0Xff92
H 9 0X0050
H 8 0X0118
H 6 0X01e0
H 2 0X02da
H 4 0X03de
H 7 0X0474
H 1 0X0546
H O 0X05a0
H 3 0X0690
H E 0X071c
H T 0X07f8
B 5 0X0924
B 8 0X09d8
B 9 0X0aaa
B 2 0X0bea
B 6 0X0c4e
B 7 0X0d70
B 4 0X0e2e
B O 0X0eba
B 1 0X0faa
B E 0X100e
B 3 0X111c
B T 0X11bc
H 8 0X13ba
H 5 0X148c
H 9 0X1540
H 6 0X15f4
H 2 0X16ee
H 4 0X1806
H 7 0X18d8
H 1 0X1978
H O 0X1a40
H 3 0X1b12
H E 0X1b4e
H T 0X1c34
B 8 0X1d2e
B 9 0X1e32
B 5 0X1f0e
B 2 0X1ffe
B 6 0X208a
B 7 0X21a2
B 4 0X2242
B O 0X231e
B 1 0X23f0
B E 0X2468
B 3 0X2562
B T 0X260c
H 9 0X27e2
H 8 0X28c8
H 5 0X299a
H 6 0X2a58
H 2 0X2b3e
H 4 0X2c42
H 7 0X2cec
H 1 0X2dd2
H O 0X2e86
H 3 0X2f44
H E 0X2fb2
H T 0X3084
B 9 0X3192
B 5 0X32aa
B 8 0X3336
B 2 0X343a
B 6 0X34c6
B 7 0X35de
B 4 0X3692
B O 0X3778
B 1 0X3854
B E 0X38e0
B 3 0X39bc
B T 0X3a52
H 5 0X3c50
H 9 0X3d36
H 2 0X3dc2
H 8 0X3e94
H 7 0X3f98
H 6 0X4074
H O 0X4132
H 4 0X41dc
H 1 0X42cc
H 3 0X4380
H E 0X43ee
H T 0X44de
B 9 0X45f6
B 5 0X46e6
B 2 0X47b8
B 7 0X4876
B 8 0X490c
B O 0X4a24
B 6 0X4ac4
B 1 0X4bc8
B 4 0X4c5e
B E 0X4d08
B 3 0X4df8
B T 0X4eac
H 9 0X5082
H 2 0X517c
H 5 0X5226
H 8 0X52f8
H 7 0X53ac
H 6 0X5492
H O 0X55a0
H 4 0X5636
H 1 0X5708
H 3 0X5794
H E 0X5816
H T 0X58fc
B 2 0X5a32
B 9 0X5b0e
B 5 0X5be0
B 7 0X5c9e
B 8 0X5d52
B O 0X5e56
B 6 0X5f1e
B 1 0X6004
B 4 0X60c2
B E 0X6112
B 3 0X61ee
B T 0X62c0
H 2 0X64be
H 5 0X657c
H 9 0X664e
H 8 0X675c
H 7 0X6806
H 6 0X68c4
H O 0X698c
H 4 0X6a5e
H 1 0X6b3a
H 3 0X6bb2
H E 0X6c34
H T 0X6d2e
B 5 0X6e64
B 2 0X6f68
B 9 0X7008
B 7 0X70d0
B 8 0X717a
B O 0X727e
B 6 0X7350
B 1 0X7422
B 4 0X74ae
B E 0X7580
B 3 0X763e
B T 0X7706
H 2 0X78f0
H 5 0X797c
H 7 0X7ab2
H 9 0X7b5c
H O 0X7c60
H 8 0X7d1e
H 1 0X7e2c
H 6 0X7eb8
H E 0X7f44
H 4 0X7fee
H 3 0X80ca
H T 0X816a
B 2 0X82aa
B 7 0X835e
B 5 0X8408
B O 0X8502
B 9 0X85e8
B 1 0X86f6
B 8 0X8764
B E 0X8868
B 6 0X8930
B 3 0X89da
B 4 0X8ade
B T 0X8b56
H 7 0X8d36
H 2 0X8e08
H 5 0X8eb2
H 9 0X8f98
H O 0X9042
H 8 0X913c
H 1 0X924a
H 6 0X92f4
H E 0X938a
H 4 0X9466
H 3 0X9538
H T 0X95f6
B 7 0X96dc
B 5 0X97d6
B 2 0X98bc
B O 0X9952
B 9 0X9a1a
B 1 0X9b1e
B 8 0X9ba0
B E 0X9c86
B 6 0X9d80
B 3 0X9e3e
B 4 0X9f1a
B T 0X9f9c
H 5 0Xa17c
H 7 0Xa28a
H 2 0Xa35c
H 9 0Xa3f2
H O 0Xa4ba
H 8 0Xa5b4
H 1 0Xa668
H 6 0Xa73a
H E 0Xa7da
H 4 0Xa87a
H 3 0Xa974
H T 0Xaa32
B 5 0Xab5e
B 2 0Xac6c
B 7 0Xace4
B O 0Xadac
B 9 0Xaea6
B 1 0Xaf5a
B 8 0Xafdc
B E 0Xb0ea
B 6 0Xb1d0
B 3 0Xb270
B 4 0Xb356
B T 0Xb3d8
H 2 0Xb612
H 5 0Xb6a8
H O 0Xb7a2
H 7 0Xb86a
H 1 0Xb96e
H 9 0Xb9d2
H E 0Xba9a
H 8 0Xbb9e
H 3 0Xbc52
H 6 0Xbd1a
H 4 0Xbdd8
H T 0Xbe8c
B 5 0Xbf86
B 2 0Xc08a
B O 0Xc148
B 1 0Xc22e
B 7 0Xc30a
B E 0Xc396
B 9 0Xc486
B 3 0Xc544
B 8 0Xc5e4
B 4 0Xc6c0
B 6 0Xc79c
B T 0Xc878
H 5 0Xca30
H O 0Xcb20
H 2 0Xcbca
H 7 0Xccc4
H 1 0Xcddc
H 9 0Xce40
H E 0Xcf08
H 8 0Xd002
H 3 0Xd0c0
H 6 0Xd192
H 4 0Xd214
H T 0Xd30e
B O 0Xd41c
B 5 0Xd4c6
B 2 0Xd5d4
B 1 0Xd692
B 7 0Xd764
B E 0Xd80e
B 9 0Xd8cc
B 3 0Xd9bc
B 8 0Xda84
B 4 0Xdb24
B 6 0Xdbec
B T 0Xdcdc
H O 0Xde94
H 2 0Xdf84
H 5 0Xe02e
H 7 0Xe132
H 1 0Xe204
H 9 0Xe286
H E 0Xe362
H 8 0Xe466
H 3 0Xe51a
H 6 0Xe5f6
H 4 0Xe6aa
H T 0Xe772
B 2 0Xe88a
B O 0Xe952
B 5 0Xea10
B 1 0Xead8
B 7 0Xeb96
B E 0Xec36
B 9 0Xed1c
B 3 0Xee20
B 8 0Xeeca
B 4 0Xef92
B 6 0Xf082
B T 0Xf136
H O 0Xf30c
H 2 0Xf3de
H 1 0Xf4b0
H 5 0Xf53c
H E 0Xf60e
H 7 0Xf708
H 3 0Xf7e4
H 9 0Xf866
H 4 0Xf956
H 8 0Xfa28
H 6 0Xfb0e
H T 0Xfbe0
B O 0Xfcd0
B 1 0Xfda2
B 2 0Xfe60
B E 0Xff14
B 5 0Xffe6
B 3 0X00cc
B 7 0X016c
B 4 0X0252
B 9 0X0324
B 6 0X03ce
B 8 0X04aa
B T 0X0586
H 1 0X0784
H O 0X081a
H 2 0X0900
H 5 0X09b4
H E 0X0a7c
H 7 0X0b08
H 3 0X0c16
H 9 0X0cc0
H 4 0X0db0
H 8 0X0e6e
H 6 0X0f40
H T 0X1026
B 1 0X1116
B 2 0X11d4
B O 0X12a6
B E 0X138c
B 5 0X1436
B 3 0X14f4
B 7 0X158a
B 4 0X167a
B 9 0X1760
B 6 0X181e
B 8 0X18d2
B T 0X19b8
H 2 0X1ba2
H 1 0X1c92
H O 0X1d3c
H 5 0X1e18
H E 0X1ea4
H 7 0X1fa8
H 3 0X207a
H 9 0X20fc
H 4 0X21f6
H 8 0X22be
H 6 0X237c
H T 0X2444
B 2 0X2552
B O 0X2638
B 1 0X26c4
B E 0X2778
B 5 0X2886
B 3 0X2944
B 7 0X2a2a
B 4 0X2ade
B 9 0X2bc4
B 6 0X2c82
B 8 0X2d36
B T 0X2dfe
H O 0X2fe8
H 2 0X309c
H E 0X313c
H 1 0X3254
H 3 0X32fe
H 5 0X33a8
H 4 0X34d4
H 7 0X35c4
H 6 0X3682
H 9 0X3718
H 8 0X37cc
H T 0X3894
B 2 0X39a2
B O 0X3a6a
B E 0X3b50
B 3 0X3c04
B 1 0X3cb8
B 4 0X3d80
B 5 0X3e3e
B 6 0X3f24
B 7 0X3fec
B 8 0X40dc
B 9 0X4190
B T 0X4258
H 2 0X4442
H E 0X44ce
H O 0X45f0
H 1 0X4690
H 3 0X4744
H 5 0X4816
H 4 0X4906
H 7 0X49b0
H 6 0X4a82
H 9 0X4b4a
H 8 0X4c1c
H T 0X4cee
B E 0X4df2
B 2 0X4ef6
B O 0X4fc8
B 3 0X504a
B 1 0X50e0
B 4 0X51d0
B 5 0X527a
B 6 0X5342
B 7 0X543c
B 8 0X54fa
B 9 0X55a4
B T 0X5676
H E 0X5856
H O 0X5978
H 2 0X5a22
H 1 0X5ae0
H 3 0X5ba8
H 5 0X5c5c
H 4 0X5d42
H 7 0X5e1e
H 6 0X5eb4
H 9 0X5f86
H 8 0X6030
H T 0X6116
B O 0X621a
B E 0X6314
B 2 0X63d2
B 3 0X6490
B 1 0X6576
B 4 0X6648
B 5 0X66de
B 6 0X67ba
B 7 0X6896
B 8 0X6936
B 9 0X69e0
B T 0X6abc
H E 0X6c7e
H O 0X6d8c
H 3 0X6e54
H 2 0X6f30
H 4 0X700c
H 1 0X70d4
H 6 0X717e
H 5 0X7246
H 8 0X730e
H 7 0X73e0
H 9 0X749e
H T 0X750c
B E 0X764c
B 3 0X7732
B O 0X7804
B 4 0X78cc
B 2 0X79bc
B 6 0X7a84
B 1 0X7b60
B 8 0X7bf6
B 5 0X7cdc
B 9 0X7d90
B 7 0X7e80
B T 0X7f0c
H 3 0X8114
H E 0X81aa
H O 0X82ae
H 2 0X8394
H 4 0X845c
H 1 0X852e
H 6 0X85d8
H 5 0X86b4
H 8 0X877c
H 7 0X8844
H 9 0X88da
H T 0X89a2
B 3 0X8ac4
B O 0X8b82
B E 0X8c72
B 4 0X8d44
B 2 0X8e20
B 6 0X8eac
B 1 0X8f88
B 8 0X905a
B 5 0X9122
B 9 0X91d6
B 7 0X92da
B T 0X9398
H O 0X9564
H 3 0X9654
H E 0X96e0
H 2 0X9802
H 4 0X98d4
H 1 0X99a6
H 6 0X9a14
H 5 0X9afa
H 8 0X9bc2
H 7 0X9cb2
H 9 0X9d66
H T 0X9e2e
B O 0X9ee2
B E 0X9ffa
B 3 0Xa0e0
B 4 0Xa19e
B 2 0Xa284
B 6 0Xa31a
B 1 0Xa40a
B 8 0Xa4aa
B 5 0Xa572
B 9 0Xa64e
B 7 0Xa748
B T 0Xa806
H E 0Xa9a0
H O 0Xaa86
H 4 0Xab94
H 3 0Xac5c
H 6 0Xacf2
H 2 0Xae28
H 8 0Xaeaa
H 1 0Xaf68
H 9 0Xb01c
H 5 0Xb10c
H 7 0Xb210
H T 0Xb27e
B O 0Xb36e
B E 0Xb42c
B 4 0Xb53a
B 6 0Xb5ee
B 3 0Xb6f2
B 8 0Xb79c
B 2 0Xb8a0
B 9 0Xb936
B 1 0Xb9e0
B 7 0Xbabc
B 5 0Xbbac
B T 0Xbc6a
H O 0Xbe0e
H 4 0Xbecc
H E 0Xbf9e
H 3 0Xc098
H 6 0Xc14c
H 2 0Xc25a
H 8 0Xc304
H 1 0Xc3c2
H 9 0Xc476
H 5 0Xc552
H 7 0Xc674
H T 0Xc6f6
B 4 0Xc796
B O 0Xc89a
B E 0Xc980
B 6 0Xca48
B 3 0Xcb56
B 8 0Xcbec
B 2 0Xccbe
B 9 0Xcd54
B 1 0Xce3a
B 7 0Xcf0c
B 5 0Xcff2
B T 0Xd0ce
H 4 0Xd286
H E 0Xd31c
H O 0Xd40c
H 3 0Xd506
H 6 0Xd5f6
H 2 0Xd6f0
H 8 0Xd772
H 1 0Xd826
H 9 0Xd8c6
H 5 0Xd9ac
H 7 0Xda9c
H T 0Xdb46
B E 0Xdc54
B 4 0Xdd4e
B O 0Xdde4
B 6 0Xdea2
B 3 0Xdfa6
B 8 0Xe050
B 2 0Xe14a
B 9 0Xe1d6
B 1 0Xe2a8
B 7 0Xe37a
B 5 0Xe442
B T 0Xe514
H 4 0Xe6fe
H E 0Xe794
H 6 0Xe898
H O 0Xe96a
H 8 0Xea28
H 3 0Xeb0e
H 9 0Xebc2
H 2 0Xec9e
H 7 0Xed7a
H 1 0Xee4c
H 5 0Xeec4
H T 0Xefaa
B 4 0Xf072
B 6 0Xf13a
B E 0Xf220
B 8 0Xf324
B O 0Xf40a
B 9 0Xf4aa
B 3 0Xf57c
B 7 0Xf63a
B 2 0Xf72a
B 5 0Xf7fc
B 1 0Xf8d8
B T 0Xf96e
H 6 0Xfb12
H 4 0Xfc02
H E 0Xfc70
H O 0Xfd88
H 8 0Xfe64
H 3 0Xff54
H 9 0Xfffe
H 2 0X00ee
H 7 0X01c0
H 1 0X02ba
H 5 0X0350
H T 0X0422
B 6 0X04fe
B E 0X05d0
B 4 0X0684
B 8 0X074c
B O 0X080a
B 9 0X08d2
B 3 0X09ae
B 7 0X0a62
B 2 0X0b66
B 5 0X0c4c
B 1 0X0d28
B T 0X0df0
H E 0X0fa8
H 6 0X103e
H 4 0X1106
H O 0X11d8
H 8 0X12b4
H 3 0X13cc
H 9 0X1412
H 2 0X1552
H 7 0X1610
H 1 0X16ec
H 5 0X178c
H T 0X187c
B E 0X196c
B 4 0X1a3e
B 6 0X1ad4
B 8 0X1bb0
B O 0X1c78
B 9 0X1d40
B 3 0X1e4e
B 7 0X1eda
B 2 0X1fc0
B 5 0X2088
B 1 0X2182
B T 0X2218
H 4 0X23d0
H E 0X24d4
H 8 0X2592
H 6 0X2664
H 9 0X26f0
H O 0X2812
H 7 0X28f8
H 3 0X29b6
H 5 0X2a60
H 2 0X2b3c
H 1 0X2c2c
H T 0X2cae
B E 0X2de4
B 4 0X2e8e
B 8 0X2f38
B 9 0X300a
B 6 0X30dc
B 7 0X31cc
B O 0X329e
B 5 0X337a
B 3 0X3424
B 1 0X3500
B 2 0X358c
B T 0X364a
H E 0X3834
H 8 0X394c
H 4 0X3a32
H 6 0X3aaa
H 9 0X3b90
H O 0X3c76
H 7 0X3d5c
H 3 0X3e06
H 5 0X3eba
H 2 0X3fbe
H T 0X4072
H 1 0X4090
B 8 0X41ee
B E 0X42de
B 4 0X43e2
B 9 0X4478
B 6 0X454a
B 7 0X4658
B O 0X4734
B 5 0X47ca
B 3 0X48a6
B 1 0X4932
B 2 0X4a40
B T 0X4acc
H 8 0X4c98
H 4 0X4d74
H E 0X4e32
H 6 0X4f4a
H 9 0X4fea
H O 0X50b2
H 7 0X51c0
H 3 0X5260
H 5 0X5300
H 2 0X53e6
H 1 0X54e0
H T 0X5576
B 4 0X567a
B 8 0X571a
B E 0X57ec
B 9 0X58aa
B 6 0X59ae
B 7 0X5aa8
B O 0X5b70
B 5 0X5bf2
B 3 0X5ca6
B 1 0X5d8c
B 2 0X5e5e
B T 0X5f26
H 8 0X6110
H 4 0X61ec
H 9 0X6282
H E 0X634a
H 7 0X648a
H 6 0X64f8
H 5 0X65d4
H O 0X66ce
H 1 0X67be
H 3 0X6840
H 2 0X6912
H T 0X69b2
B 8 0X6a8e
B 9 0X6b60
B 4 0X6c6e
B 7 0X6d54
B E 0X6dd6
B 5 0X6eb2
B 6 0X6f84
B 1 0X7088
B O 0X7150
B 2 0X720e
B 3 0X72b8
B T 0X7376
H 9 0X754c
H 8 0X75f6
H 4 0X76dc
H E 0X7786
H 7 0X788a
H 6 0X7966
H 5 0X7a38
H O 0X7b1e
H 1 0X7ba0
H 3 0X7c72
H 2 0X7d58
H T 0X7e0c
B 9 0X7eca
B 4 0X7f92
B 8 0X8078
B 7 0X8140
B E 0X8212
B 5 0X8316
B 6 0X83f2
B 1 0X84ba
B O 0X8582
B 2 0X8636
B 3 0X86ea
B T 0X87c6
H 4 0X8988
H 9 0X8a32
H 8 0X8b04
H E 0X8bf4
H 7 0X8cda
H 6 0X8da2
H 5 0X8e7e
H O 0X8f82
H 1 0X8fe6
H 3 0X90b8
H 2 0X919e
H T 0X9248
B 4 0X932e
B 8 0X93e2
B 9 0X9496
B 7 0X9590
B E 0X964e
B 5 0X9748
B 6 0X9824
B 1 0X98f6
B O 0X99d2
B 2 0X9a90
B 3 0X9b30
B T 0X9bf8
H 8 0X9de2
H 4 0X9e96
H 7 0X9f90
H 9 0Xa012
H 5 0Xa10c
H E 0Xa1a2
H 1 0Xa2e2
H 6 0Xa350
H 2 0Xa472
H O 0Xa53a
H 3 0Xa5d0
H T 0Xa6b6
B 4 0Xa792
B 8 0Xa85a
B 7 0Xa922
B 5 0Xaa08
B 9 0Xaa94
B 1 0Xaba2
B E 0Xac10
B 2 0Xad46
B 6 0Xade6
B 3 0Xaeae
B O 0Xaf9e
B T 0Xb070
H 4 0Xb228
H 7 0Xb318
H 8 0Xb3cc
H 9 0Xb480
H 5 0Xb552
H E 0Xb606
H 1 0Xb6e2
H 6 0Xb796
H 2 0Xb8ae
H O 0Xb962
H 3 0Xba34
H T 0Xbb06
B 7 0Xbbc4
B 4 0Xbca0
B 8 0Xbd4a
B 5 0Xbe3a
B 9 0Xbf0c
B 1 0Xbfc0
B E 0Xc07e
B 2 0Xc178
B 6 0Xc236
B 3 0Xc2ea
B O 0Xc3e4
B T 0Xc4ac
H 7 0Xc68c
H 8 0Xc754
H 4 0Xc812
H 9 0Xc8bc
H 5 0Xc984
H E 0Xca42
H 1 0Xcb14
H 6 0Xcc0e
H 2 0Xccd6
H O 0Xcdc6
H 3 0Xce7a
H T 0Xcf1a
B 8 0Xd028
B 7 0Xd10e
B 4 0Xd1ea
B 5 0Xd2a8
B 9 0Xd35c
B 1 0Xd41a
B E 0Xd4ba
B 2 0Xd5d2
B 6 0Xd67c
B 3 0Xd776
B O 0Xd83e
B T 0Xd8d4
H 7 0Xdad2
H 8 0Xdb72
H 5 0Xdc4e
H 4 0Xdd34
H 1 0Xdde8
H 9 0Xdec4
H 2 0Xdfa0
H E 0Xe036
H 6 0Xe14e
H O 0Xe1ee
H 3 0Xe2ac
H T 0Xe34c
B 7 0Xe450
B 5 0Xe536
B 8 0Xe5ea
B 1 0Xe6c6
B 4 0Xe78e
B 2 0Xe86a
B 9 0Xe93c
B 6 0Xe9fa
B E 0Xead6
B 3 0Xeb80
B O 0Xec5c
B T 0Xed1a
H 5 0Xeef0
H 7 0Xefe0
H 8 0Xf08a
H 4 0Xf15c
H 1 0Xf210
H 9 0Xf2ce
H 2 0Xf3b4
H E 0Xf45e
H 6 0Xf558
H O 0Xf5f8
H 3 0Xf6e8
H T 0Xf7b0
B 5 0Xf8be
B 8 0Xf968
B 7 0Xfa44
B 1 0Xfb02
B 4 0Xfbca
B 2 0Xfcb0
B 9 0Xfd5a
B 6 0Xfe22
B E 0Xfef4
B 3 0Xffb2
B O 0X0084
B T 0X014c
H 8 0X034a
H 5 0X043a
H 7 0X0516
H 4 0X05b6
H 1 0X0674
H 9 0X070a
H 2 0X07e6
H E 0X08a4
H 6 0X09c6
H O 0X0a66
H 3 0X0b24
H T 0X0bba
B 8 0X0cbe
B 7 0X0dcc
B 5 0X0ed0
B 1 0X0f70
B 4 0X102e
B 2 0X111e
B 9 0X11b4
B 6 0X1272
B E 0X134e
B 3 0X1420
B O 0X14e8
B T 0X157e
H 7 0X174a
H 8 0X1808
H 1 0X1966
H 5 0X1a1a
H 2 0X1b00
H 4 0X1c0e
H 6 0X1c4a
H 9 0X1d12
H 3 0X1e02
H E 0X1e84
H O 0X1f60
H T 0X203c
B 8 0X2118
B 7 0X21d6
B 1 0X230c
B 2 0X23d4
B 5 0X2474
B 6 0X2532
B 4 0X265e
B 3 0X26cc
B 9 0X27a8
B O 0X282a
B E 0X2910
B T 0X29d8
H 8 0X2bae
H 1 0X2ca8
H 7 0X2d5c
H 5 0X2e38
H 2 0X2eec
H 4 0X3018
H 6 0X30ae
H 9 0X3158
H 3 0X3248
H E 0X32c0
H O 0X33a6
H T 0X345a
B 1 0X3554
B 8 0X3630
B 7 0X3716
B 2 0X37fc
B 5 0X3874
B 6 0X3950
B 4 0X3a86
B 3 0X3b1c
B 9 0X3bd0
B O 0X3c8e
B E 0X3d74
B T 0X3e0a
H 1 0X3ffe
H 7 0X40b2
H 8 0X4166
H 5 0X4256
H 2 0X4328
H 4 0X4436
H 6 0X44d6
H 9 0X456c
H 3 0X4666
H E 0X471a
H O 0X480a
H T 0X48c8
B 7 0X49ae
B 1 0X4a58
B 8 0X4b2a
B 2 0X4c1a
B 5 0X4cb0
B 6 0X4daa
B 4 0X4e86
B 3 0X4f4e
B 9 0X4fee
B O 0X50d4
B E 0X51b0
B T 0X5278
H 1 0X5462
H 7 0X552a
H 2 0X55de
H 8 0X56a6
H 6 0X578c
H 5 0X5854
H 3 0X593a
H 4 0X59e4
H O 0X5aa2
H 9 0X5b38
H E 0X5c3c
H T 0X5ce6
B 1 0X5de0
B 2 0X5e9e
B 7 0X5f70
B 6 0X6056
B 8 0X6128
B 3 0X61fa
B 5 0X62c2
B O 0X638a
B 4 0X648e
B E 0X6524
B 9 0X65b0
B T 0X66a0
H 2 0X6894
H 1 0X697a
H 7 0X6a1a
H 8 0X6aba
H 6 0X6bbe
H 5 0X6c9a
H 3 0X6d6c
H 4 0X6e5c
H O 0X6ef2
H 9 0X6f7e
H E 0X7050
H T 0X7136
B 2 0X724e
B 7 0X7302
B 1 0X73c0
B 6 0X74c4
B 8 0X7578
B 3 0X7640
B 5 0X76e0
B O 0X77d0
B 4 0X7898
B E 0X7974
B 9 0X7a0a
B T 0X7adc
H 7 0X7cd0
H 2 0X7db6
H 1 0X7e74
H 8 0X7f46
H 6 0X8004
H 5 0X80ea
H 3 0X81b2
H 4 0X8248
H O 0X8324
H 9 0X83b0
H E 0X84aa
H T 0X857c
B 7 0X869e
B 1 0X872a
B 2 0X8806
B 6 0X88d8
B 8 0X89aa
B 3 0X8a5e
B 5 0X8b3a
B O 0X8c16
B 4 0X8cf2
B E 0X8d7e
B 9 0X8e5a
B T 0X8f22
H 1 0X912a
H 7 0X91fc
H 6 0X929c
H 2 0X938c
H 3 0X942c
H 8 0X94f4
H O 0X95f8
H 5 0X96b6
H 4 0X97a6
H E 0X9814
H 9 0X9904
H T 0X99e0
B 7 0X9ada
B 1 0X9b5c
B 6 0X9c60
B 3 0X9d0a
B 2 0X9de6
B O 0X9eb8
B 8 0X9f62
B 4 0Xa048
B 5 0Xa110
B 9 0Xa200
B E 0Xa304
B T 0Xa3a4
H 7 0Xa58e
H 6 0Xa5f2
H 1 0Xa700
H 2 0Xa7d2
H 3 0Xa890
H 8 0Xa93a
H O 0Xaa0c
H 5 0Xaaca
H 4 0Xabce
H E 0Xac82
H 9 0Xad68
H T 0Xae26
B 6 0Xaf02
B 7 0Xb04c
B 1 0Xb0d8
B 3 0Xb182
B 2 0Xb25e
B O 0Xb308
B 8 0Xb3a8
B 4 0Xb4ac
B 5 0Xb538
B 9 0Xb614
B E 0Xb6fa
B T 0Xb7cc
H 6 0Xb952
H 1 0Xbab0
H 7 0Xbb8c
H 2 0Xbc54
H 3 0Xbcf4
H 8 0Xbdd0
H O 0Xbe8e
H 5 0Xbf42
H 4 0Xc00a
H E 0Xc0aa
H 9 0Xc17c
H T 0Xc24e
B 1 0Xc37a
B 6 0Xc438
B 7 0Xc564
B 3 0Xc5f0
B 2 0Xc6cc
B O 0Xc776
B 8 0Xc816
B 4 0Xc8fc
B 5 0Xc9ba
B 9 0Xca64
B E 0Xcb2c
B T 0Xcbfe
H 6 0Xcdd4
H 1 0Xced8
H 3 0Xcfa0
H 7 0Xd07c
H O 0Xd14e
H 2 0Xd20c
H 4 0Xd2b6
H 8 0Xd392
H 9 0Xd450
H 5 0Xd52c
H E 0Xd5cc
H T 0Xd69e
B 6 0Xd7c0
B 3 0Xd892
B 1 0Xd964
B O 0Xda2c
B 7 0Xdacc
B 4 0Xdbda
B 2 0Xdc8e
B 9 0Xdd56
B 8 0Xde00
B E 0Xdebe
B 5 0Xdfcc
B T 0Xe094
H 3 0Xe260
H 6 0Xe30a
H 1 0Xe40e
H 7 0Xe4b8
H O 0Xe576
H 2 0Xe666
H 4 0Xe738
H 8 0Xe800
H 9 0Xe896
H 5 0Xe97c
H E 0Xea44
H T 0Xeaee
B 3 0Xec2e
B 1 0Xecf6
B 6 0Xed78
B O 0Xee5e
B 7 0Xef08
B 4 0Xeff8
B 2 0Xf0de
B 9 0Xf188
B 8 0Xf246
B E 0Xf34a
B 5 0Xf43a
B T 0Xf4e4
H 1 0Xf6b0
H 3 0Xf75a
H 6 0Xf822
H 7 0Xf926
H O 0Xf9da
H 2 0Xfab6
H 4 0Xfb2e
H 8 0Xfc14
H 9 0Xfcd2
H 5 0Xfde0
H E 0Xfe9e
H T 0Xff66
B 1 0X0056
B 6 0X011e
B 3 0X01f0
B O 0X02cc
B 7 0X034e
B 4 0X042a
B 2 0X0510
B 9 0X05ce
B 8 0X0678
B E 0X075e
B 5 0X086c
B T 0X0948
H 6 0X0ad8
H 1 0X0bc8
H O 0X0c90
H 3 0X0d4e
H 4 0X0e34
H 7 0X0f10
H 9 0X0f88
H 2 0X106e
H 8 0X10f0
H E 0X1122
H 5 0X128a
H T 0X13a2
B 1 0X1438
B 6 0X155a
B O 0X1622
B 4 0X171c
B 3 0X17d0
B 9 0X1870
B 7 0X1938
B 8 0X19ba
B 2 0X1a82
B 5 0X1b7c
B E 0X1c08
B T 0X1d0c
H 1 0X1f00
H O 0X1ff0
H 6 0X2090
H 3 0X2176
H 4 0X2252
H 7 0X232e
H 9 0X23ce
H 2 0X2496
H 8 0X2522
H E 0X25fe
H 5 0X26d0
H T 0X2784
B O 0X2874
B 1 0X2950
B 6 0X2a36
B 4 0X2b12
B 3 0X2bda
B 9 0X2cac
B 7 0X2d6a
B 8 0X2e0a
B 2 0X2f0e
B 5 0X2fe0
B E 0X3076
B T 0X3148
H O 0X3350
H 6 0X33dc
H 1 0X34a4
H 3 0X356c
H 4 0X3648
H 7 0X3738
H 9 0X37e2
H 2 0X38dc
H 8 0X3986
H E 0X3a58
H 5 0X3b0c
H T 0X3bf2
B 6 0X3cec
B O 0X3d96
B 1 0X3e54
B 4 0X3ee0
B 3 0X3fe4
B 9 0X40ac
B 7 0X4192
B 8 0X4250
B 2 0X4340
B 5 0X441c
B E 0X44d0
B T 0X458e
H O 0X4750
H 6 0X482c
H 4 0X48e0
H 1 0X49d0
H 9 0X4a7a
H 3 0X4b60
H 8 0X4bf6
H 7 0X4cf0
H 5 0X4d9a
H 2 0X4ea8
H E 0X4f52
H T 0X4fe8
B O 0X510a
B 4 0X51b4
B 6 0X529a
B 9 0X5376
B 1 0X5434
B 8 0X54e8
B 3 0X55f6
B 5 0X568c
B 7 0X5790
B E 0X5862
B 2 0X5934
B T 0X59a2
H 4 0X5bb4
H O 0X5c4a
H 6 0X5d26
H 1 0X5e02
H 9 0X5eca
H 3 0X5f9c
H 8 0X606e
H 7 0X615e
H 5 0X6212
H 2 0X630c
H E 0X63ca
H T 0X6460
B 4 0X6532
B 6 0X6618
B O 0X66ea
B 9 0X67b2
B 1 0X685c
B 8 0X691a
B 3 0X6a1e
B 5 0X6adc
B 7 0X6be0
B E 0X6c9e
B 2 0X6d66
B T 0X6e1a
H 6 0X6fe6
H 4 0X70ae
H O 0X7162
H 1 0X723e
H 9 0X731a
H 3 0X7400
H 8 0X748c
H 7 0X759a
H 5 0X764e
H 2 0X773e
H E 0X77c0
H T 0X7892
B 6 0X79a0
B O 0X7a5e
B 4 0X7b12
B 9 0X7bf8
B 1 0X7cca
B 8 0X7d6a
B 3 0X7e82
B 5 0X7f2c
B 7 0X8030
B E 0X80ee
B 2 0X81ac
B T 0X824c
H O 0X8418
H 6 0X84f4
H 9 0X85d0
H 4 0X8698
H 8 0X874c
H 1 0X8850
H 5 0X88dc
H 3 0X89d6
H E 0X8a6c
H 7 0X8b84
H 2 0X8c56
H T 0X8cec
B 6 0X8ddc
B O 0X8ec2
B 9 0X8f94
B 8 0X9066
B 4 0X9124
B 5 0X91f6
B 1 0X92b4
B E 0X9368
B 3 0X9458
B 2 0X9520
B 7 0X95f2
B T 0X96c4
H 6 0X9836
H 9 0X9958
H O 0X9a02
H 4 0X9ad4
H 8 0X9b92
H 1 0X9ca0
H 5 0X9d36
H 3 0X9e26
H E 0X9e6c
H 7 0X9f5c
H 2 0Xa056
H T 0Xa13c
B 9 0Xa218
B 6 0Xa312
B O 0Xa3b2
B 8 0Xa466
B 4 0Xa57e
B 5 0Xa628
B 1 0Xa718
B E 0Xa790
B 3 0Xa876
B 2 0Xa97a
B 7 0Xaa10
B T 0Xaad8
H 9 0Xac90
H O 0Xad58
H 6 0Xae48
H 4 0Xaf24
H 8 0Xb014
H 1 0Xb0f0
H 5 0Xb186
H 3 0Xb24e
H E 0Xb2f8
H 7 0Xb3c0
H 2 0Xb49c
H T 0Xb578
B O 0Xb67c
B 9 0Xb730
B 6 0Xb80c
B 8 0Xb8d4
B 4 0Xb9d8
B 5 0Xba96
B 1 0Xbb72
B E 0Xbc1c
B 3 0Xbcee
B 2 0Xbdb6
B 7 0Xbe6a
B T 0Xbf1e
H 9 0Xc0f4
H O 0Xc1d0
H 8 0Xc298
H 6 0Xc374
H 5 0Xc446
H 4 0Xc54a
H E 0Xc5c2
H 1 0Xc6a8
H 2 0Xc784
H 3 0Xc842
H 7 0Xc93c
H T 0Xc9d2
B 9 0Xca9a
B 8 0Xcb6c
B O 0Xcc48
B 5 0Xcd4c
B 6 0Xcde2
B E 0Xcec8
B 4 0Xcfcc
B 2 0Xd094
B 1 0Xd166
B 7 0Xd224
B 3 0Xd2c4
B T 0Xd396
H 8 0Xd562
H 9 0Xd616
H O 0Xd6fc
H 6 0Xd7ce
H 5 0Xd8b4
H 4 0Xd99a
H E 0Xda1c
H 1 0Xdb02
H 2 0Xdbca
H 3 0Xdc88
H 7 0Xddb4
H T 0Xde4a
B 8 0Xdef4
B O 0Xdfda
B 9 0Xe0ca
B 5 0Xe1a6
B 6 0Xe25a
B E 0Xe336
B 4 0Xe3f4
B 2 0Xe4c6
B 1 0Xe5a2
B 7 0Xe688
B 3 0Xe732
B T 0Xe7e6
H O 0Xe9a8
H 8 0Xea48
H 9 0Xeb38
H 6 0Xec32
H 5 0Xed2c
H 4 0Xede0
H E 0Xee4e
H 1 0Xef3e
H 2 0Xf010
H 3 0Xf0ec
H 7 0Xf1fa
H T 0Xf290
B O 0Xf358
B 9 0Xf42a
B 8 0Xf4d4
B 5 0Xf5f6
B 6 0Xf6aa
B E 0Xf754
B 4 0Xf844
B 2 0Xf916
B 1 0Xfa10
B 7 0Xfad8
B 3 0Xfb5a
B T 0Xfc22
H 9 0Xfdc6
H O 0Xfe98
H 5 0Xff9c
H 8 0X0064
H E 0X012c
H 6 0X0212
H 2 0X030c
H 4 0X03c0
H 7 0X04c4
H 1 0X05aa
H 3 0X062c
H T 0X06e0
B O 0X0794
B 9 0X0866
B 5 0X0960
B E 0X09f6
B 8 0X0ad2
B 2 0X0bfe
B 6 0X0c94
B 7 0X0d98
B 4 0X0e4c
B 3 0X0f32
B 1 0X102c
B T 0X1090
H O 0X1234
H 5 0X1310
H 9 0X13ec
H 8 0X14a0
H E 0X1586
H 6 0X1630
H 2 0X1702
H 4 0X1824
H 7 0X1914
H 1 0X19e6
H 3 0X1a86
H T 0X1b44
B 5 0X1c0c
B O 0X1cb6
B 9 0X1d74
B E 0X1e78
B 8 0X1f5e
B 2 0X203a
B 6 0X20e4
B 7 0X21c0
B 4 0X227e
B 3 0X236e
B 1 0X2454
B T 0X2512
H 5 0X26ac
H 9 0X2760
H O 0X2832
H 8 0X2918
H E 0X2a08
H 6 0X2af8
H 2 0X2b98
H 4 0X2c60
H 7 0X2d1e
H 1 0X2e22
H 3 0X2eb8
H T 0X2f8a
B 9 0X3066
B 5 0X314c
B O 0X320a
B E 0X32e6
B 8 0X33b8
B 2 0X3494
B 6 0X3534
B 7 0X3624
B 4 0X36ba
B 3 0X3796
B 1 0X389a
B T 0X3926
H 5 0X3b1a
H 9 0X3bf6
H E 0X3cb4
H O 0X3da4
H 2 0X3e62
H 8 0X3f16
H 7 0X3fe8
H 6 0X409c
H 3 0X416e
H 4 0X4218
H 1 0X4326
H T 0X43d0
B 5 0X44d4
B E 0X45a6
B 9 0X4682
B 2 0X4754
B O 0X47f4
B 7 0X489e
B 8 0X497a
B 3 0X4a56
B 6 0X4b1e
B 1 0X4c22
B 4 0X4cb8
B T 0X4d76
H E 0X4f60
H 5 0X5064
H 9 0X512c
H O 0X5208
H 2 0X52bc
H 8 0X533e
H 7 0X5410
H 6 0X550a
H 3 0X55dc
H 4 0X56a4
H 1 0X5794
H T 0X583e
B E 0X5924
B 9 0X59ec
B 5 0X5adc
B 2 0X5be0
B O 0X5c94
B 7 0X5cda
B 8 0X5da2
B 3 0X5ec4
B 6 0X5f96
B 1 0X6086
B 4 0X6162
B T 0X61e4
H 9 0X63b0
H E 0X64a0
H 5 0X6536
H O 0X6644
H 2 0X66f8
H 8 0X678e
H 7 0X6874
H 6 0X6964
H 3 0X6a2c
H 4 0X6b30
H 1 0X6bf8
H T 0X6c8e
B 9 0X6d56
B 5 0X6e50
B E 0X6f22
B 2 0X6ffe
B O 0X709e
B 7 0X713e
B 8 0X7206
B 3 0X72ec
B 6 0X73e6
B 1 0X74fe
B 4 0X75bc
B T 0X7648
H 5 0X7800
H 9 0X78c8
H 2 0X799a
H E 0X7a80
H 7 0X7b34
H O 0X7c1a
H 3 0X7d14
H 8 0X7dd2
H 1 0X7ee0
H 6 0X7f62
H 4 0X802a
H T 0X80e8
B 9 0X81c4
B 5 0X82be
B 2 0X83ae
B 7 0X8412
B E 0X84f8
B 3 0X85de
B O 0X869c
B 1 0X87c8
B 8 0X885e
B 4 0X88ea
B 6 0X89da
B T 0X8aac
H 9 0X8c78
H 2 0X8d40
H 5 0X8e12
H E 0X8ef8
H 7 0X8fca
H O 0X9092
H 3 0X916e
H 8 0X9222
H 1 0X9326
H 6 0X93da
H 4 0X9452
H T 0X952e
B 2 0X9646
B 9 0X9704
B 5 0X97e0
B 7 0X98f8
B E 0X99ac
B 3 0X9a74
B O 0X9b14
B 1 0X9c04
B 8 0X9cb8
B 4 0X9d62
B 6 0X9e66
B T 0X9f06
H 2 0Xa0e6
H 5 0Xa190
H 9 0Xa28a
H E 0Xa370
H 7 0Xa44c
H O 0Xa51e
H 3 0Xa5dc
H 8 0Xa6a4
H 1 0Xa762
H 6 0Xa816
H 4 0Xa8d4
H T 0Xa9c4
B 5 0Xaac8
B 2 0Xabb8
B 9 0Xac44
B 7 0Xad34
B E 0Xae06
B 3 0Xaec4
B O 0Xaf96
B 1 0Xb072
B 8 0Xb126
B 4 0Xb1b2
B 6 0Xb2c0
B T 0Xb388
H 2 0Xb568
H 5 0Xb626
H 7 0Xb720
H 9 0Xb7d4
H 3 0Xb8b0
H E 0Xb964
H 1 0Xba7c
H O 0Xbafe
H 4 0Xbb8a
H 8 0Xbc7a
H 6 0Xbd60
H T 0Xbe3c
B 2 0Xbf0e
B 7 0Xbfd6
B 5 0Xc0a8
B 3 0Xc1b6
B 9 0Xc242
B 1 0Xc35a
B E 0Xc3dc
B 4 0Xc486
B O 0Xc576
B 6 0Xc648
B 8 0Xc724
B T 0Xc80a
H 7 0Xc9e0
H 2 0Xca94
H 5 0Xcb52
H 9 0Xcc38
H 3 0Xccd8
H E 0Xcd82
H 1 0Xceae
H O 0Xcf76
H 4 0Xd052
H 8 0Xd0f2
H 6 0Xd1ec
H T 0Xd2aa
B 7 0Xd39a
B 5 0Xd476
B 2 0Xd552
B 3 0Xd5e8
B 9 0Xd6b0
B 1 0Xd7b4
B E 0Xd840
B 4 0Xd944
B O 0Xda02
B 6 0Xdade
B 8 0Xdba6
B T 0Xdc78
H 5 0Xde4e
H 7 0Xdf20
H 2 0Xdfe8
H 9 0Xe074
H 3 0Xe178
H E 0Xe240
H 1 0Xe312
H O 0Xe3da
H 4 0Xe48e
H 8 0Xe560
H 6 0Xe682
H T 0Xe736
B 5 0Xe7ea
B 2 0Xe902
B 7 0Xe9b6
B 3 0Xea6a
B 9 0Xeb50
B 1 0Xec22
B E 0Xecb8
B 4 0Xed8a
B O 0Xee52
B 6 0Xef4c
B 8 0Xf014
B T 0Xf0dc
H 2 0Xf2b2
H 5 0Xf366
H 3 0Xf442
H 7 0Xf514
H 1 0Xf60e
H 9 0Xf6cc
H 4 0Xf73a
H E 0Xf802
H 6 0Xf8de
H O 0Xf9b0
H 8 0Xfa78
H T 0Xfb72
B 5 0Xfc4e
B 2 0Xfd48
B 3 0Xfdfc
B 1 0Xfed8
B 7 0Xff82
B 4 0X004a
B 9 0X0126
B 6 0X01da
B E 0X027a
B 8 0X036a
B O 0X0464
B T 0X050e
H 5 0X06da
H 3 0X07a2
H 2 0X0874
H 7 0X095a
H 1 0X0a5e
H 9 0X0af4
H 4 0X0b94
H E 0X0c7a
H 6 0X0d74
H O 0X0e0a
H 8 0X0efa
H T 0X0fcc
B 3 0X10a8
B 5 0X1166
B 2 0X1242
B 1 0X1346
B 7 0X13dc
B 4 0X145e
B 9 0X154e
B 6 0X1634
B E 0X16f2
B 8 0X17ce
B O 0X18a0
B T 0X1986
H 3 0X1b66
H 2 0X1c10
H 5 0X1ca6
H 7 0X1de6
H 1 0X1ed6
H 9 0X1f44
H 4 0X1fda
H E 0X20b6
H 6 0X21b0
H O 0X226e
H 8 0X2336
H T 0X2412
B 2 0X2502
B 3 0X25b6
B 5 0X267e
B 1 0X278c
B 7 0X2872
B 4 0X28c2
B 9 0X29bc
B 6 0X2a8e
B E 0X2b74
B 8 0X2c28
B O 0X2cfa
B T 0X2dc2
H 3 0X2fac
H 2 0X3060
H 1 0X3164
H 5 0X3204
H 4 0X3308
H 7 0X33a8
H 6 0X3470
H 9 0X3506
H 8 0X35e2
H E 0X36be
H O 0X3772
H T 0X384e
B 3 0X3984
B 1 0X3a06
B 2 0X3ad8
B 4 0X3baa
B 5 0X3c72
B 6 0X3d4e
B 7 0X3e20
B 8 0X3eca
B 9 0X3f88
B O 0X4078
B E 0X4136
B T 0X4208
H 1 0X4406
H 3 0X44a6
H 2 0X4564
H 5 0X4622
H 4 0X4712
H 7 0X47da
H 6 0X48ac
H 9 0X494c
H 8 0X4a1e
H E 0X4b04
H O 0X4be0
H T 0X4ca8
B 1 0X4d84
B 2 0X4e38
B 3 0X4ef6
B 4 0X4f96
B 5 0X507c
B 6 0X5130
B 7 0X5202
B 8 0X52d4
B 9 0X53ce
B O 0X54aa
B E 0X55ae
B T 0X564e
H 1 0X5810
H 2 0X58b0
H 3 0X595a
H 4 0X5a22
H 5 0X5ad6
H 6 0X5bc6
H 7 0X5cca
H 8 0X5d7e
H 9 0X5e50
H O 0X5f2c
H E 0X6012
H T 0X60d0
B 1 0X61a2
B 2 0X624c
B 3 0X6314
B 4 0X635a
B 5 0X645e
B 6 0X653a
B 7 0X6634
B 8 0X66f2
B 9 0X67e2
B O 0X68a0
B E 0X69b8
B T 0X6a62
H 1 0X6c10
H 2 0X6ca6
H 3 0X6d5a
H 4 0X6e22
H 5 0X6ee0
H 6 0X6f9e
H 7 0X70c0
H 8 0X7174
H 9 0X7246
H O 0X7322
H E 0X73fe
H T 0X74da
B 1 0X7584
B 2 0X7638
B 3 0X76f6
B 4 0X77be
B 5 0X78a4
B 6 0X7958
B 7 0X7a52
B 8 0X7afc
B 9 0X7bce
B O 0X7c96
B E 0X7d9a
B T 0X7e6c
H 1 0X8010
H 2 0X80b0
H 3 0X8178
H 4 0X8240
H 5 0X8308
H 6 0X83e4
H 7 0X84d4
H 8 0X8588
H 9 0X8650
H O 0X8722
H E 0X8808
H T 0X8902
B 1 0X89ca
B 2 0X8a56
B 3 0X8b3c
B 4 0X8bf0
B 5 0X8cb8
B 6 0X8d94
B 7 0X8e7a
B 8 0X8f56
B 9 0X8ff6
B O 0X90d2
B E 0X91d6
B T 0X92d0
