   *** Text-formatted Bell Statistics
       ------------------------------------------------------------------------------
         Bell Number:       1    2    3    4    5    6    7    8    9    0    E    T  
       ------------------------------------------------------------------------------
         Mean Error: All    16   12   20    4    7   -1   -8   -1    4  -22  -15  -16 
                      Hs    11    9   13   14   -3  -11   -8   -1   -3  -21  -27  -21 
                      Bs    21   15   27   -7   17   10   -9   -1   10  -23   -2  -11 
        
         Std  Error: All    30   28   27   38   27   27   33   28   29   31   33   28 
                      Hs    30   27   27   37   25   28   36   29   29   36   34   29 
                      Bs    30   29   26   36   26   21   30   26   28   25   27   25 
        
         Rms  Error: All    34   31   34   38   28   27   34   27   29   38   36   32 
                      Hs    32   29   30   39   25   30   36   29   29   42   43   36 
                      Bs    36   32   37   37   31   23   31   26   30   33   27   27 
       ------------------------------------------------------------------------------
