#. Lowndes: Version 2
#. SourceFilename: W:\Recordings\Guildford\Guildford.20220619-1710.s12t12.3.wav
#. Tower: Guildford Cathedral
#. RingingName: Touch_3
#. RingingDateTime: 20220619-1710
#. Rungon: 
#. Tenor: 12
#. NumBellsRinging: 12
#. Creator: HawkEar Team Edition V1 for Guildford Cathedral
#. CreatorVersion: 1.1.0.3
#. TranscribedFor: Guildford band
#. TranscriptionDateTime: 20220620-1150
#. FirstBlowMs: 8170
#. TouchdB: -0.100512
#. TraindB: -9.73, -8.5, -6.1, -3.11, -3.16, -3.1, -3.98, -4.12, -5.95, -5.43, -4.92, -3
#. TrainedOn: 20220102-1438
#. TrainDataRecordedOn: 20210813-1741
#. TrainParams: -ft:y -ws:0.05 -hs:0.01 -co:0.9 -sw:40 -ts:
#. GainParams: -fh:6000 -fl:200
#. OnsetParams: -mb:80 -mf:10 -ng:0.3 -oo:0
#. WriteParams: -hb:y
#. AnalParams: -au:y -xp:n -sg:n -hsg:-1
#. ExpString: 
#. Association:
#. Calling:
#. CompositionName:
#. Method:
#. Footnotes:
#. Ringers:
#. Stage:
H 1 0X0000
H 2 0X00d2
H 3 0X0190
H 4 0X0262
H 5 0X035c
H 6 0X0406
H 7 0X04d8
H 8 0X05aa
H 9 0X069a
H O 0X0780
H E 0X0866
H T 0X0938
B 1 0X09f6
B 2 0X0ad2
B 3 0X0bb8
B 4 0X0c76
B 5 0X0d5c
B 6 0X0e10
B 7 0X0ed8
B 8 0X0fbe
B 9 0X105e
B O 0X1112
B E 0X1216
B T 0X131a
H 1 0X14aa
H 2 0X15a4
H 3 0X1658
H 4 0X173e
H 5 0X17ca
H 6 0X1888
H 7 0X196e
H 8 0X19fa
H 9 0X1ad6
H O 0X1bc6
H E 0X1c84
H T 0X1d60
B 1 0X1e1e
B 2 0X1ee6
B 3 0X1fae
B 4 0X208a
B 5 0X213e
B 6 0X2210
B 7 0X22f6
B 8 0X23be
B 9 0X2490
B O 0X2544
B E 0X2620
B T 0X26de
H 1 0X288c
H 2 0X2968
H 3 0X29f4
H 4 0X2ada
H 5 0X2b8e
H 6 0X2c10
H 7 0X2d1e
H 8 0X2df0
H 9 0X2ed6
H O 0X2fe4
H E 0X3084
H T 0X3142
B 1 0X31e2
B 2 0X32be
B 3 0X3372
B 4 0X3412
B 5 0X34da
B 6 0X35f2
B 7 0X369c
B 8 0X3778
B 9 0X384a
B O 0X3912
B E 0X39ee
B T 0X3aa2
H 1 0X3c28
H 2 0X3d04
H 3 0X3dae
H 4 0X3e94
H 5 0X3f52
H 6 0X3ffc
H 7 0X4100
H 8 0X41c8
H 9 0X4290
H O 0X4376
H E 0X4416
H T 0X44ca
B 1 0X4560
B 2 0X4646
B 3 0X46fa
B 4 0X47cc
B 5 0X48a8
B 6 0X498e
B 7 0X4a6a
B 8 0X4b28
B 9 0X4c0e
B O 0X4cd6
B E 0X4d9e
B T 0X4e34
H 1 0X4fb0
H 2 0X5096
H 3 0X5118
H 4 0X5208
H 5 0X52c6
H 6 0X5384
H 7 0X5456
H 8 0X551e
H 9 0X5622
H O 0X5730
H E 0X57b2
H T 0X5870
B 1 0X5924
B 2 0X59e2
B 3 0X5aaa
B 4 0X5b40
B 5 0X5c08
B 6 0X5cf8
B 7 0X5dc0
B 8 0X5e74
B 9 0X5f6e
B O 0X604a
B E 0X611c
B T 0X61da
H 1 0X6374
H 2 0X6432
H 3 0X64e6
H 4 0X65b8
H 5 0X6680
H 6 0X6720
H 7 0X6824
H 8 0X68c4
H 9 0X696e
H O 0X6a9a
H E 0X6b4e
H T 0X6c02
B 1 0X6ca2
B 2 0X6d74
B 3 0X6e3c
B 4 0X6ed2
B 5 0X6fae
B 6 0X708a
B 7 0X715c
B 8 0X7210
B 9 0X7300
B O 0X73be
B E 0X74a4
B T 0X754e
H 1 0X76f2
H 2 0X7792
H 3 0X785a
H 4 0X7936
H 5 0X79e0
H 6 0X7aa8
H 7 0X7b84
H 8 0X7c56
H 9 0X7d00
H O 0X7e2c
H E 0X7eea
H T 0X7f80
B 1 0X8016
B 2 0X80e8
B 3 0X819c
B 4 0X825a
B 5 0X830e
B 6 0X83fe
B 7 0X84e4
B 8 0X8598
B 9 0X8660
B O 0X8728
B E 0X8836
B T 0X88ea
H 1 0X8a7a
H 2 0X8b2e
H 3 0X8bec
H 4 0X8ce6
H 5 0X8d72
H 6 0X8e26
H 7 0X8f16
H 8 0X8fd4
H 9 0X909c
H O 0X91aa
H E 0X9240
H T 0X92f4
B 1 0X93b2
B 2 0X947a
B 3 0X952e
B 4 0X95ec
B 5 0X96aa
B 6 0X9786
B 7 0X986c
B 8 0X9916
B 9 0X99fc
B O 0X9ad8
B E 0X9baa
B T 0X9c5e
H 1 0X9e16
H 2 0X9ec0
H 3 0X9f56
H 4 0Xa01e
H 5 0Xa0d2
H 6 0Xa19a
H 7 0Xa28a
H 8 0Xa32a
H 9 0Xa410
H O 0Xa532
H E 0Xa5f0
H T 0Xa690
B 1 0Xa744
B 2 0Xa802
B 3 0Xa8b6
B 4 0Xa960
B 5 0Xaa28
B 6 0Xaafa
B 7 0Xabe0
B 8 0Xac8a
B 9 0Xad70
B O 0Xae56
B E 0Xaf50
B T 0Xafe6
H 1 0Xb176
H 2 0Xb216
H 3 0Xb2d4
H 4 0Xb3b0
H 5 0Xb46e
H 6 0Xb52c
H 7 0Xb612
H 8 0Xb6b2
H 9 0Xb784
H O 0Xb8ba
H E 0Xb950
H T 0Xb9f0
B 1 0Xbaa4
B 2 0Xbb62
B 3 0Xbc2a
B 4 0Xbcd4
B 5 0Xbd92
B 6 0Xbe96
B 7 0Xbf68
B 8 0Xc012
B 9 0Xc0da
B O 0Xc1c0
B E 0Xc2ba
B T 0Xc350
H 1 0Xc4e0
H 2 0Xc58a
H 3 0Xc648
H 4 0Xc71a
H 5 0Xc7c4
H 6 0Xc8c8
H 7 0Xc990
H 8 0Xca44
H 9 0Xcaf8
H O 0Xcc42
H E 0Xccce
H T 0Xcd64
B 1 0Xce04
B 2 0Xced6
B 3 0Xcf94
B 4 0Xd048
B 5 0Xd0f2
B 6 0Xd1ce
B 7 0Xd2be
B 8 0Xd37c
B 9 0Xd444
B O 0Xd534
B E 0Xd61a
B T 0Xd6d8
H 2 0Xd89a
H 1 0Xd962
H 3 0Xda02
H 5 0Xdade
H 4 0Xdb88
H 7 0Xdc28
H 6 0Xdce6
H 9 0Xddae
H 8 0Xde8a
H E 0Xdf8e
H O 0Xe07e
H T 0Xe10a
B 2 0Xe1e6
B 3 0Xe2c2
B 1 0Xe358
B 4 0Xe452
B 5 0Xe506
B 6 0Xe5d8
B 7 0Xe68c
B 8 0Xe72c
B 9 0Xe808
B O 0Xe8d0
B E 0Xe998
B T 0Xea56
H 3 0Xec0e
H 2 0Xecb8
H 4 0Xedbc
H 1 0Xee84
H 6 0Xef56
H 5 0Xf014
H 8 0Xf0dc
H 7 0Xf19a
H 9 0Xf26c
H E 0Xf334
H O 0Xf41a
H T 0Xf4ba
B 2 0Xf582
B 3 0Xf640
B 4 0Xf708
B 6 0Xf7e4
B 1 0Xf8a2
B 8 0Xf974
B 5 0Xfa3c
B 9 0Xfb0e
B 7 0Xfbe0
B O 0Xfc8a
B E 0Xfd8e
B T 0Xfe24
H 2 0Xffbe
H 4 0X0090
H 3 0X0162
H 1 0X0220
H 6 0X02ca
H 5 0X03a6
H 8 0X0478
H 7 0X0554
H 9 0X05f4
H E 0X06b2
H O 0X078e
H T 0X0860
B 4 0X095a
B 2 0X0a18
B 3 0X0acc
B 6 0X0b94
B 1 0X0c52
B 8 0X0d1a
B 5 0X0de2
B 9 0X0eaa
B 7 0X0f72
B O 0X1030
B E 0X110c
B T 0X11ca
H 4 0X13b4
H 3 0X1486
H 2 0X151c
H 1 0X160c
H 6 0X16b6
H 5 0X1792
H 8 0X1850
H 7 0X190e
H 9 0X19ae
H E 0X1a9e
H O 0X1b8e
H T 0X1c1a
B 3 0X1d00
B 4 0X1df0
B 2 0X1e9a
B 6 0X1f62
B 1 0X2034
B 8 0X20e8
B 5 0X21c4
B 9 0X2282
B 7 0X234a
B O 0X2408
B E 0X2502
B T 0X2598
H 4 0X2782
H 3 0X2840
H 6 0X2926
H 2 0X2a20
H 8 0X2ab6
H 1 0X2b56
H 9 0X2c1e
H 5 0X2cfa
H O 0X2da4
H 7 0X2e76
H E 0X2f2a
H T 0X2fca
B 4 0X310a
B 6 0X31be
B 3 0X327c
B 8 0X333a
B 2 0X3420
B 9 0X34e8
B 1 0X3588
B O 0X3650
B 5 0X3736
B E 0X3858
B 7 0X3894
B T 0X3966
H 6 0X3b3c
H 4 0X3c04
H 3 0X3cd6
H 2 0X3dd0
H 8 0X3ea2
H 1 0X3f56
H 9 0X4000
H 5 0X40dc
H O 0X41ae
H 7 0X423a
H E 0X42d0
H T 0X4398
B 6 0X44b0
B 3 0X458c
B 4 0X464a
B 8 0X473a
B 2 0X47f8
B 9 0X48c0
B 1 0X494c
B O 0X4a1e
B 5 0X4b0e
B E 0X4c58
B 7 0X4c9e
B T 0X4d48
H 3 0X4f14
H 6 0X4fd2
H 4 0X5090
H 2 0X51a8
H 8 0X5266
H 1 0X5306
H 9 0X53d8
H 5 0X5496
H O 0X5568
H 7 0X561c
H E 0X56a8
H T 0X5784
B 3 0X587e
B 4 0X5946
B 6 0X59fa
B 8 0X5ae0
B 2 0X5bbc
B 9 0X5ca2
B 1 0X5d42
B O 0X5e0a
B 5 0X5ed2
B E 0X5f90
B 7 0X6058
B T 0X6120
H 4 0X62c4
H 3 0X63aa
H 8 0X6486
H 6 0X6544
H 9 0X65ee
H 2 0X66de
H O 0X67ec
H 1 0X6864
H 5 0X692c
H 7 0X69fe
H E 0X6a76
H T 0X6b52
B 3 0X6c42
B 4 0X6d00
B 8 0X6ddc
B 9 0X6e9a
B 6 0X6f76
B O 0X7034
B 2 0X7110
B 5 0X71d8
B 1 0X7282
B E 0X7340
B 7 0X7412
B T 0X74e4
H 3 0X7692
H 8 0X776e
H 4 0X7818
H 6 0X791c
H 9 0X79bc
H 2 0X7a98
H O 0X7b4c
H 1 0X7c0a
H 5 0X7cd2
H 7 0X7dc2
H E 0X7e30
H T 0X7f16
B 8 0X802e
B 3 0X80e2
B 4 0X81aa
B 9 0X8268
B 6 0X8344
B O 0X83f8
B 2 0X848e
B 5 0X856a
B 1 0X8632
B E 0X86f0
B 7 0X87d6
B T 0X88a8
H 8 0X8aa6
H 4 0X8b64
H 3 0X8c4a
H 6 0X8cb8
H 9 0X8d9e
H 2 0X8e7a
H O 0X8f6a
H 1 0X8fec
H 5 0X9096
H 7 0X9190
H E 0X91fe
H T 0X92d0
B 4 0X93fc
B 8 0X94c4
B 3 0X95d2
B 9 0X9668
B 6 0X9712
B O 0X97ee
B 2 0X98ac
B 5 0X9960
B 1 0X9a1e
B E 0X9ad2
B 7 0X9b90
B T 0X9c6c
H 8 0X9e56
H 4 0X9f1e
H 9 0X9fe6
H 3 0Xa0c2
H O 0Xa1c6
H 6 0Xa220
H 5 0Xa2f2
H 2 0Xa3ec
H E 0Xa478
H 1 0Xa522
H 7 0Xa608
H T 0Xa6c6
B 8 0Xa7a2
B 9 0Xa87e
B 4 0Xa964
B O 0Xaa2c
B 3 0Xaaf4
B 5 0Xaba8
B 6 0Xac70
B E 0Xad4c
B 2 0Xae14
B 7 0Xaefa
B 1 0Xaf90
B T 0Xb080
H 9 0Xb238
H 8 0Xb2f6
H 4 0Xb3aa
H 3 0Xb4a4
H O 0Xb576
H 6 0Xb5ee
H 5 0Xb6de
H 2 0Xb7d8
H E 0Xb850
H 1 0Xb936
H 7 0Xba26
H T 0Xbad0
B 9 0Xbb7a
B 4 0Xbc7e
B 8 0Xbd1e
B O 0Xbe0e
B 3 0Xbecc
B 5 0Xbf94
B 6 0Xc07a
B E 0Xc1a6
B 2 0Xc1e2
B 7 0Xc2d2
B 1 0Xc35e
B T 0Xc462
H 4 0Xc638
H 9 0Xc6ce
H 8 0Xc782
H 3 0Xc868
H O 0Xc958
H 6 0Xca0c
H 5 0Xcae8
H 2 0Xcbc4
H E 0Xcc50
H 1 0Xcd18
H 7 0Xce08
H T 0Xcec6
B 4 0Xcf84
B 8 0Xd04c
B 9 0Xd128
B O 0Xd1dc
B 3 0Xd2cc
B 5 0Xd376
B 6 0Xd45c
B E 0Xd538
B 2 0Xd5e2
B 7 0Xd6b4
B 1 0Xd768
B T 0Xd830
H 8 0Xda10
H 4 0Xdace
H O 0Xdbaa
H 9 0Xdc40
H 5 0Xdd26
H 3 0Xddf8
H E 0Xdeb6
H 6 0Xdf7e
H 7 0Xe06e
H 2 0Xe136
H 1 0Xe1fe
H T 0Xe28a
B 4 0Xe38e
B 8 0Xe46a
B O 0Xe514
B 5 0Xe5e6
B 9 0Xe6ae
B E 0Xe794
B 3 0Xe866
B 7 0Xe8e8
B 6 0Xe9e2
B 1 0Xea96
B 2 0Xeb4a
B T 0Xec08
H 4 0Xedfc
H O 0Xeeba
H 8 0Xef6e
H 9 0Xf00e
H 5 0Xf108
H 3 0Xf1d0
H E 0Xf284
H 6 0Xf374
H 7 0Xf46e
H 2 0Xf536
H 1 0Xf5ea
H T 0Xf66c
B O 0Xf766
B 4 0Xf82e
B 8 0Xf8d8
B 5 0Xf9be
B 9 0Xfa9a
B E 0Xfb94
B 3 0Xfc3e
B 7 0Xfcfc
B 6 0Xfdc4
B 1 0Xfe50
B 2 0Xff2c
B T 0Xfffe
H O 0X01fc
H 8 0X029c
H 4 0X035a
H 9 0X0436
H 5 0X04fe
H 3 0X05c6
H E 0X065c
H 6 0X0760
H 7 0X0846
H 2 0X090e
H 1 0X09ea
H T 0X0ad0
B 8 0X0b52
B O 0X0c10
B 4 0X0cf6
B 5 0X0daa
B 9 0X0e72
B E 0X0f4e
B 3 0X100c
B 7 0X10de
B 6 0X119c
B 1 0X1246
B 2 0X1304
B T 0X1408
H O 0X15c0
H 8 0X1692
H 5 0X1746
H 4 0X184a
H E 0X18d6
H 9 0X19bc
H 7 0X1a98
H 3 0X1b38
H 1 0X1c14
H 6 0X1cc8
H 2 0X1dae
H T 0X1e6c
B O 0X1f3e
B 5 0X2010
B 8 0X20e2
B E 0X2196
B 4 0X224a
B 7 0X2326
B 9 0X23f8
B 1 0X248e
B 3 0X2592
B 2 0X2650
B 6 0X2722
B T 0X27ea
H 5 0X29c0
H O 0X2aba
H 8 0X2b3c
H 4 0X2c0e
H E 0X2cb8
H 9 0X2d9e
H 7 0X2e70
H 3 0X2f2e
H 1 0X3014
H 6 0X308c
H 2 0X3168
H T 0X3230
B 5 0X3334
B 8 0X33fc
B O 0X34c4
B E 0X35b4
B 4 0X3686
B 7 0X3712
B 9 0X37b2
B 1 0X3848
B 3 0X394c
B 2 0X3a14
B 6 0X3ab4
B T 0X3bae
H 8 0X3d8e
H 5 0X3e74
H O 0X3f50
H 4 0X402c
H E 0X40c2
H 9 0X4180
H 7 0X4248
H 3 0X4306
H 1 0X43ec
H 6 0X44a0
H 2 0X4540
H T 0X45fe
B 8 0X46e4
B O 0X47b6
B 5 0X4888
B E 0X4982
B 4 0X4a40
B 7 0X4b08
B 9 0X4bbc
B 1 0X4c70
B 3 0X4d60
B 2 0X4e0a
B 6 0X4edc
B T 0X4fa4
H O 0X5166
H 8 0X5224
H E 0X5300
H 5 0X53aa
H 7 0X54cc
H 4 0X558a
H 1 0X5666
H 9 0X5710
H 2 0X57d8
H 3 0X58a0
H 6 0X5922
H T 0X5a1c
B 8 0X5ad0
B O 0X5ba2
B E 0X5c88
B 7 0X5d46
B 5 0X5e04
B 1 0X5eb8
B 4 0X5fd0
B 2 0X6098
B 9 0X616a
B 6 0X6214
B 3 0X62e6
B T 0X63b8
H 8 0X6548
H E 0X6606
H O 0X670a
H 5 0X6796
H 7 0X6890
H 4 0X696c
H 1 0X6a5c
H 9 0X6af2
H 2 0X6ba6
H 3 0X6c78
H 6 0X6d36
H T 0X6e26
B E 0X6eee
B 8 0X6fac
B O 0X706a
B 7 0X711e
B 5 0X71fa
B 1 0X72ae
B 4 0X73d0
B 2 0X7484
B 9 0X7538
B 6 0X7600
B 3 0X76c8
B T 0X7790
H E 0X7920
H O 0X7a1a
H 8 0X7ae2
H 5 0X7b96
H 7 0X7c72
H 4 0X7d44
H 1 0X7e34
H 9 0X7ef2
H 2 0X7fa6
H 3 0X806e
H 6 0X8122
H T 0X81f4
B O 0X82bc
B E 0X83b6
B 8 0X8474
B 7 0X8528
B 5 0X85dc
B 1 0X869a
B 4 0X87a8
B 2 0X885c
B 9 0X892e
B 6 0X89f6
B 3 0X8aaa
B T 0X8b86
H E 0X8d34
H O 0X8e2e
H 7 0X8ef6
H 8 0X8fb4
H 1 0X909a
H 5 0X9126
H 2 0X9202
H 4 0X92d4
H 6 0X9388
H 9 0X9446
H 3 0X9518
H T 0X95fe
B E 0X9702
B 7 0X97c0
B O 0X987e
B 1 0X991e
B 8 0X99f0
B 2 0X9acc
B 5 0X9b80
B 6 0X9c66
B 4 0X9d24
B 3 0X9df6
B 9 0X9eb4
B T 0X9f90
H 7 0Xa134
H E 0Xa224
H O 0Xa328
H 8 0Xa3e6
H 1 0Xa49a
H 5 0Xa53a
H 2 0Xa60c
H 4 0Xa6d4
H 6 0Xa788
H 9 0Xa85a
H 3 0Xa904
H T 0Xa9f4
B 7 0Xaaa8
B O 0Xabc0
B E 0Xacba
B 1 0Xad1e
B 8 0Xadfa
B 2 0Xaecc
B 5 0Xaf80
B 6 0Xb05c
B 4 0Xb124
B 3 0Xb1ec
B 9 0Xb2aa
B T 0Xb3a4
H O 0Xb570
H 7 0Xb610
H E 0Xb6d8
H 8 0Xb7d2
H 1 0Xb87c
H 5 0Xb93a
H 2 0Xba16
H 4 0Xbaf2
H 6 0Xbb9c
H 9 0Xbc5a
H 3 0Xbd22
H T 0Xbdfe
B O 0Xbeda
B E 0Xbfa2
B 7 0Xc04c
B 1 0Xc100
B 8 0Xc1dc
B 2 0Xc2c2
B 5 0Xc376
B 6 0Xc470
B 4 0Xc54c
B 3 0Xc614
B 9 0Xc6d2
B T 0Xc7a4
H E 0Xc920
H O 0Xca1a
H 1 0Xcac4
H 7 0Xcbbe
H 2 0Xcc68
H 8 0Xcd26
H 6 0Xce0c
H 5 0Xcede
H 3 0Xcfa6
H 4 0Xd05a
H 9 0Xd12c
H T 0Xd212
B O 0Xd2b2
B E 0Xd3d4
B 1 0Xd460
B 2 0Xd51e
B 7 0Xd604
B 6 0Xd6c2
B 8 0Xd78a
B 3 0Xd852
B 5 0Xd8e8
B 9 0Xda00
B 4 0Xdab4
B T 0Xdbb8
H O 0Xdd66
H 1 0Xde10
H E 0Xdeba
H 7 0Xdfb4
H 2 0Xe05e
H 8 0Xe158
H 6 0Xe1ee
H 5 0Xe2de
H 3 0Xe3ba
H 4 0Xe46e
H 9 0Xe50e
H T 0Xe612
B 1 0Xe68a
B O 0Xe77a
B E 0Xe856
B 2 0Xe93c
B 7 0Xea0e
B 6 0Xeac2
B 8 0Xeb9e
B 3 0Xec52
B 5 0Xed06
B 9 0Xedec
B 4 0Xeeb4
B T 0Xef9a
H 1 0Xf134
H E 0Xf1de
H O 0Xf2b0
H 7 0Xf3aa
H 2 0Xf44a
H 8 0Xf51c
H 6 0Xf5e4
H 5 0Xf6ca
H 3 0Xf7ba
H 4 0Xf88c
H 9 0Xf936
H T 0Xf9fe
B E 0Xfb02
B 1 0Xfb5c
B O 0Xfbde
B 2 0Xfcf6
B 7 0Xfdd2
B 6 0Xfea4
B 8 0Xff6c
B 3 0X007a
B 5 0X00e8
B 9 0X01ce
B 4 0X02be
B T 0X0386
H 1 0X052a
H E 0X0610
H 2 0X069c
H O 0X0782
H 6 0X0836
H 7 0X093a
H 3 0X09ee
H 8 0X0aca
H 9 0X0b56
H 5 0X0c3c
H 4 0X0d2c
H T 0X0dd6
B 1 0X0e76
B 2 0X0f5c
B E 0X1056
B 6 0X110a
B O 0X11b4
B 3 0X1290
B 7 0X136c
B 9 0X1420
B 8 0X14b6
B 4 0X15b0
B 5 0X166e
B T 0X1768
H 2 0X193e
H 1 0X19f2
H E 0X1a88
H O 0X1b96
H 6 0X1c40
H 7 0X1d44
H 3 0X1dee
H 8 0X1eb6
H 9 0X1f4c
H 5 0X2028
H 4 0X20fa
H T 0X21cc
B 2 0X2294
B E 0X2366
B 1 0X23fc
B 6 0X2514
B O 0X25b4
B 3 0X269a
B 7 0X2758
B 9 0X282a
B 8 0X28e8
B 4 0X29ce
B 5 0X2a82
B T 0X2b72
H E 0X2d2a
H 2 0X2de8
H 1 0X2ec4
H O 0X2fb4
H 6 0X3040
H 7 0X3130
H 3 0X320c
H 8 0X32ca
H 9 0X3360
H 5 0X3446
H 4 0X3522
H T 0X35cc
B E 0X3702
B 1 0X3766
B 2 0X3810
B 6 0X390a
B O 0X39c8
B 3 0X3ac2
B 7 0X3b94
B 9 0X3c48
B 8 0X3d10
B 4 0X3e00
B 5 0X3ea0
B T 0X3f72
H 1 0X4120
H E 0X41f2
H 6 0X42ba
H 2 0X43aa
H 3 0X447c
H O 0X4576
H 9 0X45e4
H 7 0X46c0
H 4 0X4788
H 8 0X4850
H 5 0X4904
H T 0X49f4
B E 0X4ada
B 1 0X4b7a
B 6 0X4c2e
B 3 0X4d32
B 2 0X4dd2
B 9 0X4eb8
B O 0X4f6c
B 4 0X5034
B 7 0X5110
B 5 0X51d8
B 8 0X52aa
B T 0X5390
H E 0X5552
H 6 0X55ca
H 1 0X56d8
H 2 0X57aa
H 3 0X5868
H O 0X5944
H 9 0X59e4
H 7 0X5ab6
H 4 0X5b88
H 8 0X5c32
H 5 0X5d18
H T 0X5dfe
B 6 0X5ec6
B E 0X5fc0
B 1 0X6006
B 3 0X613c
B 2 0X61dc
B 9 0X62c2
B O 0X639e
B 4 0X6452
B 7 0X6510
B 5 0X65d8
B 8 0X66aa
B T 0X67a4
H 6 0X6916
H 1 0X69fc
H E 0X6aba
H 2 0X6bd2
H 3 0X6c90
H O 0X6d62
H 9 0X6dda
H 7 0X6eb6
H 4 0X6f9c
H 8 0X7078
H 5 0X710e
H T 0X71fe
B 1 0X7280
B 6 0X737a
B E 0X7488
B 3 0X7550
B 2 0X75e6
B 9 0X76b8
B O 0X776c
B 4 0X7884
B 7 0X7924
B 5 0X79e2
B 8 0X7aa0
B T 0X7b86
H 6 0X7d48
H 1 0X7e1a
H 3 0X7f00
H E 0X7fb4
H 9 0X807c
H 2 0X8126
H 4 0X8216
H O 0X82f2
H 5 0X8360
H 7 0X8450
H 8 0X8504
H T 0X8608
B 6 0X86d0
B 3 0X87ac
B 1 0X884c
B 9 0X8928
B E 0X8a22
B 4 0X8ab8
B 2 0X8b76
B 5 0X8c34
B O 0X8cd4
B 8 0X8db0
B 7 0X8e8c
B T 0X8f72
H 3 0X9170
H 6 0X9206
H 1 0X930a
H E 0X93aa
H 9 0X9472
H 2 0X9544
H 4 0X95e4
H O 0X96de
H 5 0X9774
H 7 0X986e
H 8 0X992c
H T 0X99e0
B 3 0X9ad0
B 1 0X9b98
B 6 0X9c38
B 9 0X9d0a
B E 0X9dfa
B 4 0X9ec2
B 2 0X9f58
B 5 0Xa066
B O 0Xa106
B 8 0Xa1ce
B 7 0Xa2b4
B T 0Xa372
H 1 0Xa552
H 3 0Xa624
H 6 0Xa6ec
H E 0Xa7aa
H 9 0Xa872
H 2 0Xa8fe
H 4 0Xaa16
H O 0Xaae8
H 5 0Xab7e
H 7 0Xac78
H 8 0Xad7c
H T 0Xae12
B 1 0Xae9e
B 6 0Xaf7a
B 3 0Xb074
B 9 0Xb132
B E 0Xb236
B 4 0Xb2fe
B 2 0Xb358
B 5 0Xb45c
B O 0Xb4e8
B 8 0Xb61e
B 7 0Xb6e6
B T 0Xb7ae
H 6 0Xb92a
H 1 0Xba24
H 9 0Xbaec
H 3 0Xbbaa
H 4 0Xbc86
H E 0Xbd62
H 5 0Xbe16
H 2 0Xbef2
H 8 0Xbfb0
H O 0Xc0aa
H 7 0Xc14a
H T 0Xc230
B 1 0Xc2c6
B 6 0Xc3de
B 9 0Xc474
B 4 0Xc546
B 3 0Xc5fa
B 5 0Xc6e0
B E 0Xc82a
B 8 0Xc884
B 2 0Xc91a
B 7 0Xca0a
B O 0Xcae6
B T 0Xcbcc
H 1 0Xcd84
H 9 0Xce24
H 6 0Xceec
H 3 0Xcf96
H 4 0Xd036
H E 0Xd13a
H 5 0Xd202
H 2 0Xd2fc
H 8 0Xd3ce
H O 0Xd4be
H 7 0Xd554
H T 0Xd5fe
B 9 0Xd6f8
B 1 0Xd798
B 6 0Xd892
B 4 0Xd932
B 3 0Xda22
B 5 0Xdad6
B E 0Xdba8
B 8 0Xdc52
B 2 0Xdd2e
B 7 0Xde00
B O 0Xded2
B T 0Xdfae
H 9 0Xe198
H 6 0Xe242
H 1 0Xe314
H 3 0Xe3a0
H 4 0Xe472
H E 0Xe530
H 5 0Xe5f8
H 2 0Xe706
H 8 0Xe7b0
H O 0Xe88c
H 7 0Xe940
H T 0Xea08
B 6 0Xeada
B 9 0Xebe8
B 1 0Xec74
B 4 0Xed50
B 3 0Xee40
B 5 0Xeed6
B E 0Xf00c
B 8 0Xf052
B 2 0Xf124
B 7 0Xf20a
B O 0Xf2c8
B T 0Xf39a
H 9 0Xf53e
H 6 0Xf61a
H 4 0Xf714
H 1 0Xf7e6
H 5 0Xf890
H 3 0Xf96c
H 8 0Xfa2a
H E 0Xfade
H 2 0Xfbba
H O 0Xfcb4
H 7 0Xfd4a
H T 0Xfe08
B 9 0Xfee4
B 4 0Xffb6
B 6 0X0056
B 5 0X016e
B 1 0X0222
B 8 0X02e0
B 3 0X03a8
B 2 0X0484
B E 0X054c
B 7 0X0632
B O 0X06d2
B T 0X07a4
H 4 0X097a
H 9 0X0a1a
H 6 0X0b0a
H 1 0X0bdc
H 5 0X0ca4
H 3 0X0d58
H 8 0X0e2a
H E 0X0f10
H 2 0X0fc4
H O 0X1096
H 7 0X1122
H T 0X11fe
B 4 0X12ee
B 6 0X13ca
B 9 0X149c
B 5 0X1582
B 1 0X162c
B 8 0X16ea
B 3 0X17b2
B 2 0X187a
B E 0X194c
B 7 0X1a0a
B O 0X1ac8
B T 0X1bae
H 6 0X1d8e
H 4 0X1e7e
H 9 0X1f14
H 1 0X1ff0
H 5 0X209a
H 3 0X2162
H 8 0X2252
H E 0X22f2
H 2 0X23b0
H O 0X2496
H 7 0X254a
H T 0X2612
B 6 0X270c
B 9 0X27fc
B 4 0X2892
B 5 0X2978
B 1 0X2a22
B 8 0X2b12
B 3 0X2bbc
B 2 0X2c7a
B E 0X2d42
B 7 0X2e00
B O 0X2ec8
B T 0X2fc2
H 9 0X3184
H 6 0X3242
H 5 0X3346
H 4 0X33fa
H 8 0X34cc
H 1 0X3580
H 2 0X3670
H 3 0X371a
H 7 0X37e2
H E 0X386e
H O 0X399a
H T 0X3a30
B 6 0X3b02
B 9 0X3be8
B 5 0X3cc4
B 8 0X3d78
B 4 0X3e4a
B 2 0X3f12
B 1 0X3fe4
B 7 0X4098
B 3 0X4160
B O 0X4228
B E 0X42e6
B T 0X43d6
H 6 0X4566
H 5 0X466a
H 9 0X4714
H 4 0X47dc
H 8 0X48ae
H 1 0X4980
H 2 0X4a3e
H 3 0X4b06
H 7 0X4be2
H E 0X4ca0
H O 0X4d86
H T 0X4e3a
B 5 0X4f2a
B 6 0X4fe8
B 9 0X50a6
B 8 0X5146
B 4 0X524a
B 2 0X52fe
B 1 0X53d0
B 7 0X5470
B 3 0X5542
B O 0X55ec
B E 0X56e6
B T 0X579a
H 5 0X597a
H 9 0X5a4c
H 6 0X5b0a
H 4 0X5c04
H 8 0X5cd6
H 1 0X5d8a
H 2 0X5e16
H 3 0X5f10
H 7 0X6000
H E 0X608c
H O 0X617c
H T 0X61f4
B 9 0X62f8
B 5 0X63e8
B 6 0X647e
B 8 0X6578
B 4 0X6668
B 2 0X6730
B 1 0X67d0
B 7 0X68ac
B 3 0X694c
B O 0X69ce
B E 0X6ae6
B T 0X6b9a
H 5 0X6d7a
H 9 0X6e6a
H 8 0X6f32
H 6 0X6ffa
H 2 0X7108
H 4 0X71bc
H 7 0X72ac
H 1 0X734c
H O 0X73ba
H 3 0X746e
H E 0X7518
H T 0X75d6
B 5 0X770c
B 8 0X77ca
B 9 0X7888
B 2 0X7996
B 6 0X7a54
B 7 0X7b44
B 4 0X7c0c
B O 0X7cac
B 1 0X7d24
B E 0X7dce
B 3 0X7ebe
B T 0X7f90
H 8 0X81a2
H 5 0X8260
H 9 0X830a
H 6 0X83d2
H 2 0X84b8
H 4 0X8594
H 7 0X8670
H 1 0X8710
H O 0X87e2
H 3 0X88b4
H E 0X8936
H T 0X89e0
B 8 0X8ada
B 9 0X8bca
B 5 0X8c92
B 2 0X8d78
B 6 0X8e54
B 7 0X8f26
B 4 0X8fb2
B O 0X907a
B 1 0X90d4
B E 0X920a
B 3 0X92f0
B T 0X937c
H 9 0X9598
H 8 0X9660
H 5 0X970a
H 6 0X97f0
H 2 0X98cc
H 4 0X998a
H 7 0X9a5c
H 1 0X9ae8
H O 0X9bd8
H 3 0X9c6e
H E 0X9d22
H T 0X9dd6
B 9 0X9f16
B 5 0X9fe8
B 8 0Xa09c
B 2 0Xa196
B 6 0Xa236
B 7 0Xa2fe
B 4 0Xa3da
B O 0Xa47a
B 1 0Xa4f2
B E 0Xa60a
B 3 0Xa6e6
B T 0Xa772
H 5 0Xa93e
H 9 0Xaa42
H 2 0Xaaf6
H 8 0Xabd2
H 7 0Xad08
H 6 0Xad80
H O 0Xae5c
H 4 0Xaf1a
H 1 0Xafe2
H 3 0Xb064
H E 0Xb12c
H T 0Xb1ea
B 9 0Xb2ee
B 5 0Xb3b6
B 2 0Xb47e
B 7 0Xb532
B 8 0Xb604
B O 0Xb6fe
B 6 0Xb7a8
B 1 0Xb848
B 4 0Xb960
B E 0Xba28
B 3 0Xbabe
B T 0Xbb90
H 9 0Xbd5c
H 2 0Xbe42
H 5 0Xbf00
H 8 0Xbfc8
H 7 0Xc086
H 6 0Xc16c
H O 0Xc248
H 4 0Xc2f2
H 1 0Xc3c4
H 3 0Xc478
H E 0Xc4dc
H T 0Xc5e0
B 2 0Xc702
B 9 0Xc7c0
B 5 0Xc892
B 7 0Xc932
B 8 0Xca04
B O 0Xcad6
B 6 0Xcbb2
B 1 0Xcc3e
B 4 0Xcd1a
B E 0Xcdec
B 3 0Xcebe
B T 0Xcf7c
H 2 0Xd148
H 5 0Xd210
H 9 0Xd2ec
H 8 0Xd3d2
H 7 0Xd4a4
H 6 0Xd544
H O 0Xd652
H 4 0Xd6a2
H 1 0Xd76a
H 3 0Xd85a
H E 0Xd8fa
H T 0Xd9d6
B 5 0Xdae4
B 2 0Xdbb6
B 9 0Xdc7e
B 7 0Xdd46
B 8 0Xddf0
B O 0Xdec2
B 6 0Xdfa8
B 1 0Xe02a
B 4 0Xe106
B E 0Xe1ba
B 3 0Xe296
B T 0Xe340
H 2 0Xe520
H 5 0Xe5f2
H 7 0Xe6ce
H 9 0Xe796
H O 0Xe890
H 8 0Xe962
H 1 0Xea02
H 6 0Xea98
H E 0Xeb88
H 4 0Xec28
H 3 0Xecfa
H T 0Xedae
B 2 0Xee9e
B 7 0Xef84
B 5 0Xf04c
B O 0Xf0e2
B 9 0Xf1e6
B 1 0Xf268
B 8 0Xf330
B E 0Xf43e
B 6 0Xf506
B 3 0Xf5ce
B 4 0Xf6a0
B T 0Xf72c
H 7 0Xf920
H 2 0Xf9de
H 5 0Xfaa6
H 9 0Xfb5a
H O 0Xfc72
H 8 0Xfd1c
H 1 0Xfdbc
H 6 0Xfeb6
H E 0Xff2e
H 4 0X001e
H 3 0X00dc
H T 0X01a4
B 7 0X0276
B 5 0X0384
B 2 0X044c
B O 0X04f6
B 9 0X05d2
B 1 0X064a
B 8 0X0712
B E 0X080c
B 6 0X08e8
B 3 0X09b0
B 4 0X0a82
B T 0X0b40
H 5 0X0d16
H 7 0X0df2
H 2 0X0ea6
H 9 0X0f78
H O 0X1072
H 8 0X10fe
H 1 0X119e
H 6 0X12a2
H E 0X134c
H 4 0X1428
H 3 0X14f0
H T 0X1590
B 5 0X1694
B 2 0X177a
B 7 0X182e
B O 0X18f6
B 9 0X19b4
B 1 0X1a40
B 8 0X1afe
B E 0X1bee
B 6 0X1d06
B 3 0X1db0
B 4 0X1e82
B T 0X1f40
H 2 0X2116
H 5 0X21b6
H O 0X22c4
H 7 0X2364
H 1 0X23fa
H 9 0X24ae
H E 0X258a
H 8 0X2670
H 3 0X2756
H 6 0X2814
H 4 0X28f0
H T 0X29ae
B 5 0X2a8a
B 2 0X2b70
B O 0X2c06
B 1 0X2cce
B 7 0X2d96
B E 0X2ea4
B 9 0X2f3a
B 3 0X2ff8
B 8 0X30a2
B 4 0X317e
B 6 0X3246
B T 0X3336
H 5 0X34e4
H O 0X35f2
H 2 0X3688
H 7 0X3746
H 1 0X3804
H 9 0X38b8
H E 0X398a
H 8 0X3a7a
H 3 0X3b06
H 6 0X3bd8
H 4 0X3ca0
H T 0X3d86
B O 0X3e76
B 5 0X3f7a
B 2 0X4042
B 1 0X40ec
B 7 0X41be
B E 0X42a4
B 9 0X434e
B 3 0X43d0
B 8 0X448e
B 4 0X456a
B 6 0X461e
B T 0X4722
H O 0X4948
H 2 0X49ca
H 5 0X4a88
H 7 0X4b78
H 1 0X4c18
H 9 0X4cae
H E 0X4d80
H 8 0X4e70
H 3 0X4f38
H 6 0X4ff6
H 4 0X508c
H T 0X5186
B 2 0X529e
B O 0X5352
B 5 0X541a
B 1 0X54ce
B 7 0X5596
B E 0X56a4
B 9 0X573a
B 3 0X57ee
B 8 0X5898
B 4 0X5988
B 6 0X5a5a
B T 0X5b2c
H O 0X5d0c
H 2 0X5dac
H 1 0X5e74
H 5 0X5f50
H E 0X6018
H 7 0X60c2
H 3 0X619e
H 9 0X625c
H 4 0X62fc
H 8 0X63f6
H 6 0X64be
H T 0X65a4
B O 0X6658
B 1 0X66f8
B 2 0X67e8
B E 0X68b0
B 5 0X69be
B 3 0X6a5e
B 7 0X6b08
B 4 0X6be4
B 9 0X6c98
B 6 0X6d6a
B 8 0X6e3c
B T 0X6f40
H 1 0X70da
H O 0X715c
H 2 0X7224
H 5 0X7328
H E 0X73d2
H 7 0X749a
H 3 0X7580
H 9 0X762a
H 4 0X7710
H 8 0X7800
H 6 0X7882
H T 0X7990
B 1 0X7a30
B 2 0X7aee
B O 0X7bac
B E 0X7c4c
B 5 0X7d6e
B 3 0X7e4a
B 7 0X7ef4
B 4 0X7ff8
B 9 0X807a
B 6 0X816a
B 8 0X8214
B T 0X8304
H 2 0X84a8
H 1 0X858e
H O 0X8638
H 5 0X871e
H E 0X8796
H 7 0X8872
H 3 0X8958
H 9 0X8a3e
H 4 0X8ae8
H 8 0X8be2
H 6 0X8c8c
H T 0X8d7c
B 2 0X8e1c
B O 0X8ec6
B 1 0X8f84
B E 0X9038
B 5 0X9164
B 3 0X9222
B 7 0X92cc
B 4 0X9380
B 9 0X9470
B 6 0X954c
B 8 0X9614
B T 0X96f0
H O 0X98b2
H 2 0X9948
H E 0X99fc
H 1 0X9ac4
H 3 0X9b96
H 5 0X9c5e
H 4 0X9d62
H 7 0X9dee
H 6 0X9ee8
H 9 0X9fb0
H 8 0Xa08c
H T 0Xa154
B 2 0Xa230
B O 0Xa28a
B E 0Xa35c
B 3 0Xa442
B 1 0Xa514
B 4 0Xa5dc
B 5 0Xa6ae
B 6 0Xa758
B 7 0Xa85c
B 8 0Xa938
B 9 0Xa9d8
B T 0Xaabe
H 2 0Xac94
H E 0Xad20
H O 0Xae24
H 1 0Xaeba
H 3 0Xaf8c
H 5 0Xb02c
H 4 0Xb13a
H 7 0Xb1da
H 6 0Xb234
H 9 0Xb356
H 8 0Xb43c
H T 0Xb504
B E 0Xb5f4
B 2 0Xb6c6
B O 0Xb73e
B 3 0Xb842
B 1 0Xb8ec
B 4 0Xb9d2
B 5 0Xba86
B 6 0Xbb62
B 7 0Xbc3e
B 8 0Xbcfc
B 9 0Xbd9c
B T 0Xbe8c
H E 0Xc030
H O 0Xc166
H 2 0Xc1d4
H 1 0Xc2a6
H 3 0Xc36e
H 5 0Xc404
H 4 0Xc512
H 7 0Xc5a8
H 6 0Xc670
H 9 0Xc724
H 8 0Xc800
H T 0Xc8f0
B O 0Xc9c2
B E 0Xcaa8
B 2 0Xcb70
B 3 0Xcc4c
B 1 0Xccf6
B 4 0Xcdbe
B 5 0Xce7c
B 6 0Xcf30
B 7 0Xd02a
B 8 0Xd0de
B 9 0Xd188
B T 0Xd264
H E 0Xd3fe
H O 0Xd50c
H 3 0Xd5ca
H 2 0Xd6ba
H 4 0Xd782
H 1 0Xd840
H 6 0Xd8e0
H 5 0Xd9b2
H 8 0Xda98
H 7 0Xdb74
H 9 0Xdbf6
H T 0Xdcd2
B E 0Xddae
B 3 0Xde76
B O 0Xdf02
B 4 0Xe02e
B 2 0Xe100
B 6 0Xe1aa
B 1 0Xe268
B 8 0Xe330
B 5 0Xe420
B 9 0Xe4c0
B 7 0Xe5a6
B T 0Xe66e
H 3 0Xe81c
H E 0Xe8e4
H O 0Xe9d4
H 2 0Xeace
H 4 0Xeb32
H 1 0Xec0e
H 6 0Xecc2
H 5 0Xedbc
H 8 0Xee84
H 7 0Xef38
H 9 0Xf000
H T 0Xf0b4
B 3 0Xf1ae
B O 0Xf230
B E 0Xf320
B 4 0Xf410
B 2 0Xf4e2
B 6 0Xf5a0
B 1 0Xf64a
B 8 0Xf726
B 5 0Xf7ee
B 9 0Xf8ac
B 7 0Xf974
B T 0Xfa3c
H O 0Xfc1c
H 3 0Xfca8
H E 0Xfd70
H 2 0Xfe88
H 4 0Xff32
H 1 0Xfffa
H 6 0X00c2
H 5 0X0194
H 8 0X0284
H 7 0X0342
H 9 0X03e2
H T 0X04aa
B O 0X0572
B E 0X0658
B 3 0X070c
B 4 0X07de
B 2 0X08b0
B 6 0X0996
B 1 0X0a40
B 8 0X0af4
B 5 0X0bda
B 9 0X0cac
B 7 0X0d7e
B T 0X0e3c
H E 0X0fb8
H O 0X10e4
H 4 0X11ac
H 3 0X127e
H 6 0X1328
H 2 0X1422
H 8 0X14d6
H 1 0X1594
H 9 0X165c
H 5 0X172e
H 7 0X17ec
B O 0X1922
H T 0X195e
B E 0X1a94
B 4 0X1b3e
B 6 0X1bf2
B 3 0X1cc4
B 8 0X1d6e
B 2 0X1e4a
B 9 0X1f26
B 1 0X1f94
B 7 0X20c0
B 5 0X219c
B T 0X226e
H O 0X23ea
H 4 0X248a
H E 0X257a
H 3 0X2674
H 6 0X2746
H 2 0X2840
H 8 0X28e0
H 1 0X296c
H 9 0X2a2a
H 5 0X2b2e
H 7 0X2bf6
H T 0X2cc8
B 4 0X2d68
B O 0X2df4
B E 0X2f2a
B 6 0X2fd4
B 3 0X30ba
B 8 0X3182
B 2 0X324a
B 9 0X32e0
B 1 0X3362
B 7 0X3498
B 5 0X3574
B T 0X366e
H 4 0X37c2
H E 0X38c6
H O 0X3998
H 3 0X3a60
H 6 0X3b1e
H 2 0X3c18
H 8 0X3ccc
H 1 0X3d62
H 9 0X3e2a
H 5 0X3f1a
H 7 0X4000
H T 0X40b4
B 4 0X4230
B E 0X4276
B O 0X42da
B 6 0X43a2
B 3 0X4492
B 8 0X455a
B 2 0X462c
B 9 0X46cc
B 1 0X476c
B 7 0X487a
B 5 0X496a
B T 0X4a46
H 4 0X4bea
H E 0X4cb2
H 6 0X4d66
H O 0X4e60
H 8 0X4f28
H 3 0X4fe6
H 9 0X50a4
H 2 0X516c
H 7 0X5248
H 1 0X52f2
H 5 0X53b0
H T 0X5482
B 4 0X554a
B 6 0X561c
B E 0X5720
B 8 0X57ca
B O 0X586a
B 9 0X596e
B 3 0X5a40
B 7 0X5b08
B 2 0X5bd0
B 5 0X5ca2
B 1 0X5d42
B T 0X5e28
H 6 0X5fcc
H 4 0X60c6
H E 0X6152
H O 0X6256
H 8 0X630a
H 3 0X63dc
H 9 0X6472
H 2 0X658a
H 7 0X663e
H 1 0X66de
H 5 0X679c
H T 0X6896
B 6 0X6954
B E 0X6a4e
B 4 0X6ada
B 8 0X6b98
B O 0X6c6a
B 9 0X6d5a
B 3 0X6e22
B 7 0X6efe
B 2 0X6fd0
B 5 0X70ac
B 1 0X712e
B T 0X720a
H E 0X73c2
H 6 0X74a8
H 4 0X7548
H O 0X762e
H 8 0X7728
H 3 0X77d2
H 9 0X7854
H 2 0X7958
H 7 0X7a2a
H 1 0X7ae8
H 5 0X7ba6
H T 0X7c8c
B E 0X7d90
B 4 0X7e44
B 6 0X7eee
B 8 0X7fc0
B O 0X806a
B 9 0X8146
B 3 0X8236
B 7 0X82f4
B 2 0X83bc
B 5 0X8498
B 1 0X852e
B T 0X860a
H 4 0X87cc
H E 0X88bc
H 8 0X8984
H 6 0X8a10
H 9 0X8ae2
H O 0X8bd2
H 7 0X8cae
H 3 0X8d8a
H 5 0X8e3e
H 2 0X8f24
H 1 0X9014
H T 0X90a0
B E 0X91ae
B 4 0X923a
B 8 0X9302
B 9 0X93a2
B 6 0X9492
B 7 0X955a
B O 0X960e
B 5 0X9726
B 3 0X97f8
B 1 0X9884
B 2 0X9924
B T 0X9a14
H E 0X9be0
H 8 0X9cc6
H 4 0X9d52
H 6 0X9e60
H 9 0X9f00
H O 0X9ff0
H 7 0Xa090
H 3 0Xa194
H 5 0Xa248
H 2 0Xa324
H 1 0Xa40a
H T 0Xa4a0
B 8 0Xa554
B E 0Xa63a
B 4 0Xa6e4
B 9 0Xa7a2
B 6 0Xa892
B 7 0Xa96e
B O 0Xaa40
B 5 0Xab12
B 3 0Xabe4
B 1 0Xac70
B 2 0Xad4c
B T 0Xae32
H 8 0Xaff4
H 4 0Xb08a
H E 0Xb152
H 6 0Xb22e
H 9 0Xb2ec
H O 0Xb40e
H 7 0Xb486
H 3 0Xb56c
H 5 0Xb63e
H 2 0Xb72e
H 1 0Xb80a
H T 0Xb8aa
B 4 0Xb968
B 8 0Xba12
B E 0Xbaee
B 9 0Xbb98
B 6 0Xbc88
B 7 0Xbd50
B O 0Xbe2c
B 5 0Xbf12
B 3 0Xbfc6
B 1 0Xc048
B 2 0Xc12e
B T 0Xc214
H 8 0Xc3ea
H 4 0Xc4b2
H 9 0Xc52a
H E 0Xc5e8
H 7 0Xc70a
H 6 0Xc7dc
H 5 0Xc8a4
H O 0Xc9b2
H 1 0Xca70
H 3 0Xcb1a
H 2 0Xcbb0
H T 0Xcc82
B 8 0Xcd4a
B 9 0Xce26
B 4 0Xcef8
B 7 0Xcfb6
B E 0Xd07e
B 5 0Xd15a
B 6 0Xd222
B 1 0Xd2f4
B O 0Xd39e
B 2 0Xd47a
B 3 0Xd54c
B T 0Xd5f6
H 9 0Xd808
H 8 0Xd8bc
H 4 0Xd948
H E 0Xda24
H 7 0Xdb14
H 6 0Xdbdc
H 5 0Xdcb8
H O 0Xdd80
H 1 0Xde20
H 3 0Xded4
H 2 0Xdfb0
H T 0Xe050
B 9 0Xe154
B 4 0Xe208
B 8 0Xe2e4
B 7 0Xe3d4
B E 0Xe4b0
B 5 0Xe55a
B 6 0Xe62c
B 1 0Xe67c
B O 0Xe780
B 2 0Xe898
B 3 0Xe956
B T 0Xe9ce
H 4 0Xebc2
H 9 0Xec76
H 8 0Xed52
H E 0Xee24
H 7 0Xef0a
H 6 0Xeff0
H 5 0Xf0b8
H O 0Xf180
H 1 0Xf216
H 3 0Xf2b6
H 2 0Xf39c
H T 0Xf43c
B 4 0Xf536
B 8 0Xf608
B 9 0Xf6b2
B 7 0Xf7ac
B E 0Xf892
B 5 0Xf950
B 6 0Xfa0e
B 1 0Xfaae
B O 0Xfb94
B 2 0Xfc70
B 3 0Xfd42
B T 0Xfde2
H 8 0Xffb8
H 4 0X006c
H 7 0X017a
H 9 0X021a
H 5 0X02f6
H E 0X0382
H 1 0X045e
H 6 0X0530
H 2 0X0620
H O 0X06e8
H 3 0X07a6
H T 0X085a
B 4 0X0954
B 8 0X0a08
B 7 0X0ae4
B 5 0X0bac
B 9 0X0c60
B 1 0X0d1e
B E 0X0e5e
B 2 0X0ecc
B 6 0X0f94
B 3 0X107a
B O 0X112e
B T 0X11f6
H 4 0X13ae
H 7 0X1494
H 8 0X1534
H 9 0X15f2
H 5 0X16f6
H E 0X178c
H 1 0X1854
H 6 0X193a
H 2 0X1a16
H O 0X1af2
H 3 0X1b92
H T 0X1c82
B 7 0X1d0e
B 4 0X1dc2
B 8 0X1eb2
B 5 0X1f8e
B 9 0X206a
B 1 0X2114
B E 0X21e6
B 2 0X22cc
B 6 0X236c
B 3 0X2448
B O 0X2506
B T 0X2600
H 7 0X279a
H 8 0X2862
H 4 0X2920
H 9 0X29ca
H 5 0X2aa6
H E 0X2b5a
H 1 0X2c18
H 6 0X2d08
H 2 0X2de4
H O 0X2eb6
H 3 0X2f6a
H T 0X3046
B 8 0X3104
B 7 0X31fe
B 4 0X32bc
B 5 0X338e
B 9 0X3438
B 1 0X349c
B E 0X358c
B 2 0X367c
B 6 0X3744
B 3 0X3802
B O 0X38c0
B T 0X39c4
H 7 0X3b86
H 8 0X3c30
H 5 0X3cee
H 4 0X3e06
H 1 0X3ec4
H 9 0X3f64
H 2 0X4040
H E 0X40d6
H 6 0X4194
H O 0X427a
H 3 0X4310
H T 0X440a
B 7 0X4522
B 5 0X45e0
B 8 0X4680
B 1 0X4748
B 4 0X47fc
B 2 0X48ec
B 9 0X49aa
B 6 0X4aa4
B E 0X4b4e
B 3 0X4c0c
B O 0X4c98
B T 0X4d7e
H 5 0X4f68
H 7 0X5058
H 8 0X510c
H 4 0X51ca
H 1 0X52b0
H 9 0X535a
H 2 0X5418
H E 0X54e0
H 6 0X559e
H O 0X568e
H 3 0X571a
H T 0X57ce
B 5 0X58c8
B 8 0X59a4
B 7 0X5a80
B 1 0X5b02
B 4 0X5c06
B 2 0X5cce
B 9 0X5d8c
B 6 0X5e7c
B E 0X5f58
B 3 0X5ff8
B O 0X60a2
B T 0X616a
H 8 0X6372
H 5 0X641c
H 7 0X64f8
H 4 0X65ca
H 1 0X6692
H 9 0X671e
H 2 0X67d2
H E 0X68b8
H 6 0X699e
H O 0X6a7a
H 3 0X6b1a
H T 0X6be2
B 8 0X6cdc
B 7 0X6dae
B 5 0X6e80
B 1 0X6f20
B 4 0X701a
B 2 0X70b0
B 9 0X7164
B 6 0X7272
B E 0X7326
B 3 0X73da
B O 0X747a
B T 0X7574
H 7 0X7754
H 8 0X7812
H 1 0X78e4
H 5 0X79a2
H 2 0X7a88
H 4 0X7b6e
H 6 0X7bfa
H 9 0X7ca4
H 3 0X7db2
H E 0X7e0c
H O 0X7f42
H T 0X7fd8
B 8 0X80a0
B 7 0X817c
B 1 0X81fe
B 2 0X8334
B 5 0X83ca
B 6 0X84c4
B 4 0X8596
B 3 0X867c
B 9 0X8730
B O 0X87da
B E 0X88c0
B T 0X897e
H 8 0X8b4a
H 1 0X8c08
H 7 0X8cda
H 5 0X8d66
H 2 0X8e56
H 4 0X8ef6
H 6 0X8fd2
H 9 0X90a4
H 3 0X916c
H E 0X9234
H O 0X932e
H T 0X93ce
B 1 0X9478
B 8 0X955e
B 7 0X9630
B 2 0X972a
B 5 0X97ca
B 6 0X989c
B 4 0X9982
B 3 0X9a40
B 9 0X9afe
B O 0X9bc6
B E 0X9c8e
B T 0X9d6a
H 1 0X9efa
H 7 0X9fea
H 8 0Xa09e
H 5 0Xa198
H 2 0Xa260
H 4 0Xa31e
H 6 0Xa3dc
H 9 0Xa490
H 3 0Xa530
H E 0Xa62a
H O 0Xa71a
H T 0Xa7ce
B 7 0Xa8a0
B 1 0Xa940
B 8 0Xaa08
B 2 0Xab16
B 5 0Xabc0
B 6 0Xacb0
B 4 0Xad64
B 3 0Xae36
B 9 0Xaee0
B O 0Xafb2
B E 0Xb08e
B T 0Xb156
H 1 0Xb30e
H 7 0Xb3f4
H 2 0Xb49e
H 8 0Xb57a
H 6 0Xb656
H 5 0Xb728
H 3 0Xb7d2
H 4 0Xb87c
H O 0Xb962
H 9 0Xb9f8
H E 0Xbb06
H T 0Xbb9c
B 1 0Xbc50
B 2 0Xbd4a
B 7 0Xbdfe
B 6 0Xbf0c
B 8 0Xbfd4
B 3 0Xc09c
B 5 0Xc15a
B O 0Xc20e
B 4 0Xc2e0
B E 0Xc3bc
B 9 0Xc470
B T 0Xc524
H 2 0Xc704
H 1 0Xc7d6
H 7 0Xc8b2
H 8 0Xc97a
H 6 0Xca24
H 5 0Xcb1e
H 3 0Xcbe6
H 4 0Xccc2
H O 0Xcd8a
H 9 0Xce0c
H E 0Xcede
H T 0Xcf88
B 2 0Xd08c
B 7 0Xd154
B 1 0Xd1f4
B 6 0Xd2d0
B 8 0Xd3b6
B 3 0Xd492
B 5 0Xd55a
B O 0Xd5f0
B 4 0Xd712
B E 0Xd7d0
B 9 0Xd884
B T 0Xd94c
H 7 0Xdb2c
H 2 0Xdbea
H 1 0Xdcc6
H 8 0Xdd52
H 6 0Xde10
H 5 0Xdf0a
H 3 0Xdfe6
H 4 0Xe0b8
H O 0Xe16c
H 9 0Xe202
H E 0Xe2de
H T 0Xe392
B 7 0Xe478
B 1 0Xe50e
B 2 0Xe5fe
B 6 0Xe702
B 8 0Xe7d4
B 3 0Xe8a6
B 5 0Xe93c
B O 0Xea04
B 4 0Xead6
B E 0Xec0c
B 9 0Xec70
B T 0Xed42
H 1 0Xeee6
H 7 0Xefcc
H 6 0Xf0c6
H 2 0Xf170
H 3 0Xf238
H 8 0Xf31e
H O 0Xf3f0
H 5 0Xf486
H 4 0Xf530
H E 0Xf5ee
H 9 0Xf6de
H T 0Xf7a6
B 7 0Xf846
B 1 0Xf8fa
B 6 0Xfa1c
B 3 0Xfaee
B 2 0Xfb98
B O 0Xfc60
B 8 0Xfd00
B 4 0Xfdfa
B 5 0Xfecc
B 9 0Xff76
B E 0X005c
B T 0X012e
H 7 0X02e6
H 6 0X0390
H 1 0X0494
H 2 0X052a
H 3 0X05fc
H 8 0X06d8
H O 0X07c8
H 5 0X087c
H 4 0X093a
H E 0X09ee
H 9 0X0aac
H T 0X0b74
B 6 0X0c64
B 7 0X0d22
B 1 0X0d90
B 3 0X0e9e
B 2 0X0f5c
B O 0X0ffc
B 8 0X10b0
B 4 0X11e6
B 5 0X12cc
B 9 0X133a
B E 0X145c
B T 0X151a
H 6 0X1696
H 1 0X177c
H 7 0X1880
H 2 0X1948
H 3 0X19f2
H 8 0X1ab0
H O 0X1baa
H 5 0X1c54
H 4 0X1d08
H E 0X1de4
H 9 0X1e66
H T 0X1f60
B 1 0X201e
B 6 0X2104
B 7 0X21f4
B 3 0X229e
B 2 0X235c
B O 0X23fc
B 8 0X24b0
B 4 0X25dc
B 5 0X2686
B 9 0X2744
B E 0X2848
B T 0X2906
H 6 0X2abe
H 1 0X2bb8
H 3 0X2c30
H 7 0X2d0c
H O 0X2dfc
H 2 0X2e92
H 4 0X2f6e
H 8 0X3036
H 9 0X30d6
H 5 0X31da
H E 0X328e
H T 0X334c
B 6 0X345a
B 3 0X3518
B 1 0X35ae
B O 0X368a
B 7 0X3748
B 4 0X381a
B 2 0X38b0
B 9 0X39a0
B 8 0X3a40
B E 0X3b58
B 5 0X3c34
B T 0X3d06
H 3 0X3ec8
H 6 0X3f5e
H 1 0X4058
H 7 0X4134
H O 0X421a
H 2 0X4292
H 4 0X4332
H 8 0X440e
H 9 0X44a4
H 5 0X45d0
H E 0X462a
H T 0X471a
B 3 0X483c
B 1 0X48d2
B 6 0X499a
B O 0X4a6c
B 7 0X4b3e
B 4 0X4c06
B 2 0X4cd8
B 9 0X4d82
B 8 0X4e2c
B E 0X4f1c
B 5 0X5020
B T 0X50e8
H 1 0X5296
H 3 0X535e
H 6 0X5430
H 7 0X5516
H O 0X55f2
H 2 0X569c
H 4 0X5746
H 8 0X5804
H 9 0X589a
H 5 0X59bc
H E 0X5a5c
H T 0X5b1a
B 1 0X5bf6
B 6 0X5cb4
B 3 0X5d90
B O 0X5e58
B 7 0X5f3e
B 4 0X6006
B 2 0X60d8
B 9 0X6178
B 8 0X6218
B E 0X6312
B 5 0X6402
B T 0X64de
H 6 0X668c
H 1 0X6786
H O 0X6812
H 3 0X68a8
H 4 0X69b6
H 7 0X6a7e
H 9 0X6b28
H 2 0X6c0e
H 8 0X6cae
H E 0X6d80
H 5 0X6e52
H T 0X6f4c
B 1 0X7000
B 6 0X70c8
B O 0X7186
B 4 0X7280
B 3 0X7352
B 9 0X73d4
B 7 0X74ba
B 8 0X755a
B 2 0X7622
B 5 0X773a
B E 0X77e4
B T 0X78d4
H 1 0X7aaa
H O 0X7b22
H 6 0X7bd6
H 3 0X7cd0
H 4 0X7d7a
H 7 0X7e7e
H 9 0X7f14
H 2 0X8004
H 8 0X80ea
H E 0X8180
H 5 0X822a
H T 0X8324
B O 0X8400
B 1 0X84a0
B 6 0X8586
B 4 0X8676
B 3 0X8752
B 9 0X87e8
B 7 0X88a6
B 8 0X8978
B 2 0X8a36
B 5 0X8afe
B E 0X8bda
B T 0X8c98
H O 0X8e78
H 6 0X8f2c
H 1 0X9012
H 3 0X9094
H 4 0X9170
H 7 0X9260
H 9 0X9314
H 2 0X9404
H 8 0X94f4
H E 0X9580
H 5 0X965c
H T 0X9706
B 6 0X981e
B O 0X98c8
B 1 0X994a
B 4 0X9a3a
B 3 0X9b34
B 9 0X9bde
B 7 0X9cc4
B 8 0X9da0
B 2 0X9e36
B 5 0X9f30
B E 0X9fda
B T 0Xa0a2
H O 0Xa2a0
H 6 0Xa34a
H 4 0Xa3fe
H 1 0Xa4d0
H 9 0Xa598
H 3 0Xa688
H 8 0Xa750
H 7 0Xa840
H 5 0Xa8cc
H 2 0Xa9bc
H E 0Xaa16
H T 0Xaafc
B O 0Xac1e
B 4 0Xacbe
B 6 0Xad90
B 9 0Xae76
B 1 0Xaf20
B 8 0Xaff2
B 3 0Xb0ce
B 5 0Xb18c
B 7 0Xb272
B E 0Xb380
B 2 0Xb3e4
B T 0Xb4d4
H 4 0Xb6aa
H O 0Xb754
H 6 0Xb81c
H 1 0Xb8da
H 9 0Xb9b6
H 3 0Xba92
H 8 0Xbb64
H 7 0Xbc22
H 5 0Xbcb8
H 2 0Xbd94
H E 0Xbe20
H T 0Xbefc
B 4 0Xc050
B 6 0Xc0fa
B O 0Xc190
B 9 0Xc26c
B 1 0Xc2ee
B 8 0Xc3f2
B 3 0Xc4d8
B 5 0Xc58c
B 7 0Xc672
B E 0Xc758
B 2 0Xc7c6
B T 0Xc8a2
H 6 0Xca96
H 4 0Xcb72
H O 0Xcc44
H 1 0Xcc80
H 9 0Xcd98
H 3 0Xce74
H 8 0Xcf46
H 7 0Xd022
H 5 0Xd0ae
H 2 0Xd19e
H E 0Xd20c
H T 0Xd2fc
B 6 0Xd40a
B O 0Xd4c8
B 4 0Xd572
B 9 0Xd626
B 1 0Xd6ee
B 8 0Xd7b6
B 3 0Xd8c4
B 5 0Xd978
B 7 0Xda68
B E 0Xdb58
B 2 0Xdbb2
B T 0Xdcb6
H O 0Xde5a
H 6 0Xdf2c
H 9 0Xdfea
H 4 0Xe0a8
H 8 0Xe15c
H 1 0Xe238
H 5 0Xe2c4
H 3 0Xe3e6
H E 0Xe490
H 7 0Xe576
H 2 0Xe63e
H T 0Xe71a
B 6 0Xe7ec
B O 0Xe85a
B 9 0Xe90e
B 8 0Xea26
B 4 0Xeaf8
B 5 0Xebca
B 1 0Xec6a
B E 0Xed46
B 3 0Xee0e
B 2 0Xeecc
B 7 0Xefa8
B T 0Xf07a
H 6 0Xf25a
H 9 0Xf2f0
H O 0Xf3ea
H 4 0Xf462
H 8 0Xf55c
H 1 0Xf62e
H 5 0Xf700
H 3 0Xf7e6
H E 0Xf85e
H 7 0Xf930
H 2 0Xf9f8
H T 0Xfac0
B 9 0Xfbba
B 6 0Xfcaa
B O 0Xfd2c
B 8 0Xfdf4
B 4 0Xfebc
B 5 0Xffc0
B 1 0X006a
B E 0X0132
B 3 0X01e6
B 2 0X029a
B 7 0X0394
B T 0X0448
H 9 0X0614
H O 0X0704
H 6 0X07a4
H 4 0X0858
H 8 0X0952
H 1 0X0a2e
H 5 0X0ae2
H 3 0X0bbe
H E 0X0c5e
H 7 0X0cfe
H 2 0X0dbc
H T 0X0e7a
B O 0X0f4c
B 9 0X105a
B 6 0X1104
B 8 0X11fe
B 4 0X12bc
B 5 0X138e
B 1 0X1438
B E 0X150a
B 3 0X15c8
B 2 0X167c
B 7 0X174e
B T 0X1820
H 9 0X19ce
H O 0X1ac8
H 8 0X1b90
H 6 0X1c44
H 5 0X1d3e
H 4 0X1e1a
H E 0X1ed8
H 1 0X1f82
H 2 0X2040
H 3 0X2108
H 7 0X21e4
H T 0X228e
B 9 0X2360
B 8 0X241e
B O 0X2518
B 5 0X25f4
B 6 0X26a8
B E 0X2770
B 4 0X282e
B 2 0X28ec
B 1 0X2946
B 7 0X2aa4
B 3 0X2b4e
B T 0X2c16
H 8 0X2df6
H 9 0X2e46
H O 0X2f5e
H 6 0X304e
H 5 0X3120
H 4 0X321a
H E 0X3274
H 1 0X3332
H 2 0X3422
H 3 0X34cc
H 7 0X35a8
H T 0X367a
B 8 0X3706
B O 0X37ec
B 9 0X38dc
B 5 0X39cc
B 6 0X3a94
B E 0X3b70
B 4 0X3c1a
B 2 0X3cf6
B 1 0X3d8c
B 7 0X3e90
B 3 0X3f26
B T 0X4002
H O 0X41a6
H 8 0X4228
H 9 0X42e6
H 6 0X4426
H 5 0X44f8
H 4 0X45d4
H E 0X466a
H 1 0X4728
H 2 0X4818
H 3 0X48ae
H 7 0X4994
H T 0X4a52
B O 0X4b1a
B 9 0X4bce
B 8 0X4c8c
B 5 0X4da4
B 6 0X4e58
B E 0X4f34
B 4 0X4ff2
B 2 0X50c4
B 1 0X516e
B 7 0X527c
B 3 0X5312
B T 0X53da
H 9 0X5588
H O 0X563c
H 5 0X5722
H 8 0X57f4
H E 0X5880
H 6 0X5984
H 2 0X5a88
H 4 0X5b50
H 7 0X5c2c
H 1 0X5ce0
H 3 0X5d9e
H T 0X5e2a
B O 0X5ee8
B 9 0X5fd8
B 5 0X60b4
B E 0X61b8
B 8 0X6226
B 2 0X632a
B 6 0X63ca
B 7 0X64e2
B 4 0X658c
B 3 0X6672
B 1 0X6708
B T 0X67da
H O 0X6988
H 5 0X6a3c
H 9 0X6b22
H 8 0X6be0
H E 0X6c76
H 6 0X6d8e
H 2 0X6e56
H 4 0X6f3c
H 7 0X7018
H 1 0X70c2
H 3 0X71b2
H T 0X7252
B 5 0X7338
B O 0X73ba
B 9 0X74a0
B E 0X7572
B 8 0X764e
B 2 0X7716
B 6 0X77c0
B 7 0X78b0
B 4 0X796e
B 3 0X7a54
B 1 0X7ab8
B T 0X7bd0
H 5 0X7d88
H 9 0X7e64
H O 0X7f40
H 8 0X7fd6
H E 0X809e
H 6 0X8184
H 2 0X8224
H 4 0X8300
H 7 0X83e6
H 1 0X845e
H 3 0X859e
H T 0X8634
B 9 0X8710
B 5 0X87d8
B O 0X885a
B E 0X8954
B 8 0X8a26
B 2 0X8b0c
B 6 0X8bac
B 7 0X8cb0
B 4 0X8d32
B 3 0X8e22
B 1 0X8e7c
B T 0X8fbc
H 5 0X9160
H 9 0X9232
H E 0X92fa
H O 0X93fe
H 2 0X949e
H 8 0X9570
H 7 0X9642
H 6 0X96f6
H 3 0X97be
H 4 0X9872
H 1 0X9962
H T 0X9a0c
B 5 0X9afc
B E 0X9bf6
B 9 0X9ca0
B 2 0X9d72
B O 0X9e12
B 7 0X9eda
B 8 0X9f98
B 3 0Xa07e
B 6 0Xa164
B 1 0Xa218
B 4 0Xa2e0
B T 0Xa39e
H E 0Xa57e
H 5 0Xa646
H 9 0Xa70e
H O 0Xa7cc
H 2 0Xa89e
H 8 0Xa934
H 7 0Xaa1a
H 6 0Xab28
H 3 0Xabe6
H 4 0Xac90
H 1 0Xad6c
H T 0Xadf8
B E 0Xaf42
B 9 0Xafba
B 5 0Xb08c
B 2 0Xb15e
B O 0Xb1fe
B 7 0Xb2d0
B 8 0Xb398
B 3 0Xb492
B 6 0Xb546
B 1 0Xb5dc
B 4 0Xb6ea
B T 0Xb7a8
H 9 0Xb942
H E 0Xba46
H 5 0Xbaf0
H O 0Xbc1c
H 2 0Xbc94
H 8 0Xbd2a
H 7 0Xbe10
H 6 0Xbef6
H 3 0Xbfc8
H 4 0Xc05e
H 1 0Xc13a
H T 0Xc202
B 9 0Xc28e
B 5 0Xc39c
B E 0Xc4a0
B 2 0Xc59a
B O 0Xc630
B 7 0Xc6c6
B 8 0Xc770
B 3 0Xc89c
B 6 0Xc932
B 1 0Xc9dc
B 4 0Xcab8
B T 0Xcb8a
H 5 0Xcd56
H 9 0Xcdf6
H 2 0Xcef0
H E 0Xcfb8
H 7 0Xd094
H O 0Xd17a
H 3 0Xd242
H 8 0Xd2f6
H 1 0Xd3a0
H 6 0Xd472
H 4 0Xd544
H T 0Xd5f8
B 9 0Xd6c0
B 5 0Xd7d8
B 2 0Xd8a0
B 7 0Xd940
B E 0Xd9f4
B 3 0Xdaee
B O 0Xdb8e
B 1 0Xdc2e
B 8 0Xdd3c
B 4 0Xddfa
B 6 0Xdecc
B T 0Xdf9e
H 9 0Xe142
H 2 0Xe200
H 5 0Xe2d2
H E 0Xe390
H 7 0Xe46c
H O 0Xe552
H 3 0Xe62e
H 8 0Xe6f6
H 1 0Xe7be
H 6 0Xe8a4
H 4 0Xe94e
H T 0Xea0c
B 2 0Xeb06
B 9 0Xeb88
B 5 0Xec3c
B 7 0Xed2c
B E 0Xee08
B 3 0Xeebc
B O 0Xef66
B 1 0Xf02e
B 8 0Xf10a
B 4 0Xf1e6
B 6 0Xf2e0
B T 0Xf3a8
H 2 0Xf52e
H 5 0Xf5ce
H 9 0Xf6be
H E 0Xf77c
H 7 0Xf858
H O 0Xf93e
H 3 0Xf9f2
H 8 0Xfaba
H 1 0Xfb6e
H 6 0Xfc7c
H 4 0Xfd3a
H T 0Xfdf8
B 5 0Xfed4
B 2 0Xffa6
B 9 0X0046
B 7 0X0118
B E 0X01e0
B 3 0X02c6
B O 0X035c
B 1 0X0410
B 8 0X04d8
B 4 0X05d2
B 6 0X0690
B T 0X0762
H 2 0X091a
H 5 0X09c4
H 7 0X0ad2
H 9 0X0b7c
H 3 0X0c6c
H E 0X0d16
H 1 0X0dc0
H O 0X0ec4
H 4 0X0f64
H 8 0X1036
H 6 0X1112
H T 0X11e4
B 2 0X12b6
B 7 0X137e
B 5 0X1428
B 3 0X152c
B 9 0X15cc
B 1 0X1662
B E 0X1766
B 4 0X181a
B O 0X18ec
B 6 0X19e6
B 8 0X1a86
B T 0X1b62
H 7 0X1d4c
H 2 0X1e0a
H 5 0X1eaa
H 9 0X1f90
H 3 0X2044
H E 0X20f8
H 1 0X21ac
H O 0X22b0
H 4 0X233c
H 8 0X240e
H 6 0X24cc
H T 0X25b2
B 7 0X26b6
B 5 0X2774
B 2 0X285a
B 3 0X294a
B 9 0X29fe
B 1 0X2a9e
B E 0X2b34
B 4 0X2c2e
B O 0X2cd8
B 6 0X2dc8
B 8 0X2e72
B T 0X2f3a
H 5 0X30f2
H 7 0X31ec
H 2 0X32aa
H 9 0X3368
H 3 0X3444
H E 0X34ee
H 1 0X3598
H O 0X369c
H 4 0X375a
H 8 0X382c
H 6 0X38e0
H T 0X39a8
B 5 0X3a84
B 2 0X3b92
B 7 0X3c14
B 3 0X3d18
B 9 0X3db8
B 1 0X3e6c
B E 0X3f3e
B 4 0X404c
B O 0X40ce
B 6 0X41aa
B 8 0X425e
B T 0X434e
H 2 0X4524
H 5 0X45b0
H 3 0X46b4
H 7 0X477c
H 1 0X4830
H 9 0X48ee
H 4 0X49f2
H E 0X4a74
H 6 0X4b64
H O 0X4c40
H 8 0X4cd6
H T 0X4dbc
B 5 0X4eb6
B 2 0X4f7e
B 3 0X501e
B 1 0X50f0
B 7 0X51c2
B 4 0X528a
B 9 0X5334
B 6 0X5438
B E 0X551e
B 8 0X55aa
B O 0X5686
B T 0X5776
H 5 0X5910
H 3 0X59e2
H 2 0X5a96
H 7 0X5b7c
H 1 0X5c44
H 9 0X5cf8
H 4 0X5d8e
H E 0X5e74
H 6 0X5f50
H O 0X6040
H 8 0X6126
H T 0X61da
B 3 0X628e
B 5 0X6356
B 2 0X6414
B 1 0X64e6
B 7 0X65e0
B 4 0X6680
B 9 0X6748
B 6 0X6824
B E 0X691e
B 8 0X698c
B O 0X6a5e
B T 0X6b58
H 3 0X6cfc
H 2 0X6dc4
H 5 0X6e82
H 7 0X6f7c
H 1 0X7030
H 9 0X70e4
H 4 0X71ca
H E 0X724c
H 6 0X7332
H O 0X73fa
H 8 0X74f4
H T 0X75b2
B 2 0X76ac
B 3 0X7760
B 5 0X783c
B 1 0X78f0
B 7 0X79a4
B 4 0X7a44
B 9 0X7b52
B 6 0X7bfc
B E 0X7d00
B 8 0X7d8c
B O 0X7e54
B T 0X7f44
H 3 0X80de
H 2 0X81b0
H 1 0X8296
H 5 0X8354
H 4 0X843a
H 7 0X84da
H 6 0X85ac
H 9 0X866a
H 8 0X873c
H E 0X87e6
H O 0X88fe
H T 0X899e
B 3 0X8a66
B 1 0X8afc
B 2 0X8bc4
B 4 0X8c78
B 5 0X8d54
B 6 0X8e30
B 7 0X8f16
B 8 0X8fe8
B 9 0X909c
B O 0X916e
B E 0X925e
B T 0X933a
H 1 0X94de
H 3 0X9574
H 2 0X961e
H 5 0X96fa
H 4 0X97ae
H 7 0X988a
H 6 0X9952
H 9 0X9a24
H 8 0X9b0a
H E 0X9bfa
H O 0X9cf4
H T 0X9d80
B 1 0X9e2a
B 2 0X9ee8
B 3 0X9f88
B 4 0Xa032
B 5 0Xa104
B 6 0Xa1e0
B 7 0Xa2c6
B 8 0Xa398
B 9 0Xa46a
B O 0Xa546
B E 0Xa622
B T 0Xa6ea
H 1 0Xa884
H 2 0Xa938
H 3 0Xa9e2
H 4 0Xaaa0
H 5 0Xab5e
H 6 0Xac44
H 7 0Xad0c
H 8 0Xadde
H 9 0Xae56
H O 0Xaf64
H E 0Xb02c
H T 0Xb0f4
B 1 0Xb18a
B 2 0Xb2a2
B 3 0Xb338
B 4 0Xb3ec
B 5 0Xb4c8
B 6 0Xb586
B 7 0Xb676
B 8 0Xb734
B 9 0Xb7f2
B O 0Xb8ba
B E 0Xb9a0
B T 0Xba7c
H 1 0Xbc20
H 2 0Xbcfc
H 3 0Xbd9c
H 4 0Xbe82
H 5 0Xbf0e
H 6 0Xbfd6
H 7 0Xc0a8
H 8 0Xc17a
H 9 0Xc210
H O 0Xc33c
H E 0Xc3f0
H T 0Xc490
B 1 0Xc562
B 2 0Xc648
B 3 0Xc6e8
B 4 0Xc7b0
B 5 0Xc86e
B 6 0Xc94a
B 7 0Xca12
B 8 0Xcad0
B 9 0Xcb98
B O 0Xcc7e
B E 0Xcd64
B T 0Xce0e
H 1 0Xcfb2
H 2 0Xd07a
H 3 0Xd124
H 4 0Xd1f6
H 5 0Xd296
H 6 0Xd3c2
H 7 0Xd46c
H 8 0Xd52a
H 9 0Xd5c0
H O 0Xd714
H E 0Xd796
H T 0Xd840
B 1 0Xd8e0
B 2 0Xd9da
B 3 0Xda7a
B 4 0Xdb56
B 5 0Xdc1e
B 6 0Xdd0e
B 7 0Xddf4
B 8 0Xde9e
B 9 0Xdf5c
B O 0Xe038
B E 0Xe132
B T 0Xe1f0
