#. Lowndes: Version 2
#. SourceFilename: W:\Recordings\Guildford\Guildford.20220610-2100.s12t12.4.wav
#. Tower: Guildford Cathedral
#. RingingName: Touch_4
#. RingingDateTime: 20220610-2100
#. Rungon: 
#. Tenor: 12
#. NumBellsRinging: 12
#. Creator: HawkEar Team Edition V1 for Guildford Cathedral
#. CreatorVersion: 1.1.0.3
#. TranscribedFor: Guildford band
#. TranscriptionDateTime: 20220622-1614
#. FirstBlowMs: 44740
#. TouchdB: -19.1061
#. TraindB: -9.73, -8.5, -6.1, -3.11, -3.16, -3.1, -3.98, -4.12, -5.95, -5.43, -4.92, -3
#. TrainedOn: 20220102-1438
#. TrainDataRecordedOn: 20210813-1741
#. TrainParams: -ft:y -ws:0.05 -hs:0.01 -co:0.9 -sw:40 -ts:
#. GainParams: -fh:6000 -fl:200
#. OnsetParams: -mb:80 -mf:10 -ng:0.3 -oo:0
#. WriteParams: -hb:y
#. AnalParams: -au:n -xp:n -sg:n -hsg:-1
#. ExpString: 
#. Association:
#. Calling:
#. CompositionName:
#. Method:
#. Footnotes:
#. Ringers:
#. Stage:
H 1 0X0000
H 2 0X00e6
H 3 0X01cc
H 4 0X028a
H 5 0X0366
H 6 0X0442
H 7 0X0500
H 8 0X05c8
H 9 0X06d6
H O 0X07bc
H E 0X088e
H T 0X099c
B 1 0X0abe
B 2 0X0b68
B 3 0X0c30
B 4 0X0cee
B 5 0X0d98
B 6 0X0e92
B 7 0X0f3c
B 8 0X1004
B 9 0X10d6
B O 0X11bc
B E 0X128e
B T 0X1374
H 1 0X154a
H 2 0X1612
H 3 0X16c6
H 4 0X1784
H 5 0X182e
H 6 0X18f6
H 7 0X19f0
H 8 0X1ab8
H 9 0X1bb2
H O 0X1c7a
H E 0X1d24
H T 0X1e0a
B 1 0X1efa
B 2 0X1f90
B 3 0X206c
B 4 0X213e
B 5 0X21ca
B 6 0X229c
B 7 0X2382
B 8 0X2454
B 9 0X2530
B O 0X260c
B E 0X26ca
B T 0X27ba
H 1 0X2972
H 2 0X2a12
H 3 0X2aee
H 4 0X2bc0
H 5 0X2c56
H 6 0X2d00
H 7 0X2dfa
H 8 0X2eb8
H 9 0X2f94
H O 0X305c
H E 0X3106
H T 0X31ec
B 1 0X3304
B 2 0X33ae
B 3 0X3462
B 4 0X3516
B 5 0X35c0
B 6 0X36ce
B 7 0X3778
B 8 0X3854
B 9 0X393a
B O 0X39f8
B E 0X3aa2
B T 0X3b6a
H 1 0X3d7c
H 2 0X3e12
H 3 0X3ec6
H 4 0X3f7a
H 5 0X402e
H 6 0X40ec
H 7 0X41e6
H 8 0X42ae
H 9 0X4394
H O 0X445c
H E 0X44e8
H T 0X45d8
B 1 0X46aa
B 2 0X4772
B 3 0X4830
B 4 0X48f8
B 5 0X49ac
B 6 0X4a60
B 7 0X4b50
B 8 0X4c18
B 9 0X4d08
B O 0X4dc6
B E 0X4e98
B T 0X4f6a
H 1 0X5140
H 2 0X51f4
H 3 0X52a8
H 4 0X5366
H 5 0X5424
H 6 0X54c4
H 7 0X55a0
H 8 0X565e
H 9 0X5758
H O 0X582a
H E 0X58b6
H T 0X5988
B 1 0X5aa0
B 2 0X5b68
B 3 0X5c12
B 4 0X5cd0
B 5 0X5d84
B 6 0X5e4c
B 7 0X5f32
B 8 0X5fe6
B 9 0X60cc
B O 0X619e
B E 0X625c
B T 0X631a
H 1 0X6522
H 2 0X65b8
H 3 0X6676
H 4 0X66f8
H 5 0X67ca
H 6 0X689c
H 7 0X69a0
H 8 0X6a36
H 9 0X6b08
H O 0X6bd0
H E 0X6c8e
H T 0X6d74
B 1 0X6e6e
B 2 0X6f36
B 3 0X6fe0
B 4 0X7076
B 5 0X7148
B 6 0X721a
B 7 0X731e
B 8 0X73be
B 9 0X749a
B O 0X7562
B E 0X762a
B T 0X76f2
H 1 0X78fa
H 2 0X7990
H 3 0X7a30
H 4 0X7ac6
H 5 0X7b84
H 6 0X7c56
H 7 0X7d50
H 8 0X7dfa
H 9 0X7ed6
H O 0X7fa8
H E 0X8070
H T 0X8138
B 1 0X8264
B 2 0X830e
B 3 0X83ae
B 4 0X846c
B 5 0X8516
B 6 0X85f2
B 7 0X86ce
B 8 0X8778
B 9 0X8854
B O 0X8930
B E 0X89e4
B T 0X8ab6
H 1 0X8cd2
H 2 0X8d5e
H 3 0X8e08
H 4 0X8ec6
H 5 0X8f66
H 6 0X904c
H 7 0X913c
H 8 0X91e6
H 9 0X9290
H O 0X9380
H E 0X9448
H T 0X951a
B 1 0X95ec
B 2 0X96b4
B 3 0X9768
B 4 0X9844
B 5 0X98ee
B 6 0X99b6
B 7 0X9a9c
B 8 0X9b50
B 9 0X9c04
B O 0X9cfe
B E 0X9dd0
B T 0X9e98
H 1 0Xa082
H 2 0Xa122
H 3 0Xa1c2
H 4 0Xa2b2
H 5 0Xa33e
H 6 0Xa406
H 7 0Xa50a
H 8 0Xa5aa
H 9 0Xa67c
H O 0Xa74e
H E 0Xa802
H T 0Xa8de
B 1 0Xaa00
B 2 0Xaa96
B 3 0Xab36
B 4 0Xac12
B 5 0Xacbc
B 6 0Xad8e
B 7 0Xae7e
B 8 0Xaf1e
B 9 0Xaff0
B O 0Xb0d6
B E 0Xb1a8
B T 0Xb25c
H 1 0Xb478
H 2 0Xb518
H 3 0Xb5b8
H 4 0Xb66c
H 5 0Xb716
H 6 0Xb7fc
H 7 0Xb8f6
H 8 0Xb982
H 9 0Xba5e
H O 0Xbb30
H E 0Xbbf8
H T 0Xbcca
B 1 0Xbdc4
B 2 0Xbe78
B 3 0Xbf36
B 4 0Xc008
B 5 0Xc09e
B 6 0Xc166
B 7 0Xc242
B 8 0Xc2ec
B 9 0Xc3dc
B O 0Xc49a
B E 0Xc58a
B T 0Xc670
H 1 0Xc81e
H 2 0Xc8c8
H 3 0Xc972
H 4 0Xca44
H 5 0Xcada
H 6 0Xcbca
H 7 0Xcce2
H 8 0Xcd6e
H 9 0Xce18
H O 0Xcef4
H E 0Xcfd0
H T 0Xd098
B 1 0Xd17e
B 2 0Xd23c
B 3 0Xd2dc
B 4 0Xd3b8
B 5 0Xd476
B 6 0Xd534
B 7 0Xd61a
B 8 0Xd6d8
B 9 0Xd7be
B O 0Xd886
B E 0Xd958
B T 0Xda2a
H 2 0Xdbe2
H 1 0Xdcf0
H 3 0Xdd68
H 5 0Xde58
H 4 0Xdf34
H 7 0Xdfd4
H 6 0Xe06a
H 9 0Xe13c
H 8 0Xe204
H E 0Xe2e0
H O 0Xe3b2
H T 0Xe498
B 2 0Xe556
B 3 0Xe614
B 1 0Xe704
B 4 0Xe7cc
B 5 0Xe88a
B 6 0Xe934
B 7 0Xe9fc
B 8 0Xeab0
B 9 0Xeb96
B O 0Xec5e
B E 0Xed12
B T 0Xee02
H 3 0Xefba
H 2 0Xf06e
H 4 0Xf168
H 1 0Xf23a
H 6 0Xf2da
H 5 0Xf3a2
H 8 0Xf47e
H 7 0Xf53c
H 9 0Xf604
H E 0Xf6c2
H O 0Xf794
H T 0Xf83e
B 2 0Xf94c
B 3 0Xf9ec
B 4 0Xfab4
B 6 0Xfb72
B 1 0Xfc8a
B 8 0Xfd34
B 5 0Xfdf2
B 9 0Xfeba
B 7 0Xff78
B O 0X004a
B E 0X00f4
B T 0X01da
H 2 0X03b0
H 4 0X0478
H 3 0X0536
H 1 0X061c
H 6 0X06c6
H 5 0X0798
H 8 0X0860
H 7 0X0946
H 9 0X09dc
H E 0X0a86
H O 0X0b58
H T 0X0c34
B 4 0X0d10
B 2 0X0dce
B 3 0X0e8c
B 6 0X0f72
B 1 0X103a
B 8 0X1116
B 5 0X11ca
B 9 0X12b0
B 7 0X136e
B O 0X1436
B E 0X14d6
B T 0X15b2
H 4 0X177e
H 3 0X183c
H 2 0X18fa
H 1 0X19ea
H 6 0X1a8a
H 5 0X1b5c
H 8 0X1c38
H 7 0X1d28
H 9 0X1dc8
H E 0X1e68
H O 0X1f4e
H T 0X2020
B 3 0X2138
B 4 0X223c
B 2 0X22d2
B 6 0X2340
B 1 0X2430
B 8 0X24ee
B 5 0X25b6
B 9 0X2688
B 7 0X2782
B O 0X282c
B E 0X28c2
B T 0X29a8
H 4 0X2bd8
H 3 0X2c78
H 6 0X2d40
H 2 0X2e12
H 8 0X2ec6
H 1 0X2fa2
H 9 0X302e
H 5 0X3100
H O 0X31b4
H 7 0X329a
H E 0X32d6
H T 0X3416
B 4 0X3542
B 6 0X35d8
B 3 0X36d2
B 8 0X377c
B 2 0X3876
B 9 0X393e
B 1 0X3a1a
B O 0X3aa6
B 5 0X3b46
B E 0X3bc8
B 7 0X3cc2
B T 0X3db2
H 6 0X3f92
H 4 0X408c
H 3 0X4140
H 2 0X421c
H 8 0X42da
H 1 0X43e8
H 9 0X4474
H 5 0X4532
H O 0X45d2
H 7 0X467c
H E 0X46f4
H T 0X47d0
B 6 0X4910
B 3 0X49ec
B 4 0X4adc
B 8 0X4b90
B 2 0X4c76
B 9 0X4d48
B 1 0X4e10
B O 0X4eb0
B 5 0X4f8c
B E 0X5022
B 7 0X5112
B T 0X518a
H 3 0X539c
H 6 0X5450
H 4 0X552c
H 2 0X5626
H 8 0X56da
H 1 0X57c0
H 9 0X5874
H 5 0X596e
H O 0X59d2
H 7 0X5a90
H E 0X5b30
H T 0X5c0c
B 3 0X5d42
B 4 0X5e0a
B 6 0X5e96
B 8 0X5f7c
B 2 0X6080
B 9 0X613e
B 1 0X61f2
B O 0X62ce
B 5 0X6396
B E 0X6436
B 7 0X653a
B T 0X65e4
H 4 0X6788
H 3 0X6864
H 8 0X6940
H 6 0X6a26
H 9 0X6abc
H 2 0X6bac
H O 0X6c88
H 1 0X6d50
H 5 0X6df0
H 7 0X6ec2
H E 0X6f44
H T 0X707a
B 3 0X711a
B 4 0X720a
B 8 0X72be
B 9 0X739a
B 6 0X7480
B O 0X7566
B 2 0X7624
B 5 0X76f6
B 1 0X77c8
B E 0X782c
B 7 0X7908
B T 0X79f8
H 3 0X7bb0
H 8 0X7c3c
H 4 0X7d36
H 6 0X7e26
H 9 0X7ee4
H 2 0X7fe8
H O 0X8092
H 1 0X818c
H 5 0X8204
H 7 0X82cc
H E 0X836c
H T 0X843e
B 8 0X852e
B 3 0X8614
B 4 0X86dc
B 9 0X87a4
B 6 0X8880
B O 0X897a
B 2 0X8a38
B 5 0X8af6
B 1 0X8bdc
B E 0X8c5e
B 7 0X8d30
B T 0X8df8
H 8 0X8fc4
H 4 0X90c8
H 3 0X919a
H 6 0X9244
H 9 0X92f8
H 2 0X93f2
H O 0X94b0
H 1 0X95aa
H 5 0X962c
H 7 0X971c
H E 0X976c
H T 0X9852
B 4 0X9974
B 8 0X9a1e
B 3 0X9b68
B 9 0X9bea
B 6 0X9cbc
B O 0X9d8e
B 2 0X9e42
B 5 0X9ece
B 1 0X9fe6
B E 0Xa07c
B 7 0Xa13a
B T 0Xa220
H 8 0Xa3d8
H 4 0Xa4a0
H 9 0Xa586
H 3 0Xa658
H O 0Xa748
H 6 0Xa81a
H 5 0Xa8ec
H 2 0Xa9dc
H E 0Xaa40
H 1 0Xab30
H 7 0Xabbc
H T 0Xacac
B 8 0Xad6a
B 9 0Xae50
B 4 0Xaf22
B O 0Xaff4
B 3 0Xb0ee
B 5 0Xb1b6
B 6 0Xb260
B E 0Xb332
B 2 0Xb440
B 7 0Xb4d6
B 1 0Xb594
B T 0Xb652
H 9 0Xb83c
H 8 0Xb8fa
H 4 0Xb9a4
H 3 0Xba8a
H O 0Xbb48
H 6 0Xbc1a
H 5 0Xbce2
H 2 0Xbe04
H E 0Xbe36
H 1 0Xbf62
H 7 0Xc02a
H T 0Xc0e8
B 9 0Xc1ba
B 4 0Xc2be
B 8 0Xc354
B O 0Xc44e
B 3 0Xc50c
B 5 0Xc5ac
B 6 0Xc6b0
B E 0Xc732
B 2 0Xc82c
B 7 0Xc908
B 1 0Xc9da
B T 0Xca98
H 4 0Xcc82
H 9 0Xcd18
H 8 0Xcdcc
H 3 0Xcee4
H O 0Xcfac
H 6 0Xd056
H 5 0Xd128
H 2 0Xd22c
H E 0Xd272
H 1 0Xd38a
H 7 0Xd448
H T 0Xd4fc
B 4 0Xd5e2
B 8 0Xd6a0
B 9 0Xd77c
B O 0Xd876
B 3 0Xd948
B 5 0Xda06
B 6 0Xdace
B E 0Xdb64
B 2 0Xdc40
B 7 0Xdd3a
B 1 0Xde2a
B T 0Xdeac
H 8 0Xe0b4
H 4 0Xe154
H O 0Xe230
H 9 0Xe2ee
H 5 0Xe3c0
H 3 0Xe49c
H E 0Xe528
H 6 0Xe62c
H 7 0Xe726
H 2 0Xe7da
H 1 0Xe8c0
H T 0Xe942
B 4 0Xea3c
B 8 0Xeadc
B O 0Xebc2
B 5 0Xec9e
B 9 0Xed66
B E 0Xee2e
B 3 0Xef00
B 7 0Xefe6
B 6 0Xf0d6
B 1 0Xf180
B 2 0Xf22a
B T 0Xf2fc
H 4 0Xf4a0
H O 0Xf5a4
H 8 0Xf630
H 9 0Xf716
H 5 0Xf7e8
H 3 0Xf8e2
H E 0Xf946
H 6 0Xfa5e
H 7 0Xfb62
H 2 0Xfc0c
H 1 0Xfcf2
H T 0Xfd88
B O 0Xfe5a
B 4 0Xff18
B 8 0Xffae
B 5 0X00a8
B 9 0X01b6
B E 0X0274
B 3 0X0350
B 7 0X0436
B 6 0X04f4
B 1 0X05bc
B 2 0X0648
B T 0X0710
H O 0X08dc
H 8 0X09ae
H 4 0X0a94
H 9 0X0b66
H 5 0X0be8
H 3 0X0cc4
H E 0X0d78
H 6 0X0e86
H 7 0X0f6c
H 2 0X1034
H 1 0X112e
H T 0X11b0
B 8 0X128c
B O 0X134a
B 4 0X1458
B 5 0X14e4
B 9 0X15b6
B E 0X1692
B 3 0X1746
B 7 0X1822
B 6 0X1930
B 1 0X19c6
B 2 0X1aa2
B T 0X1b4c
H O 0X1d2c
H 8 0X1de0
H 5 0X1e76
H 4 0X1f98
H E 0X2042
H 9 0X210a
H 7 0X2240
H 3 0X22cc
H 1 0X23a8
H 6 0X2452
H 2 0X252e
H T 0X25e2
B O 0X26a0
B 5 0X277c
B 8 0X283a
B E 0X293e
B 4 0X2a1a
B 7 0X2ae2
B 9 0X2b8c
B 1 0X2c9a
B 3 0X2d4e
B 2 0X2e2a
B 6 0X2ef2
B T 0X2f9c
H 5 0X3136
H O 0X3212
H 8 0X32c6
H 4 0X33ca
H E 0X3456
H 9 0X355a
H 7 0X364a
H 3 0X36fe
H 1 0X37f8
H 6 0X38c0
H 2 0X3974
H T 0X3a3c
B 5 0X3b0e
B 8 0X3bcc
B O 0X3c94
B E 0X3d8e
B 4 0X3e38
B 7 0X3f14
B 9 0X3fc8
B 1 0X40e0
B 3 0X4162
B 2 0X423e
B 6 0X432e
B T 0X43f6
H 8 0X45c2
H 5 0X466c
H O 0X4734
H 4 0X4838
H E 0X48a6
H 9 0X498c
H 7 0X4a7c
H 3 0X4b4e
H 1 0X4c48
H 6 0X4d10
H 2 0X4da6
H T 0X4e82
B 8 0X4f4a
B O 0X5030
B 5 0X5120
B E 0X51c0
B 4 0X5292
B 7 0X5346
B 9 0X5418
B 1 0X5526
B 3 0X55c6
B 2 0X56ac
B 6 0X5788
B T 0X5832
H O 0X59f4
H 8 0X5a94
H E 0X5b7a
H 5 0X5c74
H 7 0X5d5a
H 4 0X5e0e
H 1 0X5f26
H 9 0X5fb2
H 2 0X608e
H 3 0X612e
H 6 0X61d8
H T 0X62aa
B 8 0X6386
B O 0X6476
B E 0X6570
B 7 0X6624
B 5 0X670a
B 1 0X67f0
B 4 0X68ae
B 2 0X6962
B 9 0X6a48
B 6 0X6ad4
B 3 0X6ba6
B T 0X6c50
H 8 0X6e26
H E 0X6eee
H O 0X6fd4
H 5 0X709c
H 7 0X71b4
H 4 0X7290
H 1 0X734e
H 9 0X7416
H 2 0X7484
H 3 0X7560
H 6 0X7646
H T 0X770e
B E 0X7826
B 8 0X78c6
B O 0X7966
B 7 0X7a6a
B 5 0X7b1e
B 1 0X7c04
B 4 0X7cea
B 2 0X7d94
B 9 0X7e66
B 6 0X7f4c
B 3 0X7fd8
B T 0X80b4
H E 0X8262
H O 0X833e
H 8 0X83e8
H 5 0X84d8
H 7 0X85dc
H 4 0X86cc
H 1 0X878a
H 9 0X882a
H 2 0X88f2
H 3 0X89d8
H 6 0X8a82
H T 0X8b40
B O 0X8c12
B E 0X8cf8
B 8 0X8dca
B 7 0X8e9c
B 5 0X8f6e
B 1 0X9054
B 4 0X913a
B 2 0X91f8
B 9 0X92c0
B 6 0X937e
B 3 0X9478
B T 0X94e6
H E 0X968a
H O 0X97ac
H 7 0X9856
H 8 0X990a
H 1 0X9a5e
H 5 0X9ad6
H 2 0X9bb2
H 4 0X9cca
H 6 0X9d60
H 9 0X9dec
H 3 0X9edc
H T 0X9fae
B E 0Xa0bc
B 7 0Xa152
B O 0Xa1fc
B 1 0Xa33c
B 8 0Xa396
B 2 0Xa490
B 5 0Xa54e
B 6 0Xa666
B 4 0Xa72e
B 3 0Xa7c4
B 9 0Xa86e
B T 0Xa94a
H 7 0Xab0c
H E 0Xabd4
H O 0Xaca6
H 8 0Xada0
H 1 0Xae86
H 5 0Xaf08
H 2 0Xb002
H 4 0Xb0fc
H 6 0Xb1b0
H 9 0Xb25a
H 3 0Xb2dc
H T 0Xb3d6
B 7 0Xb4c6
B O 0Xb584
B E 0Xb692
B 1 0Xb76e
B 8 0Xb82c
B 2 0Xb908
B 5 0Xb98a
B 6 0Xbaac
B 4 0Xbb74
B 3 0Xbc3c
B 9 0Xbcbe
B T 0Xbd7c
H O 0Xbf98
H 7 0Xc060
H E 0Xc0c4
H 8 0Xc1b4
H 1 0Xc2b8
H 5 0Xc34e
H 2 0Xc434
H 4 0Xc52e
H 6 0Xc5d8
H 9 0Xc682
H 3 0Xc74a
H T 0Xc826
B O 0Xc902
B E 0Xc9e8
B 7 0Xcaa6
B 1 0Xcba0
B 8 0Xcc4a
B 2 0Xcd30
B 5 0Xcdc6
B 6 0Xced4
B 4 0Xcf92
B 3 0Xd078
B 9 0Xd118
B T 0Xd1e0
H E 0Xd3ac
H O 0Xd474
H 1 0Xd578
H 7 0Xd62c
H 2 0Xd6ea
H 8 0Xd7a8
H 6 0Xd8a2
H 5 0Xd94c
H 3 0Xda1e
H 4 0Xdadc
H 9 0Xdbae
H T 0Xdc8a
B O 0Xdd52
B E 0Xde42
B 1 0Xdf32
B 2 0Xdffa
B 7 0Xe0a4
B 6 0Xe176
B 8 0Xe22a
B 3 0Xe2fc
B 5 0Xe3a6
B 9 0Xe4aa
B 4 0Xe57c
B T 0Xe626
H O 0Xe7f2
H 1 0Xe8b0
H E 0Xe964
H 7 0Xea4a
H 2 0Xeb26
H 8 0Xebf8
H 6 0Xecc0
H 5 0Xedba
H 3 0Xee50
H 4 0Xef2c
H 9 0Xefe0
H T 0Xf0bc
B 1 0Xf1b6
B O 0Xf274
B E 0Xf364
B 2 0Xf40e
B 7 0Xf4b8
B 6 0Xf594
B 8 0Xf65c
B 3 0Xf72e
B 5 0Xf7f6
B 9 0Xf8aa
B 4 0Xf9c2
B T 0Xfa6c
H 1 0Xfc24
H E 0Xfcc4
H O 0Xfddc
H 7 0Xfea4
H 2 0Xff6c
H 8 0X002a
H 6 0X00f2
H 5 0X01ec
H 3 0X0296
H 4 0X0372
H 9 0X0426
H T 0X04e4
B E 0X05e8
B 1 0X06a6
B O 0X076e
B 2 0X084a
B 7 0X0926
B 6 0X09e4
B 8 0X0aac
B 3 0X0b88
B 5 0X0c32
B 9 0X0d0e
B 4 0X0e08
B T 0X0e94
H 1 0X107e
H E 0X1150
H 2 0X120e
H O 0X12cc
H 6 0X1394
H 7 0X148e
H 3 0X156a
H 8 0X1614
H 9 0X16dc
H 5 0X17a4
H 4 0X18a8
H T 0X1916
B 1 0X1a06
B 2 0X1b0a
B E 0X1baa
B 6 0X1c9a
B O 0X1d44
B 3 0X1e34
B 7 0X1ef2
B 9 0X1fce
B 8 0X206e
B 4 0X217c
B 5 0X2230
B T 0X22e4
H 2 0X24c4
H 1 0X2596
H E 0X260e
H O 0X2726
H 6 0X27da
H 7 0X28b6
H 3 0X2974
H 8 0X2a3c
H 9 0X2b0e
H 5 0X2bfe
H 4 0X2cc6
H T 0X2da2
B 2 0X2e60
B E 0X2f1e
B 1 0X300e
B 6 0X30ea
B O 0X319e
B 3 0X327a
B 7 0X334c
B 9 0X3400
B 8 0X34aa
B 4 0X35c2
B 5 0X366c
B T 0X373e
H E 0X390a
H 2 0X39d2
H 1 0X3ad6
H O 0X3b76
H 6 0X3c48
H 7 0X3d42
H 3 0X3e00
H 8 0X3eaa
H 9 0X3f5e
H 5 0X404e
H 4 0X413e
H T 0X41de
B E 0X42ce
B 1 0X43aa
B 2 0X444a
B 6 0X453a
B O 0X45f8
B 3 0X46fc
B 7 0X47b0
B 9 0X485a
B 8 0X490e
B 4 0X4a4e
B 5 0X4ada
B T 0X4bac
H 1 0X4d82
H E 0X4e22
H 6 0X4ed6
H 2 0X4fe4
H 3 0X50ac
H O 0X5174
H 9 0X5232
H 7 0X530e
H 4 0X5426
H 8 0X54d0
H 5 0X5552
H T 0X564c
B E 0X5732
B 1 0X57e6
B 6 0X58a4
B 3 0X59a8
B 2 0X5a66
B 9 0X5b10
B O 0X5be2
B 4 0X5cd2
B 7 0X5db8
B 5 0X5e62
B 8 0X5f2a
B T 0X5ffc
H E 0X61b4
H 6 0X627c
H 1 0X634e
H 2 0X6434
H 3 0X64fc
H O 0X65ba
H 9 0X6682
H 7 0X675e
H 4 0X683a
H 8 0X6902
H 5 0X69ca
H T 0X6aba
B 6 0X6baa
B E 0X6c68
B 1 0X6d3a
B 3 0X6dee
B 2 0X6eac
B 9 0X6f6a
B O 0X705a
B 4 0X7118
B 7 0X71b8
B 5 0X72a8
B 8 0X7366
B T 0X746a
H 6 0X7604
H 1 0X771c
H E 0X778a
H 2 0X78a2
H 3 0X7942
H O 0X7a28
H 9 0X7ac8
H 7 0X7b90
H 4 0X7c3a
H 8 0X7d0c
H 5 0X7dfc
H T 0X7ef6
B 1 0X7fe6
B 6 0X80ae
B E 0X8162
B 3 0X8216
B 2 0X82f2
B 9 0X83c4
B O 0X84b4
B 4 0X8568
B 7 0X8626
B 5 0X86f8
B 8 0X87a2
B T 0X8888
H 6 0X8a4a
H 1 0X8b3a
H 3 0X8c0c
H E 0X8cc0
H 9 0X8da6
H 2 0X8e8c
H 4 0X8f4a
H O 0X9008
H 5 0X90e4
H 7 0X9166
H 8 0X924c
H T 0X9328
B 6 0X942c
B 3 0X9508
B 1 0X95b2
B 9 0X9670
B E 0X9760
B 4 0X981e
B 2 0X98fa
B 5 0X99cc
B O 0X9a8a
B 8 0X9b5c
B 7 0X9c56
B T 0X9cec
H 3 0X9ecc
H 6 0X9f9e
H 1 0Xa052
H E 0Xa11a
H 9 0Xa20a
H 2 0Xa2d2
H 4 0Xa3a4
H O 0Xa458
H 5 0Xa502
H 7 0Xa5e8
H 8 0Xa6d8
H T 0Xa728
B 3 0Xa890
B 1 0Xa958
B 6 0Xa9e4
B 9 0Xaade
B E 0Xabd8
B 4 0Xac78
B 2 0Xad36
B 5 0Xae12
B O 0Xaeee
B 8 0Xafb6
B 7 0Xb09c
B T 0Xb164
H 1 0Xb330
H 3 0Xb3da
H 6 0Xb4b6
H E 0Xb57e
H 9 0Xb66e
H 2 0Xb718
H 4 0Xb7ea
H O 0Xb8c6
H 5 0Xb966
H 7 0Xba38
H 8 0Xbb14
H T 0Xbbf0
B 1 0Xbce0
B 6 0Xbd94
B 3 0Xbe70
B 9 0Xbf38
B E 0Xc014
B 4 0Xc104
B 2 0Xc186
B 5 0Xc280
B O 0Xc334
B 8 0Xc410
B 7 0Xc4d8
B T 0Xc596
H 6 0Xc744
H 1 0Xc884
H 9 0Xc924
H 3 0Xc9ce
H 4 0Xcaa0
H E 0Xcb40
H 5 0Xcc44
H 2 0Xccc6
H 8 0Xcdca
H O 0Xcea6
H 7 0Xcf82
H T 0Xd040
B 1 0Xd11c
B 6 0Xd20c
B 9 0Xd2d4
B 4 0Xd3c4
B 3 0Xd478
B 5 0Xd536
B E 0Xd5ea
B 8 0Xd6b2
B 2 0Xd798
B 7 0Xd84c
B O 0Xd93c
B T 0Xda04
H 1 0Xdbc6
H 9 0Xdc8e
H 6 0Xdd42
H 3 0Xde3c
H 4 0Xdf22
H E 0Xdfcc
H 5 0Xe076
H 2 0Xe18e
H 8 0Xe242
H O 0Xe31e
H 7 0Xe3d2
H T 0Xe49a
B 9 0Xe558
B 1 0Xe666
B 6 0Xe710
B 4 0Xe81e
B 3 0Xe8d2
B 5 0Xe9ae
B E 0Xea58
B 8 0Xeb66
B 2 0Xebfc
B 7 0Xecb0
B O 0Xed96
B T 0Xee54
H 9 0Xf020
H 6 0Xf0de
H 1 0Xf1f6
H 3 0Xf296
H 4 0Xf372
H E 0Xf408
H 5 0Xf4ee
H 2 0Xf5fc
H 8 0Xf6d8
H O 0Xf7a0
H 7 0Xf854
H T 0Xf8fe
B 6 0Xf9e4
B 9 0Xfaac
B 1 0Xfb7e
B 4 0Xfc96
B 3 0Xfd54
B 5 0Xfe12
B E 0Xfeb2
B 8 0Xffca
B 2 0X006a
B 7 0X0132
B O 0X022c
B T 0X02d6
H 9 0X048e
H 6 0X0560
H 4 0X0632
H 1 0X074a
H 5 0X07d6
H 3 0X08b2
H 8 0X098e
H E 0X0a4c
H 2 0X0b28
H O 0X0bdc
H 7 0X0cb8
H T 0X0d76
B 9 0X0e66
B 4 0X0f10
B 6 0X0fc4
B 5 0X10d2
B 1 0X11b8
B 8 0X1262
B 3 0X135c
B 2 0X13fc
B E 0X1488
B 7 0X1596
B O 0X1654
B T 0X173a
H 4 0X1906
H 9 0X19ce
H 6 0X1aaa
H 1 0X1b72
H 5 0X1bfe
H 3 0X1ce4
H 8 0X1dd4
H E 0X1e92
H 2 0X1f32
H O 0X2036
H 7 0X211c
H T 0X21c6
B 4 0X22ac
B 6 0X2388
B 9 0X246e
B 5 0X2522
B 1 0X25e0
B 8 0X26b2
B 3 0X2770
B 2 0X282e
B E 0X28e2
B 7 0X29dc
B O 0X2ab8
B T 0X2b80
H 6 0X2d2e
H 4 0X2e3c
H 9 0X2f04
H 1 0X2ff4
H 5 0X3058
H 3 0X312a
H 8 0X3224
H E 0X32d8
H 2 0X3364
H O 0X3472
H 7 0X3558
H T 0X3616
B 6 0X3710
B 9 0X37e2
B 4 0X38be
B 5 0X3986
B 1 0X3a6c
B 8 0X3b16
B 3 0X3c10
B 2 0X3c7e
B E 0X3d0a
B 7 0X3e04
B O 0X3ef4
B T 0X3fc6
H 9 0X419c
H 6 0X428c
H 5 0X4340
H 4 0X4458
H 8 0X4502
H 1 0X45e8
H 2 0X4688
H 3 0X4746
H 7 0X485e
H E 0X4890
H O 0X496c
H T 0X4a66
B 6 0X4b56
B 9 0X4c14
B 5 0X4cfa
B 8 0X4de0
B 4 0X4eee
B 2 0X4fa2
B 1 0X5060
B 7 0X5100
B 3 0X51be
B O 0X5240
B E 0X531c
B T 0X5420
H 6 0X55a6
H 5 0X5696
H 9 0X5768
H 4 0X5880
H 8 0X592a
H 1 0X5a38
H 2 0X5b00
H 3 0X5b96
H 7 0X5c86
H E 0X5d08
H O 0X5dbc
H T 0X5e8e
B 5 0X5f92
B 6 0X608c
B 9 0X612c
B 8 0X61fe
B 4 0X62f8
B 2 0X63ca
B 1 0X64b0
B 7 0X653c
B 3 0X660e
B O 0X66a4
B E 0X6780
B T 0X683e
H 5 0X6a28
H 9 0X6adc
H 6 0X6bd6
H 4 0X6ca8
H 8 0X6d70
H 1 0X6e56
H 2 0X6f14
H 3 0X6fdc
H 7 0X70cc
H E 0X713a
H O 0X7234
H T 0X7324
B 9 0X73a6
B 5 0X74a0
B 6 0X757c
B 8 0X7644
B 4 0X7734
B 2 0X782e
B 1 0X7900
B 7 0X798c
B 3 0X7a40
B O 0X7b08
B E 0X7bda
B T 0X7cc0
H 5 0X7e78
H 9 0X7f54
H 8 0X801c
H 6 0X80ee
H 2 0X8206
H 4 0X82b0
H 7 0X83aa
H 1 0X840e
H O 0X8512
H 3 0X85a8
H E 0X8634
H T 0X8742
B 5 0X883c
B 8 0X88fa
B 9 0X89cc
B 2 0X8ac6
B 6 0X8b7a
B 7 0X8c74
B 4 0X8d5a
B O 0X8e04
B 1 0X8ec2
B E 0X8f3a
B 3 0X9048
B T 0X9106
H 8 0X9322
H 5 0X93cc
H 9 0X94b2
H 6 0X955c
H 2 0X9606
H 4 0X9714
H 7 0X9804
H 1 0X984a
H O 0X996c
H 3 0X9a48
H E 0X9a98
H T 0X9b88
B 8 0X9c8c
B 9 0X9d9a
B 5 0X9e44
B 2 0X9f02
B 6 0X9fde
B 7 0Xa0c4
B 4 0Xa1a0
B O 0Xa254
B 1 0Xa312
B E 0Xa39e
B 3 0Xa4b6
B T 0Xa556
H 9 0Xa740
H 8 0Xa808
H 5 0Xa8bc
H 6 0Xa9b6
H 2 0Xaa92
H 4 0Xab50
H 7 0Xac36
H 1 0Xac86
H O 0Xadda
H 3 0Xae7a
H E 0Xaed4
H T 0Xafce
B 9 0Xb0be
B 5 0Xb1c2
B 8 0Xb276
B 2 0Xb384
B 6 0Xb438
B 7 0Xb51e
B 4 0Xb5be
B O 0Xb6ae
B 1 0Xb712
B E 0Xb7e4
B 3 0Xb8de
B T 0Xb992
H 5 0Xbb72
H 9 0Xbc58
H 2 0Xbd02
H 8 0Xbdc0
H 7 0Xbed8
H 6 0Xbfaa
H O 0Xc0a4
H 4 0Xc126
H 1 0Xc220
H 3 0Xc2ac
H E 0Xc306
H T 0Xc400
B 9 0Xc522
B 5 0Xc63a
B 2 0Xc70c
B 7 0Xc7a2
B 8 0Xc838
B O 0Xc950
B 6 0Xca18
B 1 0Xcae0
B 4 0Xcbbc
B E 0Xcc3e
B 3 0Xcd2e
B T 0Xcde2
H 9 0Xcfb8
H 2 0Xd0a8
H 5 0Xd17a
H 8 0Xd242
H 7 0Xd314
H 6 0Xd3d2
H O 0Xd4d6
H 4 0Xd580
H 1 0Xd63e
H 3 0Xd6de
H E 0Xd76a
H T 0Xd878
B 2 0Xd990
B 9 0Xda58
B 5 0Xdb34
B 7 0Xdc06
B 8 0Xdcba
B O 0Xddbe
B 6 0Xde68
B 1 0Xdf62
B 4 0Xe00c
B E 0Xe084
B 3 0Xe160
B T 0Xe232
H 2 0Xe412
H 5 0Xe4e4
H 9 0Xe5b6
H 8 0Xe6ba
H 7 0Xe78c
H 6 0Xe840
H O 0Xe8e0
H 4 0Xe9d0
H 1 0Xeab6
H 3 0Xeb56
H E 0Xeb9c
H T 0Xecaa
B 5 0Xee08
B 2 0Xeed0
B 9 0Xef70
B 7 0Xf056
B 8 0Xf10a
B O 0Xf1e6
B 6 0Xf2cc
B 1 0Xf3d0
B 4 0Xf45c
B E 0Xf4f2
B 3 0Xf5ce
B T 0Xf696
H 2 0Xf880
H 5 0Xf934
H 7 0Xfa38
H 9 0Xfaf6
H O 0Xfba0
H 8 0Xfc90
H 1 0Xfdb2
H 6 0Xfe2a
H E 0Xfef2
H 4 0Xff88
H 3 0X0064
H T 0X0136
B 2 0X021c
B 7 0X02ee
B 5 0X03b6
B O 0X047e
B 9 0X053c
B 1 0X065e
B 8 0X06fe
B E 0X07da
B 6 0X08e8
B 3 0X0988
B 4 0X0a46
B T 0X0b04
H 7 0X0cc6
H 2 0X0dac
H 5 0X0e38
H 9 0X0f32
H O 0X1004
H 8 0X10e0
H 1 0X11b2
H 6 0X12a2
H E 0X1338
H 4 0X1414
H 3 0X14c8
H T 0X15ae
B 7 0X168a
B 5 0X1752
B 2 0X1856
B O 0X18e2
B 9 0X19aa
B 1 0X1ab8
B 8 0X1b3a
B E 0X1c20
B 6 0X1cfc
B 3 0X1de2
B 4 0X1eb4
B T 0X1f86
H 5 0X212a
H 7 0X2224
H 2 0X22f6
H 9 0X236e
H O 0X2454
H 8 0X253a
H 1 0X260c
H 6 0X26e8
H E 0X274c
H 4 0X2850
H 3 0X290e
H T 0X2a12
B 5 0X2b0c
B 2 0X2bfc
B 7 0X2c92
B O 0X2d6e
B 9 0X2e36
B 1 0X2f12
B 8 0X2f94
B E 0X3066
B 6 0X3174
B 3 0X3214
B 4 0X32f0
B T 0X33b8
H 2 0X35a2
H 5 0X3638
H O 0X3746
H 7 0X3840
H 1 0X391c
H 9 0X39b2
H E 0X3a2a
H 8 0X3b4c
H 3 0X3bf6
H 6 0X3ca0
H 4 0X3d90
H T 0X3e58
B 5 0X3f48
B 2 0X402e
B O 0X411e
B 1 0X41be
B 7 0X429a
B E 0X4376
B 9 0X4434
B 3 0X4506
B 8 0X45b0
B 4 0X46a0
B 6 0X475e
B T 0X4826
H 5 0X49de
H O 0X4ace
H 2 0X4b96
H 7 0X4c7c
H 1 0X4d58
H 9 0X4dee
H E 0X4eac
H 8 0X4fb0
H 3 0X5064
H 6 0X512c
H 4 0X51ea
H T 0X52da
B O 0X538e
B 5 0X5474
B 2 0X555a
B 1 0X5640
B 7 0X56fe
B E 0X57a8
B 9 0X5884
B 3 0X5974
B 8 0X5a1e
B 4 0X5b0e
B 6 0X5bb8
B T 0X5c8a
H O 0X5e1a
H 2 0X5f0a
H 5 0X5fbe
H 7 0X60ea
H 1 0X61bc
H 9 0X6234
H E 0X6306
H 8 0X640a
H 3 0X64be
H 6 0X65ae
H 4 0X664e
H T 0X6734
B 2 0X6824
B O 0X68e2
B 5 0X69b4
B 1 0X6a90
B 7 0X6b4e
B E 0X6bf8
B 9 0X6cde
B 3 0X6dba
B 8 0X6e78
B 4 0X6f54
B 6 0X7012
B T 0X70f8
H O 0X72e2
H 2 0X73a0
H 1 0X7472
H 5 0X7512
H E 0X75da
H 7 0X76d4
H 3 0X77a6
H 9 0X7846
H 4 0X7922
H 8 0X79d6
H 6 0X7ad0
H T 0X7ba2
B O 0X7c74
B 1 0X7d5a
B 2 0X7e18
B E 0X7eb8
B 5 0X7f8a
B 3 0X808e
B 7 0X8138
B 4 0X8232
B 9 0X82e6
B 6 0X83a4
B 8 0X8480
B T 0X8552
H 1 0X870a
H O 0X87dc
H 2 0X88cc
H 5 0X8976
H E 0X8a2a
H 7 0X8b1a
H 3 0X8be2
H 9 0X8cbe
H 4 0X8da4
H 8 0X8e4e
H 6 0X8f02
H T 0X8ff2
B 1 0X9088
B 2 0X916e
B O 0X9254
B E 0X934e
B 5 0X9416
B 3 0X94c0
B 7 0X959c
B 4 0X96b4
B 9 0X9740
B 6 0X97fe
B 8 0X98b2
B T 0X99a2
H 2 0X9b6e
H 1 0X9c4a
H O 0X9d1c
H 5 0X9de4
H E 0X9e98
H 7 0X9f74
H 3 0Xa01e
H 9 0Xa0f0
H 4 0Xa1f4
H 8 0Xa29e
H 6 0Xa37a
H T 0Xa438
B 2 0Xa514
B O 0Xa60e
B 1 0Xa6cc
B E 0Xa758
B 5 0Xa866
B 3 0Xa92e
B 7 0Xa9e2
B 4 0Xaab4
B 9 0Xabae
B 6 0Xac6c
B 8 0Xad2a
B T 0Xadfc
H O 0Xafdc
H 2 0Xb0ae
H E 0Xb126
H 1 0Xb216
H 3 0Xb2ca
H 5 0Xb3a6
H 4 0Xb4aa
H 7 0Xb54a
H 6 0Xb63a
H 9 0Xb70c
H 8 0Xb7d4
H T 0Xb89c
B 2 0Xb9aa
B O 0Xba40
B E 0Xbb26
B 3 0Xbbee
B 1 0Xbcac
B 4 0Xbd56
B 5 0Xbe28
B 6 0Xbf0e
B 7 0Xbfcc
B 8 0Xc0b2
B 9 0Xc184
B T 0Xc238
H 2 0Xc404
H E 0Xc4b8
H O 0Xc59e
H 1 0Xc67a
H 3 0Xc74c
H 5 0Xc80a
H 4 0Xc90e
H 7 0Xc9ae
H 6 0Xca58
H 9 0Xcb0c
H 8 0Xcbe8
H T 0Xcc9c
B E 0Xcddc
B 2 0Xceb8
B O 0Xcf3a
B 3 0Xd00c
B 1 0Xd106
B 4 0Xd1ba
B 5 0Xd264
B 6 0Xd372
B 7 0Xd430
B 8 0Xd4da
B 9 0Xd598
B T 0Xd674
H E 0Xd822
H O 0Xd93a
H 2 0Xd9ee
H 1 0Xdad4
H 3 0Xdb7e
H 5 0Xdc1e
H 4 0Xdd04
H 7 0Xddfe
H 6 0Xdeda
H 9 0Xdf84
H 8 0Xe042
H T 0Xe10a
B O 0Xe1fa
B E 0Xe2f4
B 2 0Xe3b2
B 3 0Xe470
B 1 0Xe560
B 4 0Xe632
B 5 0Xe6b4
B 6 0Xe7b8
B 7 0Xe880
B 8 0Xe934
B 9 0Xe9fc
B T 0Xeaba
H E 0Xec72
H O 0Xed9e
H 3 0Xee2a
H 2 0Xef24
H 4 0Xefce
H 1 0Xf0d2
H 6 0Xf168
H 5 0Xf226
H 8 0Xf2f8
H 7 0Xf3e8
H 9 0Xf4b0
H T 0Xf4ba
B E 0Xf668
B 3 0Xf726
B O 0Xf7da
B 4 0Xf898
B 2 0Xf99c
B 6 0Xfa6e
B 1 0Xfb5e
B 8 0Xfbd6
B 5 0Xfc9e
B 9 0Xfd8e
B 7 0Xfe60
B T 0Xff14
H 3 0X0112
H E 0X01c6
H O 0X02ac
H 2 0X039c
H 4 0X0450
H 1 0X0540
H 6 0X05cc
H 5 0X0680
H 8 0X0748
H 7 0X07fc
H 9 0X08d8
H T 0X09a0
B 3 0X0aea
B O 0X0b80
B E 0X0c70
B 4 0X0d38
B 2 0X0e1e
B 6 0X0ea0
B 1 0X0fc2
B 8 0X1062
B 5 0X1102
B 9 0X11ca
B 7 0X12b0
B T 0X136e
H O 0X154e
H 3 0X1620
H E 0X16fc
H 2 0X1828
H 4 0X18d2
H 1 0X19cc
H 6 0X1a30
H 5 0X1b02
H 8 0X1be8
H 7 0X1cb0
H 9 0X1d6e
H T 0X1e18
B O 0X1ef4
B E 0X1ff8
B 3 0X20e8
B 4 0X21ba
B 2 0X22a0
B 6 0X2318
B 1 0X241c
B 8 0X24d0
B 5 0X2584
B 9 0X2642
B 7 0X273c
B T 0X27e6
H E 0X29a8
H O 0X2aac
H 4 0X2b88
H 3 0X2c5a
H 6 0X2cfa
H 2 0X2e12
H 8 0X2ea8
H 1 0X2fb6
H 9 0X3042
H 5 0X310a
H 7 0X31fa
H T 0X329a
B O 0X3380
B E 0X3484
B 4 0X356a
B 6 0X3600
B 3 0X36dc
B 8 0X3772
B 2 0X386c
B 9 0X3934
B 1 0X3a4c
B 7 0X3ae2
B 5 0X3b96
B T 0X3c68
H O 0X3e52
H 4 0X3ef2
H E 0X3fba
H 3 0X40b4
H 6 0X41ae
H 2 0X42a8
H 8 0X432a
H 1 0X441a
H 9 0X44ba
H 5 0X455a
H 7 0X465e
H T 0X471c
B 4 0X4816
B O 0X48de
B E 0X49d8
B 6 0X4a82
B 3 0X4b86
B 8 0X4c12
B 2 0X4d02
B 9 0X4da2
B 1 0X4eba
B 7 0X4f32
B 5 0X4ffa
B T 0X50ea
H 4 0X525c
H E 0X5342
H O 0X5464
H 3 0X5536
H 6 0X55fe
H 2 0X5720
H 8 0X57d4
H 1 0X5892
H 9 0X5932
H 5 0X59b4
H 7 0X5aae
H T 0X5b62
B E 0X5ca2
B 4 0X5d6a
B O 0X5e1e
B 6 0X5f22
B 3 0X5fe0
B 8 0X6094
B 2 0X6166
B 9 0X6224
B 1 0X62ec
B 7 0X63b4
B 5 0X6490
B T 0X6558
H 4 0X6738
H E 0X67d8
H 6 0X68c8
H O 0X69cc
H 8 0X6a8a
H 3 0X6b3e
H 9 0X6c1a
H 2 0X6cec
H 7 0X6da0
H 1 0X6ea4
H 5 0X6f26
H T 0X700c
B 4 0X70c0
B 6 0X71a6
B E 0X7278
B 8 0X739a
B O 0X7462
B 9 0X7502
B 3 0X75ca
B 7 0X76b0
B 2 0X7764
B 5 0X7854
B 1 0X7930
B T 0X79e4
H 6 0X7b92
H 4 0X7c6e
H E 0X7cfa
H O 0X7e08
H 8 0X7f02
H 3 0X7fca
H 9 0X8088
H 2 0X816e
H 7 0X824a
H 1 0X831c
H 5 0X839e
H T 0X8484
B 6 0X8560
B E 0X8628
B 4 0X870e
B 8 0X87c2
B O 0X888a
B 9 0X8984
B 3 0X8a56
B 7 0X8b28
B 2 0X8bf0
B 5 0X8cb8
B 1 0X8db2
B T 0X8e48
H E 0X8ff6
H 6 0X90dc
H 4 0X91cc
H O 0X928a
H 8 0X937a
H 3 0X9456
H 9 0X94f6
H 2 0X95f0
H 7 0X96c2
H 1 0X979e
H 5 0X980c
H T 0X98de
B E 0X9a00
B 4 0X9afa
B 6 0X9b5e
B 8 0X9c4e
B O 0X9d2a
B 9 0X9df2
B 3 0X9eba
B 7 0X9f96
B 2 0Xa068
B 5 0Xa130
B 1 0Xa22a
B T 0Xa2ca
H 4 0Xa4a0
H E 0Xa536
H 8 0Xa61c
H 6 0Xa720
H 9 0Xa7b6
H O 0Xa8ba
H 7 0Xa982
H 3 0Xaa54
H 5 0Xab12
H 2 0Xabf8
H 1 0Xacd4
H T 0Xad56
B E 0Xae6e
B 4 0Xaf18
B 8 0Xafe0
B 9 0Xb09e
B 6 0Xb15c
B 7 0Xb26a
B O 0Xb33c
B 5 0Xb40e
B 3 0Xb4fe
B 1 0Xb5c6
B 2 0Xb68e
B T 0Xb724
H E 0Xb8fa
H 8 0Xb9e0
H 4 0Xbaa8
H 6 0Xbb66
H 9 0Xbc24
H O 0Xbcec
H 7 0Xbdfa
H 3 0Xbec2
H 5 0Xbf62
H 2 0Xc048
H 1 0Xc138
H T 0Xc1e2
B 8 0Xc2aa
B E 0Xc386
B 4 0Xc494
B 9 0Xc52a
B 6 0Xc606
B 7 0Xc6e2
B O 0Xc796
B 5 0Xc872
B 3 0Xc926
B 1 0Xca0c
B 2 0Xcac0
B T 0Xcb7e
H 8 0Xcd4a
H 4 0Xce4e
H E 0Xced0
H 6 0Xcfde
H 9 0Xd06a
H O 0Xd164
H 7 0Xd254
H 3 0Xd31c
H 5 0Xd3c6
H 2 0Xd4de
H 1 0Xd5a6
H T 0Xd63c
B 4 0Xd722
B 8 0Xd7b8
B E 0Xd876
B 9 0Xd952
B 6 0Xda56
B 7 0Xdb5a
B O 0Xdc22
B 5 0Xdcd6
B 3 0Xdd8a
B 1 0Xde5c
B 2 0Xdf2e
B T 0Xdfe2
H 8 0Xe1a4
H 4 0Xe2bc
H 9 0Xe33e
H E 0Xe410
H 7 0Xe532
H 6 0Xe5be
H 5 0Xe6b8
H O 0Xe7a8
H 1 0Xe884
H 3 0Xe8fc
H 2 0Xe9ce
H T 0Xea6e
B 8 0Xeb2c
B 9 0Xec12
B 4 0Xed20
B 7 0Xedde
B E 0Xee74
B 5 0Xefa0
B 6 0Xf072
B 1 0Xf162
B O 0Xf22a
B 2 0Xf2de
B 3 0Xf388
B T 0Xf432
H 9 0Xf612
H 8 0Xf6c6
H 4 0Xf784
H E 0Xf842
H 7 0Xf946
H 6 0Xfa22
H 5 0Xfaf4
H O 0Xfc16
H 1 0Xfc8e
H 3 0Xfd56
H 2 0Xfe46
H T 0Xfed2
B 9 0Xffb8
B 4 0X009e
B 8 0X013e
B 7 0X0224
B E 0X02ce
B 5 0X03dc
B 6 0X04c2
B 1 0X0580
B O 0X063e
B 2 0X0724
B 3 0X07ce
B T 0X0864
H 4 0X0a94
H 9 0X0b2a
H 8 0X0bfc
H E 0X0cc4
H 7 0X0dbe
H 6 0X0e7c
H 5 0X0f58
H O 0X105c
H 1 0X1110
H 3 0X119c
H 2 0X1250
H T 0X130e
B 4 0X1426
B 8 0X14ee
B 9 0X15b6
B 7 0X1688
B E 0X1750
B 5 0X1818
B 6 0X18fe
B 1 0X1a20
B O 0X1ad4
B 2 0X1b60
B 3 0X1c14
B T 0X1cc8
H 8 0X1e94
H 4 0X1f84
H 7 0X2060
H 9 0X2100
H 5 0X2204
H E 0X22c2
H 1 0X23ee
H 6 0X2448
H 2 0X2556
H O 0X2628
H 3 0X26c8
H T 0X2772
B 4 0X284e
B 8 0X2920
B 7 0X29fc
B 5 0X2af6
B 9 0X2b8c
B 1 0X2c90
B E 0X2d08
B 2 0X2e34
B 6 0X2ede
B 3 0X2fc4
B O 0X3064
B T 0X312c
H 4 0X32f8
H 7 0X33d4
H 8 0X3492
H 9 0X353c
H 5 0X362c
H E 0X3712
H 1 0X37ee
H 6 0X387a
H 2 0X396a
H O 0X3a6e
H 3 0X3b0e
H T 0X3bc2
B 7 0X3cb2
B 4 0X3d70
B 8 0X3e24
B 5 0X3f1e
B 9 0X3fd2
B 1 0X40ea
B E 0X4176
B 2 0X4252
B 6 0X4306
B 3 0X43f6
B O 0X44b4
B T 0X4586
H 7 0X4752
H 8 0X47fc
H 4 0X4914
H 9 0X49a0
H 5 0X4a5e
H E 0X4b44
H 1 0X4c16
H 6 0X4ce8
H 2 0X4dd8
H O 0X4eb4
H 3 0X4f4a
H T 0X501c
B 8 0X50f8
B 7 0X51c0
B 4 0X529c
B 5 0X5378
B 9 0X5454
B 1 0X54fe
B E 0X55bc
B 2 0X56ca
B 6 0X5756
B 3 0X5850
B O 0X590e
B T 0X59cc
H 7 0X5b8e
H 8 0X5c42
H 5 0X5d14
H 4 0X5de6
H 1 0X5ed6
H 9 0X5f9e
H 2 0X60ac
H E 0X612e
H 6 0X620a
H O 0X62d2
H 3 0X63ae
H T 0X6462
B 7 0X6534
B 5 0X661a
B 8 0X66e2
B 1 0X67b4
B 4 0X687c
B 2 0X6962
B 9 0X6a2a
B 6 0X6afc
B E 0X6b9c
B 3 0X6c82
B O 0X6d5e
B T 0X6e26
H 5 0X7038
H 7 0X70ec
H 8 0X7196
H 4 0X7272
H 1 0X733a
H 9 0X73c6
H 2 0X74ac
H E 0X7556
H 6 0X766e
H O 0X772c
H 3 0X77ea
H T 0X78d0
B 5 0X79d4
B 8 0X7a7e
B 7 0X7b6e
B 1 0X7c40
B 4 0X7d12
B 2 0X7dda
B 9 0X7e70
B 6 0X7f60
B E 0X7fce
B 3 0X80dc
B O 0X81a4
B T 0X828a
H 8 0X8456
H 5 0X8532
H 7 0X85fa
H 4 0X86d6
H 1 0X87a8
H 9 0X8848
H 2 0X892e
H E 0X89b0
H 6 0X8abe
H O 0X8b72
H 3 0X8c3a
H T 0X8d20
B 8 0X8dde
B 7 0X8ed8
B 5 0X8fb4
B 1 0X90b8
B 4 0X9144
B 2 0X9234
B 9 0X92ca
B 6 0X93b0
B E 0X9446
B 3 0X9536
B O 0X961c
B T 0X96bc
H 7 0X9892
H 8 0X9950
H 1 0X9a72
H 5 0X9b30
H 2 0X9c2a
H 4 0X9cf2
H 6 0X9d60
H 9 0X9e1e
H 3 0X9f18
H E 0X9f86
H O 0Xa06c
H T 0Xa152
B 8 0Xa238
B 7 0Xa328
B 1 0Xa44a
B 2 0Xa4f4
B 5 0Xa594
B 6 0Xa666
B 4 0Xa74c
B 3 0Xa800
B 9 0Xa8be
B O 0Xa972
B E 0Xaa30
B T 0Xab02
H 8 0Xad00
H 1 0Xadfa
H 7 0Xaeae
H 5 0Xaf62
H 2 0Xb034
H 4 0Xb12e
H 6 0Xb1e2
H 9 0Xb296
H 3 0Xb368
H E 0Xb3fe
H O 0Xb4f8
H T 0Xb5c0
B 1 0Xb6b0
B 8 0Xb764
B 7 0Xb872
B 2 0Xb944
B 5 0Xb9bc
B 6 0Xbaac
B 4 0Xbbb0
B 3 0Xbc5a
B 9 0Xbd0e
B O 0Xbdd6
B E 0Xbea8
B T 0Xbf70
H 1 0Xc128
H 7 0Xc218
H 8 0Xc2d6
H 5 0Xc3c6
H 2 0Xc4a2
H 4 0Xc5b0
H 6 0Xc614
H 9 0Xc6fa
H 3 0Xc7ae
H E 0Xc858
H O 0Xc948
H T 0Xca1a
B 7 0Xcb00
B 1 0Xcbaa
B 8 0Xcc72
B 2 0Xcd80
B 5 0Xce2a
B 6 0Xcefc
B 4 0Xcfe2
B 3 0Xd0be
B 9 0Xd172
B O 0Xd244
B E 0Xd302
B T 0Xd3ca
H 1 0Xd5a0
H 7 0Xd672
H 2 0Xd730
H 8 0Xd82a
H 6 0Xd8b6
H 5 0Xd9b0
H 3 0Xda6e
H 4 0Xdb40
H O 0Xdc08
H 9 0Xdcc6
H E 0Xdd7a
H T 0Xde6a
B 1 0Xdf1e
B 2 0Xe00e
B 7 0Xe0e0
B 6 0Xe18a
B 8 0Xe252
B 3 0Xe338
B 5 0Xe40a
B O 0Xe4e6
B 4 0Xe5b8
B E 0Xe612
B 9 0Xe73e
B T 0Xe81a
H 2 0Xe9dc
H 1 0Xeab8
H 7 0Xeb6c
H 8 0Xec2a
H 6 0Xed24
H 5 0Xee0a
H 3 0Xeeaa
H 4 0Xefb8
H O 0Xf044
H 9 0Xf10c
H E 0Xf1ac
H T 0Xf288
B 2 0Xf3aa
B 7 0Xf468
B 1 0Xf512
B 6 0Xf5f8
B 8 0Xf6b6
B 3 0Xf7a6
B 5 0Xf85a
B O 0Xf922
B 4 0Xfa1c
B E 0Xfaa8
B 9 0Xfb8e
B T 0Xfc4c
H 7 0Xfe36
H 2 0Xff1c
H 1 0Xffd0
H 8 0X0084
H 6 0X0156
H 5 0X0250
H 3 0X032c
H 4 0X03f4
H O 0X0480
H 9 0X0552
H E 0X061a
H T 0X06d8
B 7 0X07fa
B 1 0X08a4
B 2 0X0962
B 6 0X0a52
B 8 0X0b1a
B 3 0X0bec
B 5 0X0cb4
B O 0X0da4
B 4 0X0ebc
B E 0X0ef8
B 9 0X0ffc
B T 0X10ba
H 1 0X129a
H 7 0X1344
H 6 0X1416
H 2 0X1510
H 3 0X15d8
H 8 0X16aa
H O 0X175e
H 5 0X1826
H 4 0X195c
H E 0X19ca
H 9 0X1a88
H T 0X1b6e
B 7 0X1c04
B 1 0X1cd6
B 6 0X1dda
B 3 0X1ed4
B 2 0X1f88
B O 0X203c
B 8 0X20f0
B 4 0X21d6
B 5 0X22a8
B 9 0X2366
B E 0X246a
B T 0X2528
H 7 0X26d6
H 6 0X279e
H 1 0X2884
H 2 0X294c
H 3 0X2a1e
H 8 0X2adc
H O 0X2b9a
H 5 0X2ca8
H 4 0X2d48
H E 0X2dde
H 9 0X2eb0
H T 0X2fbe
B 6 0X3086
B 7 0X319e
B 1 0X325c
B 3 0X3306
B 2 0X33c4
B O 0X346e
B 8 0X3522
B 4 0X3630
B 5 0X3702
B 9 0X37b6
B E 0X3892
B T 0X396e
H 6 0X3ae0
H 1 0X3c16
H 7 0X3d06
H 2 0X3de2
H 3 0X3e82
H 8 0X3f54
H O 0X401c
H 5 0X40ee
H 4 0X4198
H E 0X4242
H 9 0X431e
H T 0X43f0
B 1 0X44ea
B 6 0X45b2
B 7 0X46d4
B 3 0X4792
B 2 0X485a
B O 0X490e
B 8 0X49ae
B 4 0X4ad0
B 5 0X4b70
B 9 0X4c38
B E 0X4cc4
B T 0X4d96
H 6 0X4f8a
H 1 0X5052
H 3 0X5160
H 7 0X525a
H O 0X52f0
H 2 0X539a
H 4 0X5476
H 8 0X553e
H 9 0X5606
H 5 0X56e2
H E 0X5778
H T 0X5854
B 6 0X594e
B 3 0X5a3e
B 1 0X5ae8
B O 0X5b9c
B 7 0X5d18
B 4 0X5d40
B 2 0X5e12
B 9 0X5f02
B 8 0X5fca
B E 0X6092
B 5 0X618c
B T 0X6240
H 3 0X6402
H 6 0X64d4
H 1 0X65ba
H 7 0X66aa
H O 0X672c
H 2 0X67cc
H 4 0X68da
H 8 0X69ac
H 9 0X6a6a
H 5 0X6b3c
H E 0X6bd2
H T 0X6cc2
B 3 0X6d9e
B 1 0X6e84
B 6 0X6f56
B O 0X6ff6
B 7 0X70f0
B 4 0X71c2
B 2 0X7276
B 9 0X733e
B 8 0X7410
B E 0X74d8
B 5 0X75be
B T 0X769a
H 1 0X787a
H 3 0X792e
H 6 0X79e2
H 7 0X7ae6
H O 0X7b9a
H 2 0X7c3a
H 4 0X7cf8
H 8 0X7df2
H 9 0X7e9c
H 5 0X7f8c
H E 0X800e
H T 0X80fe
B 1 0X8216
B 6 0X82d4
B 3 0X83c4
B O 0X8496
B 7 0X852c
B 4 0X8608
B 2 0X86b2
B 9 0X8784
B 8 0X8856
B E 0X8914
B 5 0X8a2c
B T 0X8ad6
H 6 0X8cca
H 1 0X8da6
H O 0X8ea0
H 3 0X8f22
H 4 0X8ffe
H 7 0X90e4
H 9 0X913e
H 2 0X9224
H 8 0X92c4
H E 0X9396
H 5 0X94a4
H T 0X9594
B 1 0X967a
B 6 0X972e
B O 0X9814
B 4 0X9904
B 3 0X99b8
B 9 0X9a8a
B 7 0X9b3e
B 8 0X9bca
B 2 0X9cba
B 5 0X9db4
B E 0X9e40
B T 0X9f1c
H 1 0Xa110
H O 0Xa1f6
H 6 0Xa282
H 3 0Xa354
H 4 0Xa3fe
H 7 0Xa520
H 9 0Xa5ca
H 2 0Xa67e
H 8 0Xa73c
H E 0Xa822
H 5 0Xa8f4
H T 0Xa9da
B O 0Xaab6
B 1 0Xab88
B 6 0Xac50
B 4 0Xad36
B 3 0Xadea
B 9 0Xaea8
B 7 0Xaf98
B 8 0Xb056
B 2 0Xb114
B 5 0Xb1f0
B E 0Xb290
B T 0Xb376
H O 0Xb560
H 6 0Xb628
H 1 0Xb704
H 3 0Xb790
H 4 0Xb894
H 7 0Xb9a2
H 9 0Xba24
H 2 0Xbaec
H 8 0Xbba0
H E 0Xbc86
H 5 0Xbd26
H T 0Xbe34
B 6 0Xbf06
B O 0Xbfc4
B 1 0Xc096
B 4 0Xc168
B 3 0Xc23a
B 9 0Xc30c
B 7 0Xc3f2
B 8 0Xc4a6
B 2 0Xc578
B 5 0Xc64a
B E 0Xc6ea
B T 0Xc7da
H O 0Xc97e
H 6 0Xca82
H 4 0Xcb0e
H 1 0Xcc08
H 9 0Xccee
H 3 0Xcdb6
H 8 0Xce9c
H 7 0Xcf8c
H 5 0Xd004
H 2 0Xd0fe
H E 0Xd16c
H T 0Xd266
B O 0Xd31a
B 4 0Xd41e
B 6 0Xd4fa
B 9 0Xd5cc
B 1 0Xd6e4
B 8 0Xd784
B 3 0Xd838
B 5 0Xd8e2
B 7 0Xda04
B E 0Xda72
B 2 0Xdb8a
B T 0Xdc48
H 4 0Xde32
H O 0Xdec8
H 6 0Xdf72
H 1 0Xe094
H 9 0Xe148
H 3 0Xe21a
H 8 0Xe2f6
H 7 0Xe3c8
H 5 0Xe45e
H 2 0Xe576
H E 0Xe5e4
H T 0Xe6d4
B 4 0Xe7d8
B 6 0Xe896
B O 0Xe95e
B 9 0Xea30
B 1 0Xeb20
B 8 0Xebac
B 3 0Xecce
B 5 0Xed5a
B 7 0Xee4a
B E 0Xeef4
B 2 0Xefbc
B T 0Xf0a2
H 6 0Xf25a
H 4 0Xf354
H O 0Xf3f4
H 1 0Xf4f8
H 9 0Xf5ac
H 3 0Xf69c
H 8 0Xf75a
H 7 0Xf836
H 5 0Xf8d6
H 2 0Xf9c6
H E 0Xfa16
H T 0Xfae8
B 6 0Xfc28
B O 0Xfce6
B 4 0Xfdc2
B 9 0Xfe94
B 1 0Xff7a
B 8 0X0010
B 3 0X00ec
B 5 0X01be
B 7 0X029a
B E 0X031c
B 2 0X0420
B T 0X04d4
H O 0X0682
H 6 0X07a4
H 9 0X0876
H 4 0X0934
H 8 0X0a10
H 1 0X0aec
H 5 0X0b78
H 3 0X0c7c
H E 0X0cfe
H 7 0X0de4
H 2 0X0ee8
H T 0X0f7e
B 6 0X106e
B O 0X1140
B 9 0X1208
B 8 0X130c
B 4 0X13de
B 5 0X1460
B 1 0X156e
B E 0X160e
B 3 0X16fe
B 2 0X17d0
B 7 0X180c
B T 0X1956
H 6 0X1ac8
H 9 0X1bc2
H O 0X1cbc
H 4 0X1d8e
H 8 0X1e6a
H 1 0X1f28
H 5 0X1fd2
H 3 0X20c2
H E 0X2176
H 7 0X2216
H 2 0X22de
H T 0X23ec
B 9 0X2496
B 6 0X2568
B O 0X2644
B 8 0X2734
B 4 0X2824
B 5 0X28d8
B 1 0X29be
B E 0X2a86
B 3 0X2b30
B 2 0X2be4
B 7 0X2cb6
B T 0X2d7e
H 9 0X2f36
H O 0X3026
H 6 0X30da
H 4 0X31e8
H 8 0X32ba
H 1 0X3396
H 5 0X3436
H 3 0X3512
H E 0X359e
H 7 0X368e
H 2 0X376a
H T 0X3814
B O 0X38dc
B 9 0X39b8
B 6 0X3ab2
B 8 0X3bac
B 4 0X3c74
B 5 0X3d46
B 1 0X3de6
B E 0X3eae
B 3 0X3f80
B 2 0X4066
B 7 0X4156
B T 0X41f6
H 9 0X43ae
H O 0X4480
H 8 0X4552
H 6 0X4642
H 5 0X4700
H 4 0X480e
H E 0X48ae
H 1 0X49b2
H 2 0X4a20
H 3 0X4ae8
H 7 0X4be2
H T 0X4cd2
B 9 0X4d7c
B 8 0X4e44
B O 0X4f0c
B 5 0X4ff2
B 6 0X50c4
B E 0X518c
B 4 0X5272
B 2 0X533a
B 1 0X542a
B 7 0X54c0
B 3 0X5574
B T 0X566e
H 8 0X5826
H 9 0X58f8
H O 0X59e8
H 6 0X5aa6
H 5 0X5b82
H 4 0X5c54
H E 0X5cea
H 1 0X5dda
H 2 0X5ea2
H 3 0X5f56
H 7 0X6028
H T 0X6118
B 8 0X61cc
B O 0X62a8
B 9 0X63a2
B 5 0X6474
B 6 0X6550
B E 0X660e
B 4 0X66c2
B 2 0X679e
B 1 0X688e
B 7 0X6906
B 3 0X69d8
B T 0X6abe
H O 0X6c9e
H 8 0X6d48
H 9 0X6e10
H 6 0X6f14
H 5 0X6ff0
H 4 0X70e0
H E 0X714e
H 1 0X7216
H 2 0X72f2
H 3 0X73ba
H 7 0X7482
H T 0X754a
B O 0X7630
B 9 0X7716
B 8 0X77d4
B 5 0X78d8
B 6 0X798c
B E 0X7a68
B 4 0X7b3a
B 2 0X7bf8
B 1 0X7cf2
B 7 0X7d7e
B 3 0X7e46
B T 0X7f0e
H 9 0X80d0
H O 0X81ac
H 5 0X82a6
H 8 0X836e
H E 0X8422
H 6 0X84d6
H 2 0X85c6
H 4 0X86ac
H 7 0X8774
H 1 0X87ba
H 3 0X88fa
H T 0X89cc
B O 0X8a94
B 9 0X8ba2
B 5 0X8c56
B E 0X8d00
B 8 0X8dfa
B 2 0X8ed6
B 6 0X8f6c
B 7 0X9048
B 4 0X9124
B 3 0X9200
B 1 0X92fa
B T 0X939a
H O 0X9552
H 5 0X9606
H 9 0X96f6
H 8 0X97c8
H E 0X9872
H 6 0X9958
H 2 0X9a34
H 4 0X9ae8
H 7 0X9c0a
H 1 0X9cc8
H 3 0X9d68
H T 0X9e3a
B 5 0X9f16
B O 0X9fca
B 9 0Xa092
B E 0Xa164
B 8 0Xa24a
B 2 0Xa31c
B 6 0Xa402
B 7 0Xa4de
B 4 0Xa574
B 3 0Xa66e
B 1 0Xa740
B T 0Xa7fe
H 5 0Xa9b6
H 9 0Xaa6a
H O 0Xab28
H 8 0Xac22
H E 0Xacb8
H 6 0Xadd0
H 2 0Xae70
H 4 0Xaf7e
H 7 0Xb032
H 1 0Xb12c
H 3 0Xb1cc
H T 0Xb29e
B 9 0Xb370
B 5 0Xb442
B O 0Xb500
B E 0Xb5dc
B 8 0Xb6d6
B 2 0Xb79e
B 6 0Xb866
B 7 0Xb94c
B 4 0Xb9f6
B 3 0Xbad2
B 1 0Xbba4
B T 0Xbc58
H 5 0Xbe10
H 9 0Xbee2
H E 0Xbfaa
H O 0Xc086
H 2 0Xc162
H 8 0Xc22a
H 7 0Xc2fc
H 6 0Xc3ce
H 3 0Xc4a0
H 4 0Xc572
H 1 0Xc662
H T 0Xc702
B 5 0Xc7d4
B E 0Xc8a6
B 9 0Xc96e
B 2 0Xca36
B O 0Xcb12
B 7 0Xcbee
B 8 0Xcc8e
B 3 0Xcd88
B 6 0Xce46
B 1 0Xcf18
B 4 0Xd026
B T 0Xd0bc
H E 0Xd29c
H 5 0Xd364
H 9 0Xd42c
H O 0Xd4fe
H 2 0Xd5b2
H 8 0Xd648
H 7 0Xd742
H 6 0Xd832
H 3 0Xd8fa
H 4 0Xda1c
H 1 0Xdada
H T 0Xdb66
B E 0Xdc56
B 9 0Xdd0a
B 5 0Xddf0
B 2 0Xdefe
B O 0Xdf6c
B 7 0Xe02a
B 8 0Xe0de
B 3 0Xe1ec
B 6 0Xe2a0
B 1 0Xe3ae
B 4 0Xe48a
B T 0Xe534
H 9 0Xe6ec
H E 0Xe7a0
H 5 0Xe890
H O 0Xe958
H 2 0Xea34
H 8 0Xeac0
H 7 0Xebba
H 6 0Xec6e
H 3 0Xed5e
H 4 0Xee94
H 1 0Xef5c
H T 0Xefd4
B 9 0Xf092
B 5 0Xf18c
B E 0Xf236
B 2 0Xf31c
B O 0Xf3e4
B 7 0Xf4b6
B 8 0Xf574
B 3 0Xf66e
B 6 0Xf70e
B 1 0Xf812
B 4 0Xf8ee
B T 0Xf9ac
H 5 0Xfb96
H 9 0Xfc2c
H 2 0Xfce0
H E 0Xfdb2
H 7 0Xfec0
H O 0Xff74
H 3 0X0050
H 8 0X0118
H 1 0X021c
H 6 0X0294
H 4 0X0366
H T 0X042e
B 9 0X0528
B 5 0X060e
B 2 0X0708
B 7 0X07b2
B E 0X0834
B 3 0X092e
B O 0X09f6
B 1 0X0af0
B 8 0X0bb8
B 4 0X0cb2
B 6 0X0d3e
B T 0X0e06
H 9 0X0fd2
H 2 0X10cc
H 5 0X1176
H E 0X1248
H 7 0X1356
H O 0X1428
H 3 0X14c8
H 8 0X1568
H 1 0X166c
H 6 0X1752
H 4 0X17de
H T 0X18ba
B 2 0X19aa
B 9 0X1a7c
B 5 0X1b1c
B 7 0X1c16
B E 0X1ce8
B 3 0X1db0
B O 0X1e78
B 1 0X1f5e
B 8 0X1ffe
B 4 0X2102
B 6 0X21f2
B T 0X22a6
H 2 0X2422
H 5 0X24c2
H 9 0X25c6
H E 0X26ac
H 7 0X2792
H O 0X288c
H 3 0X292c
H 8 0X29e0
H 1 0X2ac6
H 6 0X2ba2
H 4 0X2c74
H T 0X2d3c
B 5 0X2dfa
B 2 0X2ef4
B 9 0X2f6c
B 7 0X3048
B E 0X3138
B 3 0X321e
B O 0X32dc
B 1 0X33e0
B 8 0X3476
B 4 0X3570
B 6 0X3642
B T 0X371e
H 2 0X38cc
H 5 0X3980
H 7 0X3a7a
H 9 0X3b1a
H 3 0X3c00
H E 0X3ca0
H 1 0X3dcc
H O 0X3e6c
H 4 0X3f48
H 8 0X401a
H 6 0X40e2
H T 0X41c8
B 2 0X4272
B 7 0X4344
B 5 0X442a
B 3 0X44f2
B 9 0X45b0
B 1 0X46be
B E 0X4740
B 4 0X4812
B O 0X48e4
B 6 0X49fc
B 8 0X4aba
B T 0X4b82
H 7 0X4d1c
H 2 0X4e02
H 5 0X4eb6
H 9 0X4f92
H 3 0X5078
H E 0X5140
H 1 0X5212
H O 0X52f8
H 4 0X53ca
H 8 0X5492
H 6 0X5546
H T 0X562c
B 7 0X56fe
B 5 0X57e4
B 2 0X58de
B 3 0X5960
B 9 0X5a46
B 1 0X5afa
B E 0X5b86
B 4 0X5cda
B O 0X5d7a
B 6 0X5e2e
B 8 0X5f14
B T 0X5ffa
H 5 0X61a8
H 7 0X62ac
H 2 0X6374
H 9 0X640a
H 3 0X64f0
H E 0X6586
H 1 0X666c
H O 0X677a
H 4 0X6838
H 8 0X68f6
H 6 0X69c8
H T 0X6a9a
B 5 0X6b80
B 2 0X6ca2
B 7 0X6d24
B 3 0X6e28
B 9 0X6ed2
B 1 0X6f7c
B E 0X7030
B 4 0X70ee
B O 0X71b6
B 6 0X72b0
B 8 0X738c
B T 0X7468
H 2 0X762a
H 5 0X76de
H 3 0X77ce
H 7 0X78a0
H 1 0X7986
H 9 0X7a30
H 4 0X7ae4
H E 0X7b70
H 6 0X7c92
H O 0X7d3c
H 8 0X7dfa
H T 0X7ef4
B 5 0X7ff8
B 2 0X80d4
B 3 0X8188
B 1 0X8278
B 7 0X8322
B 4 0X8430
B 9 0X84c6
B 6 0X8584
B E 0X8660
B 8 0X871e
B O 0X87e6
B T 0X88c2
H 5 0X8a52
H 3 0X8b38
H 2 0X8c0a
H 7 0X8cc8
H 1 0X8de0
H 9 0X8e9e
H 4 0X8f84
H E 0X901a
H 6 0X9100
H O 0X91a0
H 8 0X927c
H T 0X9376
B 3 0X9452
B 5 0X9524
B 2 0X9600
B 1 0X96e6
B 7 0X9786
B 4 0X989e
B 9 0X9934
B 6 0X9a06
B E 0X9aba
B 8 0X9b8c
B O 0X9c5e
B T 0X9d30
H 3 0X9efc
H 2 0X9fba
H 5 0Xa064
H 7 0Xa154
H 1 0Xa262
H 9 0Xa302
H 4 0Xa406
H E 0Xa488
H 6 0Xa58c
H O 0Xa60e
H 8 0Xa712
H T 0Xa7f8
B 2 0Xa8ca
B 3 0Xa96a
B 5 0Xaa28
B 1 0Xab54
B 7 0Xabfe
B 4 0Xacb2
B 9 0Xad8e
B 6 0Xae60
B E 0Xaf14
B 8 0Xaff0
B O 0Xb0cc
B T 0Xb1a8
H 3 0Xb374
H 2 0Xb414
H 1 0Xb540
H 5 0Xb5b8
H 4 0Xb680
H 7 0Xb748
H 6 0Xb838
H 9 0Xb8c4
H 8 0Xb9be
H E 0Xba68
H O 0Xbb76
H T 0Xbc34
B 3 0Xbd38
B 1 0Xbe00
B 2 0Xbe96
B 4 0Xbf4a
B 5 0Xc026
B 6 0Xc0ee
B 7 0Xc1c0
B 8 0Xc288
B 9 0Xc364
B O 0Xc45e
B E 0Xc526
B T 0Xc5e4
H 1 0Xc7f6
H 3 0Xc8a0
H 2 0Xc94a
H 5 0Xc9d6
H 4 0Xcabc
H 7 0Xcba2
H 6 0Xcc6a
H 9 0Xcd28
H 8 0Xce0e
H E 0Xced6
H O 0Xcfe4
H T 0Xd0a2
B 1 0Xd160
B 2 0Xd232
B 3 0Xd2e6
B 4 0Xd3a4
B 5 0Xd458
B 6 0Xd548
B 7 0Xd606
B 8 0Xd6d8
B 9 0Xd7be
B O 0Xd8ae
B E 0Xd980
B T 0Xda48
H 1 0Xdc3c
H 2 0Xdcb4
H 3 0Xdd54
H 4 0Xde30
H 5 0Xded0
H 6 0Xdfde
H 7 0Xe0ba
H 8 0Xe182
H 9 0Xe240
H O 0Xe308
H E 0Xe3d0
H T 0Xe4ac
B 1 0Xe5e2
B 2 0Xe664
B 3 0Xe718
B 4 0Xe7b8
B 5 0Xe876
B 6 0Xe98e
B 7 0Xea60
B 8 0Xeb14
B 9 0Xebfa
B O 0Xecc2
B E 0Xed8a
B T 0Xee5c
H 1 0Xf06e
H 2 0Xf10e
H 3 0Xf1b8
H 4 0Xf280
H 5 0Xf316
H 6 0Xf410
H 7 0Xf4e2
H 8 0Xf5a0
H 9 0Xf672
H O 0Xf76c
H E 0Xf820
H T 0Xf8fc
B 1 0Xfa00
B 2 0Xfab4
B 3 0Xfb5e
B 4 0Xfc30
B 5 0Xfcda
B 6 0Xfdb6
B 7 0Xfe7e
B 8 0Xff46
B 9 0X000e
B O 0X00e0
B E 0X01bc
B T 0X0298
H 1 0X04a0
H 2 0X0536
H 3 0X05d6
H 4 0X06bc
H 5 0X0752
H 6 0X0842
H 7 0X0928
H 8 0X09dc
H 9 0X0ab8
H O 0X0b8a
H E 0X0c52
H T 0X0d10
B 1 0X0df6
B 2 0X0ec8
B 3 0X0f72
B 4 0X106c
B 5 0X1120
B 6 0X1210
B 7 0X130a
B 8 0X13d2
B 9 0X147c
B O 0X1576
B E 0X1602
B T 0X174c
