#. Lowndes: Version 2
#. SourceFilename: C:\Users\Guildford Ringers\Documents\guildfordcathedralbells.bitbucket.io\Recordings\Guildford\Guildford.20220529-1759.s0t0.10.wav
#. Tower: Guildford Cathedral
#. RingingName: Touch_10
#. RingingDateTime: 20220529-1759
#. Rungon: 
#. Tenor: 12
#. NumBellsRinging: 12
#. Creator: HawkEar Team Edition V1 for Guildford Cathedral
#. CreatorVersion: 1.1.0.3
#. TranscribedFor: Guildford band
#. TranscriptionDateTime: 20220529-1802
#. FirstBlowMs: 3310
#. TouchdB: -9.53421
#. TraindB: -9.73, -8.5, -6.1, -3.11, -3.16, -3.1, -3.98, -4.12, -5.95, -5.43, -4.92, -3
#. TrainedOn: 20220102-1438
#. TrainDataRecordedOn: 20210813-1741
#. TrainParams: -ft:y -ws:0.05 -hs:0.01 -co:0.9 -sw:40 -ts:
#. GainParams: -fh:6000 -fl:200
#. OnsetParams: -mb:80 -mf:10 -ng:0.3 -oo:0
#. WriteParams: -hb:y
#. AnalParams: -au:n -xp:n -sg:n -hsg:-1
#. ExpString: 
#. Association:
#. Calling:
#. CompositionName:
#. Method:
#. Footnotes:
#. Ringers:
#. Stage:
H 1 0X0000
H 2 0X00d2
H 3 0X01cc
H 4 0X026c
H 5 0X0370
H 6 0X0438
H 7 0X0514
H 8 0X05be
H 9 0X0686
H O 0X0776
H E 0X07f8
H T 0X08e8
B 1 0X09ec
B 2 0X0ae6
B 3 0X0b90
B 4 0X0c58
B 5 0X0d16
B 6 0X0db6
B 7 0X0ed8
B 8 0X0fb4
B 9 0X107c
B O 0X1162
B E 0X1248
B T 0X1306
H 1 0X14a0
H 2 0X155e
H 3 0X1630
H 4 0X168a
H 5 0X1766
H 6 0X1824
H 7 0X1900
H 8 0X19a0
H 9 0X1aae
H O 0X1b6c
H E 0X1c34
H T 0X1d38
B 1 0X1dec
B 2 0X1eaa
B 3 0X1f36
B 4 0X1ffe
B 5 0X20bc
B 6 0X2166
B 7 0X2274
B 8 0X2332
B 9 0X23e6
B O 0X24d6
B E 0X25d0
B T 0X2684
H 1 0X2828
H 2 0X28dc
H 3 0X29a4
H 4 0X2a44
H 5 0X2af8
H 6 0X2bc0
H 7 0X2c7e
H 8 0X2d32
H 9 0X2e18
H O 0X2eea
H E 0X2fc6
H T 0X3084
B 1 0X314c
B 2 0X3200
B 3 0X32aa
B 4 0X3354
B 5 0X3426
B 6 0X34da
B 7 0X35de
B 8 0X369c
B 9 0X3746
B O 0X3818
B E 0X3908
B T 0X39bc
H 1 0X3b92
H 2 0X3c3c
H 3 0X3cfa
H 4 0X3d86
H 5 0X3e3a
H 6 0X3eee
H 7 0X3fc0
H 8 0X4060
H 9 0X4150
H O 0X4236
H E 0X4312
H T 0X43c6
B 1 0X44a2
B 2 0X456a
B 3 0X4600
B 4 0X46a0
B 5 0X475e
B 6 0X481c
B 7 0X48da
B 8 0X49ac
B 9 0X4a74
B O 0X4b50
B E 0X4c40
B T 0X4cf4
H 1 0X4eb6
H 2 0X4f74
H 3 0X503c
H 4 0X50be
H 5 0X517c
H 6 0X5244
H 7 0X5302
H 8 0X53ac
H 9 0X547e
H O 0X5546
H E 0X5622
H T 0X56d6
B 1 0X579e
B 2 0X585c
B 3 0X591a
B 4 0X59c4
B 5 0X5a82
B 6 0X5b4a
B 7 0X5c44
B 8 0X5cee
B 9 0X5dd4
B O 0X5e88
B E 0X5f82
B T 0X6040
H 2 0X61f8
H 1 0X62ca
H 4 0X6324
H 3 0X63d8
H 6 0X64be
H 5 0X65a4
H 8 0X6658
H 7 0X6748
H O 0X67fc
H 9 0X68d8
H T 0X6932
H E 0X6a40
B 1 0X6af4
B 2 0X6bbc
B 3 0X6c66
B 4 0X6d06
B 6 0X6dc4
B 8 0X6e8c
B 5 0X6fa4
B O 0X706c
B 7 0X713e
B T 0X71c0
B 9 0X72b0
B E 0X73b4
H 2 0X751c
H 1 0X7616
H 4 0X7670
H 3 0X774c
H 8 0X780a
H 6 0X78b4
H O 0X799a
H 5 0X7a80
H T 0X7b0c
H 7 0X7bca
H E 0X7cb0
H 9 0X7d8c
B 2 0X7e68
B 4 0X7efe
B 1 0X7fda
B 3 0X80ac
B 6 0X8156
B 8 0X81f6
B 5 0X82fa
B O 0X8386
B 7 0X8458
B T 0X84d0
B 9 0X8610
B E 0X86ec
H 4 0X8836
H 2 0X8912
H 3 0X89f8
H 1 0X8afc
H 6 0X8bb0
H 5 0X8c64
H 8 0X8d22
H 7 0X8de0
H O 0X8e80
H 9 0X8f20
H T 0X8ffc
H E 0X90a6
B 2 0X91a0
B 4 0X9222
B 1 0X92f4
B 3 0X93e4
B 5 0X94ac
B 6 0X9574
B 7 0X9632
B 8 0X96e6
B 9 0X97ae
B O 0X986c
B E 0X9952
B T 0X9a2e
H 4 0X9b6e
H 2 0X9c4a
H 3 0X9d1c
H 1 0X9df8
H 5 0X9eac
H 7 0X9f74
H 6 0Xa028
H 9 0Xa0f0
H 8 0Xa19a
H E 0Xa26c
H O 0Xa33e
H T 0Xa410
B 2 0Xa4ec
B 4 0Xa578
B 3 0Xa64a
B 5 0Xa73a
B 1 0Xa7ee
B 6 0Xa8a2
B 7 0Xa96a
B 8 0Xaa14
B 9 0Xaae6
B E 0Xab9a
B T 0Xac6c
B O 0Xad52
H 2 0Xaf14
H 3 0Xafdc
H 4 0Xb072
H 5 0Xb11c
H 6 0Xb1e4
H 1 0Xb2b6
H 8 0Xb356
H 7 0Xb464
H E 0Xb518
H 9 0Xb5e0
H O 0Xb6a8
H T 0Xb748
B 3 0Xb842
B 2 0Xb90a
B 5 0Xb9be
B 4 0Xbaa4
B 1 0Xbb58
B 6 0Xbc2a
B 7 0Xbcd4
B 8 0Xbd74
B 9 0Xbe28
B E 0Xbf22
B T 0Xbfcc
B O 0Xc09e
H 2 0Xc26a
H 3 0Xc31e
H 4 0Xc3d2
H 5 0Xc486
H 6 0Xc530
H 1 0Xc620
H 7 0Xc6fc
H 9 0Xc792
H 8 0Xc846
H E 0Xc90e
H O 0Xc9ea
H T 0Xca9e
B 2 0Xcbac
B 4 0Xcc06
B 3 0Xcd0a
B 6 0Xcda0
B 5 0Xce90
B 7 0Xcf6c
B 1 0Xd020
B 8 0Xd0c0
B 9 0Xd188
B O 0Xd246
B E 0Xd32c
B T 0Xd3e0
H 4 0Xd55c
H 2 0Xd642
H 3 0Xd71e
H 5 0Xd7c8
H 6 0Xd89a
H 7 0Xd980
H 8 0Xda16
H 1 0Xdae8
H O 0Xdba6
H 9 0Xdc78
H T 0Xdd18
H E 0Xddea
B 2 0Xdee4
B 4 0Xdf52
B 5 0Xe060
B 3 0Xe146
B 7 0Xe1d2
B 6 0Xe2ae
B 1 0Xe376
B 8 0Xe416
B 9 0Xe4e8
B O 0Xe5b0
B E 0Xe682
B T 0Xe736
H 4 0Xe8b2
H 2 0Xe97a
H 3 0Xea74
H 5 0Xeb28
H 6 0Xebe6
H 7 0Xecb8
H 8 0Xed58
H 1 0Xee20
H 9 0Xeefc
H E 0Xef9c
H O 0Xf0aa
H T 0Xf140
B 2 0Xf226
B 4 0Xf2bc
B 3 0Xf384
B 6 0Xf44c
B 5 0Xf514
B 8 0Xf5c8
B 7 0Xf69a
B 9 0Xf776
B 1 0Xf834
B E 0Xf8c0
B T 0Xf9b0
B O 0Xfa96
H 2 0Xfc4e
H 3 0Xfd02
H 4 0Xfdca
H 5 0Xfe60
H 6 0Xff14
H 7 0Xfffa
H 8 0X0086
H 9 0X014e
H E 0X0252
H 1 0X0338
H O 0X03d8
H T 0X0482
B 3 0X059a
B 2 0X0644
B 5 0X0716
B 4 0X07e8
B 7 0X087e
B 6 0X0928
B 9 0X09dc
B 8 0X0a90
B 1 0X0b8a
B E 0X0c48
B T 0X0cf2
B O 0X0dd8
H 3 0X0fcc
H 5 0X1076
H 2 0X1148
H 7 0X124c
H 4 0X12ba
H 9 0X1364
H 6 0X142c
H 8 0X14d6
H E 0X15b2
H 1 0X1666
H O 0X171a
H T 0X17ce
B 5 0X1904
B 3 0X19d6
B 7 0X1a9e
B 2 0X1b66
B 9 0X1c24
B 4 0X1cce
B 8 0X1d78
B 6 0X1e5e
B E 0X1f12
B O 0X2002
B 1 0X207a
B T 0X211a
H 3 0X234a
H 5 0X23fe
H 2 0X24e4
H 7 0X25c0
H 4 0X262e
H 9 0X26ec
H 6 0X27aa
H 8 0X287c
H O 0X294e
H E 0X2a20
H T 0X2aac
H 1 0X2b9c
B 3 0X2c8c
B 2 0X2d54
B 5 0X2dd6
B 4 0X2ed0
B 7 0X2f7a
B 6 0X3042
B 9 0X3114
B 8 0X3182
B E 0X3286
B O 0X3362
B 1 0X340c
B T 0X34d4
H 2 0X3678
H 3 0X375e
H 4 0X3812
H 5 0X38b2
H 6 0X397a
H 7 0X3a56
H 8 0X3af6
H 9 0X3bf0
H O 0X3cae
H E 0X3d76
H T 0X3e16
H 1 0X3f06
B 2 0X3fe2
B 4 0X4078
B 3 0X4154
B 6 0X4208
B 5 0X42da
B 8 0X437a
B 7 0X4442
B O 0X4528
B 9 0X45d2
B T 0X4686
B E 0X478a
B 1 0X487a
H 4 0X49f6
H 2 0X4ab4
H 6 0X4b7c
H 3 0X4c58
H 8 0X4cda
H 5 0X4dc0
H O 0X4e6a
H 7 0X4f28
H T 0X4fd2
H 9 0X50ea
H 1 0X51bc
H E 0X5266
B 4 0X5342
B 6 0X53ec
B 2 0X54d2
B 8 0X557c
B 3 0X566c
B O 0X573e
B 5 0X57d4
B 7 0X58a6
B 9 0X593c
B T 0X59fa
B E 0X5ae0
B 1 0X5bc6
H 6 0X5d88
H 4 0X5e28
H 8 0X5edc
H 2 0X5fea
H O 0X6094
H 3 0X6152
H 7 0X6224
H 5 0X62d8
H T 0X6396
H 9 0X6468
H 1 0X6558
H E 0X65c6
B 4 0X66a2
B 6 0X6756
B 2 0X6850
B 8 0X68fa
B 3 0X69e0
B O 0X6ab2
B 5 0X6b52
B 7 0X6c38
B T 0X6cce
B 1 0X6d96
B 9 0X6e68
B E 0X6f3a
H 4 0X70e8
H 2 0X71c4
H 6 0X7264
H 3 0X7336
H 8 0X73c2
H 5 0X74d0
H O 0X758e
H 7 0X7674
H 1 0X770a
H T 0X77aa
H E 0X78b8
H 9 0X798a
B 2 0X7a3e
B 4 0X7af2
B 3 0X7bba
B 6 0X7c64
B 5 0X7d54
B 8 0X7dea
B 7 0X7eda
B O 0X7f8e
B T 0X8042
B 1 0X8100
B 9 0X81e6
B E 0X82ea
H 2 0X8470
H 3 0X852e
H 4 0X85ec
H 5 0X868c
H 6 0X8754
H 7 0X8830
H 8 0X88c6
H O 0X89ca
H 1 0X8a88
H T 0X8b46
H E 0X8c2c
H 9 0X8cfe
B 3 0X8d94
B 2 0X8e66
B 4 0X8f56
B 6 0X9000
B 5 0X90c8
B 8 0X915e
B 7 0X9230
B 1 0X92f8
B O 0X93d4
B T 0X9492
B 9 0X9564
B E 0X9640
H 2 0X97c6
H 3 0X9898
H 6 0X996a
H 4 0X9a50
H 8 0X9adc
H 5 0X9ba4
H 1 0X9c76
H 7 0X9d48
H O 0X9de8
H 9 0X9eec
H T 0X9f96
H E 0Xa05e
B 3 0Xa0fe
B 2 0Xa1ee
B 4 0Xa2a2
B 6 0Xa360
B 5 0Xa45a
B 8 0Xa522
B 7 0Xa5cc
B 1 0Xa680
B 9 0Xa752
B O 0Xa810
B E 0Xa8ec
B T 0Xa9be
H 2 0Xab3a
H 3 0Xac0c
H 4 0Xacc0
H 5 0Xad6a
H 6 0Xae3c
H 8 0Xaf04
H 1 0Xafd6
H 7 0Xb0d0
H O 0Xb166
H 9 0Xb24c
H T 0Xb300
H E 0Xb3be
B 2 0Xb490
B 4 0Xb512
B 3 0Xb602
B 6 0Xb6d4
B 5 0Xb738
B 1 0Xb878
B 8 0Xb90e
B O 0Xb9fe
B 7 0Xbabc
B T 0Xbb70
B 9 0Xbc6a
B E 0Xbd5a
H 4 0Xbe90
H 2 0Xbf80
H 6 0Xc02a
H 3 0Xc106
H 1 0Xc1ec
H 5 0Xc264
H 8 0Xc322
H 7 0Xc444
H O 0Xc4f8
H T 0Xc598
H E 0Xc688
H 9 0Xc76e
B 2 0Xc84a
B 4 0Xc8ea
B 3 0Xc9bc
B 6 0Xca66
B 5 0Xcafc
B 1 0Xcbe2
B 7 0Xccaa
B 8 0Xcd68
B T 0Xcdfe
B O 0Xcef8
B 9 0Xcfde
B E 0Xd0ba
H 2 0Xd268
H 3 0Xd33a
H 4 0Xd3e4
H 6 0Xd4fc
H 1 0Xd56a
H 5 0Xd61e
H 8 0Xd6dc
H 7 0Xd786
H O 0Xd876
H T 0Xd920
H E 0Xda06
H 9 0Xdb00
B 3 0Xdbc8
B 2 0Xdca4
B 4 0Xdd26
B 1 0Xde02
B 6 0Xdeca
B 8 0Xdf56
B 5 0Xe050
B O 0Xe10e
B 7 0Xe1cc
B T 0Xe262
B 9 0Xe366
B E 0Xe44c
H 2 0Xe604
H 3 0Xe6ae
H 1 0Xe780
H 4 0Xe85c
H 6 0Xe910
H 5 0Xe9e2
H 8 0Xea96
H 7 0Xeb54
H O 0Xec30
H 9 0Xecbc
H T 0Xed7a
H E 0Xee56
B 3 0Xef46
B 2 0Xf004
B 4 0Xf0a4
B 1 0Xf176
B 5 0Xf25c
B 6 0Xf324
B 7 0Xf3ba
B 8 0Xf464
B 9 0Xf54a
B O 0Xf626
B E 0Xf6f8
B T 0Xf7b6
H 2 0Xf982
H 3 0Xfa36
H 1 0Xfb1c
H 4 0Xfbf8
H 5 0Xfc52
H 7 0Xfd24
H 6 0Xfdd8
H 9 0Xfeaa
H 8 0Xff4a
H E 0X0044
H O 0X0134
H T 0X01f2
B 2 0X02c4
B 1 0X0378
B 3 0X044a
B 4 0X0508
B 7 0X05e4
B 5 0X0698
B 9 0X0724
B 6 0X07f6
B E 0X08d2
B 8 0X099a
B T 0X0a44
B O 0X0b48
H 1 0X0cd8
H 2 0X0db4
H 4 0X0e68
H 3 0X0f44
H 5 0X0fc6
H 7 0X10ac
H 6 0X116a
H 9 0X121e
H 8 0X12d2
H E 0X13d6
H O 0X14a8
H T 0X1552
B 2 0X1656
B 1 0X170a
B 3 0X17be
B 4 0X1890
B 5 0X1912
B 6 0X19ee
B 7 0X1aca
B 8 0X1b42
B 9 0X1c28
B O 0X1d22
B E 0X1de0
B T 0X1e94
H 1 0X207e
H 2 0X2114
H 4 0X21fa
H 3 0X22cc
H 6 0X2376
H 5 0X2448
H 8 0X24fc
H 7 0X25ec
H O 0X26a0
H 9 0X275e
H T 0X27f4
H E 0X28e4
B 1 0X29c0
B 2 0X2a92
B 4 0X2b14
B 3 0X2bfa
B 5 0X2ce0
B 6 0X2db2
B 7 0X2e48
B 8 0X2f06
B 9 0X2fba
B O 0X30a0
B E 0X3186
B T 0X3230
H 2 0X33fc
H 1 0X34e2
H 3 0X35aa
H 4 0X3690
H 6 0X3726
H 5 0X380c
H 8 0X38ca
H 7 0X3992
H O 0X3a1e
H 9 0X3ad2
H T 0X3bae
H E 0X3c8a
B 1 0X3d52
B 2 0X3dfc
B 3 0X3ed8
B 4 0X3fa0
B 5 0X4072
B 6 0X4130
B 7 0X41e4
B 8 0X42a2
B 9 0X4374
B O 0X4446
B E 0X450e
B T 0X45ea
H 1 0X47ac
H 2 0X4842
H 3 0X4900
H 4 0X49d2
H 5 0X4a72
H 6 0X4b12
H 7 0X4c0c
H 8 0X4c98
H 9 0X4d6a
H O 0X4e6e
H E 0X4f68
H T 0X4ff4
B 1 0X50d0
B 2 0X51a2
B 3 0X5260
B 4 0X5300
B 5 0X53be
B 6 0X5490
B 7 0X5558
B 8 0X55e4
B 9 0X56ca
B O 0X57a6
B E 0X588c
B T 0X594a
H 1 0X5b2a
H 2 0X5be8
H 3 0X5ca6
H 4 0X5d46
H 5 0X5df0
H 6 0X5ea4
H 7 0X5f76
H 8 0X602a
H 9 0X6110
H O 0X61ec
H E 0X62fa
H T 0X637c
B 1 0X6458
B 2 0X652a
B 3 0X65de
B 4 0X669c
B 5 0X675a
B 6 0X6822
B 7 0X6908
B 8 0X69bc
B 9 0X6a66
B O 0X6b56
B E 0X6c14
B T 0X6d4a
