#. Lowndes: Version 2
#. SourceFilename: W:\Recordings\Guildford\Guildford.20220621-2005.s12t12.1.wav
#. Tower: Guildford Cathedral
#. RingingName: Touch_1
#. RingingDateTime: 20220621-2005
#. Rungon: 
#. Tenor: 12
#. NumBellsRinging: 12
#. Creator: HawkEar Team Edition V1 for Guildford Cathedral
#. CreatorVersion: 1.1.0.3
#. TranscribedFor: Guildford band
#. TranscriptionDateTime: 20220622-1646
#. FirstBlowMs: 7380
#. TouchdB: -15.5128
#. TraindB: -9.73, -8.5, -6.1, -3.11, -3.16, -3.1, -3.98, -4.12, -5.95, -5.43, -4.92, -3
#. TrainedOn: 20220102-1438
#. TrainDataRecordedOn: 20210813-1741
#. TrainParams: -ft:y -ws:0.05 -hs:0.01 -co:0.9 -sw:40 -ts:
#. GainParams: -fh:6000 -fl:200
#. OnsetParams: -mb:80 -mf:10 -ng:0.3 -oo:0
#. WriteParams: -hb:y
#. AnalParams: -au:y -xp:n -sg:n -hsg:-1
#. ExpString: 
#. Association:
#. Calling:
#. CompositionName:
#. Method:
#. Footnotes:
#. Ringers:
#. Stage:
H 1 0X0000
H 2 0X00f0
H 3 0X01e0
H 4 0X0276
H 5 0X0384
H 6 0X041a
H 7 0X0532
H 8 0X05f0
H 9 0X06e0
H O 0X07bc
H E 0X0884
H T 0X0938
B 1 0X0a6e
B 2 0X0b2c
B 3 0X0bea
B 4 0X0c9e
B 5 0X0d66
B 6 0X0e38
B 7 0X0f5a
B 8 0X1036
B 9 0X113a
B O 0X11e4
B E 0X12ca
B T 0X139c
H 1 0X155e
H 2 0X1630
H 3 0X16f8
H 4 0X17c0
H 5 0X1874
H 6 0X193c
H 7 0X1a40
H 8 0X1b08
H 9 0X1bda
H O 0X1cd4
H E 0X1d92
H T 0X1e5a
B 1 0X1f18
B 2 0X1fea
B 3 0X20b2
B 4 0X2166
B 5 0X222e
B 6 0X2328
B 7 0X2422
B 8 0X24d6
B 9 0X25d0
B O 0X26a2
B E 0X2792
B T 0X2846
H 1 0X29fe
H 2 0X2ab2
H 3 0X2b66
H 4 0X2c24
H 5 0X2cec
H 6 0X2dbe
H 7 0X2eb8
H 8 0X2f6c
H 9 0X303e
H O 0X3160
H E 0X31d8
H T 0X32aa
B 1 0X337c
B 2 0X344e
B 3 0X3516
B 4 0X35ca
B 5 0X3688
B 6 0X3782
B 7 0X3872
B 8 0X394e
B 9 0X3a2a
B O 0X3ae8
B E 0X3bba
B T 0X3c6e
H 1 0X3e44
H 2 0X3eee
H 3 0X3fb6
H 4 0X4060
H 5 0X4132
H 6 0X41fa
H 7 0X42f4
H 8 0X43a8
H 9 0X448e
H O 0X459c
H E 0X463c
H T 0X46fa
B 1 0X47c2
B 2 0X4880
B 3 0X4948
B 4 0X49fc
B 5 0X4aba
B 6 0X4b82
B 7 0X4c7c
B 8 0X4d44
B 9 0X4e34
B O 0X4f06
B E 0X4fd8
B T 0X5096
H 1 0X5262
H 2 0X530c
H 3 0X53ca
H 4 0X5492
H 5 0X553c
H 6 0X5622
H 7 0X5726
H 8 0X57bc
H 9 0X58a2
H O 0X59b0
H E 0X5a64
H T 0X5b22
B 1 0X5bf4
B 2 0X5ca8
B 3 0X5d84
B 4 0X5e10
B 5 0X5ed8
B 6 0X5fd2
B 7 0X60b8
B 8 0X6180
B 9 0X625c
B O 0X6338
B E 0X63ec
B T 0X64d2
H 1 0X6694
H 2 0X672a
H 3 0X67f2
H 4 0X689c
H 5 0X6950
H 6 0X6a5e
H 7 0X6b3a
H 8 0X6be4
H 9 0X6cb6
H O 0X6dc4
H E 0X6e5a
H T 0X6f4a
B 1 0X6ffe
B 2 0X70b2
B 3 0X7170
B 4 0X722e
B 5 0X72d8
B 6 0X73e6
B 7 0X74d6
B 8 0X7580
B 9 0X768e
B O 0X7738
B E 0X780a
B T 0X78fa
H 1 0X7a9e
H 2 0X7b3e
H 3 0X7bfc
H 4 0X7c88
H 5 0X7d5a
H 6 0X7e4a
H 7 0X7f44
H 8 0X7ff8
H 9 0X80d4
H O 0X81e2
H E 0X828c
H T 0X8368
B 1 0X8412
B 2 0X84ee
B 3 0X85a2
B 4 0X864c
B 5 0X8700
B 6 0X87e6
B 7 0X88d6
B 8 0X8994
B 9 0X8a70
B O 0X8b4c
B E 0X8c3c
B T 0X8d04
H 1 0X8ed0
H 2 0X8f84
H 3 0X904c
H 4 0X90e2
H 5 0X91aa
H 6 0X9286
H 7 0X938a
H 8 0X943e
H 9 0X9506
H O 0X960a
H E 0X96dc
H T 0X9790
B 1 0X9830
B 2 0X98e4
B 3 0X99ac
B 4 0X9a6a
B 5 0X9b46
B 6 0X9c4a
B 7 0X9d30
B 8 0X9dee
B 9 0X9ee8
B O 0X9f92
B E 0Xa05a
B T 0Xa118
H 1 0Xa2c6
H 2 0Xa370
H 3 0Xa438
H 4 0Xa4e2
H 5 0Xa5d2
H 6 0Xa69a
H 7 0Xa78a
H 8 0Xa834
H 9 0Xa92e
H O 0Xaa1e
H E 0Xaaf0
H T 0Xab9a
B 1 0Xac3a
B 2 0Xacf8
B 3 0Xadca
B 4 0Xae56
B 5 0Xaf46
B 6 0Xb036
B 7 0Xb11c
B 8 0Xb1e4
B 9 0Xb2a2
B O 0Xb388
B E 0Xb46e
B T 0Xb536
H 1 0Xb702
H 2 0Xb798
H 3 0Xb860
H 4 0Xb8e2
H 5 0Xb9d2
H 6 0Xba9a
H 7 0Xbb94
H 8 0Xbc5c
H 9 0Xbd1a
H O 0Xbe1e
H E 0Xbefa
H T 0Xbfae
B 1 0Xc062
B 2 0Xc120
B 3 0Xc1de
B 4 0Xc260
B 5 0Xc33c
B 6 0Xc422
B 7 0Xc512
B 8 0Xc5c6
B 9 0Xc6d4
B O 0Xc79c
B E 0Xc896
B T 0Xc940
H 1 0Xcb16
H 2 0Xcbca
H 3 0Xcc7e
H 4 0Xcd14
H 5 0Xcdfa
H 6 0Xcea4
H 7 0Xcfb2
H 8 0Xd052
H 9 0Xd11a
H O 0Xd228
H E 0Xd2f0
H T 0Xd3ae
B 1 0Xd458
B 2 0Xd52a
B 3 0Xd5e8
B 4 0Xd688
B 5 0Xd764
B 6 0Xd840
B 7 0Xd926
B 8 0Xd9ee
B 9 0Xdac0
B O 0Xdba6
B E 0Xdc8c
B T 0Xdd5e
H 1 0Xdf16
H 2 0Xdfc0
H 3 0Xe06a
H 4 0Xe10a
H 5 0Xe1dc
H 6 0Xe2cc
H 7 0Xe3b2
H 8 0Xe466
H 9 0Xe542
H O 0Xe646
H E 0Xe70e
H T 0Xe7c2
B 1 0Xe880
B 2 0Xe934
B 3 0Xe9fc
B 4 0Xea7e
B 5 0Xeb5a
B 6 0Xec68
B 7 0Xed3a
B 8 0Xee02
B 9 0Xeede
B O 0Xefba
B E 0Xf096
B T 0Xf154
H 1 0Xf316
H 2 0Xf3ac
H 3 0Xf46a
H 4 0Xf51e
H 5 0Xf5e6
H 6 0Xf6cc
H 7 0Xf7b2
H 8 0Xf85c
H 9 0Xf938
H O 0Xfa46
H E 0Xfb0e
H T 0Xfbcc
B 1 0Xfc80
B 2 0Xfd34
B 3 0Xfdfc
B 4 0Xfe92
B 5 0Xff50
B 6 0X005e
B 7 0X0130
B 8 0X0202
B 9 0X02b6
B O 0X0388
B E 0X0478
B T 0X055e
H 1 0X072a
H 2 0X07d4
H 3 0X087e
H 4 0X091e
H 5 0X09f0
H 6 0X0ab8
H 7 0X0bb2
H 8 0X0c66
H 9 0X0d2e
H O 0X0e32
H E 0X0f18
H T 0X0fcc
B 1 0X1076
B 2 0X113e
B 3 0X11f2
B 4 0X129c
B 5 0X1378
B 6 0X1490
B 7 0X1558
B 8 0X1602
B 9 0X16d4
B O 0X1792
B E 0X1878
B T 0X195e
H 2 0X1b2a
H 1 0X1c06
H 3 0X1cb0
H 5 0X1d78
H 4 0X1e54
H 7 0X1f08
H 6 0X1fd0
H 9 0X207a
H 8 0X2138
H E 0X2232
H O 0X234a
H T 0X23d6
B 2 0X24e4
B 3 0X2584
B 1 0X264c
B 4 0X26f6
B 5 0X27c8
B 6 0X28c2
B 7 0X2980
B 8 0X2a48
B 9 0X2b10
B O 0X2bba
B E 0X2caa
B T 0X2d72
H 3 0X2f20
H 2 0X2fe8
H 4 0X30e2
H 1 0X31c8
H 6 0X3268
H 5 0X334e
H 8 0X3416
H 7 0X34f2
H 9 0X359c
H E 0X3664
H O 0X3768
H T 0X37fe
B 2 0X38d0
B 3 0X3966
B 4 0X3a38
B 6 0X3b3c
B 1 0X3c2c
B 8 0X3cf4
B 5 0X3d94
B 9 0X3e84
B 7 0X3f42
B O 0X4000
B E 0X40e6
B T 0X41b8
H 2 0X4352
H 4 0X442e
H 3 0X44f6
H 1 0X45dc
H 6 0X469a
H 5 0X476c
H 8 0X483e
H 7 0X4910
H 9 0X49b0
H E 0X4a78
H O 0X4b72
H T 0X4c1c
B 4 0X4d02
B 2 0X4dd4
B 3 0X4e92
B 6 0X4fa0
B 1 0X5054
B 8 0X511c
B 5 0X51bc
B 9 0X52b6
B 7 0X5388
B O 0X541e
B E 0X5518
B T 0X55d6
H 4 0X5784
H 3 0X586a
H 2 0X591e
H 1 0X5a0e
H 6 0X5aea
H 5 0X5bc6
H 8 0X5c7a
H 7 0X5d4c
H 9 0X5e14
H E 0X5ee6
H O 0X5fae
H T 0X6058
B 3 0X615c
B 4 0X621a
B 2 0X62ec
B 6 0X63fa
B 1 0X64ae
B 8 0X654e
B 5 0X6616
B 9 0X66de
B 7 0X67b0
B O 0X6864
B E 0X6954
B T 0X69fe
H 4 0X6bde
H 3 0X6c9c
H 6 0X6d96
H 2 0X6e72
H 8 0X6f1c
H 1 0X7002
H 9 0X70d4
H 5 0X7192
H O 0X7250
H 7 0X732c
H E 0X73c2
H T 0X74c6
B 4 0X75a2
B 6 0X766a
B 3 0X773c
B 8 0X77fa
B 2 0X78c2
B 9 0X79bc
B 1 0X7a8e
B O 0X7b06
B 5 0X7bf6
B E 0X7cc8
B 7 0X7dae
B T 0X7e6c
H 6 0X801a
H 4 0X811e
H 3 0X81f0
H 2 0X82ae
H 8 0X8362
H 1 0X8452
H 9 0X8506
H 5 0X85e2
H O 0X866e
H 7 0X8736
H E 0X8808
H T 0X88e4
B 6 0X89e8
B 3 0X8aba
B 4 0X8b82
B 8 0X8c72
B 2 0X8cfe
B 9 0X8e02
B 1 0X8eac
B O 0X8f4c
B 5 0X901e
B E 0X9122
B 7 0X91f4
B T 0X928a
H 3 0X9456
H 6 0X9528
H 4 0X9622
H 2 0X96fe
H 8 0X979e
H 1 0X9884
H 9 0X9960
H 5 0X9a28
H O 0X9ad2
H 7 0X9b9a
H E 0X9c62
H T 0X9d16
B 3 0X9e2e
B 4 0X9ec4
B 6 0X9faa
B 8 0Xa07c
B 2 0Xa130
B 9 0Xa248
B 1 0Xa2e8
B O 0Xa392
B 5 0Xa45a
B E 0Xa54a
B 7 0Xa612
B T 0Xa6f8
H 4 0Xa87e
H 3 0Xa95a
H 8 0Xaa22
H 6 0Xab44
H 9 0Xabda
H 2 0Xacb6
H O 0Xad88
H 1 0Xae50
H 5 0Xaf0e
H 7 0Xafea
H E 0Xb0a8
H T 0Xb170
B 3 0Xb238
B 4 0Xb300
B 8 0Xb3fa
B 9 0Xb4a4
B 6 0Xb576
B O 0Xb634
B 2 0Xb72e
B 5 0Xb7e2
B 1 0Xb8be
B E 0Xb97c
B 7 0Xba76
B T 0Xbb2a
H 3 0Xbce2
H 8 0Xbd82
H 4 0Xbe72
H 6 0Xbf26
H 9 0Xc002
H 2 0Xc0f2
H O 0Xc192
H 1 0Xc25a
H 5 0Xc304
H 7 0Xc41c
H E 0Xc4bc
H T 0Xc58e
B 8 0Xc6a6
B 3 0Xc76e
B 4 0Xc822
B 9 0Xc8f4
B 6 0Xc9a8
B O 0Xca84
B 2 0Xcb1a
B 5 0Xcbe2
B 1 0Xccc8
B E 0Xcdae
B 7 0Xce6c
B T 0Xcf48
H 8 0Xd114
H 4 0Xd1e6
H 3 0Xd2b8
H 6 0Xd39e
H 9 0Xd484
H 2 0Xd52e
H O 0Xd5d8
H 1 0Xd696
H 5 0Xd72c
H 7 0Xd826
H E 0Xd8e4
H T 0Xd9c0
B 4 0Xdad8
B 8 0Xdb96
B 3 0Xdc36
B 9 0Xdd62
B 6 0Xde20
B O 0Xded4
B 2 0Xdf7e
B 5 0Xe032
B 1 0Xe10e
B E 0Xe1a4
B 7 0Xe29e
B T 0Xe37a
H 8 0Xe546
H 4 0Xe622
H 9 0Xe71c
H 3 0Xe7da
H O 0Xe8de
H 6 0Xe96a
H 5 0Xea32
H 2 0Xeb0e
H E 0Xebd6
H 1 0Xecb2
H 7 0Xed7a
H T 0Xee24
B 8 0Xeee2
B 9 0Xefdc
B 4 0Xf0ae
B O 0Xf162
B 3 0Xf27a
B 5 0Xf32e
B 6 0Xf3d8
B E 0Xf4aa
B 2 0Xf586
B 7 0Xf64e
B 1 0Xf702
B T 0Xf7de
H 9 0Xf9d2
H 8 0Xfa86
H 4 0Xfb62
H 3 0Xfc20
H O 0Xfcf2
H 6 0Xfd9c
H 5 0Xfe8c
H 2 0Xff5e
H E 0Xfffe
H 1 0X00da
H 7 0X01d4
H T 0X0274
B 9 0X0350
B 4 0X0454
B 8 0X0530
B O 0X05d0
B 3 0X06ac
B 5 0X0792
B 6 0X0846
B E 0X08dc
B 2 0X09b8
B 7 0X0a94
B 1 0X0b3e
B T 0X0c10
H 4 0X0e04
H 9 0X0eea
H 8 0X0fb2
H 3 0X1084
H O 0X1174
H 6 0X1214
H 5 0X12dc
H 2 0X13cc
H E 0X148a
H 1 0X153e
H 7 0X1638
H T 0X16ba
B 4 0X1796
B 8 0X187c
B 9 0X1962
B O 0X1a34
B 3 0X1b10
B 5 0X1bba
B 6 0X1cbe
B E 0X1d9a
B 2 0X1e3a
B 7 0X1f16
B 1 0X1fd4
B T 0X2092
H 8 0X2254
H 4 0X22fe
H O 0X2402
H 9 0X24f2
H 5 0X2592
H 3 0X265a
H E 0X272c
H 6 0X2830
H 7 0X28ee
H 2 0X29b6
H 1 0X2a92
H T 0X2b50
B 4 0X2c18
B 8 0X2cea
B O 0X2d80
B 5 0X2e98
B 9 0X2f56
B E 0X300a
B 3 0X30fa
B 7 0X31c2
B 6 0X32d0
B 1 0X333e
B 2 0X3410
B T 0X34e2
H 4 0X365e
H O 0X374e
H 8 0X380c
H 9 0X38fc
H 5 0X39e2
H 3 0X3abe
H E 0X3b86
H 6 0X3c58
H 7 0X3d5c
H 2 0X3dfc
H 1 0X3eba
H T 0X3f6e
B O 0X404a
B 4 0X4108
B 8 0X41a8
B 5 0X42ac
B 9 0X439c
B E 0X4478
B 3 0X4568
B 7 0X4630
B 6 0X46bc
B 1 0X4748
B 2 0X484c
B T 0X4914
H O 0X4b08
H 8 0X4bc6
H 4 0X4c84
H 9 0X4d6a
H 5 0X4e32
H 3 0X4ee6
H E 0X4f9a
H 6 0X5080
H 7 0X5184
H 2 0X521a
H 1 0X52e2
H T 0X53b4
B 8 0X549a
B O 0X554e
B 4 0X565c
B 5 0X5706
B 9 0X5800
B E 0X58c8
B 3 0X5940
B 7 0X5a30
B 6 0X5aee
B 1 0X5bac
B 2 0X5c88
B T 0X5d50
H O 0X5f3a
H 8 0X5fee
H 5 0X608e
H 4 0X61a6
H E 0X626e
H 9 0X635e
H 7 0X644e
H 3 0X6502
H 1 0X65b6
H 6 0X667e
H 2 0X673c
H T 0X6804
B O 0X68ea
B 5 0X69a8
B 8 0X6a66
B E 0X6b60
B 4 0X6bf6
B 7 0X6cd2
B 9 0X6dd6
B 1 0X6e80
B 3 0X6f3e
B 2 0X7006
B 6 0X711e
B T 0X71dc
H 5 0X734e
H O 0X7448
H 8 0X751a
H 4 0X7600
H E 0X76a0
H 9 0X77ae
H 7 0X7880
H 3 0X793e
H 1 0X7a1a
H 6 0X7ac4
H 2 0X7b78
H T 0X7c54
B 5 0X7d1c
B 8 0X7e16
B O 0X7eca
B E 0X7fb0
B 4 0X808c
B 7 0X8154
B 9 0X8212
B 1 0X82c6
B 3 0X8384
B 2 0X844c
B 6 0X8528
B T 0X860e
H 8 0X87d0
H 5 0X88b6
H O 0X8956
H 4 0X8a82
H E 0X8ae6
H 9 0X8c08
H 7 0X8cd0
H 3 0X8d70
H 1 0X8e4c
H 6 0X8f3c
H 2 0X8ff0
H T 0X90a4
B 8 0X918a
B O 0X920c
B 5 0X9310
B E 0X93ba
B 4 0X94b4
B 7 0X95a4
B 9 0X9676
B 1 0X972a
B 3 0X97ca
B 2 0X98b0
B 6 0X9982
B T 0X9a4a
H O 0X9bc6
H 8 0X9cc0
H E 0X9db0
H 5 0X9e82
H 7 0X9f90
H 4 0Xa062
H 1 0Xa13e
H 9 0Xa1fc
H 2 0Xa29c
H 3 0Xa364
H 6 0Xa40e
H T 0Xa4f4
B 8 0Xa576
B O 0Xa652
B E 0Xa756
B 7 0Xa850
B 5 0Xa904
B 1 0Xa9ae
B 4 0Xaa80
B 2 0Xab66
B 9 0Xac92
B 6 0Xad0a
B 3 0Xadd2
B T 0Xaea4
H 8 0Xb03e
H E 0Xb110
H O 0Xb1f6
H 5 0Xb2be
H 7 0Xb3b8
H 4 0Xb480
H 1 0Xb53e
H 9 0Xb62e
H 2 0Xb6c4
H 3 0Xb796
H 6 0Xb82c
H T 0Xb944
B E 0Xba3e
B 8 0Xbb10
B O 0Xbba6
B 7 0Xbc82
B 5 0Xbd36
B 1 0Xbdd6
B 4 0Xbee4
B 2 0Xbfac
B 9 0Xc074
B 6 0Xc150
B 3 0Xc222
B T 0Xc2cc
H E 0Xc498
H O 0Xc588
H 8 0Xc650
H 5 0Xc704
H 7 0Xc7ea
H 4 0Xc8f8
H 1 0Xc998
H 9 0Xca60
H 2 0Xcae2
H 3 0Xcbaa
H 6 0Xcc90
H T 0Xcd8a
B O 0Xce7a
B E 0Xcf42
B 8 0Xd028
B 7 0Xd0c8
B 5 0Xd186
B 1 0Xd244
B 4 0Xd35c
B 2 0Xd3e8
B 9 0Xd4ec
B 6 0Xd5a0
B 3 0Xd65e
B T 0Xd712
H E 0Xd8a2
H O 0Xd9ba
H 7 0Xda8c
H 8 0Xdb40
H 1 0Xdc12
H 5 0Xdcda
H 2 0Xddac
H 4 0Xdeb0
H 6 0Xdf50
H 9 0Xe040
H 3 0Xe0e0
H T 0Xe1da
B E 0Xe2a2
B 7 0Xe388
B O 0Xe428
B 1 0Xe4fa
B 8 0Xe5cc
B 2 0Xe68a
B 5 0Xe72a
B 6 0Xe82e
B 4 0Xe928
B 3 0Xe9e6
B 9 0Xeacc
B T 0Xeb94
H 7 0Xed42
H E 0Xedec
H O 0Xeee6
H 8 0Xefc2
H 1 0Xf094
H 5 0Xf13e
H 2 0Xf210
H 4 0Xf2ec
H 6 0Xf350
H 9 0Xf454
H 3 0Xf526
H T 0Xf602
B 7 0Xf6f2
B O 0Xf792
B E 0Xf85a
B 1 0Xf94a
B 8 0Xfa62
B 2 0Xfb20
B 5 0Xfb98
B 6 0Xfc88
B 4 0Xfd5a
B 3 0Xfe36
B 9 0Xfee0
B T 0Xff9e
H O 0X0160
H 7 0X0264
H E 0X02f0
H 8 0X03d6
H 1 0X04a8
H 5 0X058e
H 2 0X0674
H 4 0X075a
H 6 0X07dc
H 9 0X08cc
H 3 0X0980
H T 0X0a52
B O 0X0ae8
B E 0X0bce
B 7 0X0caa
B 1 0X0d54
B 8 0X0e44
B 2 0X0f2a
B 5 0X0ffc
B 6 0X10d8
B 4 0X11dc
B 3 0X1272
B 9 0X1376
B T 0X1416
H E 0X1592
H O 0X1678
H 1 0X1736
H 7 0X1830
H 2 0X18bc
H 8 0X1998
H 6 0X1a9c
H 5 0X1b64
H 3 0X1c36
H 4 0X1d08
H 9 0X1dc6
H T 0X1eb6
B O 0X1f42
B E 0X203c
B 1 0X20fa
B 2 0X21d6
B 7 0X22b2
B 6 0X2348
B 8 0X242e
B 3 0X2514
B 5 0X25be
B 9 0X26b8
B 4 0X27a8
B T 0X2852
H O 0X2a0a
H 1 0X2adc
H E 0X2b7c
H 7 0X2c44
H 2 0X2d2a
H 8 0X2df2
H 6 0X2eba
H 5 0X2fd2
H 3 0X3086
H 4 0X3144
H 9 0X320c
H T 0X32ca
B 1 0X339c
B O 0X343c
B E 0X3536
B 2 0X3630
B 7 0X36f8
B 6 0X3798
B 8 0X3874
B 3 0X3950
B 5 0X3a0e
B 9 0X3afe
B 4 0X3bd0
B T 0X3c66
H 1 0X3e46
H E 0X3ee6
H O 0X3fe0
H 7 0X40bc
H 2 0X4170
H 8 0X4224
H 6 0X430a
H 5 0X4404
H 3 0X44ae
H 4 0X456c
H 9 0X4652
H T 0X4724
B E 0X4828
B 1 0X48d2
B O 0X4954
B 2 0X4a58
B 7 0X4b3e
B 6 0X4bf2
B 8 0X4cb0
B 3 0X4d78
B 5 0X4e54
B 9 0X4f44
B 4 0X5016
B T 0X50de
H 1 0X52a0
H E 0X5386
H 2 0X5408
H O 0X54da
H 6 0X55d4
H 7 0X56d8
H 3 0X578c
H 8 0X582c
H 9 0X5908
H 5 0X59e4
H 4 0X5aa2
H T 0X5b56
B 1 0X5c46
B 2 0X5d04
B E 0X5db8
B 6 0X5ea8
B O 0X5f48
B 3 0X604c
B 7 0X6132
B 9 0X6204
B 8 0X62a4
B 4 0X6394
B 5 0X643e
B T 0X651a
H 2 0X6718
H 1 0X67e0
H E 0X6830
H O 0X6934
H 6 0X69fc
H 7 0X6b0a
H 3 0X6baa
H 8 0X6c72
H 9 0X6d4e
H 5 0X6e16
H 4 0X6f06
H T 0X6fba
B 2 0X70a0
B E 0X7172
B 1 0X7208
B 6 0X72d0
B O 0X7370
B 3 0X7488
B 7 0X7578
B 9 0X7636
B 8 0X7708
B 4 0X77ee
B 5 0X787a
B T 0X797e
H E 0X7b2c
H 2 0X7c08
H 1 0X7cc6
H O 0X7d8e
H 6 0X7e56
H 7 0X7f64
H 3 0X8004
H 8 0X80cc
H 9 0X8180
H 5 0X8234
H 4 0X832e
H T 0X8414
B E 0X8504
B 1 0X8586
B 2 0X866c
B 6 0X8770
B O 0X8806
B 3 0X88ec
B 7 0X8a04
B 9 0X8aae
B 8 0X8b62
B 4 0X8c2a
B 5 0X8cfc
B T 0X8dc4
H 1 0X8f7c
H E 0X9044
H 6 0X913e
H 2 0X91fc
H 3 0X92ba
H O 0X9382
H 9 0X9472
H 7 0X9562
H 4 0X9620
H 8 0X96ca
H 5 0X97a6
H T 0X9878
B E 0X994a
B 1 0X99e0
B 6 0X9ac6
B 3 0X9bb6
B 2 0X9c4c
B 9 0X9d28
B O 0X9e04
B 4 0X9ee0
B 7 0X9fda
B 5 0Xa08e
B 8 0Xa17e
B T 0Xa246
H E 0Xa3f4
H 6 0Xa48a
H 1 0Xa570
H 2 0Xa660
H 3 0Xa728
H O 0Xa7b4
H 9 0Xa8a4
H 7 0Xa9b2
H 4 0Xaa52
H 8 0Xaafc
H 5 0Xabec
H T 0Xacc8
B 6 0Xad90
B E 0Xae6c
B 1 0Xaf16
B 3 0Xafde
B 2 0Xb0ba
B 9 0Xb1aa
B O 0Xb254
B 4 0Xb312
B 7 0Xb416
B 5 0Xb4de
B 8 0Xb5b0
B T 0Xb696
H 6 0Xb7ea
H 1 0Xb8ee
H E 0Xb9ac
H 2 0Xba74
H 3 0Xbb50
H O 0Xbc4a
H 9 0Xbcea
H 7 0Xbdee
H 4 0Xbe8e
H 8 0Xbf56
H 5 0Xc01e
H T 0Xc104
B 1 0Xc1d6
B 6 0Xc2b2
B E 0Xc366
B 3 0Xc424
B 2 0Xc4d8
B 9 0Xc5be
B O 0Xc690
B 4 0Xc744
B 7 0Xc848
B 5 0Xc910
B 8 0Xc9e2
B T 0Xcae6
H 6 0Xcc94
H 1 0Xcd84
H 3 0Xce38
H E 0Xceec
H 9 0Xcfc8
H 2 0Xd068
H 4 0Xd112
H O 0Xd1d0
H 5 0Xd2fc
H 7 0Xd414
H 8 0Xd4a0
H T 0Xd57c
B 6 0Xd63a
B 3 0Xd716
B 1 0Xd7ca
B 9 0Xd8b0
B E 0Xd95a
B 4 0Xda18
B 2 0Xdac2
B 5 0Xdbb2
B O 0Xdc70
B 8 0Xdd4c
B 7 0Xde3c
B T 0Xdf2c
H 3 0Xe0e4
H 6 0Xe198
H 1 0Xe288
H E 0Xe314
H 9 0Xe40e
H 2 0Xe4c2
H 4 0Xe594
H O 0Xe648
H 5 0Xe6fc
H 7 0Xe814
H 8 0Xe8aa
H T 0Xe986
B 3 0Xea76
B 1 0Xeb34
B 6 0Xebde
B 9 0Xecd8
B E 0Xeda0
B 4 0Xee54
B 2 0Xef26
B 5 0Xefee
B O 0Xf0ac
B 8 0Xf17e
B 7 0Xf264
B T 0Xf336
H 1 0Xf4f8
H 3 0Xf5e8
H 6 0Xf6c4
H E 0Xf778
H 9 0Xf85e
H 2 0Xf8d6
H 4 0Xf9b2
H O 0Xfa84
H 5 0Xfb2e
H 7 0Xfc46
H 8 0Xfcf0
H T 0Xfdc2
B 1 0Xfe94
B 6 0Xff7a
B 3 0X0042
B 9 0X0128
B E 0X01dc
B 4 0X02c2
B 2 0X0344
B 5 0X0420
B O 0X04ca
B 8 0X05b0
B 7 0X06aa
B T 0X0772
H 6 0X095c
H 1 0X0a4c
H 9 0X0b0a
H 3 0X0ba0
H 4 0X0c86
H E 0X0d30
H 5 0X0df8
H 2 0X0efc
H 8 0X0f92
H O 0X1082
H 7 0X1140
H T 0X1212
B 1 0X12c6
B 6 0X13a2
B 9 0X14a6
B 4 0X1550
B 3 0X1636
B 5 0X16ea
B E 0X17bc
B 8 0X1898
B 2 0X197e
B 7 0X1a46
B O 0X1b0e
B T 0X1be0
H 1 0X1dac
H 9 0X1e6a
H 6 0X1f14
H 3 0X2004
H 4 0X209a
H E 0X2194
H 5 0X2248
H 2 0X2342
H 8 0X23ec
H O 0X24f0
H 7 0X25b8
H T 0X266c
B 9 0X2748
B 1 0X2806
B 6 0X28f6
B 4 0X29b4
B 3 0X2a86
B 5 0X2b58
B E 0X2c0c
B 8 0X2d1a
B 2 0X2db0
B 7 0X2ebe
B O 0X2f5e
B T 0X304e
H 9 0X321a
H 6 0X32d8
H 1 0X33a0
H 3 0X3454
H 4 0X3526
H E 0X35d0
H 5 0X36b6
H 2 0X37b0
H 8 0X386e
H O 0X397c
H 7 0X3a26
H T 0X3abc
B 6 0X3bac
B 9 0X3cb0
B 1 0X3d50
B 4 0X3e40
B 3 0X3eea
B 5 0X3fbc
B E 0X4070
B 8 0X416a
B 2 0X420a
B 7 0X42fa
B O 0X43cc
B T 0X44b2
H 9 0X4674
H 6 0X471e
H 4 0X480e
H 1 0X48ea
H 5 0X49a8
H 3 0X4a84
H 8 0X4b42
H E 0X4c14
H 2 0X4cdc
H O 0X4da4
H 7 0X4e80
H T 0X4f48
B 9 0X5024
B 4 0X50e2
B 6 0X51aa
B 5 0X52b8
B 1 0X536c
B 8 0X5420
B 3 0X5506
B 2 0X55a6
B E 0X5628
B 7 0X5740
B O 0X5812
B T 0X58f8
H 4 0X5ad8
H 9 0X5b78
H 6 0X5c90
H 1 0X5d44
H 5 0X5de4
H 3 0X5eac
H 8 0X5f88
H E 0X6028
H 2 0X612c
H O 0X61ae
H 7 0X62a8
H T 0X6384
B 4 0X646a
B 6 0X655a
B 9 0X6654
B 5 0X66f4
B 1 0X67a8
B 8 0X6884
B 3 0X6924
B 2 0X69f6
B E 0X6a96
B 7 0X6b7c
B O 0X6c12
B T 0X6d20
H 6 0X6f0a
H 4 0X6ff0
H 9 0X70b8
H 1 0X719e
H 5 0X723e
H 3 0X7310
H 8 0X73f6
H E 0X74be
H 2 0X7572
H O 0X75fe
H 7 0X76f8
H T 0X7798
B 6 0X78b0
B 9 0X79a0
B 4 0X7a54
B 5 0X7b1c
B 1 0X7bf8
B 8 0X7cd4
B 3 0X7da6
B 2 0X7e64
B E 0X7ee6
B 7 0X7fc2
B O 0X809e
B T 0X8166
H 9 0X8364
H 6 0X844a
H 5 0X851c
H 4 0X85c6
H 8 0X8698
H 1 0X8760
H 2 0X8850
H 3 0X8904
H 7 0X89f4
H E 0X8a80
H O 0X8b7a
H T 0X8c1a
B 6 0X8d00
B 9 0X8e04
B 5 0X8ed6
B 8 0X8f9e
B 4 0X9070
B 2 0X911a
B 1 0X920a
B 7 0X92c8
B 3 0X937c
B O 0X943a
B E 0X94f8
B T 0X95f2
H 6 0X97aa
H 5 0X9890
H 9 0X9958
H 4 0X9a48
H 8 0X9b10
H 1 0X9bd8
H 2 0X9c96
H 3 0X9d5e
H 7 0X9e44
H E 0X9ee4
H O 0X9fac
H T 0Xa088
B 5 0Xa16e
B 6 0Xa22c
B 9 0Xa31c
B 8 0Xa3d0
B 4 0Xa4ac
B 2 0Xa56a
B 1 0Xa650
B 7 0Xa70e
B 3 0Xa790
B O 0Xa86c
B E 0Xa934
B T 0Xaa1a
H 5 0Xabfa
H 9 0Xacd6
H 6 0Xad9e
H 4 0Xae8e
H 8 0Xaf42
H 1 0Xb01e
H 2 0Xb0d2
H 3 0Xb190
H 7 0Xb29e
H E 0Xb316
H O 0Xb3fc
H T 0Xb4a6
B 9 0Xb5b4
B 5 0Xb686
B 6 0Xb730
B 8 0Xb816
B 4 0Xb8fc
B 2 0Xb9ce
B 1 0Xbaa0
B 7 0Xbb5e
B 3 0Xbc3a
B O 0Xbce4
B E 0Xbd98
B T 0Xbe6a
H 5 0Xc068
H 9 0Xc13a
H 8 0Xc1f8
H 6 0Xc2de
H 2 0Xc39c
H 4 0Xc48c
H 7 0Xc57c
H 1 0Xc626
H O 0Xc6da
H 3 0Xc784
H E 0Xc806
H T 0Xc8e2
B 5 0Xca2c
B 8 0Xcaea
B 9 0Xcbbc
B 2 0Xcca2
B 6 0Xcd38
B 7 0Xce3c
B 4 0Xcee6
B O 0Xcfae
B 1 0Xd062
B E 0Xd116
B 3 0Xd1fc
B T 0Xd2b0
H 8 0Xd4cc
H 5 0Xd5a8
H 9 0Xd670
H 6 0Xd6fc
H 2 0Xd800
H 4 0Xd8dc
H 7 0Xd9c2
H 1 0Xda6c
H O 0Xdb02
H 3 0Xdbf2
H E 0Xdc7e
H T 0Xdd64
B 8 0Xde40
B 9 0Xdf58
B 5 0Xe002
B 2 0Xe106
B 6 0Xe19c
B 7 0Xe282
B 4 0Xe340
B O 0Xe3cc
B 1 0Xe4a8
B E 0Xe566
B 3 0Xe660
B T 0Xe700
H 9 0Xe91c
H 8 0Xe9da
H 5 0Xeab6
H 6 0Xeb60
H 2 0Xec64
H 4 0Xed36
H 7 0Xee12
H 1 0Xeed0
H O 0Xef98
H 3 0Xf042
H E 0Xf0e2
H T 0Xf1be
B 9 0Xf2ae
B 5 0Xf3b2
B 8 0Xf47a
B 2 0Xf556
B 6 0Xf5e2
B 7 0Xf6e6
B 4 0Xf786
B O 0Xf858
B 1 0Xf93e
B E 0Xf9e8
B 3 0Xfaa6
B T 0Xfb5a
H 5 0Xfd44
H 9 0Xfe48
H 2 0Xfede
H 8 0Xffba
H 7 0X00dc
H 6 0X0168
H O 0X0226
H 4 0X02ee
H 1 0X03e8
H 3 0X04ba
H E 0X0532
H T 0X060e
B 9 0X0730
B 5 0X07f8
B 2 0X088e
B 7 0X097e
B 8 0X0a5a
B O 0X0afa
B 6 0X0bd6
B 1 0X0c9e
B 4 0X0d52
B E 0X0e06
B 3 0X0ef6
B T 0X0fb4
H 9 0X11e4
H 2 0X127a
H 5 0X132e
H 8 0X1400
H 7 0X14fa
H 6 0X15a4
H O 0X1662
H 4 0X1702
H 1 0X17fc
H 3 0X18ba
H E 0X1950
H T 0X1a36
B 2 0X1b6c
B 9 0X1c48
B 5 0X1cfc
B 7 0X1dba
B 8 0X1e8c
B O 0X1f54
B 6 0X2008
B 1 0X20d0
B 4 0X2198
B E 0X224c
B 3 0X2332
B T 0X23fa
H 2 0X25e4
H 5 0X26ac
H 9 0X279c
H 8 0X285a
H 7 0X2954
H 6 0X29c2
H O 0X2ac6
H 4 0X2b66
H 1 0X2c4c
H 3 0X2d1e
H E 0X2daa
H T 0X2e7c
B 5 0X2f9e
B 2 0X3048
B 9 0X314c
B 7 0X321e
B 8 0X32dc
B O 0X3368
B 6 0X3476
B 1 0X3548
B 4 0X3624
B E 0X36a6
B 3 0X378c
B T 0X3822
H 2 0X3a0c
H 5 0X3ad4
H 7 0X3bd8
H 9 0X3c82
H O 0X3d72
H 8 0X3e44
H 1 0X3f3e
H 6 0X3fc0
H E 0X4088
H 4 0X4150
H 3 0X420e
H T 0X42f4
B 2 0X43d0
B 7 0X448e
B 5 0X454c
B O 0X4600
B 9 0X46e6
B 1 0X47cc
B 8 0X4894
B E 0X495c
B 6 0X4a56
B 3 0X4b0a
B 4 0X4bbe
B T 0X4c7c
H 7 0X4e34
H 2 0X4f42
H 5 0X4fec
H 9 0X50c8
H O 0X51c2
H 8 0X5258
H 1 0X5316
H 6 0X53e8
H E 0X54a6
H 4 0X555a
H 3 0X5618
H T 0X56fe
B 7 0X57da
B 5 0X58d4
B 2 0X59ba
B O 0X5a3c
B 9 0X5b4a
B 1 0X5bf4
B 8 0X5c94
B E 0X5d5c
B 6 0X5e60
B 3 0X5f32
B 4 0X5ff0
B T 0X60c2
H 5 0X6298
H 7 0X6388
H 2 0X6496
H 9 0X6518
H O 0X65ea
H 8 0X6694
H 1 0X6748
H 6 0X684c
H E 0X68ba
H 4 0X69be
H 3 0X6a7c
H T 0X6b3a
B 5 0X6c16
B 2 0X6d24
B 7 0X6dec
B O 0X6e82
B 9 0X6fb8
B 1 0X704e
B 8 0X70ee
B E 0X71a2
B 6 0X729c
B 3 0X7364
B 4 0X7440
B T 0X74f4
H 2 0X76f2
H 5 0X7792
H O 0X7896
H 7 0X792c
H 1 0X7a08
H 9 0X7ac6
H E 0X7b66
H 8 0X7c60
H 3 0X7d46
H 6 0X7dfa
H 4 0X7ecc
H T 0X7f94
B 5 0X805c
B 2 0X8156
B O 0X81f6
B 1 0X82f0
B 7 0X8390
B E 0X843a
B 9 0X8552
B 3 0X85fc
B 8 0X86e2
B 4 0X8796
B 6 0X8854
B T 0X894e
H 5 0X8afc
H O 0X8b9c
H 2 0X8c8c
H 7 0X8d7c
H 1 0X8e3a
H 9 0X8ee4
H E 0X8fac
H 8 0X9092
H 3 0X9164
H 6 0X9204
H 4 0X92e0
H T 0X93d0
B O 0X94ac
B 5 0X956a
B 2 0X963c
B 1 0X970e
B 7 0X97f4
B E 0X9858
B 9 0X9984
B 3 0X9a38
B 8 0X9b0a
B 4 0X9bb4
B 6 0X9c86
B T 0X9d80
H O 0X9f2e
H 2 0Xa00a
H 5 0Xa0b4
H 7 0Xa1c2
H 1 0Xa28a
H 9 0Xa334
H E 0Xa406
H 8 0Xa4ce
H 3 0Xa5b4
H 6 0Xa686
H 4 0Xa730
H T 0Xa834
B 2 0Xa91a
B O 0Xa974
B 5 0Xaa6e
B 1 0Xab68
B 7 0Xac12
B E 0Xacb2
B 9 0Xadde
B 3 0Xae88
B 8 0Xaf46
B 4 0Xb018
B 6 0Xb0e0
B T 0Xb1da
H O 0Xb36a
H 2 0Xb450
H 1 0Xb536
H 5 0Xb5e0
H E 0Xb694
H 7 0Xb766
H 3 0Xb86a
H 9 0Xb90a
H 4 0Xba04
H 8 0Xbaae
H 6 0Xbb94
H T 0Xbc70
B O 0Xbd24
B 1 0Xbdf6
B 2 0Xbe96
B E 0Xbf54
B 5 0Xc04e
B 3 0Xc148
B 7 0Xc1fc
B 4 0Xc2c4
B 9 0Xc3a0
B 6 0Xc436
B 8 0Xc51c
B T 0Xc5f8
H 1 0Xc7ba
H O 0Xc846
H 2 0Xc954
H 5 0Xca08
H E 0Xcab2
H 7 0Xcb98
H 3 0Xcc7e
H 9 0Xcd46
H 4 0Xce2c
H 8 0Xceea
H 6 0Xcfbc
H T 0Xd084
B 1 0Xd138
B 2 0Xd23c
B O 0Xd2c8
B E 0Xd386
B 5 0Xd480
B 3 0Xd55c
B 7 0Xd61a
B 4 0Xd6d8
B 9 0Xd7be
B 6 0Xd8ae
B 8 0Xd994
B T 0Xda5c
H 2 0Xdc00
H 1 0Xdcc8
H O 0Xdd5e
H 5 0Xde30
H E 0Xdee4
H 7 0Xdfca
H 3 0Xe0b0
H 9 0Xe16e
H 4 0Xe240
H 8 0Xe31c
H 6 0Xe416
H T 0Xe4e8
B 2 0Xe5b0
B O 0Xe632
B 1 0Xe704
B E 0Xe79a
B 5 0Xe88a
B 3 0Xe97a
B 7 0Xea42
B 4 0Xeb32
B 9 0Xebe6
B 6 0Xeccc
B 8 0Xedb2
B T 0Xee98
H O 0Xf00a
H 2 0Xf0e6
H E 0Xf1a4
H 1 0Xf276
H 3 0Xf348
H 5 0Xf41a
H 4 0Xf51e
H 7 0Xf5d2
H 6 0Xf668
H 9 0Xf730
H 8 0Xf7f8
H T 0Xf910
B 2 0Xf9ba
B O 0Xfa46
B E 0Xfb22
B 3 0Xfc1c
B 1 0Xfcee
B 4 0Xfdc0
B 5 0Xfe6a
B 6 0Xff46
B 7 0X0022
B 8 0X0108
B 9 0X01a8
B T 0X028e
H 2 0X046e
H E 0X04f0
H O 0X05e0
H 1 0X06a8
H 3 0X075c
H 5 0X0856
H 4 0X0932
H 7 0X09fa
H 6 0X0a72
H 9 0X0b6c
H 8 0X0c48
H T 0X0d10
B E 0X0dd8
B 2 0X0eb4
B O 0X0f36
B 3 0X1008
B 1 0X10f8
B 4 0X11e8
B 5 0X129c
B 6 0X138c
B 7 0X144a
B 8 0X151c
B 9 0X15e4
B T 0X16c0
H E 0X1864
H O 0X1936
H 2 0X1a08
H 1 0X1ada
H 3 0X1bac
H 5 0X1c6a
H 4 0X1d5a
H 7 0X1e0e
H 6 0X1ec2
H 9 0X1f6c
H 8 0X205c
H T 0X214c
B O 0X220a
B E 0X22dc
B 2 0X23b8
B 3 0X2462
B 1 0X2534
B 4 0X2606
B 5 0X26c4
B 6 0X27a0
B 7 0X2872
B 8 0X293a
B 9 0X29f8
B T 0X2af2
H E 0X2c8c
H O 0X2d68
H 3 0X2e3a
H 2 0X2f2a
H 4 0X2fca
H 1 0X30a6
H 6 0X3178
H 5 0X3268
H 8 0X3308
H 7 0X33e4
H 9 0X34b6
H T 0X3574
B E 0X363c
B 3 0X3704
B O 0X37a4
B 4 0X38c6
B 2 0X39a2
B 6 0X3a42
B 1 0X3b1e
B 8 0X3bdc
B 5 0X3cae
B 9 0X3db2
B 7 0X3e70
B T 0X3f24
H 3 0X40e6
H E 0X41b8
H O 0X428a
H 2 0X438e
H 4 0X442e
H 1 0X450a
H 6 0X45b4
H 5 0X469a
H 8 0X4744
H 7 0X480c
H 9 0X48e8
H T 0X4992
B 3 0X4a96
B O 0X4b36
B E 0X4bf4
B 4 0X4cee
B 2 0X4dde
B 6 0X4e88
B 1 0X4f5a
B 8 0X5036
B 5 0X50ea
B 9 0X51da
B 7 0X52ac
B T 0X5356
H O 0X5522
H 3 0X55fe
H E 0X569e
H 2 0X57e8
H 4 0X586a
H 1 0X5946
H 6 0X59f0
H 5 0X5aea
H 8 0X5bb2
H 7 0X5c52
H 9 0X5d1a
H T 0X5df6
B O 0X5ea0
B E 0X5f86
B 3 0X6044
B 4 0X6102
B 2 0X6206
B 6 0X62f6
B 1 0X63d2
B 8 0X6472
B 5 0X6530
B 9 0X660c
B 7 0X66c0
B T 0X67a6
H E 0X695e
H O 0X6a1c
H 4 0X6aee
H 3 0X6bb6
H 6 0X6c9c
H 2 0X6d96
H 8 0X6e04
H 1 0X6eea
H 9 0X6fd0
H 5 0X70c0
H 7 0X71ba
B O 0X726e
H T 0X726e
B E 0X735e
B 4 0X74a8
B 6 0X757a
B 3 0X764c
B 8 0X770a
B 2 0X77fa
B 9 0X78c2
B 1 0X7958
B 7 0X7a48
B 5 0X7b1a
B T 0X7bec
H O 0X7d40
H 4 0X7e30
H E 0X7ef8
H 3 0X7ff2
H 6 0X80e2
H 2 0X81f0
H 8 0X82ae
H 1 0X8344
H 9 0X8420
H 5 0X84e8
H 7 0X85e2
H T 0X8678
B 4 0X8736
B O 0X8786
B E 0X88a8
B 6 0X89c0
B 3 0X8a74
B 8 0X8b5a
B 2 0X8c36
B 9 0X8d3a
B 1 0X8dd0
B 7 0X8e98
B 5 0X8f60
B T 0X9014
H 4 0X91cc
H E 0X9276
H O 0X935c
H 3 0X944c
H 6 0X951e
H 2 0X9636
H 8 0X96ea
H 1 0X979e
H 9 0X988e
H 5 0X994c
H 7 0X9a3c
H T 0X9ac8
B E 0X9bd6
B 4 0X9c8a
B O 0X9d02
B 6 0X9e38
B 3 0X9eec
B 8 0X9fd2
B 2 0Xa072
B 9 0Xa16c
B 1 0Xa22a
B 7 0Xa2e8
B 5 0Xa3b0
B T 0Xa46e
H 4 0Xa658
H E 0Xa6e4
H 6 0Xa7d4
H O 0Xa8ba
H 8 0Xa996
H 3 0Xaa5e
H 9 0Xab26
H 2 0Xabf8
H 7 0Xacf2
H 1 0Xad92
H 5 0Xae50
H T 0Xaef0
B 4 0Xb03a
B 6 0Xb0bc
B E 0Xb148
B 8 0Xb260
B O 0Xb314
B 9 0Xb418
B 3 0Xb4cc
B 7 0Xb59e
B 2 0Xb670
B 5 0Xb738
B 1 0Xb800
B T 0Xb8b4
H 6 0Xbaa8
H 4 0Xbba2
H E 0Xbc24
H O 0Xbd00
H 8 0Xbdf0
H 3 0Xbeae
H 9 0Xbf8a
H 2 0Xc066
H 7 0Xc106
H 1 0Xc1e2
H 5 0Xc296
H T 0Xc368
B 6 0Xc462
B E 0Xc502
B 4 0Xc5fc
B 8 0Xc6b0
B O 0Xc75a
B 9 0Xc854
B 3 0Xc926
B 7 0Xc9c6
B 2 0Xcaa2
B 5 0Xcb92
B 1 0Xcc64
B T 0Xccfa
H E 0Xce94
H 6 0Xcf8e
H 4 0Xd074
H O 0Xd132
H 8 0Xd1f0
H 3 0Xd2cc
H 9 0Xd3a8
H 2 0Xd498
H 7 0Xd54c
H 1 0Xd614
H 5 0Xd6e6
H T 0Xd7b8
B E 0Xd876
B 4 0Xd952
B 6 0Xda06
B 8 0Xdae2
B O 0Xdb96
B 9 0Xdca4
B 3 0Xdd58
B 7 0Xde3e
B 2 0Xdede
B 5 0Xdfce
B 1 0Xe0a0
B T 0Xe136
H 4 0Xe320
H E 0Xe3c0
H 8 0Xe492
H 6 0Xe582
H 9 0Xe636
H O 0Xe744
H 7 0Xe80c
H 3 0Xe8c0
H 5 0Xe988
H 2 0Xea78
H 1 0Xeb40
H T 0Xec12
B E 0Xecf8
B 4 0Xedc0
B 8 0Xee74
B 9 0Xef46
B 6 0Xefdc
B 7 0Xf0cc
B O 0Xf194
B 5 0Xf28e
B 3 0Xf34c
B 1 0Xf3ec
B 2 0Xf4c8
B T 0Xf568
H E 0Xf748
H 8 0Xf838
H 4 0Xf932
H 6 0Xf9d2
H 9 0Xfae0
H O 0Xfb94
H 7 0Xfc48
H 3 0Xfd10
H 5 0Xfdb0
H 2 0Xfebe
H 1 0Xff7c
H T 0X0026
B 8 0X00ee
B E 0X01d4
B 4 0X02ce
B 9 0X038c
B 6 0X0436
B 7 0X0530
B O 0X05da
B 5 0X06b6
B 3 0X0774
B 1 0X081e
B 2 0X0904
B T 0X09ae
H 8 0X0ba2
H 4 0X0c7e
H E 0X0d1e
H 6 0X0df0
H 9 0X0eae
H O 0X0fd0
H 7 0X107a
H 3 0X1138
H 5 0X1200
H 2 0X12dc
H 1 0X13b8
H T 0X146c
B 4 0X152a
B 8 0X15fc
B E 0X16e2
B 9 0X178c
B 6 0X1872
B 7 0X193a
B O 0X1a16
B 5 0X1ade
B 3 0X1ba6
B 1 0X1c78
B 2 0X1d22
B T 0X1de0
H 8 0X1fc0
H 4 0X20a6
H 9 0X2146
H E 0X2222
H 7 0X2330
H 6 0X23da
H 5 0X24ac
H O 0X2592
H 1 0X268c
H 3 0X270e
H 2 0X27c2
H T 0X2862
B 8 0X293e
B 9 0X2a42
B 4 0X2b00
B 7 0X2be6
B E 0X2c90
B 5 0X2d8a
B 6 0X2e48
B 1 0X2f1a
B O 0X2fc4
B 2 0X3096
B 3 0X3154
B T 0X321c
H 9 0X3438
H 8 0X34d8
H 4 0X35a0
H E 0X3636
H 7 0X374e
H 6 0X380c
H 5 0X38e8
H O 0X399c
H 1 0X3a5a
H 3 0X3b18
H 2 0X3bd6
H T 0X3cbc
B 9 0X3dc0
B 4 0X3e9c
B 8 0X3f32
B 7 0X4036
B E 0X40a4
B 5 0X418a
B 6 0X4270
B 1 0X432e
B O 0X43b0
B 2 0X44b4
B 3 0X454a
B T 0X463a
H 4 0X4842
H 9 0X4900
H 8 0X49aa
H E 0X4a7c
H 7 0X4b76
H 6 0X4c3e
H 5 0X4d1a
H O 0X4da6
H 1 0X4e64
H 3 0X4f22
H 2 0X5008
H T 0X50da
B 4 0X51d4
B 8 0X5292
B 9 0X5364
B 7 0X542c
B E 0X54cc
B 5 0X55bc
B 6 0X56a2
B 1 0X577e
B O 0X57e2
B 2 0X58e6
B 3 0X5986
B T 0X5a58
H 8 0X5c2e
H 4 0X5d3c
H 7 0X5e2c
H 9 0X5ea4
H 5 0X5f80
H E 0X6048
H 1 0X611a
H 6 0X61d8
H 2 0X62dc
H O 0X637c
H 3 0X6426
H T 0X650c
B 4 0X65b6
B 8 0X6692
B 7 0X6782
B 5 0X687c
B 9 0X6926
B 1 0X69f8
B E 0X6a84
B 2 0X6b92
B 6 0X6c50
B 3 0X6d22
B O 0X6dd6
B T 0X6ebc
H 4 0X7060
H 7 0X7146
H 8 0X71f0
H 9 0X72c2
H 5 0X73b2
H E 0X7466
H 1 0X751a
H 6 0X75ec
H 2 0X76e6
H O 0X7786
H 3 0X7830
H T 0X7934
B 7 0X79e8
B 4 0X7b00
B 8 0X7b82
B 5 0X7c5e
B 9 0X7d58
B 1 0X7e3e
B E 0X7e8e
B 2 0X7fba
B 6 0X8064
B 3 0X8122
B O 0X81cc
B T 0X82d0
H 7 0X8492
H 8 0X8546
H 4 0X8640
H 9 0X86fe
H 5 0X87c6
H E 0X8866
H 1 0X8956
H 6 0X8a3c
H 2 0X8b22
H O 0X8ba4
H 3 0X8c80
H T 0X8d52
B 8 0X8e4c
B 7 0X8f28
B 4 0X8ffa
B 5 0X909a
B 9 0X9180
B 1 0X9220
B E 0X92c0
B 2 0X93b0
B 6 0X94a0
B 3 0X9572
B O 0X95f4
B T 0X9702
H 8 0X9860
H 7 0X98ba
H 5 0X9a68
H 4 0X9b58
H 1 0X9c20
H 9 0X9cca
H 2 0X9d92
H E 0X9e50
H 6 0X9f04
H O 0X9fb8
H 3 0Xa08a
H T 0Xa17a
B 7 0Xa26a
B 5 0Xa300
B 8 0Xa3f0
B 1 0Xa4c2
B 4 0Xa5c6
B 2 0Xa634
B 9 0Xa72e
B 6 0Xa7ce
B E 0Xa878
B 3 0Xa97c
B O 0Xaa26
B T 0Xab02
H 5 0Xace2
H 7 0Xadf0
H 8 0Xae90
H 4 0Xaf3a
H 1 0Xb020
H 9 0Xb0fc
H 2 0Xb1b0
H E 0Xb264
H 6 0Xb30e
H O 0Xb3c2
H 3 0Xb4a8
H T 0Xb584
B 5 0Xb638
B 8 0Xb73c
B 7 0Xb822
B 1 0Xb8e0
B 4 0Xb994
B 2 0Xba84
B 9 0Xbb56
B 6 0Xbc1e
B E 0Xbcbe
B 3 0Xbdb8
B O 0Xbe3a
B T 0Xbf2a
H 8 0Xc0e2
H 5 0Xc1be
H 7 0Xc2a4
H 4 0Xc36c
H 1 0Xc45c
H 9 0Xc524
H 2 0Xc60a
H E 0Xc696
H 6 0Xc772
H O 0Xc858
H 3 0Xc93e
H T 0Xc9e8
B 8 0Xcae2
B 7 0Xcb78
B 5 0Xcc2c
B 1 0Xccfe
B 4 0Xcdd0
B 2 0Xceac
B 9 0Xcf88
B 6 0Xd046
B E 0Xd0e6
B 3 0Xd1ea
B O 0Xd2b2
B T 0Xd3ac
H 7 0Xd564
H 8 0Xd622
H 1 0Xd6e0
H 5 0Xd776
H 2 0Xd870
H 4 0Xd942
H 6 0Xda28
H 9 0Xdabe
H 3 0Xdbb8
H E 0Xdc4e
H O 0Xdd2a
H T 0Xde24
B 8 0Xdf32
B 7 0Xe018
B 1 0Xe09a
B 2 0Xe158
B 5 0Xe1e4
B 6 0Xe2c0
B 4 0Xe3a6
B 3 0Xe464
B 9 0Xe568
B O 0Xe612
B E 0Xe6da
B T 0Xe7c0
H 8 0Xe9be
H 1 0Xea86
H 7 0Xeb94
H 5 0Xec0c
H 2 0Xecb6
H 4 0Xed92
H 6 0Xee64
H 9 0Xef2c
H 3 0Xefe0
H E 0Xf076
H O 0Xf1a2
H T 0Xf24c
B 1 0Xf332
B 8 0Xf40e
B 7 0Xf4e0
B 2 0Xf58a
B 5 0Xf620
B 6 0Xf74c
B 4 0Xf81e
B 3 0Xf8e6
B 9 0Xf990
B O 0Xfa62
B E 0Xfb16
B T 0Xfbfc
H 1 0Xfdaa
H 7 0Xfea4
H 8 0Xff58
H 5 0X0034
H 2 0X00f2
H 4 0X01e2
H 6 0X02a0
H 9 0X035e
H 3 0X0412
H E 0X04c6
H O 0X05e8
H T 0X0688
B 7 0X073c
B 1 0X07f0
B 8 0X08fe
B 2 0X09da
B 5 0X0a70
B 6 0X0b74
B 4 0X0c50
B 3 0X0d18
B 9 0X0de0
B O 0X0e94
B E 0X0f52
B T 0X1042
H 1 0X11d2
H 7 0X1218
H 2 0X1394
H 8 0X145c
H 6 0X152e
H 5 0X160a
H 3 0X16dc
H 4 0X177c
H O 0X1858
H 9 0X1902
H E 0X19c0
H T 0X1ac4
B 1 0X1b78
B 2 0X1c36
B 7 0X1d1c
B 6 0X1df8
B 8 0X1eca
B 3 0X1f6a
B 5 0X2028
B O 0X20fa
B 4 0X2208
B E 0X226c
B 9 0X233e
B T 0X2460
H 2 0X2622
H 1 0X26ea
H 7 0X27f8
H 8 0X2870
H 6 0X296a
H 5 0X2a46
H 3 0X2afa
H 4 0X2bae
H O 0X2c44
H 9 0X2cf8
H E 0X2dca
H T 0X2ec4
B 2 0X2fb4
B 7 0X30ae
B 1 0X314e
B 6 0X322a
B 8 0X3310
B 3 0X33a6
B 5 0X3496
B O 0X350e
B 4 0X3626
B E 0X3694
B 9 0X3770
B T 0X386a
H 7 0X3a7c
H 2 0X3b3a
H 1 0X3c02
H 8 0X3cb6
H 6 0X3d92
H 5 0X3e78
H 3 0X3f18
H 4 0X4008
H O 0X40b2
H 9 0X412a
H E 0X41e8
H T 0X42c4
B 7 0X43dc
B 1 0X449a
B 2 0X4594
B 6 0X465c
B 8 0X4738
B 3 0X47d8
B 5 0X488c
B O 0X492c
B 4 0X4a4e
B E 0X4ac6
B 9 0X4bfc
B T 0X4c92
H 1 0X4e7c
H 7 0X4f6c
H 6 0X5034
H 2 0X50f2
H 3 0X51a6
H 8 0X5278
H O 0X5336
H 5 0X5408
H 4 0X54da
H E 0X553e
H 9 0X55d4
H T 0X5714
B 7 0X584a
B 1 0X58e0
B 6 0X59b2
B 3 0X5a66
B 2 0X5b2e
B O 0X5bf6
B 8 0X5cb4
B 4 0X5d9a
B 5 0X5e58
B 9 0X5f66
B E 0X5fca
B T 0X609c
H 7 0X62e0
H 6 0X6358
H 1 0X645c
H 2 0X64fc
H 3 0X65ba
H 8 0X668c
H O 0X679a
H 5 0X6844
H 4 0X6916
H E 0X6984
H 9 0X6ab0
H T 0X6b50
B 6 0X6c22
B 7 0X6d08
B 1 0X6d94
B 3 0X6e66
B 2 0X6f4c
B O 0X7000
B 8 0X70f0
B 4 0X71d6
B 5 0X728a
B 9 0X738e
B E 0X744c
B T 0X751e
H 6 0X76d6
H 1 0X779e
H 7 0X788e
H 2 0X794c
H 3 0X7a0a
H 8 0X7ab4
H O 0X7b86
H 5 0X7c44
H 4 0X7d0c
H E 0X7dde
H 9 0X7ea6
H T 0X7f78
B 1 0X8054
B 6 0X814e
B 7 0X8234
B 3 0X82d4
B 2 0X8388
B O 0X8414
B 8 0X84fa
B 4 0X85e0
B 5 0X86a8
B 9 0X878e
B E 0X8856
B T 0X8946
H 6 0X8af4
H 1 0X8bee
H 3 0X8c98
H 7 0X8d6a
H O 0X8e46
H 2 0X8ee6
H 4 0X8fcc
H 8 0X9094
H 9 0X9116
H 5 0X921a
H E 0X92c4
H T 0X9396
B 6 0X949a
B 3 0X9562
B 1 0X9620
B O 0X96e8
B 7 0X97c4
B 4 0X98b4
B 2 0X995e
B 9 0X9a30
B 8 0X9ac6
B E 0X9b84
B 5 0X9c92
B T 0X9d5a
H 3 0X9f30
H 6 0Xa034
H 1 0Xa106
H 7 0Xa1f6
H O 0Xa2aa
H 2 0Xa322
H 4 0Xa3e0
H 8 0Xa4bc
H 9 0Xa55c
H 5 0Xa656
H E 0Xa6e2
H T 0Xa7dc
B 3 0Xa8d6
B 1 0Xa994
B 6 0Xaa8e
B O 0Xab56
B 7 0Xac32
B 4 0Xacdc
B 2 0Xad9a
B 9 0Xae8a
B 8 0Xaf3e
B E 0Xafca
B 5 0Xb0ce
B T 0Xb1a0
H 1 0Xb38a
H 3 0Xb452
H 6 0Xb506
H 7 0Xb600
H O 0Xb6fa
H 2 0Xb768
H 4 0Xb812
H 8 0Xb90c
H 9 0Xb9ca
H 5 0Xbaba
H E 0Xbb32
H T 0Xbc18
B 1 0Xbcf4
B 6 0Xbdbc
B 3 0Xbeac
B O 0Xbf88
B 7 0Xc046
B 4 0Xc15e
B 2 0Xc1c2
B 9 0Xc2da
B 8 0Xc3ac
B E 0Xc41a
B 5 0Xc53c
B T 0Xc5fa
H 6 0Xc7da
H 1 0Xc8b6
H O 0Xc94c
H 3 0Xca0a
H 4 0Xcafa
H 7 0Xcbea
H 9 0Xcc6c
H 2 0Xcd5c
H 8 0Xcdfc
H E 0Xce9c
H 5 0Xcfc8
H T 0Xd0ae
B 1 0Xd130
B 6 0Xd252
B O 0Xd2de
B 4 0Xd3d8
B 3 0Xd48c
B 9 0Xd54a
B 7 0Xd612
B 8 0Xd6e4
B 2 0Xd7a2
B 5 0Xd8a6
B E 0Xd90a
B T 0Xda36
H 1 0Xdc02
H O 0Xdc98
H 6 0Xdd6a
H 3 0Xde28
H 4 0Xdf18
H 7 0Xe008
H 9 0Xe09e
H 2 0Xe18e
H 8 0Xe256
H E 0Xe2c4
H 5 0Xe3dc
H T 0Xe4a4
B O 0Xe580
B 1 0Xe63e
B 6 0Xe74c
B 4 0Xe828
B 3 0Xe8c8
B 9 0Xe9ae
B 7 0Xea58
B 8 0Xeb16
B 2 0Xebca
B 5 0Xecc4
B E 0Xed5a
B T 0Xee40
H O 0Xefd0
H 6 0Xf0e8
H 1 0Xf1d8
H 3 0Xf2a0
H 4 0Xf368
H 7 0Xf462
H 9 0Xf50c
H 2 0Xf5c0
H 8 0Xf688
H E 0Xf6f6
H 5 0Xf7dc
H T 0Xf8ae
B 6 0Xf9da
B O 0Xfa5c
B 1 0Xfb56
B 4 0Xfc32
B 3 0Xfd04
B 9 0Xfe12
B 7 0Xfed0
B 8 0Xff70
B 2 0X0010
B 5 0X00f6
B E 0X013c
B T 0X025e
H O 0X0416
H 6 0X0524
H 4 0X05ce
H 1 0X06d2
H 9 0X07ae
H 3 0X088a
H 8 0X0920
H 7 0X0a1a
H 5 0X0ae2
H 2 0X0ba0
H E 0X0c04
H T 0X0ce0
B O 0X0dbc
B 4 0X0e8e
B 6 0X0f74
B 9 0X1082
B 1 0X1122
B 8 0X11ea
B 3 0X12da
B 5 0X138e
B 7 0X1492
B E 0X150a
B 2 0X15dc
B T 0X16ae
H 4 0X1884
H O 0X1910
H 6 0X1a32
H 1 0X1af0
H 9 0X1bae
H 3 0X1c8a
H 8 0X1d5c
H 7 0X1e38
H 5 0X1ece
H 2 0X1f96
H E 0X2018
H T 0X211c
B 4 0X2202
B 6 0X22fc
B O 0X239c
B 9 0X24b4
B 1 0X254a
B 8 0X2644
B 3 0X26da
B 5 0X278e
B 7 0X2874
B E 0X2928
B 2 0X29b4
B T 0X2ac2
H 6 0X2cc0
H 4 0X2d92
H O 0X2e3c
H 1 0X2f0e
H 9 0X2ffe
H 3 0X30b2
H 8 0X31a2
H 7 0X326a
H 5 0X3300
H 2 0X33be
H E 0X342c
H T 0X3526
B 6 0X362a
B O 0X36de
B 4 0X37ce
B 9 0X38d2
B 1 0X3986
B 8 0X3a44
B 3 0X3b16
B 5 0X3bd4
B 7 0X3cce
B E 0X3d32
B 2 0X3e2c
B T 0X3ed6
H O 0X40ac
H 6 0X41a6
H 9 0X425a
H 4 0X42f0
H 8 0X43e0
H 1 0X44a8
H 5 0X4598
H 3 0X4656
H E 0X46ec
H 7 0X482c
H 2 0X48d6
H T 0X4976
B 6 0X4a66
B O 0X4ae8
B 9 0X4be2
B 8 0X4d0e
B 4 0X4d90
B 5 0X4e6c
B 1 0X4f34
B E 0X4fac
B 3 0X50a6
B 2 0X516e
B 7 0X5240
B T 0X533a
H 6 0X54f2
H 9 0X55c4
H O 0X56a0
H 4 0X5768
H 8 0X5844
H 1 0X5902
H 5 0X59ca
H 3 0X5a88
H E 0X5b14
H 7 0X5c04
H 2 0X5cb8
H T 0X5d9e
B 9 0X5eac
B 6 0X5f42
B O 0X6000
B 8 0X6104
B 4 0X61a4
B 5 0X626c
B 1 0X6352
B E 0X63fc
B 3 0X64d8
B 2 0X6596
B 7 0X6668
B T 0X6744
H 9 0X6910
H O 0X69f6
H 6 0X6aaa
H 4 0X6bae
H 8 0X6c76
H 1 0X6d48
H 5 0X6e06
H 3 0X6eba
H E 0X6f3c
H 7 0X7054
H 2 0X70fe
H T 0X71d0
B O 0X728e
B 9 0X73a6
B 6 0X7446
B 8 0X7540
B 4 0X75f4
B 5 0X76b2
B 1 0X77ac
B E 0X781a
B 3 0X7900
B 2 0X79dc
B 7 0X7ac2
B T 0X7b8a
H 9 0X7d42
H O 0X7e14
H 8 0X7ee6
H 6 0X7fcc
H 5 0X8094
H 4 0X815c
H E 0X81de
H 1 0X82ec
H 2 0X83b4
H 3 0X8468
H 7 0X8558
H T 0X8616
B 9 0X8710
B 8 0X87c4
B O 0X8878
B 5 0X897c
B 6 0X8a30
B E 0X8ae4
B 4 0X8ba2
B 2 0X8c7e
B 1 0X8d5a
B 7 0X8e2c
B 3 0X8ed6
B T 0X8fa8
H 8 0X9188
H 9 0X925a
H O 0X935e
H 6 0X9426
H 5 0X94ee
H 4 0X9584
H E 0X9610
H 1 0X96f6
H 2 0X97d2
H 3 0X989a
H 7 0X999e
H T 0X9a3e
B 8 0X9b2e
B O 0X9be2
B 9 0X9d04
B 5 0X9db8
B 6 0X9e94
B E 0X9f2a
B 4 0X9fd4
B 2 0Xa092
B 1 0Xa182
B 7 0Xa25e
B 3 0Xa308
B T 0Xa3e4
H O 0Xa5a6
H 8 0Xa66e
H 9 0Xa75e
H 6 0Xa83a
H 5 0Xa934
H 4 0Xa9de
H E 0Xaa56
H 1 0Xab5a
H 2 0Xac22
H 3 0Xacea
H 7 0Xadd0
H T 0Xae70
B O 0Xaf42
B 9 0Xb014
B 8 0Xb104
B 5 0Xb1f4
B 6 0Xb29e
B E 0Xb33e
B 4 0Xb438
B 2 0Xb500
B 1 0Xb5d2
B 7 0Xb6d6
B 3 0Xb762
B T 0Xb820
H 9 0Xb9f6
H O 0Xbaaa
H 5 0Xbbc2
H 8 0Xbc94
H E 0Xbd02
H 6 0Xbdfc
H 2 0Xbee2
H 4 0Xbfa0
H 7 0Xc0a4
H 1 0Xc126
H 3 0Xc13a
H T 0Xc2b6
B O 0Xc39c
B 9 0Xc496
B 5 0Xc554
B E 0Xc5cc
B 8 0Xc6ee
B 2 0Xc7de
B 6 0Xc874
B 7 0Xc982
B 4 0Xca2c
B 3 0Xcae0
B 1 0Xcb9e
B T 0Xcc52
H O 0Xce32
H 5 0Xcf18
H 9 0Xcffe
H 8 0Xd08a
H E 0Xd134
H 6 0Xd24c
H 2 0Xd30a
H 4 0Xd404
H 7 0Xd4e0
H 1 0Xd594
H 3 0Xd63e
H T 0Xd6e8
B 5 0Xd7f6
B O 0Xd882
B 9 0Xd97c
B E 0Xda30
B 8 0Xdb2a
B 2 0Xdbfc
B 6 0Xdcba
B 7 0Xdd96
B 4 0Xde36
B 3 0Xdf30
B 1 0Xdfe4
B T 0Xe0b6
H 5 0Xe2aa
H 9 0Xe34a
H O 0Xe426
H 8 0Xe502
H E 0Xe5a2
H 6 0Xe688
H 2 0Xe750
H 4 0Xe840
H 7 0Xe91c
H 1 0Xe9ee
H 3 0Xea98
H T 0Xeb4c
B 9 0Xec32
B 5 0Xed04
B O 0Xed90
B E 0Xee62
B 8 0Xef98
B 2 0Xf042
B 6 0Xf100
B 7 0Xf1e6
B 4 0Xf290
B 3 0Xf376
B 1 0Xf40c
B T 0Xf4de
H 5 0Xf6e6
H 9 0Xf7c2
H E 0Xf862
H O 0Xf95c
H 2 0Xfa06
H 8 0Xface
H 7 0Xfbb4
H 6 0Xfc7c
H 3 0Xfd26
H 4 0Xfdd0
H 1 0Xfeac
H T 0Xff74
B 5 0X008c
B E 0X0140
B 9 0X023a
B 2 0X02d0
B O 0X035c
B 7 0X0474
B 8 0X0532
B 3 0X05fa
B 6 0X06b8
B 1 0X0780
B 4 0X0852
B T 0X0924
H E 0X0adc
H 5 0X0bfe
H 9 0X0cda
H O 0X0dac
H 2 0X0e42
H 8 0X0ef6
H 7 0X0fdc
H 6 0X109a
H 3 0X116c
H 4 0X123e
H 1 0X12fc
H T 0X13a6
B E 0X1482
B 9 0X15ae
B 5 0X166c
B 2 0X172a
B O 0X17ca
B 7 0X189c
B 8 0X1982
B 3 0X1a5e
B 6 0X1b26
B 1 0X1bc6
B 4 0X1cb6
B T 0X1d56
H 9 0X1f5e
H E 0X201c
H 5 0X20c6
H O 0X21b6
H 2 0X2274
H 8 0X2346
H 7 0X2422
H 6 0X251c
H 3 0X25da
H 4 0X2670
H 1 0X2760
H T 0X27d8
B 9 0X28f0
B 5 0X29cc
B E 0X2a76
B 2 0X2b5c
B O 0X2bc0
B 7 0X2cec
B 8 0X2daa
B 3 0X2e72
B 6 0X2f4e
B 1 0X302a
B 4 0X3106
B T 0X319c
H 5 0X3390
H 9 0X346c
H 2 0X34f8
H E 0X35d4
H 7 0X36b0
H O 0X375a
H 3 0X384a
H 8 0X3926
H 1 0X39f8
H 6 0X3ab6
H 4 0X3b7e
H T 0X3c32
B 9 0X3d54
B 5 0X3e30
B 2 0X3e94
B 7 0X3f84
B E 0X4010
B 3 0X411e
B O 0X41a0
B 1 0X4290
B 8 0X4394
B 4 0X4434
B 6 0X4524
B T 0X4600
H 9 0X47cc
H 2 0X489e
H 5 0X495c
H 7 0X4ac4
H O 0X4bbe
H E 0X4bd2
H 3 0X4c9a
H 8 0X4d26
H 1 0X4e0c
H 6 0X4efc
H 4 0X4fc4
H T 0X5096
B 2 0X519a
B 9 0X5226
B 5 0X52da
B 7 0X53c0
B E 0X54ba
B 3 0X55a0
B O 0X5618
B 1 0X56f4
B 8 0X57c6
B 4 0X587a
B 6 0X5942
B T 0X5a32
H 2 0X5bfe
H 5 0X5ca8
H 9 0X5da2
H E 0X5e42
H 7 0X5f3c
H O 0X6022
H 3 0X60e0
H 8 0X618a
H 1 0X6270
H 6 0X6342
H 4 0X63ec
H T 0X64be
B 5 0X65cc
B 2 0X668a
B 9 0X6752
B 7 0X6806
B E 0X6892
B 3 0X698c
B O 0X6a40
B 1 0X6b1c
B 8 0X6c20
B 4 0X6cac
B 6 0X6dba
B T 0X6e82
H 2 0X703a
H 5 0X70f8
H 7 0X71fc
H 9 0X72b0
H 3 0X73aa
H E 0X7436
H 1 0X74fe
H O 0X7580
H 4 0X767a
H 8 0X7756
H 6 0X7846
H T 0X7918
B 2 0X79e0
B 7 0X7abc
B 5 0X7b7a
B 3 0X7c6a
B 9 0X7d28
B 1 0X7dbe
B E 0X7e86
B 4 0X7f80
B O 0X800c
B 6 0X8106
B 8 0X81d8
B T 0X82d2
H 7 0X849e
H 2 0X855c
H 5 0X8606
H 9 0X86ec
H 3 0X87be
H E 0X885e
H 1 0X8944
H O 0X8a0c
H 4 0X8aca
H 8 0X8b7e
H 6 0X8c64
H T 0X8d22
B 7 0X8e4e
B 5 0X8f16
B 2 0X8fe8
B 3 0X907e
B 9 0X918c
B 1 0X9218
B E 0X92ae
B 4 0X93ee
B O 0X9452
B 6 0X9538
B 8 0X961e
B T 0X96f0
H 5 0X98da
H 7 0X99ca
H 2 0X9a74
H 9 0X9b32
H 3 0X9c22
H E 0X9cb8
H 1 0X9d76
H O 0X9e48
H 4 0X9f42
H 8 0X9fd8
H 6 0Xa0c8
H T 0Xa168
B 5 0Xa258
B 2 0Xa35c
B 7 0Xa424
B 3 0Xa500
B 9 0Xa5c8
B 1 0Xa654
B E 0Xa71c
B 4 0Xa820
B O 0Xa8c0
B 6 0Xa9ba
B 8 0Xaa82
B T 0Xab40
H 2 0Xad16
H 5 0Xadac
H 3 0Xae92
H 7 0Xaf64
H 1 0Xb00e
H 9 0Xb11c
H 4 0Xb1f8
H E 0Xb270
H 6 0Xb34c
H O 0Xb414
H 8 0Xb504
H T 0Xb5d6
B 5 0Xb694
B 2 0Xb784
B 3 0Xb824
B 1 0Xb8ec
B 7 0Xb9b4
B 4 0Xbab8
B 9 0Xbb80
B 6 0Xbc20
B E 0Xbcfc
B 8 0Xbde2
B O 0Xbe96
B T 0Xbf72
H 5 0Xc116
H 3 0Xc1f2
H 2 0Xc2ce
H 7 0Xc3aa
H 1 0Xc472
H 9 0Xc53a
H 4 0Xc5e4
H E 0Xc6ca
H 6 0Xc788
H O 0Xc828
H 8 0Xc90e
H T 0Xca08
B 3 0Xcada
B 5 0Xcbb6
B 2 0Xcc88
B 1 0Xcd5a
B 7 0Xce0e
B 4 0Xcec2
B 9 0Xcf9e
B 6 0Xd03e
B E 0Xd11a
B 8 0Xd1e2
B O 0Xd296
B T 0Xd3a4
H 3 0Xd566
H 2 0Xd624
H 5 0Xd6e2
H 7 0Xd7dc
H 1 0Xd8b8
H 9 0Xd980
H 4 0Xda0c
H E 0Xdade
H 6 0Xdb9c
H O 0Xdc5a
H 8 0Xdd18
H T 0Xddfe
B 2 0Xdf16
B 3 0Xdfac
B 5 0Xe088
B 1 0Xe164
B 7 0Xe236
B 4 0Xe2f4
B 9 0Xe3c6
B 6 0Xe47a
B E 0Xe52e
B 8 0Xe5f6
B O 0Xe6be
B T 0Xe7ae
H 3 0Xe998
H 2 0Xea4c
H 1 0Xeb14
H 5 0Xebdc
H 4 0Xeccc
H 7 0Xed8a
H 6 0Xee66
H 9 0Xef06
H 8 0Xefce
H E 0Xf08c
H O 0Xf186
H T 0Xf230
B 3 0Xf32a
B 1 0Xf3d4
B 2 0Xf488
B 4 0Xf564
B 5 0Xf622
B 6 0Xf712
B 7 0Xf7e4
B 8 0Xf898
B 9 0Xf94c
B O 0Xfa28
B E 0Xfaf0
B T 0Xfbea
H 1 0Xfd98
H 3 0Xfe60
H 2 0Xff00
H 5 0Xffd2
H 4 0X00cc
H 7 0X0180
H 6 0X023e
H 9 0X0306
H 8 0X03d8
H E 0X0496
H O 0X05a4
H T 0X0662
B 1 0X0720
B 2 0X07de
B 3 0X0888
B 4 0X095a
B 5 0X0a22
B 6 0X0ae0
B 7 0X0bb2
B 8 0X0ca2
B 9 0X0d6a
B O 0X0e32
B E 0X0ef0
B T 0X0fd6
H 1 0X11c0
H 2 0X1256
H 3 0X130a
H 4 0X13be
H 5 0X145e
H 6 0X1562
H 7 0X1634
H 8 0X171a
H 9 0X17c4
H O 0X18aa
H E 0X1954
H T 0X1a26
B 1 0X1ada
B 2 0X1bf2
B 3 0X1c92
B 4 0X1d3c
B 5 0X1df0
B 6 0X1ecc
B 7 0X1fa8
B 8 0X2084
B 9 0X2160
B O 0X21ec
B E 0X22dc
B T 0X23b8
H 1 0X258e
H 2 0X2656
H 3 0X270a
H 4 0X27a0
H 5 0X284a
H 6 0X2930
H 7 0X2a20
H 8 0X2af2
H 9 0X2ba6
H O 0X2c78
H E 0X2d22
H T 0X2dfe
B 1 0X2ea8
B 2 0X2fb6
B 3 0X3042
B 4 0X310a
B 5 0X31d2
B 6 0X32b8
B 7 0X33bc
B 8 0X3470
B 9 0X352e
B O 0X35ec
B E 0X36d2
B T 0X37ae
H 1 0X3952
H 2 0X3a42
H 3 0X3ae2
H 4 0X3bb4
H 5 0X3c4a
H 6 0X3ce0
H 7 0X3e0c
H 8 0X3eca
H 9 0X3f88
H O 0X408c
H E 0X4136
H T 0X4212
B 1 0X42a8
B 2 0X437a
B 3 0X4438
B 4 0X450a
B 5 0X45be
B 6 0X46b8
B 7 0X479e
B 8 0X485c
B 9 0X4910
B O 0X49ce
B E 0X4abe
B T 0X4b90
H 1 0X4d3e
H 2 0X4e06
H 3 0X4ece
H 4 0X4f6e
H 5 0X5036
H 6 0X50fe
H 7 0X520c
H 8 0X52c0
H 9 0X5360
H O 0X545a
H E 0X550e
H T 0X55e0
B 1 0X56a8
B 2 0X577a
B 3 0X5838
B 4 0X58ec
B 5 0X59b4
B 6 0X5ad6
B 7 0X5b94
B 8 0X5c5c
B 9 0X5d10
B O 0X5df6
B E 0X5edc
B T 0X5fd6
