#. Lowndes: Version 2
#. SourceFilename: W:\Recordings\Guildford\Guildford.20220619-1755.s12t12.4.wav
#. Tower: Guildford Cathedral
#. RingingName: Touch_4
#. RingingDateTime: 20220619-1755
#. Rungon: 
#. Tenor: 12
#. NumBellsRinging: 12
#. Creator: HawkEar Team Edition V1 for Guildford Cathedral
#. CreatorVersion: 1.1.0.3
#. TranscribedFor: Guildford band
#. TranscriptionDateTime: 20220622-1626
#. FirstBlowMs: 7210
#. TouchdB: -17.8855
#. TraindB: -9.73, -8.5, -6.1, -3.11, -3.16, -3.1, -3.98, -4.12, -5.95, -5.43, -4.92, -3
#. TrainedOn: 20220102-1438
#. TrainDataRecordedOn: 20210813-1741
#. TrainParams: -ft:y -ws:0.05 -hs:0.01 -co:0.9 -sw:40 -ts:
#. GainParams: -fh:6000 -fl:200
#. OnsetParams: -mb:80 -mf:10 -ng:0.3 -oo:0
#. WriteParams: -hb:y
#. AnalParams: -au:y -xp:n -sg:n -hsg:-1
#. ExpString: 
#. Association:
#. Calling:
#. CompositionName:
#. Method:
#. Footnotes:
#. Ringers:
#. Stage:
H 1 0X0000
H 2 0X00dc
H 3 0X01cc
H 4 0X02ee
H 5 0X03a2
H 6 0X0456
H 7 0X0550
H 8 0X05f0
H 9 0X06d6
H O 0X07d0
H E 0X08d4
H T 0X09b0
B 1 0X0a3c
B 2 0X0b18
B 3 0X0bf4
B 4 0X0c94
B 5 0X0d5c
B 6 0X0e2e
B 7 0X0f28
B 8 0X0ffa
B 9 0X10c2
B O 0X1194
B E 0X12a2
B T 0X1392
H 1 0X152c
H 2 0X161c
H 3 0X16d0
H 4 0X1784
H 5 0X1838
H 6 0X18e2
H 7 0X19dc
H 8 0X1a7c
H 9 0X1b58
H O 0X1c70
H E 0X1d56
H T 0X1e1e
B 1 0X1ebe
B 2 0X1f9a
B 3 0X2076
B 4 0X2102
B 5 0X21ca
B 6 0X2292
B 7 0X2382
B 8 0X2440
B 9 0X2508
B O 0X25d0
B E 0X26ca
B T 0X27a6
H 1 0X294a
H 2 0X2a1c
H 3 0X2ae4
H 4 0X2b98
H 5 0X2c4c
H 6 0X2d14
H 7 0X2e0e
H 8 0X2eae
H 9 0X2f94
H O 0X308e
H E 0X312e
H T 0X3200
B 1 0X32a0
B 2 0X3372
B 3 0X3430
B 4 0X34e4
B 5 0X35b6
B 6 0X3660
B 7 0X3750
B 8 0X3822
B 9 0X38f4
B O 0X39d0
B E 0X3ad4
B T 0X3b6a
H 1 0X3d0e
H 2 0X3dcc
H 3 0X3e8a
H 4 0X3f48
H 5 0X4006
H 6 0X40c4
H 7 0X41d2
H 8 0X4286
H 9 0X4330
H O 0X4448
H E 0X44f2
H T 0X45c4
B 1 0X4650
B 2 0X472c
B 3 0X47d6
B 4 0X486c
B 5 0X4952
B 6 0X4a10
B 7 0X4b28
B 8 0X4bf0
B 9 0X4cc2
B O 0X4d8a
B E 0X4e48
B T 0X4f06
H 1 0X50be
H 2 0X517c
H 3 0X5230
H 4 0X52f8
H 5 0X53ac
H 6 0X5488
H 7 0X5582
H 8 0X5622
H 9 0X56d6
H O 0X57da
H E 0X5898
H T 0X5960
B 1 0X59e2
B 2 0X5abe
B 3 0X5b72
B 4 0X5c12
B 5 0X5cee
B 6 0X5dca
B 7 0X5ed8
B 8 0X5f6e
B 9 0X6036
B O 0X60e0
B E 0X61d0
B T 0X62ac
H 1 0X645a
H 2 0X6504
H 3 0X65b8
H 4 0X6694
H 5 0X673e
H 6 0X681a
H 7 0X690a
H 8 0X69b4
H 9 0X6a86
H O 0X6b58
H E 0X6c20
H T 0X6cde
B 1 0X6d7e
B 2 0X6e5a
B 3 0X6efa
B 4 0X6fcc
B 5 0X7094
B 6 0X7152
B 7 0X7256
B 8 0X731e
B 9 0X73dc
B O 0X749a
B E 0X758a
B T 0X7648
H 1 0X77ec
H 2 0X78a0
H 3 0X794a
H 4 0X7a30
H 5 0X7ad0
H 6 0X7bb6
H 7 0X7c88
H 8 0X7d46
H 9 0X7dfa
H O 0X7f08
H E 0X7fc6
H T 0X8084
B 1 0X8110
B 2 0X81e2
B 3 0X82a0
B 4 0X834a
B 5 0X8430
B 6 0X84ee
B 7 0X85de
B 8 0X869c
B 9 0X878c
B O 0X885e
B E 0X891c
B T 0X89ee
H 1 0X8b88
H 2 0X8c50
H 3 0X8cfa
H 4 0X8d90
H 5 0X8e4e
H 6 0X8f52
H 7 0X9038
H 8 0X90ce
H 9 0X91a0
H O 0X92a4
H E 0X9362
H T 0X942a
B 1 0X94c0
B 2 0X9592
B 3 0X963c
B 4 0X96c8
B 5 0X97ae
B 6 0X9880
B 7 0X99ac
B 8 0X9a56
B 9 0X9b0a
B O 0X9be6
B E 0X9cc2
B T 0X9d80
H 1 0X9f2e
H 2 0X9fe2
H 3 0Xa08c
H 4 0Xa140
H 5 0Xa1fe
H 6 0Xa2da
H 7 0Xa3de
H 8 0Xa492
H 9 0Xa546
H O 0Xa62c
H E 0Xa708
H T 0Xa7d0
B 1 0Xa88e
B 2 0Xa94c
B 3 0Xaa00
B 4 0Xaaa0
B 5 0Xab72
B 6 0Xac3a
B 7 0Xad34
B 8 0Xadd4
B 9 0Xaea6
B O 0Xaf78
B E 0Xb072
B T 0Xb11c
H 1 0Xb2de
H 2 0Xb3a6
H 3 0Xb446
H 4 0Xb4fa
H 5 0Xb5d6
H 6 0Xb6b2
H 7 0Xb7ac
H 8 0Xb82e
H 9 0Xb8f6
H O 0Xba0e
H E 0Xbab8
H T 0Xbb76
B 1 0Xbbf8
B 2 0Xbcd4
B 3 0Xbd9c
B 4 0Xbe5a
B 5 0Xbf2c
B 6 0Xbfea
B 7 0Xc116
B 8 0Xc18e
B 9 0Xc256
B O 0Xc33c
B E 0Xc404
B T 0Xc4d6
H 1 0Xc67a
H 2 0Xc710
H 3 0Xc7d8
H 4 0Xc8aa
H 5 0Xc954
H 6 0Xca58
H 7 0Xcb34
H 8 0Xcbde
H 9 0Xccba
H O 0Xcdd2
H E 0Xce7c
H T 0Xcf1c
B 1 0Xcfd0
B 2 0Xd098
B 3 0Xd156
B 4 0Xd1e2
B 5 0Xd2c8
B 6 0Xd390
B 7 0Xd48a
B 8 0Xd53e
B 9 0Xd5f2
B O 0Xd6ce
B E 0Xd7c8
B T 0Xd872
H 1 0Xda20
H 2 0Xdad4
H 3 0Xdb88
H 4 0Xdc64
H 5 0Xdd04
H 6 0Xddc2
H 7 0Xdec6
H 8 0Xdf70
H 9 0Xe038
H O 0Xe15a
H E 0Xe1fa
H T 0Xe2c2
B 1 0Xe358
B 2 0Xe434
B 3 0Xe4de
B 4 0Xe588
B 5 0Xe65a
B 6 0Xe722
B 7 0Xe81c
B 8 0Xe8e4
B 9 0Xe998
B O 0Xea56
B E 0Xeb46
B T 0Xebf0
H 1 0Xedb2
H 2 0Xee3e
H 3 0Xef10
H 4 0Xefce
H 5 0Xf082
H 6 0Xf168
H 7 0Xf26c
H 8 0Xf32a
H 9 0Xf3ca
H O 0Xf4ba
H E 0Xf56e
H T 0Xf618
B 1 0Xf6cc
B 2 0Xf7b2
B 3 0Xf87a
B 4 0Xf906
B 5 0Xf9d8
B 6 0Xfaa0
B 7 0Xfbc2
B 8 0Xfc76
B 9 0Xfd48
B O 0Xfe1a
B E 0Xfee2
B T 0Xffaa
H 2 0X0158
H 1 0X023e
H 3 0X02f2
H 5 0X039c
H 4 0X0464
H 7 0X052c
H 6 0X05f4
H 9 0X06d0
H 8 0X07a2
H E 0X0874
H O 0X096e
H T 0X0a18
B 2 0X0aea
B 3 0X0b9e
B 1 0X0c5c
B 4 0X0cfc
B 5 0X0de2
B 6 0X0ea0
B 7 0X0f7c
B 8 0X103a
B 9 0X1116
B O 0X11de
B E 0X12d8
B T 0X1382
H 3 0X1508
H 2 0X15d0
H 4 0X16c0
H 1 0X1788
H 6 0X1846
H 5 0X1940
H 8 0X1a12
H 7 0X1ad0
H 9 0X1b8e
H E 0X1c60
H O 0X1d14
H T 0X1df0
B 2 0X1eae
B 3 0X1f58
B 4 0X200c
B 6 0X20fc
B 1 0X21ce
B 8 0X2282
B 5 0X235e
B 9 0X2412
B 7 0X24da
B O 0X258e
B E 0X2688
B T 0X2750
H 2 0X28e0
H 4 0X29bc
H 3 0X2a84
H 1 0X2b74
H 6 0X2c28
H 5 0X2cf0
H 8 0X2db8
H 7 0X2e76
H 9 0X2f34
H E 0X301a
H O 0X30d8
H T 0X31aa
B 4 0X3286
B 2 0X3344
B 3 0X33f8
B 6 0X34de
B 1 0X35a6
B 8 0X365a
B 5 0X3718
B 9 0X3812
B 7 0X38ee
B O 0X3952
B E 0X3a74
B T 0X3b14
H 4 0X3cc2
H 3 0X3d8a
H 2 0X3e5c
H 1 0X3f42
H 6 0X3fe2
H 5 0X40dc
H 8 0X41a4
H 7 0X426c
H 9 0X4302
H E 0X43f2
H O 0X44a6
H T 0X4550
B 3 0X4622
B 4 0X46e0
B 2 0X47bc
B 6 0X48b6
B 1 0X497e
B 8 0X4a32
B 5 0X4af0
B 9 0X4bae
B 7 0X4c8a
B O 0X4d3e
B E 0X4e2e
B T 0X4ed8
H 4 0X5068
H 3 0X513a
H 6 0X522a
H 2 0X532e
H 8 0X53c4
H 1 0X5482
H 9 0X5568
H 5 0X561c
H O 0X570c
H 7 0X57ca
H E 0X5856
H T 0X5932
B 4 0X59b4
B 6 0X5ac2
B 3 0X5b94
B 8 0X5c48
B 2 0X5d38
B 9 0X5e0a
B 1 0X5e96
B O 0X5f68
B 5 0X6026
B E 0X60ee
B 7 0X61f2
B T 0X62c4
H 6 0X6490
H 4 0X6576
H 3 0X663e
H 2 0X6710
H 8 0X67ba
H 1 0X686e
H 9 0X6904
H 5 0X69d6
H O 0X6ab2
H 7 0X6b52
H E 0X6be8
H T 0X6ce2
B 6 0X6df0
B 3 0X6ec2
B 4 0X6f9e
B 8 0X7048
B 2 0X7124
B 9 0X71ec
B 1 0X7282
B O 0X732c
B 5 0X73fe
B E 0X7494
B 7 0X758e
B T 0X766a
H 3 0X7822
H 6 0X78fe
H 4 0X7a0c
H 2 0X7ad4
H 8 0X7b9c
H 1 0X7c46
H 9 0X7d0e
H 5 0X7df4
H O 0X7e80
H 7 0X7f2a
H E 0X7fc0
H T 0X80ba
B 3 0X816e
B 4 0X8254
B 6 0X8312
B 8 0X8416
B 2 0X84d4
B 9 0X85b0
B 1 0X8664
B O 0X8718
B 5 0X87f4
B E 0X886c
B 7 0X8948
B T 0X8a42
H 4 0X8be6
H 3 0X8ce0
H 8 0X8d94
H 6 0X8e70
H 9 0X8f38
H 2 0X8ff6
H O 0X90f0
H 1 0X9186
H 5 0X9244
H 7 0X935c
H E 0X93c0
H T 0X949c
B 3 0X956e
B 4 0X9636
B 8 0X96e0
B 9 0X97d0
B 6 0X98c0
B O 0X9960
B 2 0X9a14
B 5 0X9b22
B 1 0X9bcc
B E 0X9c26
B 7 0X9d3e
B T 0X9e38
H 3 0X9fd2
H 8 0Xa086
H 4 0Xa162
H 6 0Xa220
H 9 0Xa2fc
H 2 0Xa3c4
H O 0Xa4a0
H 1 0Xa590
H 5 0Xa63a
H 7 0Xa70c
H E 0Xa798
H T 0Xa86a
B 8 0Xa946
B 3 0Xaa04
B 4 0Xaaae
B 9 0Xaba8
B 6 0Xac84
B O 0Xad42
B 2 0Xae00
B 5 0Xaedc
B 1 0Xaf9a
B E 0Xb01c
B 7 0Xb116
B T 0Xb206
H 8 0Xb3dc
H 4 0Xb49a
H 3 0Xb56c
H 6 0Xb60c
H 9 0Xb6e8
H 2 0Xb7ba
H O 0Xb896
H 1 0Xb95e
H 5 0Xba08
H 7 0Xbae4
H E 0Xbb52
H T 0Xbc56
B 4 0Xbd3c
B 8 0Xbe18
B 3 0Xbefe
B 9 0Xbf9e
B 6 0Xc08e
B O 0Xc14c
B 2 0Xc20a
B 5 0Xc2e6
B 1 0Xc372
B E 0Xc3e0
B 7 0Xc4e4
B T 0Xc5de
H 8 0Xc7dc
H 4 0Xc89a
H 9 0Xc94e
H 3 0Xca34
H O 0Xcb06
H 6 0Xcbc4
H 5 0Xcc96
H 2 0Xcd86
H E 0Xcdea
H 1 0Xce94
H 7 0Xcf70
H T 0Xd04c
B 8 0Xd10a
B 9 0Xd1f0
B 4 0Xd2ae
B O 0Xd380
B 3 0Xd470
B 5 0Xd542
B 6 0Xd61e
B E 0Xd6dc
B 2 0Xd790
B 7 0Xd858
B 1 0Xd8da
B T 0Xd9ca
H 9 0Xdbc8
H 8 0Xdc7c
H 4 0Xdd30
H 3 0Xde2a
H O 0Xdefc
H 6 0Xdf7e
H 5 0Xe078
H 2 0Xe136
H E 0Xe1c2
H 1 0Xe2a8
H 7 0Xe37a
H T 0Xe460
B 9 0Xe500
B 4 0Xe5d2
B 8 0Xe6ae
B O 0Xe776
B 3 0Xe866
B 5 0Xe924
B 6 0Xe9c4
B E 0Xea8c
B 2 0Xeb2c
B 7 0Xec58
B 1 0Xed02
B T 0Xedac
H 4 0Xef96
H 9 0Xf054
H 8 0Xf112
H 3 0Xf202
H O 0Xf310
H 6 0Xf37e
H 5 0Xf464
H 2 0Xf536
H E 0Xf590
H 1 0Xf66c
H 7 0Xf784
H T 0Xf824
B 4 0Xf8c4
B 8 0Xf9b4
B 9 0Xfa86
B O 0Xfb6c
B 3 0Xfc3e
B 5 0Xfd06
B 6 0Xfdec
B E 0Xfe96
B 2 0Xff36
B 7 0X0026
B 1 0X00c6
B T 0X0184
H 8 0X036e
H 4 0X0440
H O 0X04fe
H 9 0X05b2
H 5 0X06a2
H 3 0X0774
H E 0X0814
H 6 0X0918
H 7 0X0a08
H 2 0X0a94
H 1 0X0b70
H T 0X0c06
B 4 0X0cf6
B 8 0X0dbe
B O 0X0e72
B 5 0X0f4e
B 9 0X0ff8
B E 0X10ac
B 3 0X11c4
B 7 0X1278
B 6 0X1368
B 1 0X13e0
B 2 0X14c6
B T 0X158e
H 4 0X1764
H O 0X180e
H 8 0X18e0
H 9 0X199e
H 5 0X1a66
H 3 0X1b42
H E 0X1bce
H 6 0X1cfa
H 7 0X1db8
H 2 0X1e80
H 1 0X1f34
H T 0X2006
B O 0X20ba
B 4 0X21b4
B 8 0X2240
B 5 0X2326
B 9 0X23e4
B E 0X24ac
B 3 0X25b0
B 7 0X265a
B 6 0X272c
B 1 0X27ae
B 2 0X286c
B T 0X2948
H O 0X2b1e
H 8 0X2bfa
H 4 0X2cfe
H 9 0X2da8
H 5 0X2e84
H 3 0X2f1a
H E 0X2fe2
H 6 0X3104
H 7 0X31c2
H 2 0X328a
H 1 0X333e
H T 0X33a2
B 8 0X3492
B O 0X3564
B 4 0X3668
B 5 0X3730
B 9 0X37f8
B E 0X38fc
B 3 0X39a6
B 7 0X3a64
B 6 0X3b22
B 1 0X3bb8
B 2 0X3c76
B T 0X3d34
H O 0X3f32
H 8 0X3fd2
H 5 0X40c2
H 4 0X41da
H E 0X4266
H 9 0X432e
H 7 0X443c
H 3 0X44be
H 1 0X4590
H 6 0X466c
H 2 0X4748
H T 0X47b6
B O 0X48b0
B 5 0X4996
B 8 0X4a4a
B E 0X4b12
B 4 0X4bd0
B 7 0X4ca2
B 9 0X4d92
B 1 0X4e32
B 3 0X4f22
B 2 0X4fd6
B 6 0X509e
B T 0X515c
H 5 0X5350
H O 0X5404
H 8 0X54a4
H 4 0X558a
H E 0X560c
H 9 0X571a
H 7 0X57e2
H 3 0X58aa
H 1 0X5990
H 6 0X5a62
H 2 0X5b16
H T 0X5bd4
B 5 0X5cc4
B 8 0X5d6e
B O 0X5e54
B E 0X5f3a
B 4 0X5fd0
B 7 0X6098
B 9 0X6156
B 1 0X62a0
B 3 0X62dc
B 2 0X639a
B 6 0X6480
B T 0X6552
H 8 0X6728
H 5 0X6804
H O 0X68b8
H 4 0X698a
H E 0X6a20
H 9 0X6b06
H 7 0X6bec
H 3 0X6c96
H 1 0X6d5e
H 6 0X6e12
H 2 0X6eee
H T 0X6f98
B 8 0X707e
B O 0X7150
B 5 0X722c
B E 0X72d6
B 4 0X73b2
B 7 0X74a2
B 9 0X7556
B 1 0X7600
B 3 0X76dc
B 2 0X779a
B 6 0X784e
B T 0X7916
H O 0X7ae2
H 8 0X7bb4
H E 0X7c86
H 5 0X7d8a
H 7 0X7e84
H 4 0X7f38
H 1 0X800a
H 9 0X8096
H 2 0X8154
H 3 0X821c
H 6 0X82d0
H T 0X83ac
B 8 0X846a
B O 0X8514
B E 0X860e
B 7 0X86fe
B 5 0X87d0
B 1 0X888e
B 4 0X897e
B 2 0X8a0a
B 9 0X8afa
B 6 0X8b68
B 3 0X8c62
B T 0X8d20
H 8 0X8f14
H E 0X8fbe
H O 0X9086
H 5 0X9162
H 7 0X923e
H 4 0X9306
H 1 0X93d8
H 9 0X948c
H 2 0X952c
H 3 0X9612
H 6 0X96c6
H T 0X97a2
B E 0X9888
B 8 0X996e
B O 0X9a18
B 7 0X9ac2
B 5 0X9ba8
B 1 0X9c52
B 4 0X9d24
B 2 0X9de2
B 9 0X9ebe
B 6 0X9f9a
B 3 0Xa062
B T 0Xa12a
H E 0Xa300
H O 0Xa3e6
H 8 0Xa49a
H 5 0Xa562
H 7 0Xa652
H 4 0Xa6f2
H 1 0Xa7c4
H 9 0Xa878
H 2 0Xa918
H 3 0Xa9ea
H 6 0Xaabc
H T 0Xab98
B O 0Xac9c
B E 0Xad5a
B 8 0Xae40
B 7 0Xaf12
B 5 0Xafc6
B 1 0Xb066
B 4 0Xb142
B 2 0Xb20a
B 9 0Xb2c8
B 6 0Xb390
B 3 0Xb46c
B T 0Xb52a
H E 0Xb6ec
H O 0Xb7c8
H 7 0Xb89a
H 8 0Xb976
H 1 0Xba48
H 5 0Xbaf2
H 2 0Xbbd8
H 4 0Xbca0
H 6 0Xbd5e
H 9 0Xbe08
H 3 0Xbeee
H T 0Xbfa2
B E 0Xc0f6
B 7 0Xc196
B O 0Xc22c
B 1 0Xc2d6
B 8 0Xc3a8
B 2 0Xc48e
B 5 0Xc524
B 6 0Xc628
B 4 0Xc6fa
B 3 0Xc7d6
B 9 0Xc876
B T 0Xc948
H 7 0Xcb0a
H E 0Xcbbe
H O 0Xccb8
H 8 0Xcda8
H 1 0Xce48
H 5 0Xcefc
H 2 0Xcfce
H 4 0Xd096
H 6 0Xd14a
H 9 0Xd226
H 3 0Xd2ee
H T 0Xd3ca
B 7 0Xd49c
B O 0Xd55a
B E 0Xd67c
B 1 0Xd6f4
B 8 0Xd79e
B 2 0Xd87a
B 5 0Xd942
B 6 0Xda0a
B 4 0Xdadc
B 3 0Xdbb8
B 9 0Xdc76
B T 0Xdd66
H O 0Xdf00
H 7 0Xdfdc
H E 0Xe086
H 8 0Xe158
H 1 0Xe234
H 5 0Xe310
H 2 0Xe3d8
H 4 0Xe4a0
H 6 0Xe586
H 9 0Xe626
H 3 0Xe6e4
H T 0Xe7c0
B O 0Xe87e
B E 0Xe982
B 7 0Xea36
B 1 0Xeab8
B 8 0Xeb9e
B 2 0Xec7a
B 5 0Xed38
B 6 0Xee46
B 4 0Xeefa
B 3 0Xefd6
B 9 0Xf094
B T 0Xf166
H E 0Xf31e
H O 0Xf40e
H 1 0Xf49a
H 7 0Xf594
H 2 0Xf648
H 8 0Xf706
H 6 0Xf7ec
H 5 0Xf8be
H 3 0Xf99a
H 4 0Xfa6c
H 9 0Xfaf8
H T 0Xfbe8
B O 0Xfcc4
B E 0Xfd96
B 1 0Xfe2c
B 2 0Xff1c
B 7 0X0002
B 6 0X0098
B 8 0X0160
B 3 0X0232
B 5 0X02d2
B 9 0X03ae
B 4 0X048a
B T 0X0566
H O 0X073c
H 1 0X07fa
H E 0X0886
H 7 0X0980
H 2 0X0a3e
H 8 0X0b2e
H 6 0X0be2
H 5 0X0cb4
H 3 0X0d86
H 4 0X0e3a
H 9 0X0f02
H T 0X0fc0
B 1 0X1088
B O 0X116e
B E 0X1240
B 2 0X12f4
B 7 0X13d0
B 6 0X14a2
B 8 0X156a
B 3 0X1628
B 5 0X16dc
B 9 0X17a4
B 4 0X1880
B T 0X193e
H 1 0X1af6
H E 0X1bb4
H O 0X1cae
H 7 0X1d62
H 2 0X1e0c
H 8 0X1ede
H 6 0X1fec
H 5 0X20dc
H 3 0X21a4
H 4 0X224e
H 9 0X22f8
H T 0X23a2
B E 0X24c4
B 1 0X253c
B O 0X25f0
B 2 0X26b8
B 7 0X2794
B 6 0X2898
B 8 0X296a
B 3 0X2a14
B 5 0X2af0
B 9 0X2bc2
B 4 0X2c8a
B T 0X2d48
H 1 0X2ef6
H E 0X2faa
H 2 0X304a
H O 0X3162
H 6 0X322a
H 7 0X331a
H 3 0X33ba
H 8 0X3496
H 9 0X3554
H 5 0X3626
H 4 0X372a
H T 0X37d4
B 1 0X384c
B 2 0X3932
B E 0X39dc
B 6 0X3af4
B O 0X3b80
B 3 0X3c84
B 7 0X3d4c
B 9 0X3df6
B 8 0X3eaa
B 4 0X3f86
B 5 0X4062
B T 0X412a
H 2 0X4300
H 1 0X43be
H E 0X440e
H O 0X4526
H 6 0X4616
H 7 0X46fc
H 3 0X47ba
H 8 0X4896
H 9 0X4936
H 5 0X4a12
H 4 0X4ae4
H T 0X4bb6
B 2 0X4c88
B E 0X4d3c
B 1 0X4dd2
B 6 0X4eea
B O 0X4f4e
B 3 0X505c
B 7 0X5142
B 9 0X51f6
B 8 0X52be
B 4 0X5386
B 5 0X5444
B T 0X553e
H E 0X570a
H 2 0X57a0
H 1 0X5854
H O 0X591c
H 6 0X5a02
H 7 0X5af2
H 3 0X5ba6
H 8 0X5c8c
H 9 0X5d22
H 5 0X5e08
H 4 0X5ec6
H T 0X5f98
B E 0X6092
B 1 0X6114
B 2 0X61fa
B 6 0X62d6
B O 0X6376
B 3 0X6466
B 7 0X6542
B 9 0X65f6
B 8 0X66b4
B 4 0X6790
B 5 0X6844
B T 0X690c
H 1 0X6ac4
H E 0X6b6e
H 6 0X6c90
H 2 0X6d58
H 3 0X6e0c
H O 0X6eca
H 9 0X6f88
H 7 0X705a
H 4 0X7104
H 8 0X71f4
H 5 0X72bc
H T 0X73a2
B E 0X7488
B 1 0X74e2
B 6 0X760e
B 3 0X76cc
B 2 0X7776
B 9 0X783e
B O 0X7924
B 4 0X79c4
B 7 0X7aa0
B 5 0X7b7c
B 8 0X7c4e
B T 0X7cf8
H E 0X7ec4
H 6 0X7faa
H 1 0X8068
H 2 0X8144
H 3 0X8220
H O 0X82de
H 9 0X837e
H 7 0X8446
H 4 0X84d2
H 8 0X85a4
H 5 0X868a
H T 0X8770
B 6 0X8874
B E 0X8928
B 1 0X8996
B 3 0X8ac2
B 2 0X8b80
B 9 0X8c2a
B O 0X8ce8
B 4 0X8dba
B 7 0X8ea0
B 5 0X8f7c
B 8 0X9026
B T 0X90da
H 6 0X927e
H 1 0X938c
H E 0X93f0
H 2 0X9512
H 3 0X95ee
H O 0X96ca
H 9 0X977e
H 7 0X9832
H 4 0X98d2
H 8 0X99a4
H 5 0X9a76
H T 0X9b52
B 1 0X9bf2
B 6 0X9cec
B E 0X9d64
B 3 0X9e68
B 2 0X9f1c
B 9 0Xa020
B O 0Xa0de
B 4 0Xa1ba
B 7 0Xa282
B 5 0Xa340
B 8 0Xa426
B T 0Xa4da
H 6 0Xa69c
H 1 0Xa782
H 3 0Xa836
H E 0Xa8a4
H 9 0Xa9b2
H 2 0Xaa70
H 4 0Xab6a
H O 0Xabf6
H 5 0Xacb4
H 7 0Xadcc
H 8 0Xae80
H T 0Xaf5c
B 6 0Xb02e
B 3 0Xb100
B 1 0Xb1b4
B 9 0Xb268
B E 0Xb326
B 4 0Xb3da
B 2 0Xb498
B 5 0Xb59c
B O 0Xb646
B 8 0Xb704
B 7 0Xb812
B T 0Xb8ee
H 3 0Xbaa6
H 6 0Xbb64
H 1 0Xbc54
H E 0Xbcb8
H 9 0Xbdf8
H 2 0Xbe5c
H 4 0Xbf1a
H O 0Xbfec
H 5 0Xc096
H 7 0Xc1ae
H 8 0Xc276
H T 0Xc33e
B 3 0Xc3de
B 1 0Xc49c
B 6 0Xc58c
B 9 0Xc668
B E 0Xc730
B 4 0Xc7ee
B 2 0Xc884
B 5 0Xc97e
B O 0Xca0a
B 8 0Xcafa
B 7 0Xcc12
B T 0Xccb2
H 1 0Xce74
H 3 0Xcf46
H 6 0Xd022
H E 0Xd0c2
H 9 0Xd1bc
H 2 0Xd252
H 4 0Xd310
H O 0Xd3ec
H 5 0Xd4a0
H 7 0Xd5a4
H 8 0Xd66c
H T 0Xd720
B 1 0Xd7d4
B 6 0Xd8ba
B 3 0Xd978
B 9 0Xda54
B E 0Xdb12
B 4 0Xdbe4
B 2 0Xdc8e
B 5 0Xdd88
B O 0Xde14
B 8 0Xdefa
B 7 0Xdff4
B T 0Xe094
H 6 0Xe274
H 1 0Xe364
H 9 0Xe436
H 3 0Xe4d6
H 4 0Xe59e
H E 0Xe63e
H 5 0Xe742
H 2 0Xe828
H 8 0Xe8b4
H O 0Xe9cc
H 7 0Xea80
H T 0Xeb34
B 1 0Xebd4
B 6 0Xecb0
B 9 0Xed96
B 4 0Xee72
B 3 0Xef44
B 5 0Xf02a
B E 0Xf08e
B 8 0Xf17e
B 2 0Xf23c
B 7 0Xf322
B O 0Xf3fe
B T 0Xf4da
H 1 0Xf66a
H 9 0Xf750
H 6 0Xf80e
H 3 0Xf8cc
H 4 0Xf976
H E 0Xfa70
H 5 0Xfb4c
H 2 0Xfc14
H 8 0Xfcd2
H O 0Xfdcc
H 7 0Xfe80
H T 0Xff34
B 9 0X0024
B 1 0X00c4
B 6 0X01a0
B 4 0X0254
B 3 0X0330
B 5 0X0416
B E 0X04ac
B 8 0X0588
B 2 0X0646
B 7 0X072c
B O 0X07ea
B T 0X08d0
H 9 0X0ac4
H 6 0X0b78
H 1 0X0c40
H 3 0X0ccc
H 4 0X0d80
H E 0X0e34
H 5 0X0f2e
H 2 0X100a
H 8 0X10be
H O 0X119a
H 7 0X126c
H T 0X132a
B 6 0X142e
B 9 0X1532
B 1 0X15a0
B 4 0X167c
B 3 0X1744
B 5 0X180c
B E 0X1866
B 8 0X19a6
B 2 0X1a5a
B 7 0X1b2c
B O 0X1bea
B T 0X1cbc
H 9 0X1ec4
H 6 0X1f96
H 4 0X2040
H 1 0X2108
H 5 0X21c6
H 3 0X228e
H 8 0X236a
H E 0X2428
H 2 0X24f0
H O 0X25ae
H 7 0X2662
H T 0X2720
B 9 0X281a
B 4 0X28ce
B 6 0X29b4
B 5 0X2ab8
B 1 0X2b58
B 8 0X2c70
B 3 0X2d06
B 2 0X2db0
B E 0X2e3c
B 7 0X2f22
B O 0X2ff4
B T 0X30bc
H 4 0X3288
H 9 0X3346
H 6 0X344a
H 1 0X3530
H 5 0X35da
H 3 0X3684
H 8 0X3774
H E 0X3814
H 2 0X3896
H O 0X399a
H 7 0X3a4e
H T 0X3b2a
B 4 0X3bde
B 6 0X3d00
B 9 0X3daa
B 5 0X3eae
B 1 0X3f4e
B 8 0X403e
B 3 0X40d4
B 2 0X4188
B E 0X41ec
B 7 0X42fa
B O 0X43c2
B T 0X44bc
H 6 0X46a6
H 4 0X4778
H 9 0X4822
H 1 0X48fe
H 5 0X49b2
H 3 0X4a84
H 8 0X4b56
H E 0X4c14
H 2 0X4c78
H O 0X4d68
H 7 0X4e30
H T 0X4f16
B 6 0X5024
B 9 0X50c4
B 4 0X518c
B 5 0X5286
B 1 0X5326
B 8 0X5402
B 3 0X54a2
B 2 0X554c
B E 0X55ec
B 7 0X56d2
B O 0X57b8
B T 0X589e
H 9 0X5a74
H 6 0X5b32
H 5 0X5c18
H 4 0X5cfe
H 8 0X5dc6
H 1 0X5e7a
H 2 0X5f6a
H 3 0X6000
H 7 0X60be
H E 0X6140
H O 0X6262
H T 0X6316
B 6 0X63d4
B 9 0X64ce
B 5 0X65aa
B 8 0X6686
B 4 0X673a
B 2 0X67f8
B 1 0X68a2
B 7 0X6988
B 3 0X6a3c
B O 0X6afa
B E 0X6bc2
B T 0X6c8a
H 6 0X6e56
H 5 0X6f46
H 9 0X7022
H 4 0X70f4
H 8 0X7194
H 1 0X7270
H 2 0X7338
H 3 0X73e2
H 7 0X74d2
H E 0X757c
H O 0X7676
H T 0X7720
B 5 0X7806
B 6 0X78a6
B 9 0X798c
B 8 0X7a4a
B 4 0X7b12
B 2 0X7bee
B 1 0X7cc0
B 7 0X7d74
B 3 0X7e28
B O 0X7ee6
B E 0X7fe0
B T 0X80a8
H 5 0X826a
H 9 0X833c
H 6 0X83f0
H 4 0X84cc
H 8 0X8580
H 1 0X8648
H 2 0X8738
H 3 0X87ec
H 7 0X88dc
H E 0X89b8
H O 0X8a8a
H T 0X8b02
B 9 0X8bfc
B 5 0X8cc4
B 6 0X8d82
B 8 0X8e40
B 4 0X8f1c
B 2 0X8fe4
B 1 0X90a2
B 7 0X9174
B 3 0X9232
B O 0X92e6
B E 0X93fe
B T 0X9480
H 5 0X9674
H 9 0X9746
H 8 0X97e6
H 6 0X98d6
H 2 0X99a8
H 4 0X9a8e
H 7 0X9b92
H 1 0X9c28
H O 0X9cbe
H 3 0X9d5e
H E 0X9e12
H T 0X9ec6
B 5 0X9ffc
B 8 0Xa0ba
B 9 0Xa178
B 2 0Xa24a
B 6 0Xa31c
B 7 0Xa42a
B 4 0Xa4c0
B O 0Xa574
B 1 0Xa628
B E 0Xa6b4
B 3 0Xa7a4
B T 0Xa83a
H 8 0Xaa38
H 5 0Xab32
H 9 0Xac04
H 6 0Xacb8
H 2 0Xad6c
H 4 0Xae66
H 7 0Xaf38
H 1 0Xafd8
H O 0Xb06e
H 3 0Xb168
H E 0Xb1d6
H T 0Xb29e
B 8 0Xb38e
B 9 0Xb4b0
B 5 0Xb578
B 2 0Xb62c
B 6 0Xb6f4
B 7 0Xb7da
B 4 0Xb870
B O 0Xb924
B 1 0Xba00
B E 0Xbaaa
B 3 0Xbbb8
B T 0Xbc26
H 9 0Xbe4c
H 8 0Xbf00
H 5 0Xbfb4
H 6 0Xc09a
H 2 0Xc180
H 4 0Xc234
H 7 0Xc2f2
H 1 0Xc3ba
H O 0Xc43c
H 3 0Xc540
H E 0Xc5c2
H T 0Xc676
B 9 0Xc7a2
B 5 0Xc892
B 8 0Xc93c
B 2 0Xca36
B 6 0Xcacc
B 7 0Xcb9e
B 4 0Xcc52
B O 0Xcd06
B 1 0Xcde2
B E 0Xce82
B 3 0Xcf90
B T 0Xd008
H 5 0Xd206
H 9 0Xd2ce
H 2 0Xd3aa
H 8 0Xd454
H 7 0Xd558
H 6 0Xd616
H O 0Xd6de
H 4 0Xd74c
H 1 0Xd846
H 3 0Xd92c
H E 0Xd9a4
H T 0Xda62
B 9 0Xdb5c
B 5 0Xdc60
B 2 0Xdd28
B 7 0Xddf0
B 8 0Xde9a
B O 0Xdf76
B 6 0Xe03e
B 1 0Xe0ca
B 4 0Xe1c4
B E 0Xe25a
B 3 0Xe340
B T 0Xe3d6
H 9 0Xe5c0
H 2 0Xe6b0
H 5 0Xe750
H 8 0Xe80e
H 7 0Xe8fe
H 6 0Xea0c
H O 0Xeab6
H 4 0Xeb56
H 1 0Xec1e
H 3 0Xecdc
H E 0Xed68
H T 0Xee44
B 2 0Xef70
B 9 0Xeffc
B 5 0Xf0ba
B 7 0Xf1be
B 8 0Xf268
B O 0Xf330
B 6 0Xf416
B 1 0Xf4ac
B 4 0Xf5a6
B E 0Xf628
B 3 0Xf70e
B T 0Xf7b8
H 2 0Xf9b6
H 5 0Xfa42
H 9 0Xfb3c
H 8 0Xfbf0
H 7 0Xfcd6
H 6 0Xfd9e
H O 0Xfe66
H 4 0Xff06
H 1 0Xffec
H 3 0X00b4
H E 0X012c
H T 0X0212
B 5 0X0352
B 2 0X0410
B 9 0X04a6
B 7 0X058c
B 8 0X0636
B O 0X06fe
B 6 0X07bc
B 1 0X0870
B 4 0X0942
B E 0X09ba
B 3 0X0ac8
B T 0X0b86
H 2 0X0d66
H 5 0X0e2e
H 7 0X0f28
H 9 0X0fe6
H O 0X10ae
H 8 0X1158
H 1 0X122a
H 6 0X12de
H E 0X1374
H 4 0X1464
H 3 0X1540
H T 0X15e0
B 2 0X16e4
B 7 0X17d4
B 5 0X189c
B O 0X1928
B 9 0X1a22
B 1 0X1acc
B 8 0X1b76
B E 0X1c34
B 6 0X1d42
B 3 0X1dd8
B 4 0X1ea0
B T 0X1f4a
H 7 0X215c
H 2 0X222e
H 5 0X22ba
H 9 0X23d2
H O 0X249a
H 8 0X2562
H 1 0X2634
H 6 0X26e8
H E 0X2760
H 4 0X2828
H 3 0X2904
H T 0X2990
B 7 0X2ab2
B 5 0X2bac
B 2 0X2c7e
B O 0X2cf6
B 9 0X2dd2
B 1 0X2e68
B 8 0X2f62
B E 0X3034
B 6 0X30fc
B 3 0X31b0
B 4 0X3264
B T 0X332c
H 5 0X352a
H 7 0X3610
H 2 0X36b0
H 9 0X376e
H O 0X3868
H 8 0X391c
H 1 0X39d0
H 6 0X3ac0
H E 0X3b60
H 4 0X3c0a
H 3 0X3cd2
H T 0X3d90
B 5 0X3e8a
B 2 0X3f84
B 7 0X402e
B O 0X40e2
B 9 0X41c8
B 1 0X424a
B 8 0X4312
B E 0X43ee
B 6 0X44d4
B 3 0X457e
B 4 0X461e
B T 0X46fa
H 2 0X48da
H 5 0X4970
H O 0X4aa6
H 7 0X4b50
H 1 0X4c18
H 9 0X4cf4
H E 0X4d94
H 8 0X4e8e
H 3 0X4f38
H 6 0X4fe2
H 4 0X50a0
H T 0X5154
B 5 0X5262
B 2 0X5348
B O 0X53b6
B 1 0X54c4
B 7 0X558c
B E 0X564a
B 9 0X5758
B 3 0X57d0
B 8 0X588e
B 4 0X594c
B 6 0X5a14
B T 0X5adc
H 5 0X5c9e
H O 0X5d7a
H 2 0X5e42
H 7 0X5f1e
H 1 0X5fe6
H 9 0X60a4
H E 0X6176
H 8 0X6270
H 3 0X6306
H 6 0X63ba
H 4 0X6496
H T 0X6554
B O 0X6658
B 5 0X6702
B 2 0X67de
B 1 0X689c
B 7 0X6964
B E 0X69f0
B 9 0X6aea
B 3 0X6ba8
B 8 0X6c7a
B 4 0X6d38
B 6 0X6dec
B T 0X6edc
H O 0X709e
H 2 0X713e
H 5 0X71f2
H 7 0X72f6
H 1 0X73b4
H 9 0X7472
H E 0X7544
H 8 0X7634
H 3 0X76d4
H 6 0X7792
H 4 0X786e
H T 0X792c
B 2 0X7a26
B O 0X7abc
B 5 0X7bac
B 1 0X7c60
B 7 0X7d46
B E 0X7dbe
B 9 0X7ec2
B 3 0X7f76
B 8 0X803e
B 4 0X80de
B 6 0X81d8
B T 0X82a0
H O 0X848a
H 2 0X8548
H 1 0X8610
H 5 0X86ba
H E 0X8796
H 7 0X885e
H 3 0X8912
H 9 0X89c6
H 4 0X8aa2
H 8 0X8b6a
H 6 0X8c64
H T 0X8d04
B O 0X8dea
B 1 0X8e76
B 2 0X8f70
B E 0X901a
B 5 0X9114
B 3 0X91d2
B 7 0X92a4
B 4 0X9362
B 9 0X9420
B 6 0X94d4
B 8 0X959c
B T 0X9678
H 1 0X9844
H O 0X9902
H 2 0X99d4
H 5 0X9aa6
H E 0X9b96
H 7 0X9c4a
H 3 0X9cf4
H 9 0X9dbc
H 4 0X9e66
H 8 0X9f42
H 6 0Xa01e
H T 0Xa0f0
B 1 0Xa19a
B 2 0Xa28a
B O 0Xa33e
B E 0Xa41a
B 5 0Xa4e2
B 3 0Xa5f0
B 7 0Xa69a
B 4 0Xa744
B 9 0Xa7ee
B 6 0Xa8c0
B 8 0Xa99c
B T 0Xaa5a
H 2 0Xac44
H 1 0Xad20
H O 0Xadac
H 5 0Xae88
H E 0Xaf32
H 7 0Xb022
H 3 0Xb0e0
H 9 0Xb1a8
H 4 0Xb284
H 8 0Xb338
H 6 0Xb414
H T 0Xb4be
B 2 0Xb5cc
B O 0Xb61c
B 1 0Xb702
B E 0Xb7ca
B 5 0Xb8ba
B 3 0Xb9aa
B 7 0Xba7c
B 4 0Xbb26
B 9 0Xbc0c
B 6 0Xbcb6
B 8 0Xbd6a
B T 0Xbe5a
H O 0Xbfea
H 2 0Xc0c6
H E 0Xc15c
H 1 0Xc238
H 3 0Xc300
H 5 0Xc3c8
H 4 0Xc4cc
H 7 0Xc594
H 6 0Xc648
H 9 0Xc710
H 8 0Xc7d8
H T 0Xc8c8
B 2 0Xc990
B O 0Xc9fe
B E 0Xcb0c
B 3 0Xcbb6
B 1 0Xcc7e
B 4 0Xcd46
B 5 0Xce04
B 6 0Xceea
B 7 0Xcfd0
B 8 0Xd098
B 9 0Xd12e
B T 0Xd228
H 2 0Xd3ea
H E 0Xd494
H O 0Xd57a
H 1 0Xd638
H 3 0Xd714
H 5 0Xd7be
H 4 0Xd87c
H 7 0Xd94e
H 6 0Xd9f8
H 9 0Xdab6
H 8 0Xdb88
H T 0Xdc64
B E 0Xddc2
B 2 0Xde1c
B O 0Xdeda
B 3 0Xdf84
B 1 0Xe056
B 4 0Xe164
B 5 0Xe204
B 6 0Xe2ae
B 7 0Xe39e
B 8 0Xe452
B 9 0Xe4fc
B T 0Xe5e2
H E 0Xe7cc
H O 0Xe8c6
H 2 0Xe93e
H 1 0Xea06
H 3 0Xeaec
H 5 0Xeb96
H 4 0Xec68
H 7 0Xed1c
H 6 0Xedbc
H 9 0Xee98
H 8 0Xef60
H T 0Xf032
B O 0Xf136
B E 0Xf230
B 2 0Xf2bc
B 3 0Xf3c0
B 1 0Xf44c
B 4 0Xf51e
B 5 0Xf5d2
B 6 0Xf6b8
B 7 0Xf78a
B 8 0Xf82a
B 9 0Xf8e8
B T 0Xf9c4
H E 0Xfb9a
H O 0Xfc6c
H 3 0Xfd34
H 2 0Xfe10
H 4 0Xfec4
H 1 0Xff96
H 6 0X002c
H 5 0X0130
H 8 0X01e4
H 7 0X02c0
H 9 0X0374
H T 0X0432
B E 0X055e
B 3 0X0608
B O 0X0680
B 4 0X0766
B 2 0X0838
B 6 0X0928
B 1 0X09d2
B 8 0X0a72
B 5 0X0b58
B 9 0X0c3e
B 7 0X0d24
B T 0X0dc4
H 3 0X0f9a
H E 0X1044
H O 0X1152
H 2 0X1210
H 4 0X12f6
H 1 0X13aa
H 6 0X1422
H 5 0X14e0
H 8 0X15bc
H 7 0X1670
H 9 0X172e
H T 0X1828
B 3 0X1918
B O 0X19a4
B E 0X1aa8
B 4 0X1b8e
B 2 0X1c56
B 6 0X1d00
B 1 0X1dc8
B 8 0X1e68
B 5 0X1f3a
B 9 0X202a
B 7 0X20de
B T 0X21a6
H O 0X237c
H 3 0X2412
H E 0X24c6
H 2 0X25de
H 4 0X26d8
H 1 0X2782
H 6 0X2818
H 5 0X2908
H 8 0X29da
H 7 0X2a70
H 9 0X2b56
H T 0X2c0a
B O 0X2cdc
B E 0X2dd6
B 3 0X2e6c
B 4 0X2f52
B 2 0X301a
B 6 0X30ec
B 1 0X31be
B 8 0X3272
B 5 0X333a
B 9 0X3402
B 7 0X34e8
B T 0X3592
H E 0X3722
H O 0X3830
H 4 0X3920
H 3 0X39de
H 6 0X3a74
H 2 0X3b8c
H 8 0X3c0e
H 1 0X3cea
H 9 0X3d94
H 5 0X3e5c
H 7 0X3f42
H T 0X4014
B O 0X40c8
B E 0X414a
B 4 0X4244
B 6 0X433e
B 3 0X441a
B 8 0X44ba
B 2 0X45aa
B 9 0X4686
B 1 0X4712
B 7 0X47f8
B 5 0X48ca
B T 0X497e
H O 0X4b36
H 4 0X4bd6
H E 0X4cbc
H 3 0X4db6
H 6 0X4e4c
H 2 0X4f46
H 8 0X4ff0
H 1 0X50c2
H 9 0X5180
H 5 0X5248
H 7 0X534c
H T 0X53f6
B 4 0X54b4
B O 0X554a
B E 0X566c
B 6 0X5720
B 3 0X57fc
B 8 0X5888
B 2 0X595a
B 9 0X5a2c
B 1 0X5acc
B 7 0X5be4
B 5 0X5c98
B T 0X5d74
H 4 0X5f40
H E 0X5ff4
H O 0X60ee
H 3 0X61a2
H 6 0X6274
H 2 0X6364
H 8 0X63dc
H 1 0X649a
H 9 0X6544
H 5 0X662a
H 7 0X6724
H T 0X67d8
B E 0X68f0
B 4 0X6986
B O 0X6a26
B 6 0X6b48
B 3 0X6bf2
B 8 0X6c88
B 2 0X6d64
B 9 0X6e22
B 1 0X6eae
B 7 0X6fc6
B 5 0X70a2
B T 0X7156
H 4 0X730e
H E 0X73f4
H 6 0X74da
H O 0X75d4
H 8 0X767e
H 3 0X7732
H 9 0X77e6
H 2 0X78ae
H 7 0X798a
H 1 0X7a52
H 5 0X7ade
H T 0X7be2
B 4 0X7c64
B 6 0X7d7c
B E 0X7e26
B 8 0X7ef8
B O 0X7fb6
B 9 0X80ba
B 3 0X8178
B 7 0X8240
B 2 0X8308
B 5 0X83bc
B 1 0X8470
B T 0X854c
H 6 0X8722
H 4 0X8808
H E 0X8862
H O 0X897a
H 8 0X8a2e
H 3 0X8b00
H 9 0X8bd2
H 2 0X8c90
H 7 0X8d76
H 1 0X8e34
H 5 0X8ec0
H T 0X8fc4
B 6 0X90be
B E 0X915e
B 4 0X921c
B 8 0X92bc
B O 0X9370
B 9 0X9460
B 3 0X9550
B 7 0X9654
B 2 0X96d6
B 5 0X97b2
B 1 0X9866
B T 0X9906
H E 0X9ae6
H 6 0X9bcc
H 4 0X9c76
H O 0X9d48
H 8 0X9de8
H 3 0X9ed8
H 9 0X9faa
H 2 0Xa086
H 7 0Xa14e
H 1 0Xa220
H 5 0Xa2ca
H T 0Xa392
B E 0Xa482
B 4 0Xa536
B 6 0Xa608
B 8 0Xa6bc
B O 0Xa75c
B 9 0Xa860
B 3 0Xa932
B 7 0Xaa18
B 2 0Xaac2
B 5 0Xab8a
B 1 0Xac34
B T 0Xacf2
H 4 0Xaebe
H E 0Xaf7c
H 8 0Xb044
H 6 0Xb134
H 9 0Xb206
H O 0Xb2f6
H 7 0Xb3c8
H 3 0Xb45e
H 5 0Xb526
H 2 0Xb60c
H 1 0Xb6d4
H T 0Xb788
B 4 0Xb904
B E 0Xb94a
B 8 0Xb9cc
B 9 0Xba94
B 6 0Xbb66
B 7 0Xbc4c
B O 0Xbd0a
B 5 0Xbdf0
B 3 0Xbecc
B 1 0Xbf44
B 2 0Xc02a
B T 0Xc0c0
H E 0Xc2dc
H 8 0Xc39a
H 4 0Xc444
H 6 0Xc516
H 9 0Xc5c0
H O 0Xc6ba
H 7 0Xc778
H 3 0Xc85e
H 5 0Xc912
H 2 0Xc9e4
H 1 0Xcaa2
H T 0Xcb42
B 8 0Xcc0a
B E 0Xcce6
B 4 0Xcdcc
B 9 0Xce80
B 6 0Xcf66
B 7 0Xd024
B O 0Xd0f6
B 5 0Xd1e6
B 3 0Xd2a4
B 1 0Xd326
B 2 0Xd3f8
B T 0Xd4a2
H 8 0Xd696
H 4 0Xd75e
H E 0Xd808
H 6 0Xd8f8
H 9 0Xd998
H O 0Xda9c
H 7 0Xdb46
H 3 0Xdc18
H 5 0Xdcc2
H 2 0Xdd9e
H 1 0Xde7a
H T 0Xdf38
B 4 0Xdff6
B 8 0Xe0a0
B E 0Xe168
B 9 0Xe244
B 6 0Xe32a
B 7 0Xe410
B O 0Xe4d8
B 5 0Xe56e
B 3 0Xe636
B 1 0Xe6ea
B 2 0Xe7c6
B T 0Xe88e
H 8 0Xea50
H 4 0Xeb22
H 9 0Xebc2
H E 0Xec9e
H 7 0Xedac
H 6 0Xee42
H 5 0Xef00
H O 0Xeff0
H 1 0Xf0cc
H 3 0Xf194
H 2 0Xf22a
H T 0Xf2d4
B 8 0Xf374
B 9 0Xf496
B 4 0Xf536
B 7 0Xf630
B E 0Xf6bc
B 5 0Xf7a2
B 6 0Xf888
B 1 0Xf932
B O 0Xfa0e
B 2 0Xfac2
B 3 0Xfba8
B T 0Xfc48
H 9 0Xfe3c
H 8 0Xfedc
H 4 0Xffae
H E 0X0044
H 7 0X0148
H 6 0X0224
H 5 0X02f6
H O 0X03aa
H 1 0X045e
H 3 0X04f4
H 2 0X05ee
H T 0X068e
B 9 0X0788
B 4 0X086e
B 8 0X0904
B 7 0X09fe
B E 0X0a62
B 5 0X0b8e
B 6 0X0c56
B 1 0X0ce2
B O 0X0d8c
B 2 0X0e72
B 3 0X0f30
B T 0X0fda
H 4 0X120a
H 9 0X12aa
H 8 0X1340
H E 0X1430
H 7 0X1502
H 6 0X15e8
H 5 0X16b0
H O 0X1750
H 1 0X180e
H 3 0X18c2
H 2 0X198a
H T 0X1a48
B 4 0X1b24
B 8 0X1bd8
B 9 0X1cbe
B 7 0X1dae
B E 0X1e44
B 5 0X1f48
B 6 0X201a
B 1 0X20ba
B O 0X2164
B 2 0X2222
B 3 0X22f4
B T 0X239e
H 8 0X2592
H 4 0X263c
H 7 0X2736
H 9 0X27e0
H 5 0X28d0
H E 0X2966
H 1 0X2a2e
H 6 0X2b14
H 2 0X2bf0
H O 0X2ca4
H 3 0X2d6c
H T 0X2df8
B 4 0X2ee8
B 8 0X2f92
B 7 0X3078
B 5 0X319a
B 9 0X321c
B 1 0X32c6
B E 0X333e
B 2 0X346a
B 6 0X353c
B 3 0X360e
B O 0X36b8
B T 0X3776
H 4 0X394c
H 7 0X3a1e
H 8 0X3abe
H 9 0X3bae
H 5 0X3c8a
H E 0X3d48
H 1 0X3de8
H 6 0X3ee2
H 2 0X3fb4
H O 0X407c
H 3 0X4112
H T 0X41e4
B 7 0X42de
B 4 0X43a6
B 8 0X441e
B 5 0X452c
B 9 0X45ea
B 1 0X4694
B E 0X472a
B 2 0X481a
B 6 0X490a
B 3 0X49be
B O 0X4a86
B T 0X4b58
H 7 0X4d1a
H 8 0X4dba
H 4 0X4ebe
H 9 0X4f5e
H 5 0X4ffe
H E 0X50da
H 1 0X5184
H 6 0X5292
H 2 0X536e
H O 0X5404
H 3 0X54d6
H T 0X559e
B 8 0X5670
B 7 0X5760
B 4 0X5846
B 5 0X58fa
B 9 0X59ae
B 1 0X5a44
B E 0X5aee
B 2 0X5bf2
B 6 0X5cba
B 3 0X5d6e
B O 0X5e22
B T 0X5ef4
H 7 0X60ac
H 8 0X616a
H 5 0X6250
H 4 0X6336
H 1 0X63f4
H 9 0X64bc
H 2 0X65a2
H E 0X6606
H 6 0X6700
H O 0X67be
H 3 0X68a4
H T 0X6958
B 7 0X6a3e
B 5 0X6b24
B 8 0X6bec
B 1 0X6c1e
B 4 0X6d4a
B 2 0X6e12
B 9 0X6ed0
B 6 0X6f98
B E 0X7042
B 3 0X7132
B O 0X71d2
B T 0X72c2
H 5 0X74a2
H 7 0X7588
H 8 0X7614
H 4 0X76f0
H 1 0X77b8
H 9 0X7858
H 2 0X792a
H E 0X79de
H 6 0X7ae2
H O 0X7b8c
H 3 0X7c54
H T 0X7d26
B 5 0X7e16
B 8 0X7eca
B 7 0X7f9c
B 1 0X803c
B 4 0X8104
B 2 0X81f4
B 9 0X8294
B 6 0X837a
B E 0X8406
B 3 0X8500
B O 0X85b4
B T 0X8690
H 8 0X8870
H 5 0X8924
H 7 0X8a00
H 4 0X8aaa
H 1 0X8b68
H 9 0X8c30
H 2 0X8d20
H E 0X8d8e
H 6 0X8e9c
H O 0X8f64
H 3 0X9022
H T 0X90f4
B 8 0X91c6
B 7 0X92a2
B 5 0X9356
B 1 0X940a
B 4 0X94d2
B 2 0X959a
B 9 0X964e
B 6 0X975c
B E 0X97ca
B 3 0X98a6
B O 0X9978
B T 0X9a54
H 7 0X9c16
H 8 0X9cc0
H 1 0X9d88
H 5 0X9e6e
H 2 0X9f4a
H 4 0Xa04e
H 6 0Xa0c6
H 9 0Xa198
H 3 0Xa256
H E 0Xa2ec
H O 0Xa3f0
H T 0Xa490
B 8 0Xa54e
B 7 0Xa63e
B 1 0Xa6f2
B 2 0Xa7ce
B 5 0Xa882
B 6 0Xa95e
B 4 0Xaa58
B 3 0Xab0c
B 9 0Xabb6
B O 0Xac7e
B E 0Xad5a
B T 0Xae04
H 8 0Xafe4
H 1 0Xb0b6
H 7 0Xb188
H 5 0Xb228
H 2 0Xb2fa
H 4 0Xb3cc
H 6 0Xb48a
H 9 0Xb534
H 3 0Xb5e8
H E 0Xb6f6
H O 0Xb7f0
H T 0Xb886
B 1 0Xb926
B 8 0Xb9f8
B 7 0Xbafc
B 2 0Xbbba
B 5 0Xbc5a
B 6 0Xbd36
B 4 0Xbdfe
B 3 0Xbebc
B 9 0Xbf7a
B O 0Xc056
B E 0Xc11e
B T 0Xc1e6
H 1 0Xc380
H 7 0Xc484
H 8 0Xc54c
H 5 0Xc60a
H 2 0Xc6e6
H 4 0Xc754
H 6 0Xc86c
H 9 0Xc916
H 3 0Xc9ac
H E 0Xcaba
H O 0Xcba0
H T 0Xcc54
B 7 0Xcd26
B 1 0Xcdd0
B 8 0Xce7a
B 2 0Xcf7e
B 5 0Xd01e
B 6 0Xd122
B 4 0Xd1d6
B 3 0Xd28a
B 9 0Xd348
B O 0Xd424
B E 0Xd4ec
B T 0Xd5aa
H 1 0Xd762
H 7 0Xd848
H 2 0Xd906
H 8 0Xd9c4
H 6 0Xdab4
H 5 0Xdb90
H 3 0Xdc26
H 4 0Xdcda
H O 0Xdd98
H 9 0Xde4c
H E 0Xdf32
H T 0Xe018
B 1 0Xe0ea
B 2 0Xe19e
B 7 0Xe27a
B 6 0Xe324
B 8 0Xe40a
B 3 0Xe4e6
B 5 0Xe5a4
B O 0Xe630
B 4 0Xe734
B E 0Xe7b6
B 9 0Xe892
B T 0Xe978
H 2 0Xeb3a
H 1 0Xebf8
H 7 0Xecf2
H 8 0Xed92
H 6 0Xee5a
H 5 0Xef40
H 3 0Xeff4
H 4 0Xf0c6
H O 0Xf170
H 9 0Xf22e
H E 0Xf30a
H T 0Xf3aa
B 2 0Xf4ae
B 7 0Xf59e
B 1 0Xf620
B 6 0Xf72e
B 8 0Xf7d8
B 3 0Xf896
B 5 0Xf95e
B O 0Xf9fe
B 4 0Xfada
B E 0Xfb5c
B 9 0Xfc74
B T 0Xfd28
H 7 0Xfefe
H 2 0Xffd0
H 1 0X008e
H 8 0X0138
H 6 0X0228
H 5 0X0304
H 3 0X03c2
H 4 0X0480
H O 0X0516
H 9 0X0610
H E 0X06ce
H T 0X0782
B 7 0X0890
B 1 0X091c
B 2 0X09e4
B 6 0X0ab6
B 8 0X0b88
B 3 0X0c46
B 5 0X0d22
B O 0X0db8
B 4 0X0e9e
B E 0X0f5c
B 9 0X1060
B T 0X110a
H 1 0X12fe
H 7 0X13da
H 6 0X1470
H 2 0X154c
H 3 0X1614
H 8 0X16d2
H O 0X17ae
H 5 0X184e
H 4 0X1902
H E 0X19ac
H 9 0X1aa6
H T 0X1b64
B 7 0X1c68
B 1 0X1d12
B 6 0X1dda
B 3 0X1eb6
B 2 0X1f7e
B O 0X201e
B 8 0X20d2
B 4 0X219a
B 5 0X2258
B 9 0X232a
B E 0X23d4
B T 0X24ba
H 7 0X26d6
H 6 0X2762
H 1 0X283e
H 2 0X2906
H 3 0X29d8
H 8 0X2aa0
H O 0X2b90
H 5 0X2c1c
H 4 0X2ce4
H E 0X2d98
H 9 0X2e6a
H T 0X2f14
B 6 0X3022
B 7 0X3112
B 1 0X3176
B 3 0X327a
B 2 0X334c
B O 0X33d8
B 8 0X34b4
B 4 0X359a
B 5 0X3658
B 9 0X370c
B E 0X37b6
B T 0X3874
H 6 0X3a4a
H 1 0X3b3a
H 7 0X3c16
H 2 0X3cde
H 3 0X3d88
H 8 0X3e5a
H O 0X3f54
H 5 0X3ff4
H 4 0X40c6
H E 0X4198
H 9 0X4238
H T 0X4300
B 1 0X43c8
B 6 0X4490
B 7 0X4594
B 3 0X4634
B 2 0X46e8
B O 0X4792
B 8 0X488c
B 4 0X4954
B 5 0X4a3a
B 9 0X4aee
B E 0X4bac
B T 0X4c74
H 6 0X4e40
H 1 0X4f08
H 3 0X4fda
H 7 0X50a2
H O 0X5156
H 2 0X520a
H 4 0X52be
H 8 0X53a4
H 9 0X5480
H 5 0X5584
H E 0X55ca
H T 0X56ba
B 6 0X57be
B 3 0X58c2
B 1 0X594e
B O 0X59d0
B 7 0X5aca
B 4 0X5b92
B 2 0X5c5a
B 9 0X5d36
B 8 0X5df4
B E 0X5e80
B 5 0X5f84
B T 0X6024
H 3 0X622c
H 6 0X62d6
H 1 0X63b2
H 7 0X6470
H O 0X6560
H 2 0X65ec
H 4 0X66b4
H 8 0X677c
H 9 0X683a
H 5 0X692a
H E 0X6998
H T 0X6a7e
B 3 0X6b82
B 1 0X6c2c
B 6 0X6d08
B O 0X6dc6
B 7 0X6eb6
B 4 0X6f6a
B 2 0X7032
B 9 0X70f0
B 8 0X71ae
B E 0X723a
B 5 0X735c
B T 0X7406
H 1 0X75d2
H 3 0X769a
H 6 0X7776
H 7 0X7870
H O 0X794c
H 2 0X79a6
H 4 0X7a82
H 8 0X7b5e
H 9 0X7c30
H 5 0X7cee
H E 0X7d84
H T 0X7e4c
B 1 0X7f1e
B 6 0X7ffa
B 3 0X809a
B O 0X818a
B 7 0X827a
B 4 0X8342
B 2 0X83f6
B 9 0X84d2
B 8 0X859a
B E 0X8630
B 5 0X8720
B T 0X87d4
H 6 0X89b4
H 1 0X8a9a
H O 0X8b12
H 3 0X8bee
H 4 0X8cca
H 7 0X8d9c
H 9 0X8e5a
H 2 0X8f2c
H 8 0X8ff4
H E 0X90a8
H 5 0X9170
H T 0X924c
B 1 0X92e2
B 6 0X93dc
B O 0X9486
B 4 0X958a
B 3 0X9648
B 9 0X971a
B 7 0X97d8
B 8 0X988c
B 2 0X9954
B 5 0X9a44
B E 0X9ad0
B T 0X9bac
H 1 0X9d5a
H O 0X9dfa
H 6 0X9ed6
H 3 0X9fc6
H 4 0Xa066
H 7 0Xa174
H 9 0Xa232
H 2 0Xa304
H 8 0Xa3ae
H E 0Xa458
H 5 0Xa520
H T 0Xa61a
B O 0Xa6d8
B 1 0Xa796
B 6 0Xa87c
B 4 0Xa93a
B 3 0Xaa0c
B 9 0Xaae8
B 7 0Xab92
B 8 0Xac46
B 2 0Xad18
B 5 0Xae08
B E 0Xae44
B T 0Xaf3e
H O 0Xb132
H 6 0Xb204
H 1 0Xb2fe
H 3 0Xb3a8
H 4 0Xb484
H 7 0Xb542
H 9 0Xb5f6
H 2 0Xb6aa
H 8 0Xb772
H E 0Xb826
H 5 0Xb8ee
H T 0Xb9a2
B 6 0Xbace
B O 0Xbb5a
B 1 0Xbc2c
B 4 0Xbd3a
B 3 0Xbe0c
B 9 0Xbed4
B 7 0Xbfa6
B 8 0Xc028
B 2 0Xc0dc
B 5 0Xc1b8
B E 0Xc21c
B T 0Xc316
H O 0Xc50a
H 6 0Xc5fa
H 4 0Xc6d6
H 1 0Xc7a8
H 9 0Xc87a
H 3 0Xc906
H 8 0Xc9e2
H 7 0Xcac8
H 5 0Xcb5e
H 2 0Xcc4e
H E 0Xcc9e
H T 0Xcd70
B O 0Xce7e
B 4 0Xcf5a
B 6 0Xd02c
B 9 0Xd13a
B 1 0Xd1c6
B 8 0Xd2ac
B 3 0Xd356
B 5 0Xd400
B 7 0Xd518
B E 0Xd55e
B 2 0Xd680
B T 0Xd6ee
H 4 0Xd93c
H O 0Xd9b4
H 6 0Xdaae
H 1 0Xdb8a
H 9 0Xdc3e
H 3 0Xdcd4
H 8 0Xdd92
H 7 0Xde6e
H 5 0Xdf22
H 2 0Xe01c
H E 0Xe08a
H T 0Xe152
B 4 0Xe2a6
B 6 0Xe350
B O 0Xe3f0
B 9 0Xe4d6
B 1 0Xe58a
B 8 0Xe652
B 3 0Xe724
B 5 0Xe7e2
B 7 0Xe8dc
B E 0Xe940
B 2 0Xea1c
B T 0Xead0
H 6 0Xecd8
H 4 0Xedf0
H O 0Xee72
H 1 0Xeed6
H 9 0Xefe4
H 3 0Xf0b6
H 8 0Xf16a
H 7 0Xf250
H 5 0Xf30e
H 2 0Xf412
H E 0Xf44e
H T 0Xf534
B 6 0Xf638
B O 0Xf6ec
B 4 0Xf7a0
B 9 0Xf872
B 1 0Xf926
B 8 0Xf9c6
B 3 0Xfae8
B 5 0Xfbb0
B 7 0Xfca0
B E 0Xfd2c
B 2 0Xfe30
B T 0Xfebc
H O 0X007e
H 6 0X0164
H 9 0X0218
H 4 0X02f4
H 8 0X03c6
H 1 0X0470
H 5 0X0538
H 3 0X0600
H E 0X06b4
H 7 0X0786
H 2 0X088a
H T 0X0934
B 6 0X0a06
B O 0X0a88
B 9 0X0b8c
B 8 0X0c5e
B 4 0X0d26
B 5 0X0e02
B 1 0X0ede
B E 0X0f4c
B 3 0X103c
B 2 0X110e
B 7 0X11d6
B T 0X1280
H 6 0X146a
H 9 0X151e
H O 0X15fa
H 4 0X16c2
H 8 0X1776
H 1 0X1852
H 5 0X1910
H 3 0X19f6
H E 0X1a64
H 7 0X1b36
H 2 0X1c26
H T 0X1ce4
B 9 0X1de8
B 6 0X1e92
B O 0X1f32
B 8 0X2018
B 4 0X20ea
B 5 0X21da
B 1 0X2284
B E 0X22fc
B 3 0X2400
B 2 0X24dc
B 7 0X2590
B T 0X2644
H 9 0X282e
H O 0X28ce
H 6 0X29a0
H 4 0X2a9a
H 8 0X2b62
H 1 0X2c2a
H 5 0X2cd4
H 3 0X2da6
H E 0X2e1e
H 7 0X2edc
H 2 0X2ff4
H T 0X30a8
B O 0X3166
B 9 0X3274
B 6 0X3350
B 8 0X340e
B 4 0X34ae
B 5 0X3594
B 1 0X365c
B E 0X36e8
B 3 0X37c4
B 2 0X38a0
B 7 0X397c
B T 0X3a26
H 9 0X3be8
H O 0X3cf6
H 8 0X3d82
H 6 0X3e90
H 5 0X3f3a
H 4 0X400c
H E 0X40a2
H 1 0X4160
H 2 0X4250
H 3 0X4318
H 7 0X4408
H T 0X449e
B 9 0X4552
B 8 0X461a
B O 0X4700
B 5 0X47e6
B 6 0X48c2
B E 0X496c
B 4 0X4a34
B 2 0X4b06
B 1 0X4bce
B 7 0X4cb4
B 3 0X4d54
B T 0X4df4
H 8 0X4fca
H 9 0X5088
H O 0X5178
H 6 0X5236
H 5 0X5326
H 4 0X53c6
H E 0X5484
H 1 0X5556
H 2 0X5628
H 3 0X56e6
H 7 0X57cc
H T 0X5880
B 8 0X590c
B O 0X59f2
B 9 0X5b28
B 5 0X5bc8
B 6 0X5c7c
B E 0X5d44
B 4 0X5e2a
B 2 0X5ee8
B 1 0X5fb0
B 7 0X60a0
B 3 0X6140
B T 0X61ea
H O 0X63a2
H 8 0X6424
H 9 0X651e
H 6 0X6636
H 5 0X66fe
H 4 0X67ee
H E 0X6852
H 1 0X691a
H 2 0X6a1e
H 3 0X6ac8
H 7 0X6ba4
H T 0X6c62
B O 0X6d02
B 9 0X6dd4
B 8 0X6ea6
B 5 0X6fa0
B 6 0X7072
B E 0X70f4
B 4 0X71f8
B 2 0X72c0
B 1 0X7392
B 7 0X7478
B 3 0X750e
B T 0X75cc
H 9 0X7770
H O 0X782e
H 5 0X7914
H 8 0X7a04
H E 0X7aae
H 6 0X7b9e
H 2 0X7c7a
H 4 0X7d4c
H 7 0X7e46
H 1 0X7ec8
H 3 0X7f68
H T 0X8030
B O 0X8102
B 9 0X81d4
B 5 0X82a6
B E 0X8346
B 8 0X8422
B 2 0X8512
B 6 0X85f8
B 7 0X86e8
B 4 0X876a
B 3 0X8850
B 1 0X88e6
B T 0X8990
H O 0X8b70
H 5 0X8c42
H 9 0X8d1e
H 8 0X8dbe
H E 0X8e7c
H 6 0X8f4e
H 2 0X902a
H 4 0X90e8
H 7 0X91c4
H 1 0X9282
H 3 0X9368
H T 0X93fe
B 5 0X94ee
B O 0X9584
B 9 0X9656
B E 0X9746
B 8 0X982c
B 2 0X98fe
B 6 0X999e
B 7 0X9a8e
B 4 0X9b1a
B 3 0X9c0a
B 1 0X9cb4
B T 0X9d5e
H 5 0X9f48
H 9 0X9ffc
H O 0Xa0e2
H 8 0Xa1dc
H E 0Xa268
H 6 0Xa326
H 2 0Xa40c
H 4 0Xa4d4
H 7 0Xa5a6
H 1 0Xa664
H 3 0Xa736
H T 0Xa7b8
B 9 0Xa8c6
B 5 0Xa984
B O 0Xaa24
B E 0Xab1e
B 8 0Xac04
B 2 0Xacd6
B 6 0Xad76
B 7 0Xae7a
B 4 0Xaee8
B 3 0Xafce
B 1 0Xb078
B T 0Xb12c
H 5 0Xb33e
H 9 0Xb424
H E 0Xb4ba
H O 0Xb5b4
H 2 0Xb64a
H 8 0Xb726
H 7 0Xb80c
H 6 0Xb8c0
H 3 0Xb974
H 4 0Xba32
H 1 0Xbb0e
H T 0Xbbb8
B 5 0Xbcbc
B E 0Xbd70
B 9 0Xbe4c
B 2 0Xbf00
B O 0Xbfa0
B 7 0Xc086
B 8 0Xc13a
B 3 0Xc220
B 6 0Xc2e8
B 1 0Xc392
B 4 0Xc46e
B T 0Xc522
H E 0Xc702
H 5 0Xc7f2
H 9 0Xc8b0
H O 0Xc996
H 2 0Xca22
H 8 0Xcacc
H 7 0Xcbb2
H 6 0Xcc98
H 3 0Xcd60
H 4 0Xce0a
H 1 0Xcedc
H T 0Xcfa4
B E 0Xd08a
B 9 0Xd134
B 5 0Xd224
B 2 0Xd314
B O 0Xd378
B 7 0Xd45e
B 8 0Xd512
B 3 0Xd60c
B 6 0Xd6ca
B 1 0Xd788
B 4 0Xd80a
B T 0Xd90e
H 9 0Xdad0
H E 0Xdb8e
H 5 0Xdc60
H O 0Xdd50
H 2 0Xde0e
H 8 0Xded6
H 7 0Xdfb2
H 6 0Xe07a
H 3 0Xe142
H 4 0Xe1f6
H 1 0Xe2be
H T 0Xe354
B 9 0Xe444
B 5 0Xe52a
B E 0Xe5d4
B 2 0Xe6ce
B O 0Xe76e
B 7 0Xe840
B 8 0Xe908
B 3 0Xe9ee
B 6 0Xeaa2
B 1 0Xeb60
B 4 0Xec14
B T 0Xed04
H 5 0Xeed0
H 9 0Xef84
H 2 0Xf02e
H E 0Xf0ec
H 7 0Xf1fa
H O 0Xf2b8
H 3 0Xf38a
H 8 0Xf45c
H 1 0Xf524
H 6 0Xf5e2
H 4 0Xf682
H T 0Xf772
B 9 0Xf844
B 5 0Xf93e
B 2 0Xfa10
B 7 0Xfaa6
B E 0Xfb46
B 3 0Xfc22
B O 0Xfcea
B 1 0Xfdb2
B 8 0Xfe70
B 4 0Xff4c
B 6 0X001e
B T 0X00f0
H 9 0X0294
H 2 0X03a2
H 5 0X0438
H E 0X0500
H 7 0X05dc
H O 0X06d6
H 3 0X0758
H 8 0X0820
H 1 0X08e8
H 6 0X09e2
H 4 0X0a64
H T 0X0b7c
B 2 0X0c58
B 9 0X0ce4
B 5 0X0dac
B 7 0X0e9c
B E 0X0f50
B 3 0X1018
B O 0X10e0
B 1 0X11b2
B 8 0X1234
B 4 0X1342
B 6 0X1400
B T 0X14f0
H 2 0X168a
H 5 0X1748
H 9 0X1838
H E 0X18f6
H 7 0X19d2
H O 0X1ab8
H 3 0X1b4e
H 8 0X1bf8
H 1 0X1cb6
H 6 0X1d9c
H 4 0X1e46
H T 0X1f36
B 5 0X201c
B 2 0X20f8
B 9 0X21a2
B 7 0X229c
B E 0X2332
B 3 0X240e
B O 0X24ae
B 1 0X254e
B 8 0X2616
B 4 0X26d4
B 6 0X27b0
B T 0X288c
H 2 0X2a58
H 5 0X2b0c
H 7 0X2c24
H 9 0X2cf6
H 3 0X2daa
H E 0X2e4a
H 1 0X2f08
H O 0X2fee
H 4 0X307a
H 8 0X314c
H 6 0X325a
H T 0X3318
B 2 0X33e0
B 7 0X34da
B 5 0X358e
B 3 0X366a
B 9 0X370a
B 1 0X37c8
B E 0X382c
B 4 0X3930
B O 0X3a0c
B 6 0X3b10
B 8 0X3bb0
B T 0X3c82
H 7 0X3e4e
H 2 0X3f3e
H 5 0X3fde
H 9 0X40ce
H 3 0X4178
H E 0X4222
H 1 0X42d6
H O 0X43c6
H 4 0X44b6
H 8 0X4542
H 6 0X4614
H T 0X46f0
B 7 0X47f4
B 5 0X48c6
B 2 0X49a2
B 3 0X4a60
B 9 0X4b0a
B 1 0X4bb4
B E 0X4c36
B 4 0X4d58
B O 0X4e16
B 6 0X4ed4
B 8 0X4f9c
B T 0X505a
H 5 0X5258
H 7 0X532a
H 2 0X5406
H 9 0X549c
H 3 0X5578
H E 0X5618
H 1 0X56d6
H O 0X57bc
H 4 0X5898
H 8 0X594c
H 6 0X5a0a
H T 0X5af0
B 5 0X5be0
B 2 0X5cc6
B 7 0X5d5c
B 3 0X5e42
B 9 0X5ef6
B 1 0X5fa0
B E 0X6040
B 4 0X60fe
B O 0X620c
B 6 0X62ca
B 8 0X6388
B T 0X646e
H 2 0X664e
H 5 0X66e4
H 3 0X67f2
H 7 0X689c
H 1 0X691e
H 9 0X6a0e
H 4 0X6ac2
H E 0X6b58
H 6 0X6c84
H O 0X6d42
H 8 0X6e00
H T 0X6edc
B 5 0X6fa4
B 2 0X7076
B 3 0X7152
B 1 0X7206
B 7 0X72f6
B 4 0X7382
B 9 0X7440
B 6 0X7526
B E 0X75da
B 8 0X7684
B O 0X776a
B T 0X7846
H 5 0X79e0
H 3 0X7ad0
H 2 0X7b98
H 7 0X7c7e
H 1 0X7d50
H 9 0X7df0
H 4 0X7ec2
H E 0X7f6c
H 6 0X8070
H O 0X8142
H 8 0X81e2
H T 0X82be
B 3 0X835e
B 5 0X8430
B 2 0X84f8
B 1 0X85ca
B 7 0X86c4
B 4 0X8778
B 9 0X8840
B 6 0X8912
B E 0X89b2
B 8 0X8a84
B O 0X8b60
B T 0X8c3c
H 3 0X8de0
H 2 0X8e94
H 5 0X8f34
H 7 0X9024
H 1 0X90ec
H 9 0X91d2
H 4 0X92a4
H E 0X9362
H 6 0X9448
H O 0X9510
H 8 0X95ec
H T 0X96a0
B 2 0X977c
B 3 0X9826
B 5 0X9902
B 1 0X99c0
B 7 0X9a7e
B 4 0X9b46
B 9 0X9be6
B 6 0X9cea
B E 0X9dbc
B 8 0X9e70
B O 0X9f38
B T 0Xa014
H 3 0Xa19a
H 2 0Xa280
H 1 0Xa348
H 5 0Xa410
H 4 0Xa528
H 7 0Xa5b4
H 6 0Xa69a
H 9 0Xa726
H 8 0Xa7ee
H E 0Xa8d4
H O 0Xa9c4
H T 0Xaa3c
B 3 0Xab4a
B 1 0Xabcc
B 2 0Xac80
B 4 0Xad7a
B 5 0Xae4c
B 6 0Xaf14
B 7 0Xaff0
B 8 0Xb09a
B 9 0Xb158
B O 0Xb234
B E 0Xb31a
B T 0Xb3b0
H 1 0Xb568
H 3 0Xb626
H 2 0Xb6f8
H 5 0Xb7ac
H 4 0Xb888
H 7 0Xb93c
H 6 0Xba0e
H 9 0Xbaf4
H 8 0Xbb9e
H E 0Xbc7a
H O 0Xbd60
H T 0Xbe0a
B 1 0Xbeb4
B 2 0Xbfae
B 3 0Xc04e
B 4 0Xc120
B 5 0Xc1f2
B 6 0Xc288
B 7 0Xc36e
B 8 0Xc422
B 9 0Xc4fe
B O 0Xc5da
B E 0Xc6b6
B T 0Xc74c
H 1 0Xc92c
H 2 0Xc9e0
H 3 0Xca8a
H 4 0Xcb5c
H 5 0Xcbfc
H 6 0Xccf6
H 7 0Xcdaa
H 8 0Xce7c
H 9 0Xcf30
H O 0Xd034
H E 0Xd0f2
H T 0Xd1ba
B 1 0Xd264
B 2 0Xd354
B 3 0Xd3ea
B 4 0Xd48a
B 5 0Xd570
B 6 0Xd638
B 7 0Xd73c
B 8 0Xd7f0
B 9 0Xd8ae
B O 0Xd980
B E 0Xda66
B T 0Xdb06
H 1 0Xdcbe
H 2 0Xdd86
H 3 0Xde30
H 4 0Xdee4
H 5 0Xdf84
H 6 0Xe074
H 7 0Xe15a
H 8 0Xe218
H 9 0Xe2e0
H O 0Xe3f8
H E 0Xe4c0
H T 0Xe560
B 1 0Xe60a
B 2 0Xe6dc
B 3 0Xe77c
B 4 0Xe7e0
B 5 0Xe8da
B 6 0Xe9d4
B 7 0Xead8
B 8 0Xebaa
B 9 0Xec22
B O 0Xed30
B E 0Xee2a
B T 0Xeed4
H 1 0Xf082
H 2 0Xf14a
H 3 0Xf1cc
H 4 0Xf28a
H 5 0Xf320
H 6 0Xf41a
H 7 0Xf4f6
H 8 0Xf5c8
H 9 0Xf668
H O 0Xf76c
H E 0Xf848
H T 0Xf906
B 1 0Xf9ba
B 2 0Xfa82
B 3 0Xfb22
B 4 0Xfbb8
B 5 0Xfcb2
B 6 0Xfd84
B 7 0Xfe7e
B 8 0Xff28
B 9 0Xffd2
B O 0X00c2
B E 0X019e
B T 0X025c
H 1 0X040a
H 2 0X04d2
H 3 0X0572
H 4 0X0630
H 5 0X06e4
H 6 0X07c0
H 7 0X089c
H 8 0X095a
H 9 0X0a22
H O 0X0b1c
H E 0X0bf8
H T 0X0ca2
B 1 0X0d4c
B 2 0X0dec
B 3 0X0e96
B 4 0X0f86
B 5 0X1076
B 6 0X1152
B 7 0X1242
B 8 0X1300
B 9 0X13a0
B O 0X1468
B E 0X1562
B T 0X1652
