       Transcription Difficulty Analysis
         Bell Handstroke Backstroke
           1     6.48        13.40
           2     4.77        5.37
           3     2.07        1.88
           4     1.84        1.62
           5     4.86        4.45
           6     0.59        0.48
           7     1.41        1.53
           8     1.36        1.86
           9     4.16        2.71
          10     0.72        0.15
          11     0.11        1.90
          12     1.13        0.81
         Overall Transcription Difficulty       2.73
       Bad Blow Analysis
         Reporting threshold = 39
         List of blow transcriptions exceeding threshold
            ChangeNo  BellNo  metric
               36     11       53
               38     11       56
               40     11       45
               56     11       48
               57     12       77
               86      1       47
               90     11       93
               91     12       48
               92     11       62
               94     11       41
               98     11       41
              100     11       67
              104      1       39
              114      1       96
              114     11       46
              116      1       56
              120      1       67
              122      1       41
              158     11       40
              172      1       51
              172     11       51
              200     11       41
              202     11       42
              204     11       41
              224      1       42
              224     11       43
              226      1       51
              234      1       51
              234     11       47
              240     11       42
              244      1       40
              252      1       46
              262     11       44
         Total blow transcriptions exceeding threshold: 33
