#. Lowndes: Version 2
#. SourceFilename: C:\Users\Guildford Ringers\Documents\guildfordcathedralbells.bitbucket.io\Recordings\Guildford\Guildford.20220422-2105.s12t12.6.wav
#. Tower: Guildford Cathedral
#. RingingName: Touch_6
#. RingingDateTime: 20220422-2105
#. Rungon: 
#. Tenor: 12
#. NumBellsRinging: 12
#. Creator: HawkEar Team Edition V1 for Guildford Cathedral
#. CreatorVersion: 1.1.0.3
#. TranscribedFor: Guildford band
#. TranscriptionDateTime: 20220423-0020
#. FirstBlowMs: 2430
#. TouchdB: -9.38456
#. TraindB: -9.73, -8.5, -6.1, -3.11, -3.16, -3.1, -3.98, -4.12, -5.95, -5.43, -4.92, -3
#. TrainedOn: 20220102-1438
#. TrainDataRecordedOn: 20210813-1741
#. TrainParams: -ft:y -ws:0.05 -hs:0.01 -co:0.9 -sw:40 -ts:
#. GainParams: -fh:6000 -fl:200
#. OnsetParams: -mb:80 -mf:10 -ng:0.3 -oo:0
#. WriteParams: -hb:y
#. AnalParams: -au:n -xp:n -sg:n -hsg:-1
#. ExpString: 
#. Association:
#. Calling:
#. CompositionName:
#. Method:
#. Footnotes:
#. Ringers:
#. Stage:
H 1 0X0000
H 2 0X00d2
H 3 0X0190
H 4 0X023a
H 5 0X02ee
H 6 0X03a2
H 7 0X04c4
H 8 0X055a
H 9 0X064a
H O 0X0744
H E 0X07e4
H T 0X08d4
B 1 0X0a32
B 2 0X0af0
B 3 0X0b86
B 4 0X0c12
B 5 0X0cee
B 6 0X0da2
B 7 0X0e92
B 8 0X0f28
B 9 0X102c
B O 0X10ea
B E 0X11ee
B T 0X1306
H 1 0X1464
H 2 0X152c
H 3 0X15f4
H 4 0X16c6
H 5 0X175c
H 6 0X1810
H 7 0X1900
H 8 0X19dc
H 9 0X1aae
H O 0X1b8a
H E 0X1c34
H T 0X1d24
B 1 0X1e14
B 2 0X1edc
B 3 0X1f86
B 4 0X203a
B 5 0X2102
B 6 0X21ca
B 7 0X2288
B 8 0X2346
B 9 0X2404
B O 0X24f4
B E 0X25d0
B T 0X26ac
H 1 0X2878
H 2 0X2940
H 3 0X2a08
H 4 0X2aa8
H 5 0X2b66
H 6 0X2bf2
H 7 0X2cd8
H 8 0X2daa
H 9 0X2e72
H O 0X2f62
H E 0X3034
H T 0X3106
B 1 0X320a
B 2 0X32be
B 3 0X335e
B 4 0X33ea
B 5 0X34d0
B 6 0X3584
B 7 0X3656
B 8 0X3700
B 9 0X37d2
B O 0X389a
B E 0X3976
B T 0X3a7a
H 1 0X3c46
H 2 0X3d04
H 3 0X3db8
H 4 0X3e8a
H 5 0X3f2a
H 6 0X3fd4
H 7 0X40a6
H 8 0X4178
H 9 0X4236
H O 0X42e0
H E 0X43b2
H T 0X4484
B 1 0X457e
B 2 0X463c
B 3 0X46fa
B 4 0X47b8
B 5 0X4880
B 6 0X4948
B 7 0X49fc
B 8 0X4ab0
B 9 0X4b64
B O 0X4c18
B E 0X4cf4
B T 0X4de4
H 1 0X4f92
H 2 0X506e
H 3 0X5118
H 4 0X51e0
H 5 0X5276
H 6 0X535c
H 7 0X541a
H 8 0X550a
H 9 0X55b4
H O 0X5672
H E 0X574e
H T 0X57f8
B 1 0X58ca
B 2 0X59a6
B 3 0X5a6e
B 4 0X5b04
B 5 0X5bc2
B 6 0X5cbc
B 7 0X5d66
B 8 0X5e2e
B 9 0X5ed8
B O 0X5faa
B E 0X6086
B T 0X6158
H 1 0X6306
H 2 0X63ce
H 3 0X648c
H 4 0X6536
H 5 0X65cc
H 6 0X66b2
H 7 0X6770
H 8 0X682e
H 9 0X68f6
H O 0X69c8
H E 0X6a86
H T 0X6b76
B 1 0X6c66
B 2 0X6d1a
B 3 0X6dc4
B 4 0X6e64
B 5 0X6f36
B 6 0X6fe0
B 7 0X709e
B 8 0X717a
B 9 0X722e
B O 0X72f6
B E 0X73d2
B T 0X74cc
H 1 0X765c
H 2 0X7724
H 3 0X77e2
H 4 0X78a0
H 5 0X7940
H 6 0X79fe
H 7 0X7ad0
H 8 0X7b84
H 9 0X7c56
H O 0X7d28
H E 0X7dfa
H T 0X7ecc
B 1 0X7fc6
B 2 0X805c
B 3 0X8106
B 4 0X81ce
B 5 0X8296
B 6 0X835e
B 7 0X8408
B 8 0X84c6
B 9 0X8598
B O 0X864c
B E 0X8746
B T 0X8822
H 2 0X89e4
H 1 0X8aca
H 3 0X8b88
H 5 0X8c3c
H 4 0X8d0e
H 7 0X8da4
H 6 0X8e4e
H 9 0X8f34
H 8 0X9006
H E 0X909c
H O 0X918c
H T 0X9268
B 2 0X9330
B 3 0X93f8
B 1 0X94c0
B 4 0X957e
B 5 0X965a
B 6 0X96fa
B 7 0X97a4
B 8 0X986c
B 9 0X993e
B O 0X99f2
B E 0X9ad8
B T 0X9bb4
H 3 0X9d9e
H 2 0X9e5c
H 4 0X9f38
H 1 0X9ff6
H 6 0Xa082
H 5 0Xa140
H 8 0Xa21c
H 7 0Xa2c6
H 9 0Xa37a
H E 0Xa438
H O 0Xa50a
H T 0Xa5f0
B 2 0Xa6fe
B 3 0Xa7a8
B 4 0Xa834
B 6 0Xa92e
B 1 0Xaa00
B 8 0Xaaa0
B 5 0Xab72
B 9 0Xac3a
B 7 0Xace4
B O 0Xad7a
B E 0Xae7e
B T 0Xaf46
H 2 0Xb144
H 4 0Xb1f8
H 3 0Xb2b6
H 1 0Xb392
H 6 0Xb414
H 5 0Xb4f0
H 8 0Xb5cc
H 7 0Xb676
H 9 0Xb748
H E 0Xb7d4
H O 0Xb89c
H T 0Xb98c
B 4 0Xba68
B 2 0Xbb62
B 3 0Xbc16
B 6 0Xbcd4
B 1 0Xbd9c
B 8 0Xbe50
B 5 0Xbf36
B 9 0Xbfea
B 7 0Xc09e
B O 0Xc10c
B E 0Xc22e
B T 0Xc2ec
H 4 0Xc4c2
H 3 0Xc59e
H 2 0Xc65c
H 1 0Xc742
H 6 0Xc7b0
H 5 0Xc8b4
H 8 0Xc990
H 7 0Xca4e
H 9 0Xcaee
H E 0Xcba2
H O 0Xcc60
H T 0Xcd46
B 3 0Xce2c
B 4 0Xcee0
B 2 0Xcfc6
B 6 0Xd08e
B 1 0Xd14c
B 8 0Xd20a
B 5 0Xd2fa
B 9 0Xd39a
B 7 0Xd444
B O 0Xd4ee
B E 0Xd5f2
B T 0Xd6b0
H 4 0Xd87c
H 3 0Xd944
H 6 0Xda0c
H 2 0Xdb1a
H 8 0Xdbd8
H 1 0Xdc96
H 9 0Xdd04
H 5 0Xde08
H O 0Xde76
H 7 0Xdf20
H E 0Xdff2
H T 0Xe0f6
B 4 0Xe1a0
B 6 0Xe2a4
B 3 0Xe376
B 8 0Xe43e
B 2 0Xe524
B 9 0Xe5e2
B 1 0Xe6aa
B O 0Xe6fa
B 5 0Xe7fe
B E 0Xe8a8
B 7 0Xe966
B T 0Xea60
H 6 0Xec18
H 4 0Xed26
H 3 0Xedda
H 2 0Xee98
H 8 0Xef60
H 1 0Xf028
H 9 0Xf0be
H 5 0Xf1a4
H O 0Xf21c
H 7 0Xf2da
H E 0Xf3a2
H T 0Xf46a
B 6 0Xf5a0
B 3 0Xf668
B 4 0Xf758
B 8 0Xf80c
B 2 0Xf8d4
B 9 0Xf988
B 1 0Xfa3c
B O 0Xfadc
B 5 0Xfbcc
B E 0Xfc80
B 7 0Xfd2a
B T 0Xfe06
H 3 0Xffdc
H 6 0X009a
H 4 0X018a
H 2 0X0298
H 8 0X0338
H 1 0X03c4
H 9 0X048c
H 5 0X0572
H O 0X0612
H 7 0X068a
H E 0X0748
H T 0X0838
B 3 0X093c
B 4 0X0a0e
B 6 0X0ab8
B 8 0X0bc6
B 2 0X0ca2
B 9 0X0d60
B 1 0X0df6
B O 0X0ebe
B 5 0X0f90
B E 0X103a
B 7 0X10da
B T 0X11b6
H 4 0X1396
H 3 0X144a
H 8 0X153a
H 6 0X15ee
H 9 0X16c0
H 2 0X1788
H O 0X1846
H 1 0X1922
H 5 0X19d6
H 7 0X1a9e
H E 0X1b48
H T 0X1c4c
B 3 0X1d14
B 4 0X1dc8
B 8 0X1e7c
B 9 0X1f44
B 6 0X2002
B O 0X20c0
B 2 0X21c4
B 5 0X22aa
B 1 0X234a
B E 0X2408
B 7 0X24da
B T 0X25e8
H 3 0X2746
H 8 0X282c
H 4 0X28f4
H 6 0X29c6
H 9 0X2a52
H 2 0X2b38
H O 0X2bb0
H 1 0X2cb4
H 5 0X2d90
H 7 0X2e6c
H E 0X2ef8
H T 0X2fe8
B 8 0X30f6
B 3 0X31b4
B 4 0X322c
B 9 0X331c
B 6 0X33f8
B O 0X34a2
B 2 0X3588
B 5 0X3646
B 1 0X3722
B E 0X37cc
B 7 0X38a8
B T 0X3952
H 8 0X3b64
H 4 0X3c0e
H 3 0X3cd6
H 6 0X3d9e
H 9 0X3e2a
H 2 0X3f10
H O 0X3ff6
H 1 0X40be
H 5 0X4172
H 7 0X424e
H E 0X42d0
H T 0X43b6
B 4 0X4488
B 8 0X4564
B 3 0X4668
B 9 0X4708
B 6 0X47c6
B O 0X4898
B 2 0X496a
B 5 0X4a3c
B 1 0X4afa
B E 0X4bb8
B 7 0X4cb2
B T 0X4d5c
H 8 0X4f32
H 4 0X4fdc
H 9 0X50a4
H 3 0X518a
H O 0X522a
H 6 0X531a
H 5 0X53f6
H 2 0X54dc
H E 0X5554
H 1 0X561c
H 7 0X56ee
H T 0X57ac
B 8 0X5874
B 9 0X5964
B 4 0X5a2c
B O 0X5acc
B 3 0X5bda
B 5 0X5cac
B 6 0X5d42
B E 0X5e28
B 2 0X5ee6
B 7 0X5fae
B 1 0X6076
B T 0X6148
H 9 0X630a
H 8 0X63be
H 4 0X6472
H 3 0X6576
H O 0X6616
H 6 0X66e8
H 5 0X67e2
H 2 0X68c8
H E 0X692c
H 1 0X6a12
H 7 0X6ab2
H T 0X6b7a
B 9 0X6c6a
B 4 0X6d1e
B 8 0X6df0
B O 0X6ec2
B 3 0X6f9e
B 5 0X707a
B 6 0X7138
B E 0X71f6
B 2 0X72b4
B 7 0X73ae
B 1 0X746c
B T 0X7502
H 4 0X76e2
H 9 0X776e
H 8 0X7840
H 3 0X793a
H O 0X7a0c
H 6 0X7ade
H 5 0X7bb0
H 2 0X7c82
H E 0X7d18
H 1 0X7de0
H 7 0X7e9e
H T 0X7f5c
B 4 0X8024
B 8 0X80e2
B 9 0X81dc
B O 0X829a
B 3 0X839e
B 5 0X845c
B 6 0X8510
B E 0X85e2
B 2 0X86aa
B 7 0X8772
B 1 0X8812
B T 0X88f8
H 8 0X8ab0
H 4 0X8b6e
H O 0X8c22
H 9 0X8cf4
H 5 0X8de4
H 3 0X8eac
H E 0X8f6a
H 6 0X901e
H 7 0X9122
H 2 0X91fe
H 1 0X92bc
H T 0X9334
B 4 0X93f2
B 8 0X94e2
B O 0X95aa
B 5 0X967c
B 9 0X973a
B E 0X9802
B 3 0X9906
B 7 0X9988
B 6 0X9a78
B 1 0X9b54
B 2 0X9c12
B T 0X9cd0
H 4 0X9e7e
H O 0X9f00
H 8 0X9ff0
H 9 0Xa0cc
H 5 0Xa19e
H 3 0Xa25c
H E 0Xa31a
H 6 0Xa3ec
H 7 0Xa4be
H 2 0Xa59a
H 1 0Xa676
H T 0Xa72a
B O 0Xa7e8
B 4 0Xa8a6
B 8 0Xa950
B 5 0Xaa40
B 9 0Xab12
B E 0Xabee
B 3 0Xacd4
B 7 0Xad42
B 6 0Xae64
B 1 0Xaf40
B 2 0Xafae
B T 0Xb094
H O 0Xb256
H 8 0Xb350
H 4 0Xb3fa
H 9 0Xb4a4
H 5 0Xb562
H 3 0Xb634
H E 0Xb6d4
H 6 0Xb814
H 7 0Xb8d2
H 2 0Xb99a
H 1 0Xba80
H T 0Xbaf8
B 8 0Xbbf2
B O 0Xbcb0
B 4 0Xbd64
B 5 0Xbe18
B 9 0Xbeea
B E 0Xbfd0
B 3 0Xc098
B 7 0Xc142
B 6 0Xc23c
B 1 0Xc34a
B 2 0Xc3f4
B T 0Xc494
H O 0Xc638
H 8 0Xc714
H 5 0Xc7be
H 4 0Xc8d6
H E 0Xc93a
H 9 0Xc9f8
H 7 0Xcb06
H 3 0Xcba6
H 1 0Xcc6e
H 6 0Xcd0e
H 2 0Xcdf4
H T 0Xcf0c
B O 0Xcfc0
B 5 0Xd09c
B 8 0Xd146
B E 0Xd204
B 4 0Xd312
B 7 0Xd3a8
B 9 0Xd466
B 1 0Xd524
B 3 0Xd5ec
B 2 0Xd696
B 6 0Xd786
B T 0Xd84e
H 5 0Xda2e
H O 0Xdace
H 8 0Xdbb4
H 4 0Xdca4
H E 0Xdd12
H 9 0Xdde4
H 7 0Xdeb6
H 3 0Xdf9c
H 1 0Xe078
H 6 0Xe0fa
H 2 0Xe1cc
H T 0Xe2b2
B 5 0Xe38e
B 8 0Xe456
B O 0Xe51e
B E 0Xe604
B 4 0Xe6ae
B 7 0Xe776
B 9 0Xe834
B 1 0Xe938
B 3 0Xe9e2
B 2 0Xeaa0
B 6 0Xeb7c
B T 0Xec26
H 8 0Xedfc
H 5 0Xeed8
H O 0Xef78
H 4 0Xf090
H E 0Xf108
H 9 0Xf1da
H 7 0Xf2b6
H 3 0Xf388
H 1 0Xf450
H 6 0Xf50e
H 2 0Xf5f4
H T 0Xf68a
B 8 0Xf77a
B O 0Xf824
B 5 0Xf91e
B E 0Xf9f0
B 4 0Xfacc
B 7 0Xfb6c
B 9 0Xfc2a
B 1 0Xfcb6
B 3 0Xfdce
B 2 0Xfeb4
B 6 0Xff7c
B T 0X0012
H O 0X01ca
H 8 0X02a6
H E 0X038c
H 5 0X047c
H 7 0X0526
H 4 0X060c
H 1 0X06d4
H 9 0X0774
H 2 0X0850
H 3 0X08fa
H 6 0X0990
H T 0X0a80
B 8 0X0b70
B O 0X0c24
B E 0X0d32
B 7 0X0dfa
B 5 0X0eb8
B 1 0X0f8a
B 4 0X1048
B 2 0X111a
B 9 0X11e2
B 6 0X1296
B 3 0X135e
B T 0X13fe
H 8 0X15e8
H E 0X169c
H O 0X175a
H 5 0X1872
H 7 0X1930
H 4 0X1a02
H 1 0X1ab6
H 9 0X1b7e
H 2 0X1c14
H 3 0X1d04
H 6 0X1da4
H T 0X1e6c
B E 0X1f5c
B 8 0X2060
B O 0X20ec
B 7 0X21dc
B 5 0X22a4
B 1 0X236c
B 4 0X2402
B 2 0X24d4
B 9 0X25d8
B 6 0X268c
B 3 0X275e
B T 0X2812
H E 0X29ac
H O 0X2aa6
H 8 0X2b8c
H 5 0X2c54
H 7 0X2d12
H 4 0X2de4
H 1 0X2eac
H 9 0X2f4c
H 2 0X3014
H 3 0X30e6
H 6 0X3190
H T 0X3294
B O 0X3348
B E 0X341a
B 8 0X34e2
B 7 0X35f0
B 5 0X36a4
B 1 0X3762
B 4 0X37f8
B 2 0X38e8
B 9 0X39b0
B 6 0X3a78
B 3 0X3b36
B T 0X3c26
H O 0X3e92
H E 0X3e9c
H 7 0X3f82
H 8 0X4036
H 1 0X4126
H 5 0X41bc
H 2 0X428e
H 4 0X4356
H 6 0X4428
H 9 0X44e6
H 3 0X45a4
H T 0X4694
B E 0X47b6
B 7 0X487e
B O 0X4900
B 1 0X49e6
B 8 0X4a86
B 2 0X4b58
B 5 0X4bee
B 6 0X4cf2
B 4 0X4dd8
B 3 0X4eaa
B 9 0X4f04
B T 0X5008
H 7 0X51d4
H E 0X52c4
H O 0X53aa
H 8 0X5436
H 1 0X551c
H 5 0X55c6
H 2 0X567a
H 4 0X57b0
H 6 0X580a
H 9 0X58dc
H 3 0X599a
H T 0X5a76
B 7 0X5b5c
B O 0X5c06
B E 0X5d3c
B 1 0X5de6
B 8 0X5e72
B 2 0X5f6c
B 5 0X600c
B 6 0X60d4
B 4 0X61ba
B 3 0X6282
B 9 0X6336
B T 0X63f4
H O 0X65c0
H 7 0X6674
H E 0X6732
H 8 0X684a
H 1 0X691c
H 5 0X69b2
H 2 0X6a7a
H 4 0X6b60
H 6 0X6bf6
H 9 0X6cdc
H 3 0X6dae
H T 0X6e76
B O 0X6f34
B E 0X701a
B 7 0X70d8
B 1 0X71d2
B 8 0X7272
B 2 0X734e
B 5 0X73f8
B 6 0X74de
B 4 0X759c
B 3 0X768c
B 9 0X7722
B T 0X77f4
H E 0X79a2
H O 0X7a7e
H 1 0X7b5a
H 7 0X7be6
H 2 0X7cae
H 8 0X7dd0
H 6 0X7e66
H 5 0X7f56
H 3 0X8028
H 4 0X80e6
H 9 0X81a4
H T 0X8294
B O 0X8316
B E 0X83f2
B 1 0X84ce
B 2 0X858c
B 7 0X8622
B 6 0X8744
B 8 0X87f8
B 3 0X88e8
B 5 0X89a6
B 9 0X8a5a
B 4 0X8b4a
B T 0X8c12
H O 0X8d84
H 1 0X8e4c
H E 0X8f0a
H 7 0X8ff0
H 2 0X90b8
H 8 0X91c6
H 6 0X923e
H 5 0X9356
H 3 0X9414
H 4 0X94b4
H 9 0X9586
H T 0X964e
B 1 0X970c
B O 0X9798
B E 0X98e2
B 2 0X9982
B 7 0X9a40
B 6 0X9b08
B 8 0X9bda
B 3 0X9c98
B 5 0X9d88
B 9 0X9e46
B 4 0X9f2c
B T 0X9fd6
H 1 0Xa170
H E 0Xa238
H O 0Xa328
H 7 0Xa3d2
H 2 0Xa486
H 8 0Xa5b2
H 6 0Xa5e4
H 5 0Xa724
H 3 0Xa7ce
H 4 0Xa8be
H 9 0Xa940
H T 0Xaa3a
B E 0Xab3e
B 1 0Xabca
B O 0Xac6a
B 2 0Xad50
B 7 0Xae04
B 6 0Xaec2
B 8 0Xafc6
B 3 0Xb084
B 5 0Xb14c
B 9 0Xb1f6
B 4 0Xb30e
B T 0Xb3b8
H 1 0Xb534
H E 0Xb624
H 2 0Xb6ce
H O 0Xb7b4
H 6 0Xb886
H 7 0Xb962
H 3 0Xba34
H 8 0Xbae8
H 9 0Xbbc4
H 5 0Xbc78
H 4 0Xbd7c
H T 0Xbe12
B 1 0Xbea8
B 2 0Xbf84
B E 0Xc038
B 6 0Xc15a
B O 0Xc1c8
B 3 0Xc2e0
B 7 0Xc376
B 9 0Xc452
B 8 0Xc560
B 4 0Xc61e
B 5 0Xc6c8
B T 0Xc790
H 2 0Xc948
H 1 0Xca24
H E 0Xcab0
H O 0Xcba0
H 6 0Xcc5e
H 7 0Xcd58
H 3 0Xce0c
H 8 0Xcee8
H 9 0Xcf88
H 5 0Xd046
H 4 0Xd122
H T 0Xd1ea
B 2 0Xd2c6
B E 0Xd366
B 1 0Xd438
B 6 0Xd51e
B O 0Xd5c8
B 3 0Xd6cc
B 7 0Xd762
B 9 0Xd82a
B 8 0Xd910
B 4 0Xda0a
B 5 0Xdaa0
B T 0Xdb72
H E 0Xdd3e
H 2 0Xdde8
H 1 0Xdece
H O 0Xdf6e
H 6 0Xe036
H 7 0Xe108
H 3 0Xe1e4
H 8 0Xe2c0
H 9 0Xe356
H 5 0Xe446
H 4 0Xe4fa
H T 0Xe5ea
B E 0Xe6ee
B 1 0Xe7a2
B 2 0Xe842
B 6 0Xe90a
B O 0Xe9be
B 3 0Xeaa4
B 7 0Xeb6c
B 9 0Xec02
B 8 0Xecf2
B 4 0Xedce
B 5 0Xeeaa
B T 0Xef5e
H 1 0Xf120
H E 0Xf1fc
H 6 0Xf292
H 2 0Xf364
H 3 0Xf454
H O 0Xf4fe
H 9 0Xf5d0
H 7 0Xf698
H 4 0Xf774
H 8 0Xf81e
H 5 0Xf8d2
H T 0Xf9cc
B E 0Xfada
B 1 0Xfb84
B 6 0Xfc4c
B 3 0Xfd14
B 2 0Xfddc
B 9 0Xfe9a
B O 0Xff58
B 4 0X0002
B 7 0X00b6
B 5 0X019c
B 8 0X0282
B T 0X0354
H E 0X0534
H 6 0X05e8
H 1 0X06b0
H 2 0X0764
H 3 0X0822
H O 0X08fe
H 9 0X09c6
H 7 0X0a70
H 4 0X0b6a
H 8 0X0c32
H 5 0X0cdc
H T 0X0dcc
B 6 0X0ed0
B E 0X0f98
B 1 0X1038
B 3 0X110a
B 2 0X11a0
B 9 0X127c
B O 0X134e
B 4 0X1416
B 7 0X1484
B 5 0X159c
B 8 0X168c
B T 0X174a
H 6 0X1902
H 1 0X19fc
H E 0X1a74
H 2 0X1b6e
H 3 0X1c2c
H O 0X1ccc
H 9 0X1d8a
H 7 0X1e66
H 4 0X1f38
H 8 0X201e
H 5 0X20dc
H T 0X21a4
B 1 0X22b2
B 6 0X2366
B E 0X246a
B 3 0X24e2
B 2 0X25b4
B 9 0X267c
B O 0X2744
B 4 0X27f8
B 7 0X28b6
B 5 0X297e
B 8 0X2a64
B T 0X2b18
H 6 0X2d0c
H 1 0X2dde
H 3 0X2ea6
H E 0X2f64
H 9 0X300e
H 2 0X30cc
H 4 0X319e
H O 0X325c
H 5 0X3324
H 7 0X33ec
H 8 0X34c8
H T 0X3586
B 6 0X3676
B 3 0X3766
B 1 0X3806
B 9 0X38f6
B E 0X39b4
B 4 0X3a86
B 2 0X3b3a
B 5 0X3bf8
B O 0X3cb6
B 8 0X3d92
B 7 0X3e64
B T 0X3f18
H 3 0X40ee
H 6 0X41a2
H 1 0X4274
H E 0X435a
H 9 0X4422
H 2 0X44f4
H 4 0X45f8
H O 0X4666
H 5 0X4724
H 7 0X47ec
H 8 0X48c8
H T 0X499a
B 3 0X4a4e
B 1 0X4b48
B 6 0X4be8
B 9 0X4cc4
B E 0X4d96
B 4 0X4e54
B 2 0X4f26
B 5 0X5020
B O 0X50b6
B 8 0X519c
B 7 0X525a
B T 0X532c
H 1 0X54c6
H 3 0X558e
H 6 0X566a
H E 0X5714
H 9 0X57fa
H 2 0X58cc
H 4 0X5994
H O 0X5a5c
H 5 0X5b1a
H 7 0X5c0a
H 8 0X5ce6
H T 0X5dae
B 1 0X5e44
B 6 0X5f0c
B 3 0X5ffc
B 9 0X609c
B E 0X6164
B 4 0X6240
B 2 0X62f4
B 5 0X63d0
B O 0X64ac
B 8 0X659c
B 7 0X6664
B T 0X6704
H 6 0X68c6
H 1 0X69c0
H 9 0X6a56
H 3 0X6af6
H 4 0X6bf0
H E 0X6cc2
H 5 0X6d94
H 2 0X6e52
H 8 0X6f42
H O 0X700a
H 7 0X70c8
H T 0X715e
B 1 0X724e
B 6 0X7320
B 9 0X73e8
B 4 0X74c4
B 3 0X7582
B 5 0X7640
B E 0X7726
B 8 0X7816
B 2 0X78a2
B 7 0X7992
B O 0X7a64
B T 0X7b18
H 1 0X7c94
H 9 0X7d70
H 6 0X7e2e
H 3 0X7f46
H 4 0X7ff0
H E 0X80b8
H 5 0X81a8
H 2 0X8284
H 8 0X834c
H O 0X8400
H 7 0X84f0
H T 0X857c
B 9 0X863a
B 1 0X870c
B 6 0X87d4
B 4 0X88ce
B 3 0X8996
B 5 0X8a5e
B E 0X8b4e
B 8 0X8c20
B 2 0X8cc0
B 7 0X8db0
B O 0X8e64
B T 0X8f18
H 9 0X9102
H 6 0X91c0
H 1 0X9274
H 3 0X9332
H 4 0X93e6
H E 0X94cc
H 5 0X9594
H 2 0X967a
H 8 0X9742
H O 0X9828
H 7 0X98dc
H T 0X9990
B 6 0X9a80
B 9 0X9b66
B 1 0X9c24
B 4 0X9ca6
B 3 0X9d82
B 5 0X9e86
B E 0X9f08
B 8 0X9ff8
B 2 0Xa0a2
B 7 0Xa17e
B O 0Xa26e
B T 0Xa340
H 9 0Xa4ee
H 6 0Xa5ca
H 4 0Xa688
H 1 0Xa76e
H 5 0Xa82c
H 3 0Xa8e0
H 8 0Xa9bc
H E 0Xaa48
H 2 0Xaafc
H O 0Xac00
H 7 0Xaca0
H T 0Xad7c
B 9 0Xae6c
B 4 0Xaf3e
B 6 0Xaffc
B 5 0Xb10a
B 1 0Xb1b4
B 8 0Xb2c2
B 3 0Xb34e
B 2 0Xb3da
B E 0Xb4ac
B 7 0Xb588
B O 0Xb632
B T 0Xb722
H 4 0Xb8bc
H 9 0Xb9b6
H 6 0Xba74
H 1 0Xbb5a
H 5 0Xbbf0
H 3 0Xbce0
H 8 0Xbdda
H E 0Xbe70
H 2 0Xbefc
H O 0Xbfba
H 7 0Xc0aa
H T 0Xc172
B 4 0Xc230
B 6 0Xc316
B 9 0Xc410
B 5 0Xc4ce
B 1 0Xc58c
B 8 0Xc67c
B 3 0Xc74e
B 2 0Xc7f8
B E 0Xc88e
B 7 0Xc94c
B O 0Xca1e
B T 0Xcb18
H 6 0Xccbc
H 4 0Xcdac
H 9 0Xce88
H 1 0Xcf3c
H 5 0Xcff0
H 3 0Xd0e0
H 8 0Xd1d0
H E 0Xd284
H 2 0Xd2fc
H O 0Xd3c4
H 7 0Xd482
H T 0Xd568
B 6 0Xd644
B 9 0Xd70c
B 4 0Xd7f2
B 5 0Xd8c4
B 1 0Xd982
B 8 0Xdaa4
B 3 0Xdb62
B 2 0Xdc20
B E 0Xdcac
B 7 0Xdd56
B O 0Xde14
B T 0Xdef0
H 9 0Xe0b2
H 6 0Xe18e
H 5 0Xe27e
H 4 0Xe364
H 8 0Xe418
H 1 0Xe4ea
H 2 0Xe5b2
H 3 0Xe684
H 7 0Xe760
H E 0Xe7d8
H O 0Xe8d2
H T 0Xe986
B 6 0Xea30
B 9 0Xeb20
B 5 0Xec06
B 8 0Xecc4
B 4 0Xedaa
B 2 0Xee86
B 1 0Xef44
B 7 0Xeff8
B 3 0Xf0ac
B O 0Xf174
B E 0Xf23c
B T 0Xf32c
H 6 0Xf4d0
H 5 0Xf5ac
H 9 0Xf638
H 4 0Xf728
H 8 0Xf804
H 1 0Xf8ea
H 2 0Xf99e
H 3 0Xfa52
H 7 0Xfb10
H E 0Xfba6
H O 0Xfc82
H T 0Xfd7c
B 5 0Xfe6c
B 6 0Xff20
B 9 0Xfffc
B 8 0X00ba
B 4 0X0182
B 2 0X024a
B 1 0X0312
B 7 0X03da
B 3 0X04ac
B O 0X0538
B E 0X0628
B T 0X06fa
H 5 0X08b2
H 9 0X098e
H 6 0X0a42
H 4 0X0b3c
H 8 0X0be6
H 1 0X0cd6
H 2 0X0d62
H 3 0X0e3e
H 7 0X0ef2
H E 0X0fb0
H O 0X108c
H T 0X1168
B 9 0X123a
B 5 0X1316
B 6 0X13de
B 8 0X14b0
B 4 0X1596
B 2 0X1654
B 1 0X1712
B 7 0X17bc
B 3 0X188e
B O 0X192e
B E 0X1a32
B T 0X1af0
H 5 0X1cbc
H 9 0X1d8e
H 8 0X1e56
H 6 0X1f14
H 2 0X1ffa
H 4 0X20d6
H 7 0X21b2
H 1 0X225c
H O 0X22fc
H 3 0X23a6
H E 0X243c
H T 0X2536
B 5 0X264e
B 8 0X2716
B 9 0X27d4
B 2 0X28ba
B 6 0X2950
B 7 0X2a54
B 4 0X2afe
B O 0X2bb2
B 1 0X2c8e
B E 0X2d56
B 3 0X2e14
B T 0X2ec8
H 8 0X30e4
H 5 0X31a2
H 9 0X3256
H 6 0X32f6
H 2 0X33c8
H 4 0X34cc
H 7 0X3576
H 1 0X363e
H O 0X36ca
H 3 0X37b0
H E 0X3850
H T 0X3936
B 8 0X3a44
B 9 0X3b20
B 5 0X3bd4
B 2 0X3ca6
B 6 0X3d50
B 7 0X3e36
B 4 0X3ef4
B O 0X3fa8
B 1 0X4070
B E 0X4160
B 3 0X41f6
B T 0X42a0
H 9 0X44b2
H 8 0X4584
H 5 0X4656
H 6 0X4714
H 2 0X47dc
H 4 0X489a
H 7 0X496c
H 1 0X4a34
H O 0X4ac0
H 3 0X4b92
H E 0X4c46
H T 0X4d0e
B 9 0X4e3a
B 5 0X4f2a
B 8 0X4fca
B 2 0X509c
B 6 0X5164
B 7 0X5240
B 4 0X52ea
B O 0X539e
B 1 0X5466
B E 0X5524
B 3 0X55e2
B T 0X56aa
H 5 0X58bc
H 9 0X5970
H 2 0X5a38
H 8 0X5b0a
H 7 0X5c04
H 6 0X5c90
H O 0X5d58
H 4 0X5e16
H 1 0X5f06
H 3 0X5fb0
H E 0X603c
H T 0X610e
B 9 0X6212
B 5 0X6316
B 2 0X63ca
B 7 0X64a6
B 8 0X653c
B O 0X662c
B 6 0X66cc
B 1 0X67bc
B 4 0X6870
B E 0X6938
B 3 0X6a0a
B T 0X6aa0
H 9 0X6c6c
H 2 0X6d3e
H 5 0X6e1a
H 8 0X6f14
H 7 0X6fbe
H 6 0X7086
H O 0X713a
H 4 0X7216
H 1 0X72f2
H 3 0X73ba
H E 0X7478
H T 0X752c
B 2 0X75f4
B 9 0X76e4
B 5 0X778e
B 7 0X7860
B 8 0X790a
B O 0X7a0e
B 6 0X7ae0
B 1 0X7b94
B 4 0X7c2a
B E 0X7d88
B 3 0X7e28
B T 0X7ec8
H 2 0X8058
H 5 0X812a
H 9 0X81de
H 8 0X82c4
H 7 0X83be
H 6 0X845e
H O 0X853a
H 4 0X85bc
H 1 0X86ca
H 3 0X87ba
H E 0X8864
H T 0X8936
B 5 0X8a3a
B 2 0X8ae4
B 9 0X8bac
B 7 0X8c6a
B 8 0X8cec
B O 0X8df0
B 6 0X8ea4
B 1 0X8f94
B 4 0X9020
B E 0X9142
B 3 0X9200
B T 0X92d2
H 2 0X9462
H 5 0X9548
H 7 0X9624
H 9 0X96ce
H O 0X9782
H 8 0X985e
H 1 0X993a
H 6 0X99da
H E 0X9ae8
H 4 0X9b74
H 3 0X9c50
H T 0X9d2c
B 2 0X9e08
B 7 0X9ebc
B 5 0X9fa2
B O 0Xa02e
B 9 0Xa128
B 1 0Xa1fa
B 8 0Xa2b8
B E 0Xa3a8
B 6 0Xa448
B 3 0Xa51a
B 4 0Xa5d8
B T 0Xa6aa
H 7 0Xa8a8
H 2 0Xa952
H 5 0Xaa1a
H 9 0Xaaec
H O 0Xaba0
H 8 0Xacae
H 1 0Xad4e
H 6 0Xade4
H E 0Xaec0
H 4 0Xaf38
H 3 0Xb014
H T 0Xb104
B 7 0Xb1fe
B 5 0Xb2e4
B 2 0Xb3a2
B O 0Xb456
B 9 0Xb55a
B 1 0Xb622
B 8 0Xb6c2
B E 0Xb7bc
B 6 0Xb85c
B 3 0Xb938
B 4 0Xb992
B T 0Xba6e
H 5 0Xbcb2
H 7 0Xbd7a
H 2 0Xbe24
H 9 0Xbece
H O 0Xbfd2
H 8 0Xc0ae
H 1 0Xc16c
H 6 0Xc202
H E 0Xc2de
H 4 0Xc36a
H 3 0Xc432
H T 0Xc4e6
B 5 0Xc612
B 2 0Xc6ee
B 7 0Xc7d4
B O 0Xc86a
B 9 0Xc950
B 1 0Xca40
B 8 0Xcad6
B E 0Xcbd0
B 6 0Xcc8e
B 3 0Xcd42
B 4 0Xcdec
B T 0Xce82
H 2 0Xd058
H 5 0Xd134
H O 0Xd21a
H 7 0Xd2d8
H 1 0Xd3d2
H 9 0Xd454
H E 0Xd594
H 8 0Xd666
H 3 0Xd71a
H 6 0Xd792
H 4 0Xd88c
H T 0Xd90e
B 5 0Xda12
B 2 0Xdae4
B O 0Xdb84
B 1 0Xdc6a
B 7 0Xdd46
B E 0Xde90
B 9 0Xdf1c
B 3 0Xdfd0
B 8 0Xe07a
B 4 0Xe14c
B 6 0Xe1ec
B T 0Xe2d2
H 5 0Xe4a8
H O 0Xe548
H 2 0Xe606
H 7 0Xe6ba
H 1 0Xe796
H 9 0Xe87c
H E 0Xe926
H 8 0Xea2a
H 3 0Xeb1a
H 6 0Xebb0
H 4 0Xecaa
H T 0Xed5e
B O 0Xee30
B 5 0Xeeee
B 2 0Xefca
B 1 0Xf092
B 7 0Xf132
B E 0Xf1f0
B 9 0Xf2f4
B 3 0Xf3d0
B 8 0Xf466
B 4 0Xf57e
B 6 0Xf600
B T 0Xf6e6
H O 0Xf8bc
H 2 0Xf95c
H 5 0Xfa06
H 7 0Xfb00
H 1 0Xfbaa
H 9 0Xfc54
H E 0Xfd1c
H 8 0Xfe52
H 3 0Xff10
H 6 0Xffba
H 4 0X008c
H T 0X0168
B 2 0X0244
B O 0X02e4
B 5 0X03ac
B 1 0X049c
B 7 0X0546
B E 0X0640
B 9 0X06ea
B 3 0X07f8
B 8 0X087a
B 4 0X096a
B 6 0X0a00
B T 0X0ae6
H O 0X0c9e
H 2 0X0d5c
H 1 0X0e56
H 5 0X0f0a
H E 0X0fdc
H 7 0X1072
H 3 0X118a
H 9 0X1248
H 4 0X12e8
H 8 0X13a6
H 6 0X148c
H T 0X1572
B O 0X1626
B 1 0X16ee
B 2 0X17b6
B E 0X189c
B 5 0X1982
B 3 0X1a54
B 7 0X1ab8
B 4 0X1ba8
B 9 0X1c8e
B 6 0X1d38
B 8 0X1e0a
B T 0X1edc
H 1 0X2094
H O 0X2134
H 2 0X2210
H 5 0X230a
H E 0X238c
H 7 0X2486
H 3 0X2558
H 9 0X260c
H 4 0X26e8
H 8 0X27ce
H 6 0X281e
H T 0X2954
B 1 0X2a30
B 2 0X2b02
B O 0X2ba2
B E 0X2c6a
B 5 0X2d46
B 3 0X2e2c
B 7 0X2ecc
B 4 0X2f94
B 9 0X3066
B 6 0X312e
B 8 0X31ec
B T 0X32be
H 2 0X34b2
H 1 0X35c0
H O 0X362e
H 5 0X370a
H E 0X37c8
H 7 0X3886
H 3 0X396c
H 9 0X3a02
H 4 0X3af2
H 8 0X3bb0
H 6 0X3c14
H T 0X3d2c
B 2 0X3e44
B O 0X3eda
B 1 0X3fd4
B E 0X40b0
B 5 0X4164
B 3 0X4254
B 7 0X42c2
B 4 0X43bc
B 9 0X4484
B 6 0X44fc
B 8 0X45e2
B T 0X46a0
H O 0X486c
H 2 0X492a
H E 0X4a2e
H 1 0X4b0a
H 3 0X4bd2
H 5 0X4c86
H 4 0X4d80
H 7 0X4e16
H 6 0X4ed4
H 9 0X4f7e
H 8 0X505a
H T 0X5118
B 2 0X5226
B O 0X5276
B E 0X5384
B 3 0X5488
B 1 0X5550
B 4 0X55fa
B 5 0X56b8
B 6 0X5780
B 7 0X585c
B 8 0X58fc
B 9 0X59c4
B T 0X5aaa
H 2 0X5c80
H E 0X5d16
H O 0X5de8
H 1 0X5ee2
H 3 0X5f96
H 5 0X6036
H 4 0X613a
H 7 0X61da
H 6 0X6266
H 9 0X6338
H 8 0X643c
H T 0X64fa
B E 0X65e0
B 2 0X66bc
B O 0X6748
B 3 0X6838
B 1 0X6928
B 4 0X69d2
B 5 0X6a9a
B 6 0X6b62
B 7 0X6c16
B 8 0X6cd4
B 9 0X6db0
B T 0X6e50
H E 0X701c
H O 0X70f8
H 2 0X71a2
H 1 0X72c4
H 3 0X738c
H 5 0X7422
H 4 0X751c
H 7 0X75b2
H 6 0X7652
H 9 0X7742
H 8 0X781e
H T 0X78be
B O 0X799a
B E 0X7a6c
B 2 0X7b20
B 3 0X7c24
B 1 0X7cec
B 4 0X7daa
B 5 0X7e68
B 6 0X7f3a
B 7 0X8020
B 8 0X80d4
B 9 0X81a6
B T 0X8246
H E 0X83ea
H O 0X84d0
H 3 0X855c
H 2 0X8688
H 4 0X875a
H 1 0X884a
H 6 0X88ae
H 5 0X8980
H 8 0X8a66
H 7 0X8b24
H 9 0X8c0a
H T 0X8cb4
B E 0X8d9a
B 3 0X8e94
B O 0X8f02
B 4 0X8fd4
B 2 0X90c4
B 6 0X9182
B 1 0X9290
B 8 0X9312
B 5 0X93d0
B 9 0X94ac
B 7 0X956a
B T 0X963c
H 3 0X9826
H E 0X98e4
H O 0X99a2
H 2 0X9a92
H 4 0X9b32
H 1 0X9c36
H 6 0X9cb8
H 5 0X9d80
H 8 0X9e52
H 7 0X9f06
H 9 0X9fba
H T 0Xa0a0
B 3 0Xa1c2
B O 0Xa258
B E 0Xa334
B 4 0Xa406
B 2 0Xa4e2
B 6 0Xa56e
B 1 0Xa67c
B 8 0Xa708
B 5 0Xa7da
B 9 0Xa8b6
B 7 0Xa94c
B T 0Xaa1e
H O 0Xabf4
H 3 0Xacd0
H E 0Xad5c
H 2 0Xae88
H 4 0Xaf5a
H 1 0Xb04a
H 6 0Xb0a4
H 5 0Xb18a
H 8 0Xb27a
H 7 0Xb31a
H 9 0Xb3ce
H T 0Xb4a0
B O 0Xb572
B E 0Xb662
B 3 0Xb73e
B 4 0Xb7fc
B 2 0Xb8ce
B 6 0Xb96e
B 1 0Xba90
B 8 0Xbb30
B 5 0Xbc02
B 9 0Xbcca
B 7 0Xbd7e
B T 0Xbe3c
H E 0Xbff4
H O 0Xc0da
H 4 0Xc1a2
H 3 0Xc27e
H 6 0Xc332
H 2 0Xc422
H 8 0Xc4ea
H 1 0Xc5da
H 9 0Xc670
H 5 0Xc738
H 7 0Xc800
H T 0Xc8b4
B O 0Xc97c
B E 0Xca58
B 4 0Xcb48
B 6 0Xcc06
B 3 0Xcce2
B 8 0Xcdbe
B 2 0Xce72
B 9 0Xcf44
B 1 0Xd00c
B 7 0Xd0c0
B 5 0Xd188
B T 0Xd250
H O 0Xd3e0
H 4 0Xd48a
H E 0Xd598
H 3 0Xd69c
H 6 0Xd746
H 2 0Xd85e
H 8 0Xd8ea
H 1 0Xd9b2
H 9 0Xda66
H 5 0Xdb38
H 7 0Xdbf6
H T 0Xdca0
B 4 0Xdd40
B O 0Xde1c
B E 0Xdf02
B 6 0Xe01a
B 3 0Xe0ec
B 8 0Xe196
B 2 0Xe286
B 9 0Xe34e
B 1 0Xe3ee
B 7 0Xe498
B 5 0Xe574
B T 0Xe650
H 4 0Xe7ea
H E 0Xe8a8
H O 0Xe9a2
H 3 0Xea74
H 6 0Xeb46
H 2 0Xec4a
H 8 0Xecfe
H 1 0Xedda
H 9 0Xee70
H 5 0Xef10
H 7 0Xefce
H T 0Xf0b4
B E 0Xf19a
B 4 0Xf262
B O 0Xf316
B 6 0Xf3e8
B 3 0Xf4e2
B 8 0Xf5aa
B 2 0Xf672
B 9 0Xf73a
B 1 0Xf83e
B 7 0Xf8ca
B 5 0Xf974
B T 0Xfa50
H 4 0Xfc1c
H E 0Xfcee
H 6 0Xfd98
H O 0Xfe60
H 8 0Xff64
H 3 0X004a
H 9 0X00ea
H 2 0X01d0
H 7 0X0270
H 1 0X0356
H 5 0X0400
H T 0X04be
B 4 0X054a
B 6 0X064e
B E 0X072a
B 8 0X082e
B O 0X08ce
B 9 0X09c8
B 3 0X0a72
B 7 0X0b30
B 2 0X0c16
B 5 0X0cd4
B 1 0X0dba
B T 0X0e6e
H 6 0X1030
H 4 0X110c
H E 0X11c0
H O 0X12ba
H 8 0X1382
H 3 0X1422
H 9 0X14e0
H 2 0X15bc
H 7 0X1670
H 1 0X1760
H 5 0X1800
H T 0X18fa
B 6 0X19ae
B E 0X1aa8
B 4 0X1b48
B 8 0X1c1a
B O 0X1d3c
B 9 0X1db4
B 3 0X1eb8
B 7 0X1f3a
B 2 0X2002
B 5 0X20de
B 1 0X21ce
B T 0X2282
H E 0X243a
H 6 0X24e4
H 4 0X25a2
H O 0X2688
H 8 0X2750
H 3 0X2836
H 9 0X28ea
H 2 0X29d0
H 7 0X2a70
H 1 0X2b6a
H 5 0X2c1e
H T 0X2cd2
B E 0X2dd6
B 4 0X2e58
B 6 0X2f2a
B 8 0X3024
B O 0X30ce
B 9 0X31be
B 3 0X32b8
B 7 0X3358
B 2 0X33f8
B 5 0X34de
B 1 0X35ce
B T 0X3650
H 4 0X3826
H E 0X3902
H 8 0X39de
H 6 0X3a88
H 9 0X3b5a
H O 0X3bfa
H 7 0X3ce0
H 3 0X3dbc
H 5 0X3e8e
H 2 0X3f56
H 1 0X405a
H T 0X40c8
B E 0X41f4
B 4 0X42a8
B 8 0X4366
B 9 0X442e
B 6 0X44ce
B 7 0X45dc
B O 0X467c
B 5 0X4776
B 3 0X4834
B 1 0X4910
B 2 0X49a6
B T 0X4a50
H E 0X4c3a
H 8 0X4d2a
H 4 0X4de8
H 6 0X4ea6
H 9 0X4f5a
H O 0X5018
H 7 0X50fe
H 3 0X51e4
H 5 0X528e
H 2 0X536a
H 1 0X5464
H T 0X54d2
B 8 0X55ea
B E 0X56b2
B 4 0X575c
B 9 0X5824
B 6 0X58f6
B 7 0X59e6
B O 0X5a90
B 5 0X5b58
B 3 0X5c48
B 1 0X5d38
B 2 0X5dba
B T 0X5e64
H 8 0X6026
H 4 0X60ee
H E 0X61d4
H 6 0X62b0
H 9 0X6378
H O 0X6436
H 7 0X6508
H 3 0X65f8
H 5 0X6698
H 2 0X677e
H 1 0X6882
H T 0X68f0
B 4 0X69cc
B 8 0X6a76
B E 0X6b5c
B 9 0X6c2e
B 6 0X6d00
B 7 0X6df0
B O 0X6eae
B 5 0X6f58
B 3 0X702a
B 1 0X712e
B 2 0X71e2
B T 0X7278
H 8 0X746c
H 4 0X750c
H 9 0X75d4
H E 0X76a6
H 7 0X77be
H 6 0X784a
H 5 0X7926
H O 0X79ee
H 1 0X7ac0
H 3 0X7b60
H 2 0X7c28
H T 0X7d22
B 8 0X7dc2
B 9 0X7ea8
B 4 0X7f98
B 7 0X8042
B E 0X813c
B 5 0X81dc
B 6 0X82b8
B 1 0X83a8
B O 0X843e
B 2 0X8506
B 3 0X85ce
B T 0X8682
H 9 0X8862
H 8 0X893e
H 4 0X89fc
H E 0X8aba
H 7 0X8ba0
H 6 0X8c5e
H 5 0X8d44
H O 0X8dd0
H 1 0X8eac
H 3 0X8f60
H 2 0X9032
H T 0X90e6
B 9 0X91cc
B 4 0X92d0
B 8 0X9384
B 7 0X944c
B E 0X950a
B 5 0X95fa
B 6 0X96cc
B 1 0X97a8
B O 0X9820
B 2 0X9910
B 3 0X99e2
B T 0X9a64
H 4 0X9c6c
H 9 0X9d16
H 8 0X9e1a
H E 0X9ef6
H 7 0X9f78
H 6 0Xa05e
H 5 0Xa13a
H O 0Xa20c
H 1 0Xa34c
H 3 0Xa392
H 2 0Xa45a
H T 0Xa4dc
B 4 0Xa5b8
B 8 0Xa6a8
B 9 0Xa798
B 7 0Xa86a
B E 0Xa91e
B 5 0Xaa04
B 6 0Xaad6
B 1 0Xabb2
B O 0Xac48
B 2 0Xad24
B 3 0Xade2
B T 0Xae6e
H 8 0Xb04e
H 4 0Xb120
H 7 0Xb21a
H 9 0Xb2ba
H 5 0Xb3a0
H E 0Xb404
H 1 0Xb530
H 6 0Xb60c
H 2 0Xb6fc
H O 0Xb788
H 3 0Xb832
H T 0Xb8fa
B 4 0Xb9cc
B 8 0Xba94
B 7 0Xbb52
B 5 0Xbc74
B 9 0Xbd14
B 1 0Xbde6
B E 0Xbe86
B 2 0Xbf58
B 6 0Xc070
B 3 0Xc138
B O 0Xc1d8
B T 0Xc2b4
H 4 0Xc462
H 7 0Xc52a
H 8 0Xc606
H 9 0Xc6a6
H 5 0Xc796
H E 0Xc868
H 1 0Xc91c
H 6 0Xc9bc
H 2 0Xca84
H O 0Xcb92
H 3 0Xcc5a
H T 0Xcd04
B 7 0Xcdcc
B 4 0Xceee
B 8 0Xcf5c
B 5 0Xd056
B 9 0Xd128
B 1 0Xd236
B E 0Xd2c2
B 2 0Xd34e
B 6 0Xd3ee
B 3 0Xd4de
B O 0Xd592
B T 0Xd682
H 7 0Xd844
H 8 0Xd90c
H 4 0Xda42
H 9 0Xda9c
H 5 0Xdb8c
H E 0Xdc9a
H 1 0Xdd62
H 6 0Xdda8
H 2 0Xdea2
H O 0Xdf24
H 3 0Xdfe2
H T 0Xe0b4
B 8 0Xe1a4
B 7 0Xe280
B 4 0Xe35c
B 5 0Xe456
B 9 0Xe514
B 1 0Xe60e
B E 0Xe6d6
B 2 0Xe76c
B 6 0Xe816
B 3 0Xe8ca
B O 0Xe974
B T 0Xea5a
H 7 0Xec3a
H 8 0Xed16
H 5 0Xedde
H 4 0Xeed8
H 1 0Xefb4
H 9 0Xf04a
H 2 0Xf11c
H E 0Xf1da
H 6 0Xf270
H O 0Xf306
H 3 0Xf3e2
H T 0Xf4aa
B 7 0Xf586
B 5 0Xf680
B 8 0Xf77a
B 1 0Xf856
B 4 0Xf91e
B 2 0Xf9e6
B 9 0Xfab8
B 6 0Xfb4e
B E 0Xfc2a
B 3 0Xfcc0
B O 0Xfd38
B T 0Xfe28
H 5 0X0044
H 7 0X0102
H 8 0X01c0
H 4 0X029c
H 1 0X0364
H 9 0X0436
H 2 0X04d6
H E 0X05a8
H 6 0X0670
H O 0X072e
H 3 0X07ec
H T 0X0896
B 5 0X09d6
B 8 0X0a94
B 7 0X0b70
B 1 0X0c38
B 4 0X0cba
B 2 0X0d96
B 9 0X0e90
B 6 0X0f58
B E 0X100c
B 3 0X10ca
B O 0X116a
B T 0X1232
H 8 0X143a
H 5 0X150c
H 7 0X15d4
H 4 0X1660
H 1 0X175a
H 9 0X182c
H 2 0X18cc
H E 0X19bc
H 6 0X1a52
H O 0X1afc
H 3 0X1bd8
H T 0X1c82
B 8 0X1db8
B 7 0X1e9e
B 5 0X1f52
B 1 0X201a
B 4 0X20ba
B 2 0X21a0
B 9 0X2268
B 6 0X2330
B E 0X2416
B 3 0X24b6
B O 0X2556
B T 0X2632
H 7 0X2808
H 8 0X28ee
H 1 0X29e8
H 5 0X2a6a
H 2 0X2b6e
H 4 0X2c4a
H 6 0X2cd6
H 9 0X2d94
H 3 0X2e7a
H E 0X2f24
H O 0X2ff6
H T 0X3096
B 8 0X3186
B 7 0X3244
B 1 0X3320
B 2 0X33f2
B 5 0X34c4
B 6 0X35a0
B 4 0X3690
B 3 0X3758
B 9 0X37d0
B O 0X38c0
B E 0X3988
B T 0X3a46
H 8 0X3c26
H 1 0X3cf8
H 7 0X3da2
H 5 0X3e60
H 2 0X3f14
H 4 0X4022
H 6 0X40d6
H 9 0X4180
H 3 0X425c
H E 0X4306
H O 0X43ec
H T 0X44b4
B 1 0X45ae
B 8 0X464e
B 7 0X4716
B 2 0X47d4
B 5 0X4888
B 6 0X4982
B 4 0X4a68
B 3 0X4b44
B 9 0X4bee
B O 0X4cc0
B E 0X4d88
B T 0X4e50
H 1 0X4ffe
H 7 0X5102
H 8 0X51ac
H 5 0X5256
H 2 0X5332
H 4 0X5418
H 6 0X54ae
H 9 0X5580
H 3 0X5670
H E 0X56fc
H O 0X57e2
H T 0X58aa
B 7 0X597c
B 1 0X5a44
B 8 0X5ae4
B 2 0X5bf2
B 5 0X5cba
B 6 0X5d78
B 4 0X5e40
B 3 0X5f1c
B 9 0X5fee
B O 0X60b6
B E 0X6174
B T 0X625a
H 1 0X6412
H 7 0X64b2
H 2 0X6566
H 8 0X6642
H 6 0X671e
H 5 0X680e
H 3 0X68e0
H 4 0X698a
H O 0X6a3e
H 9 0X6af2
H E 0X6ba6
H T 0X6c96
B 1 0X6d86
B 2 0X6e3a
B 7 0X6f02
B 6 0X7010
B 8 0X709c
B 3 0X7178
B 5 0X7236
B O 0X72f4
B 4 0X73f8
B E 0X7498
B 9 0X7556
B T 0X761e
H 2 0X77ea
H 1 0X78e4
H 7 0X7970
H 8 0X7a42
H 6 0X7b0a
H 5 0X7c04
H 3 0X7cb8
H 4 0X7da8
H O 0X7e16
H 9 0X7ed4
H E 0X7fb0
H T 0X806e
B 2 0X8172
B 7 0X8230
B 1 0X830c
B 6 0X83a2
B 8 0X847e
B 3 0X8550
B 5 0X8636
B O 0X86e0
B 4 0X87e4
B E 0X88ac
B 9 0X8942
B T 0X8a00
H 7 0X8c12
H 2 0X8cda
H 1 0X8dac
H 8 0X8e2e
H 6 0X8eec
H 5 0X8ff0
H 3 0X90b8
H 4 0X918a
H O 0X9202
H 9 0X92ca
H E 0X9374
H T 0X946e
B 7 0X9568
B 1 0X963a
B 2 0X9702
B 6 0X97ca
B 8 0X9888
B 3 0X996e
B 5 0X9a40
B O 0X9ad6
B 4 0X9bbc
B E 0X9c66
B 9 0X9d38
B T 0X9e0a
H 1 0X9ff4
H 7 0Xa0b2
H 6 0Xa15c
H 2 0Xa238
H 3 0Xa31e
H 8 0Xa3fa
H O 0Xa47c
H 5 0Xa576
H 4 0Xa65c
H E 0Xa6c0
H 9 0Xa79c
H T 0Xa86e
B 7 0Xa968
B 1 0Xaa1c
B 6 0Xab0c
B 3 0Xabe8
B 2 0Xac88
B O 0Xad28
B 8 0Xae0e
B 4 0Xaeea
B 5 0Xafc6
B 9 0Xb066
B E 0Xb12e
B T 0Xb20a
H 7 0Xb3d6
H 6 0Xb4a8
H 1 0Xb584
H 2 0Xb62e
H 3 0Xb71e
H 8 0Xb7c8
H O 0Xb872
H 5 0Xb96c
H 4 0Xba5c
H E 0Xbad4
H 9 0Xbba6
H T 0Xbc78
B 6 0Xbd9a
B 7 0Xbe30
B 1 0Xbf0c
B 3 0Xbf98
B 2 0Xc09c
B O 0Xc128
B 8 0Xc1f0
B 4 0Xc2e0
B 5 0Xc3b2
B 9 0Xc47a
B E 0Xc510
B T 0Xc5f6
H 6 0Xc7e0
H 1 0Xc8da
H 7 0Xc97a
H 2 0Xca42
H 3 0Xcb00
H 8 0Xcb82
H O 0Xcc72
H 5 0Xcd4e
H 4 0Xce48
H E 0Xcede
H 9 0Xcf92
H T 0Xd064
B 1 0Xd190
B 6 0Xd208
B 7 0Xd30c
B 3 0Xd3ca
B 2 0Xd488
B O 0Xd532
B 8 0Xd604
B 4 0Xd71c
B 5 0Xd7bc
B 9 0Xd866
B E 0Xd924
B T 0Xda00
H 6 0Xdbe0
H 1 0Xdcc6
H 3 0Xdd98
H 7 0Xde74
H O 0Xdeec
H 2 0Xdfd2
H 4 0Xe0b8
H 8 0Xe158
H 9 0Xe234
H 5 0Xe31a
H E 0Xe388
H T 0Xe464
B 6 0Xe572
B 3 0Xe658
B 1 0Xe72a
B O 0Xe7ac
B 7 0Xe86a
B 4 0Xe950
B 2 0Xea4a
B 9 0Xeb12
B 8 0Xebd0
B E 0Xec84
B 5 0Xed74
B T 0Xee46
H 3 0Xeff4
H 6 0Xf0bc
H 1 0Xf198
H 7 0Xf21a
H O 0Xf300
H 2 0Xf3be
H 4 0Xf486
H 8 0Xf558
H 9 0Xf634
H 5 0Xf724
H E 0Xf7b0
H T 0Xf88c
B 3 0Xf968
B 1 0Xfa6c
B 6 0Xfaf8
B O 0Xfbc0
B 7 0Xfc74
B 4 0Xfd28
B 2 0Xfe18
B 9 0Xfef4
B 8 0Xffc6
B E 0X0098
B 5 0X017e
B T 0X0232
H 1 0X03cc
H 3 0X04b2
H 6 0X0584
H 7 0X067e
H O 0X0746
H 2 0X07c8
H 4 0X0854
H 8 0X096c
H 9 0X0a48
H 5 0X0b06
H E 0X0b9c
H T 0X0c78
B 1 0X0d40
B 6 0X0e26
B 3 0X0f16
B O 0X0fde
B 7 0X10b0
B 4 0X1178
B 2 0X1236
B 9 0X1312
B 8 0X13ee
B E 0X148e
B 5 0X1592
B T 0X1646
H 6 0X17fe
H 1 0X18bc
H O 0X1970
H 3 0X1a4c
H 4 0X1b14
H 7 0X1be6
H 9 0X1cc2
H 2 0X1da8
H 8 0X1e52
H E 0X1ee8
H 5 0X1ff6
H T 0X20dc
B 1 0X2172
B 6 0X2244
B O 0X22ee
B 4 0X23b6
B 3 0X24b0
B 9 0X2578
B 7 0X2640
B 8 0X26fe
B 2 0X27c6
B 5 0X28c0
B E 0X294c
B T 0X2a5a
H 1 0X2bcc
H O 0X2c8a
H 6 0X2d70
H 3 0X2e6a
H 4 0X2f28
H 7 0X302c
H 9 0X30cc
H 2 0X31a8
H 8 0X3234
H E 0X32e8
H 5 0X33d8
H T 0X34be
B O 0X3586
B 1 0X364e
B 6 0X3716
B 4 0X37fc
B 3 0X38ba
B 9 0X39a0
B 7 0X3a5e
B 8 0X3ae0
B 2 0X3bbc
B 5 0X3cac
B E 0X3d2e
B T 0X3e1e
H O 0X3fea
H 6 0X40ee
H 1 0X41ac
H 3 0X426a
H 4 0X4328
H 7 0X4422
H 9 0X44d6
H 2 0X45a8
H 8 0X4652
H E 0X46de
H 5 0X47d8
H T 0X4882
B 6 0X49ae
B O 0X4a76
B 1 0X4b52
B 4 0X4bde
B 3 0X4cd8
B 9 0X4dbe
B 7 0X4e9a
B 8 0X4f3a
B 2 0X4fee
B 5 0X50c0
B E 0X5160
B T 0X5228
H O 0X5412
H 6 0X54ee
H 4 0X55b6
H 1 0X56ba
H 9 0X5778
H 3 0X582c
H 8 0X58e0
H 7 0X59d0
H 5 0X5a7a
H 2 0X5b6a
H E 0X5c0a
H T 0X5cc8
B O 0X5dae
B 4 0X5e80
B 6 0X5f3e
B 9 0X604c
B 1 0X6114
B 8 0X61b4
B 3 0X62ae
B 5 0X633a
B 7 0X6416
B E 0X64ca
B 2 0X659c
B T 0X6664
H 4 0X683a
H O 0X68f8
H 6 0X69c0
H 1 0X6ab0
H 9 0X6b46
H 3 0X6c5e
H 8 0X6d12
H 7 0X6dd0
H 5 0X6ea2
H 2 0X6f6a
H E 0X6fec
H T 0X70b4
B 4 0X7190
B 6 0X729e
B O 0X7366
B 9 0X7424
B 1 0X7500
B 8 0X75e6
B 3 0X76a4
B 5 0X776c
B 7 0X7834
B E 0X78d4
B 2 0X797e
B T 0X7a5a
H 6 0X7c62
H 4 0X7d34
H O 0X7dd4
H 1 0X7e74
H 9 0X7f46
H 3 0X8040
H 8 0X80f4
H 7 0X81b2
H 5 0X8270
H 2 0X836a
H E 0X83ec
H T 0X84c8
B 6 0X85cc
B 4 0X8766
B O 0X881a
B 9 0X8842
B 1 0X88f6
B 8 0X89e6
B 3 0X8ab8
B 5 0X8b76
B 7 0X8c34
B E 0X8cd4
B 2 0X8da6
B T 0X8e78
H 6 0X9102
H 9 0X91f2
H 4 0X92f6
H O 0X936e
H 8 0X93aa
H 1 0X9472
H 5 0X951c
H 3 0X95ee
H E 0X96a2
H 7 0X9760
H 2 0X9828
H T 0X98fa
B 6 0X99f4
B 9 0X9b7a
B 8 0X9c9c
B 4 0X9d28
B O 0X9d8c
B 5 0X9e36
B 1 0X9ed6
B E 0X9fc6
B 3 0Xa070
B 2 0Xa106
B 7 0Xa1ec
B T 0Xa2be
H 6 0Xa462
H 9 0Xa4a8
H O 0Xa700
H 4 0Xa71e
H 8 0Xa7be
H 1 0Xa872
H 5 0Xa944
H 3 0Xaa16
H E 0Xaad4
H 7 0Xab88
H 2 0Xac46
H T 0Xad22
B 9 0Xadea
B 6 0Xae94
B O 0Xaf7a
B 8 0Xb074
B 4 0Xb132
B 5 0Xb1fa
B 1 0Xb2f4
B E 0Xb39e
B 3 0Xb4a2
B 2 0Xb538
B 7 0Xb5ce
B T 0Xb6aa
H 9 0Xb844
H 6 0Xb9a2
H O 0Xb9a2
H 4 0Xba9c
H 8 0Xbb96
H 1 0Xbc9a
H 5 0Xbd30
H 3 0Xbe2a
H E 0Xbe8e
H 7 0Xbf38
H 2 0Xc01e
H T 0Xc118
B O 0Xc276
B 9 0Xc30c
B 6 0Xc384
B 8 0Xc442
B 4 0Xc500
B 5 0Xc5e6
B 1 0Xc6cc
B E 0Xc76c
B 3 0Xc884
B 2 0Xc8fc
B 7 0Xc992
B T 0Xca6e
H 9 0Xcc4e
H O 0Xcd16
H 8 0Xcdc0
H 6 0Xceec
H 5 0Xcfaa
H 4 0Xd054
H E 0Xd112
H 1 0Xd1bc
H 2 0Xd2b6
H 3 0Xd388
H 7 0Xd428
H T 0Xd4f0
B 9 0Xd5a4
B 8 0Xd694
B O 0Xd748
B 5 0Xd874
B 6 0Xd928
B E 0Xda22
B 4 0Xda72
B 2 0Xdb6c
B 1 0Xdc20
B 7 0Xdcfc
B 3 0Xddce
B T 0Xde96
H 8 0Xe030
H 9 0Xe102
H O 0Xe1b6
H 6 0Xe274
H 5 0Xe378
H 4 0Xe42c
H E 0Xe4d6
H 1 0Xe5c6
H 2 0Xe684
H 3 0Xe774
H 7 0Xe81e
H T 0Xe8fa
B 8 0Xe9a4
B O 0Xead0
B 9 0Xeb98
B 5 0Xec42
B 6 0Xecba
B E 0Xed96
B 4 0Xee4a
B 2 0Xef26
B 1 0Xf00c
B 7 0Xf0ca
B 3 0Xf1b0
B T 0Xf282
H O 0Xf412
H 8 0Xf516
H 9 0Xf5c0
H 6 0Xf66a
H 5 0Xf764
H 4 0Xf836
H E 0Xf8b8
H 1 0Xf98a
H 2 0Xfa3e
H 3 0Xfb24
H 7 0Xfc0a
H T 0Xfcb4
B O 0Xfde0
B 9 0Xfe94
B 8 0Xff8e
B 5 0X0042
B 6 0X00e2
B E 0X0196
B 4 0X0240
B 2 0X0312
B 1 0X040c
B 7 0X04b6
B 3 0X0574
B T 0X0646
H 9 0X0812
H O 0X08b2
H 5 0X09e8
H 8 0X0ac4
H E 0X0b78
H 6 0X0c0e
H 2 0X0ce0
H 4 0X0d9e
H 7 0X0e5c
H 1 0X0f42
H 3 0X103c
H T 0X10a0
B O 0X1172
B 9 0X128a
B 5 0X1370
B E 0X1438
B 8 0X151e
B 2 0X15c8
B 6 0X1686
B 7 0X1758
B 4 0X17da
B 3 0X18e8
B 1 0X19a6
B T 0X1a46
H O 0X1bd6
H 5 0X1d02
H 9 0X1db6
H 8 0X1eec
H E 0X1f50
H 6 0X2022
H 2 0X20d6
H 4 0X219e
H 7 0X2252
H 1 0X234c
H 3 0X241e
H T 0X24a0
B 5 0X25cc
B O 0X266c
B 9 0X277a
B E 0X2806
B 8 0X28d8
B 2 0X29aa
B 6 0X2a5e
B 7 0X2b3a
B 4 0X2bd0
B 3 0X2cde
B 1 0X2da6
B T 0X2e46
H 5 0X301c
H 9 0X30e4
H O 0X31b6
H 8 0X3288
H E 0X3314
H 6 0X33f0
H 2 0X34ea
H 4 0X35da
H 7 0X3666
H 1 0X3738
H 3 0X37f6
H T 0X38c8
B 9 0X39b8
B 5 0X3a8a
B O 0X3b20
B E 0X3c06
B 8 0X3cb0
B 2 0X3da0
B 6 0X3e36
B 7 0X3f3a
B 4 0X4002
B 3 0X40d4
B 1 0X41b0
B T 0X425a
H 5 0X441c
H 9 0X44d0
H E 0X4598
H O 0X467e
H 2 0X473c
H 8 0X4840
H 7 0X48fe
H 6 0X496c
H 3 0X4a7a
H 4 0X4b24
H 1 0X4c0a
H T 0X4cb4
B 5 0X4da4
B E 0X4e58
B 9 0X4f52
B 2 0X4fe8
B O 0X509c
B 7 0X51a0
B 8 0X524a
B 3 0X5358
B 6 0X53d0
B 1 0X54d4
B 4 0X5560
B T 0X5632
H E 0X581c
H 5 0X58e4
H 9 0X5998
H O 0X5a60
H 2 0X5b0a
H 8 0X5c2c
H 7 0X5ca4
H 6 0X5d9e
H 3 0X5e7a
H 4 0X5f4c
H 1 0X600a
H T 0X60be
B E 0X61b8
B 9 0X626c
B 5 0X6320
B 2 0X6406
B O 0X6474
B 7 0X6564
B 8 0X6636
B 3 0X674e
B 6 0X67f8
B 1 0X68e8
B 4 0X697e
B T 0X6a46
H 9 0X6c08
H E 0X6cda
H 5 0X6d70
H O 0X6e42
H 2 0X6f14
H 8 0X700e
H 7 0X70ae
H 6 0X71b2
H 3 0X7284
H 4 0X734c
H 1 0X7428
H T 0X74c8
B 9 0X75a4
B 5 0X766c
B E 0X773e
B 2 0X77e8
B O 0X787e
B 7 0X7964
B 8 0X7a2c
B 3 0X7b3a
B 6 0X7c02
B 1 0X7cf2
B 4 0X7d9c
B T 0X7e50
H 5 0X8008
H 9 0X80d0
H 2 0X81a2
H E 0X8292
H 7 0X8314
H O 0X83be
H 3 0X84cc
H 8 0X856c
H 1 0X8670
H 6 0X8706
H 4 0X87f6
H T 0X88dc
B 9 0X8990
B 5 0X8a80
B 2 0X8b48
B 7 0X8bfc
B E 0X8c9c
B 3 0X8d8c
B O 0X8e0e
B 1 0X8f30
B 8 0X8fe4
B 4 0X9098
B 6 0X912e
B T 0X923c
H 9 0X93f4
H 2 0X949e
H 5 0X9598
H E 0X9674
H 7 0X973c
H O 0X97e6
H 3 0X98b8
H 8 0X99bc
H 1 0X9a48
H 6 0X9b06
H 4 0X9bb0
H T 0X9cb4
B 2 0X9d72
B 9 0X9e30
B 5 0X9f0c
B 7 0Xa01a
B E 0Xa0b0
B 3 0Xa1a0
B O 0Xa20e
B 1 0Xa308
B 8 0Xa3da
B 4 0Xa466
B 6 0Xa574
B T 0Xa63c
H 2 0Xa812
H 5 0Xa8a8
H 9 0Xa984
H E 0Xaa4c
H 7 0Xab00
H O 0Xabbe
H 3 0Xacb8
H 8 0Xad9e
H 1 0Xae66
H 6 0Xaf06
H 4 0Xaff6
H T 0Xb0a0
B 5 0Xb19a
B 2 0Xb276
B 9 0Xb30c
B 7 0Xb3ca
B E 0Xb4a6
B 3 0Xb5a0
B O 0Xb62c
B 1 0Xb730
B 8 0Xb7a8
B 4 0Xb884
B 6 0Xb92e
B T 0Xba0a
H 2 0Xbbf4
H 5 0Xbcbc
H 7 0Xbda2
H 9 0Xbe56
H 3 0Xbf46
H E 0Xbff0
H 1 0Xc0ae
H O 0Xc144
H 4 0Xc216
H 8 0Xc2de
H 6 0Xc3ce
H T 0Xc48c
B 2 0Xc59a
B 7 0Xc64e
B 5 0Xc702
B 3 0Xc806
B 9 0Xc8b0
B 1 0Xc964
B E 0Xca40
B 4 0Xcaa4
B O 0Xcba8
B 6 0Xcc84
B 8 0Xcd60
B T 0Xce14
H 7 0Xd008
H 2 0Xd09e
H 5 0Xd166
H 9 0Xd27e
H 3 0Xd350
H E 0Xd418
H 1 0Xd4b8
H O 0Xd56c
H 4 0Xd652
H 8 0Xd6e8
H 6 0Xd788
H T 0Xd8b4
B 7 0Xd97c
B 5 0Xda58
B 2 0Xdb20
B 3 0Xdbd4
B 9 0Xdcce
B 1 0Xdd8c
B E 0Xde22
B 4 0Xdf1c
B O 0Xdfda
B 6 0Xe07a
B 8 0Xe12e
B T 0Xe214
H 5 0Xe408
H 7 0Xe4e4
H 2 0Xe598
H 9 0Xe674
H 3 0Xe746
H E 0Xe822
H 1 0Xe8d6
H O 0Xe962
H 4 0Xea48
H 8 0Xeaf2
H 6 0Xeb9c
H T 0Xecaa
B 5 0Xed86
B 2 0Xee6c
B 7 0Xef2a
B 3 0Xf006
B 9 0Xf0d8
B 1 0Xf18c
B E 0Xf25e
B 4 0Xf2ea
B O 0Xf3e4
B 6 0Xf498
B 8 0Xf556
B T 0Xf632
H 2 0Xf826
H 5 0Xf8c6
H 3 0Xf9ac
H 7 0Xfa74
H 1 0Xfb50
H 9 0Xfc0e
H 4 0Xfc7c
H E 0Xfd3a
H 6 0Xfe48
H O 0Xff10
H 8 0Xffe2
H T 0X00d2
B 5 0X01a4
B 2 0X026c
B 3 0X032a
B 1 0X03fc
B 7 0X04a6
B 4 0X055a
B 9 0X0654
B 6 0X073a
B E 0X07da
B 8 0X0884
B O 0X097e
B T 0X0a64
H 5 0X0c08
H 3 0X0ce4
H 2 0X0da2
H 7 0X0e56
H 1 0X0f3c
H 9 0X0ff0
H 4 0X1090
H E 0X116c
H 6 0X1234
H O 0X1310
H 8 0X13d8
H T 0X14aa
B 3 0X15a4
B 5 0X1680
B 2 0X1752
B 1 0X181a
B 7 0X1892
B 4 0X195a
B 9 0X1a54
B 6 0X1b1c
B E 0X1bee
B 8 0X1ca2
B O 0X1d6a
B T 0X1e46
H 3 0X2030
H 2 0X20ee
H 5 0X2184
H 7 0X2288
H 1 0X231e
H 9 0X23f0
H 4 0X24d6
H E 0X2576
H 6 0X265c
H O 0X2706
H 8 0X27c4
H T 0X2896
B 2 0X29ae
B 3 0X2a62
B 5 0X2b16
B 1 0X2be8
B 7 0X2cb0
B 4 0X2d8c
B 9 0X2e5e
B 6 0X2f12
B E 0X2fda
B 8 0X30ac
B O 0X316a
B T 0X3232
H 3 0X3408
H 2 0X34d0
H 1 0X35ca
H 5 0X3674
H 4 0X375a
H 7 0X37e6
H 6 0X38ea
H 9 0X3994
H 8 0X3a70
H E 0X3b10
H O 0X3bd8
H T 0X3cb4
B 3 0X3d9a
B 1 0X3e62
B 2 0X3f0c
B 4 0X3fac
B 5 0X40a6
B 6 0X415a
B 7 0X422c
B 8 0X42f4
B 9 0X43bc
B O 0X448e
B E 0X4556
B T 0X4632
H 1 0X4812
H 3 0X48da
H 2 0X497a
H 5 0X4a60
H 4 0X4b3c
H 7 0X4be6
H 6 0X4c72
H 9 0X4d30
H 8 0X4e02
H E 0X4ede
H O 0X4f9c
H T 0X5082
B 1 0X5168
B 2 0X5230
B 3 0X52f8
B 4 0X5398
B 5 0X5492
B 6 0X5550
B 7 0X55fa
B 8 0X56b8
B 9 0X579e
B O 0X587a
B E 0X5924
B T 0X59d8
H 1 0X5b72
H 2 0X5c44
H 3 0X5d0c
H 4 0X5df2
H 5 0X5e88
H 6 0X5f78
H 7 0X6072
H 8 0X6130
H 9 0X61f8
H O 0X6298
H E 0X6342
H T 0X6428
B 1 0X64c8
B 2 0X6590
B 3 0X6662
B 4 0X66e4
B 5 0X67ca
B 6 0X68e2
B 7 0X69be
B 8 0X6a72
B 9 0X6b4e
B O 0X6be4
B E 0X6cde
B T 0X6d88
H 1 0X6f22
H 2 0X6fe0
H 3 0X70a8
H 4 0X7170
H 5 0X71fc
H 6 0X72f6
H 7 0X73e6
H 8 0X74b8
H 9 0X758a
H O 0X7634
H E 0X771a
H T 0X77f6
B 1 0X78a0
B 2 0X7968
B 3 0X7a3a
B 4 0X7a94
B 5 0X7b66
B 6 0X7c60
B 7 0X7d28
B 8 0X7e0e
B 9 0X7eea
B O 0X7fda
B E 0X80a2
B T 0X817e
