       Transcription Difficulty Analysis
         Bell Handstroke Backstroke
           1     6.57        12.71
           2     4.85        5.29
           3     2.48        2.12
           4     1.62        1.71
           5     4.31        4.55
           6     0.44        0.47
           7     1.30        1.39
           8     2.12        1.42
           9     3.50        3.10
          10     0.75        0.14
          11     0.29        1.42
          12     1.27        0.79
         Overall Transcription Difficulty       2.69
       Bad Blow Analysis
         Reporting threshold = 39
         List of blow transcriptions exceeding threshold
            ChangeNo  BellNo  metric
               36     11       54
               38     11       45
               44     11       74
               66     11       43
               84      1       51
               90     11       43
               94     11       41
              112      1       58
              112     11       56
              118      1       40
              120      1       40
              122      1       44
              126      1       93
              128      1       41
              130     11       46
              148     11       81
              174     11      102
              182      1       46
              182     11       39
              194      1       40
              195      1       44
              199     10       55
              206     11       53
              211     11       71
              218     11       50
              220     11       50
              236      1       51
              244      1      114
              250      1       78
              256     11       47
              286     11       44
         Total blow transcriptions exceeding threshold: 31
