#. Lowndes: Version 2
#. SourceFilename: C:\Users\Guildford Ringers\Documents\guildfordcathedralbells.bitbucket.io\Recordings\Guildford\Guildford.20220529-1706.s0t0.5.wav
#. Tower: Guildford Cathedral
#. RingingName: Touch_5
#. RingingDateTime: 20220529-1706
#. Rungon: 
#. Tenor: 12
#. NumBellsRinging: 12
#. Creator: HawkEar Team Edition V1 for Guildford Cathedral
#. CreatorVersion: 1.1.0.3
#. TranscribedFor: Guildford band
#. TranscriptionDateTime: 20220529-1807
#. FirstBlowMs: 6930
#. TouchdB: -8.64899
#. TraindB: -9.73, -8.5, -6.1, -3.11, -3.16, -3.1, -3.98, -4.12, -5.95, -5.43, -4.92, -3
#. TrainedOn: 20220102-1438
#. TrainDataRecordedOn: 20210813-1741
#. TrainParams: -ft:y -ws:0.05 -hs:0.01 -co:0.9 -sw:40 -ts:
#. GainParams: -fh:6000 -fl:200
#. OnsetParams: -mb:80 -mf:10 -ng:0.3 -oo:0
#. WriteParams: -hb:y
#. AnalParams: -au:n -xp:n -sg:n -hsg:-1
#. ExpString: 
#. Association:
#. Calling:
#. CompositionName:
#. Method:
#. Footnotes:
#. Ringers:
#. Stage:
H 1 0X0000
H 2 0X00fa
H 3 0X01ae
H 4 0X024e
H 5 0X0316
H 6 0X03f2
H 7 0X04f6
H 8 0X058c
H 9 0X0654
H O 0X06fe
H E 0X07ee
H T 0X08f2
B 1 0X09f6
B 2 0X0aaa
B 3 0X0b86
B 4 0X0c4e
B 5 0X0d2a
B 6 0X0df2
B 7 0X0ed8
B 8 0X0faa
B 9 0X1072
B O 0X1158
B E 0X1216
B T 0X1338
H 1 0X14dc
H 2 0X159a
H 3 0X1658
H 4 0X16ee
H 5 0X17e8
H 6 0X18a6
H 7 0X198c
H 8 0X1a40
H 9 0X1b30
H O 0X1bda
H E 0X1cca
H T 0X1db0
B 1 0X1e50
B 2 0X1f0e
B 3 0X1fc2
B 4 0X2080
B 5 0X215c
B 6 0X2224
B 7 0X231e
B 8 0X23d2
B 9 0X24d6
B O 0X25bc
B E 0X26a2
B T 0X2756
H 1 0X2904
H 2 0X29a4
H 3 0X2a6c
H 4 0X2b02
H 5 0X2bde
H 6 0X2cb0
H 7 0X2daa
H 8 0X2e68
H 9 0X2f1c
H O 0X2fe4
H E 0X3098
H T 0X317e
B 1 0X3250
B 2 0X32fa
B 3 0X33cc
B 4 0X349e
B 5 0X3552
B 6 0X3624
B 7 0X3700
B 8 0X37c8
B 9 0X389a
B O 0X3980
B E 0X3a3e
B T 0X3b10
H 1 0X3cc8
H 2 0X3d68
H 3 0X3e3a
H 4 0X3eee
H 5 0X3fca
H 6 0X4092
H 7 0X4178
H 8 0X4222
H 9 0X42e0
H O 0X43a8
H E 0X4470
H T 0X4542
B 1 0X4632
B 2 0X46d2
B 3 0X4790
B 4 0X4844
B 5 0X490c
B 6 0X49de
B 7 0X4ace
B 8 0X4b8c
B 9 0X4c5e
B O 0X4d44
B E 0X4e20
B T 0X4ede
H 1 0X5096
H 2 0X514a
H 3 0X5208
H 4 0X528a
H 5 0X5366
H 6 0X5438
H 7 0X5514
H 8 0X55d2
H 9 0X5690
H O 0X5762
H E 0X5848
H T 0X5910
B 1 0X59ec
B 2 0X5a96
B 3 0X5b68
B 4 0X5c1c
B 5 0X5cee
B 6 0X5dc0
B 7 0X5ea6
B 8 0X5f64
B 9 0X5ffa
B O 0X60e0
B E 0X61bc
B T 0X62a2
H 1 0X646e
H 2 0X6504
H 3 0X65c2
H 4 0X666c
H 5 0X6734
H 6 0X6810
H 7 0X68e2
H 8 0X6996
H 9 0X6a54
H O 0X6afe
H E 0X6be4
H T 0X6cb6
B 1 0X6d74
B 2 0X6e3c
B 3 0X6f04
B 4 0X6fd6
B 5 0X7094
B 6 0X7166
B 7 0X7242
B 8 0X7300
B 9 0X73dc
B O 0X74ae
B E 0X759e
B T 0X7652
H 1 0X77ec
H 2 0X7896
H 3 0X795e
H 4 0X7a26
H 5 0X7ada
H 6 0X7bac
H 7 0X7c7e
H 8 0X7d3c
H 9 0X7e18
H O 0X7eea
H E 0X7fa8
H T 0X8070
B 1 0X8138
B 2 0X81e2
B 3 0X82a0
B 4 0X8368
B 5 0X8430
B 6 0X8502
B 7 0X85e8
B 8 0X86ba
B 9 0X8782
B O 0X884a
B E 0X8926
B T 0X89f8
H 1 0X8b92
H 2 0X8c46
H 3 0X8d04
H 4 0X8dc2
H 5 0X8e94
H 6 0X8f66
H 7 0X9010
H 8 0X90d8
H 9 0X91d2
H O 0X9290
H E 0X9394
H T 0X9448
B 1 0X9538
B 2 0X95b0
B 3 0X9678
B 4 0X9722
B 5 0X97ea
B 6 0X98a8
B 7 0X997a
B 8 0X9a56
B 9 0X9b14
B O 0X9c18
B E 0X9cfe
B T 0X9dbc
H 1 0X9f7e
H 2 0Xa032
H 3 0Xa0dc
H 4 0Xa190
H 5 0Xa26c
H 6 0Xa32a
H 7 0Xa3f2
H 8 0Xa4ba
H 9 0Xa550
H O 0Xa64a
H E 0Xa730
H T 0Xa7f8
B 1 0Xa8c0
B 2 0Xa974
B 3 0Xaa3c
B 4 0Xaae6
B 5 0Xaba4
B 6 0Xac94
B 7 0Xad52
B 8 0Xae06
B 9 0Xaef6
B O 0Xafaa
B E 0Xb0a4
B T 0Xb180
H 1 0Xb32e
H 2 0Xb3ce
H 3 0Xb4b4
H 4 0Xb536
H 5 0Xb5f4
H 6 0Xb6d0
H 7 0Xb7ac
H 8 0Xb86a
H 9 0Xb932
H O 0Xba18
H E 0Xbae0
H T 0Xbba8
B 1 0Xbc8e
B 2 0Xbd2e
B 3 0Xbdec
B 4 0Xbebe
B 5 0Xbf54
B 6 0Xc03a
B 7 0Xc102
B 8 0Xc1ca
B 9 0Xc2a6
B O 0Xc378
B E 0Xc44a
B T 0Xc51c
H 1 0Xc6c0
H 2 0Xc77e
H 3 0Xc83c
H 4 0Xc8dc
H 5 0Xc9ae
H 6 0Xca94
H 7 0Xcb7a
H 8 0Xcc38
H 9 0Xccd8
H O 0Xcdb4
H E 0Xce86
H T 0Xcf58
B 1 0Xd002
B 2 0Xd0d4
B 3 0Xd19c
B 4 0Xd250
B 5 0Xd304
B 6 0Xd3ea
B 7 0Xd4d0
B 8 0Xd598
B 9 0Xd66a
B O 0Xd75a
B E 0Xd822
B T 0Xd8fe
H 2 0Xda8e
H 1 0Xdb6a
H 3 0Xdc28
H 5 0Xdcdc
H 4 0Xdd7c
H 7 0Xde44
H 6 0Xdf16
H 9 0Xdfd4
H 8 0Xe0b0
H E 0Xe1a0
H O 0Xe272
H T 0Xe330
B 2 0Xe3e4
B 3 0Xe4ac
B 1 0Xe588
B 4 0Xe632
B 5 0Xe6fa
B 6 0Xe7cc
B 7 0Xe894
B 8 0Xe95c
B 9 0Xea10
B O 0Xeb0a
B E 0Xebdc
B T 0Xecb8
H 3 0Xee48
H 2 0Xeef2
H 4 0Xefb0
H 1 0Xf0a0
H 6 0Xf168
H 5 0Xf24e
H 8 0Xf30c
H 7 0Xf3d4
H 9 0Xf492
H E 0Xf550
H O 0Xf618
H T 0Xf6cc
B 2 0Xf7b2
B 3 0Xf87a
B 4 0Xf924
B 6 0Xfa0a
B 1 0Xfad2
B 8 0Xfba4
B 5 0Xfc6c
B 9 0Xfd48
B 7 0Xfe10
B O 0Xfec4
B E 0Xff96
B T 0X0072
H 2 0X0202
H 4 0X0298
H 3 0X037e
H 1 0X045a
H 6 0X052c
H 5 0X05f4
H 8 0X06bc
H 7 0X077a
H 9 0X0856
H E 0X0932
H O 0X09e6
H T 0X0aa4
B 4 0X0b80
B 2 0X0c02
B 3 0X0cde
B 6 0X0dba
B 1 0X0eb4
B 8 0X0f90
B 5 0X103a
B 9 0X10f8
B 7 0X11ca
B O 0X127e
B E 0X136e
B T 0X144a
H 4 0X15da
H 3 0X16a2
H 2 0X1738
H 1 0X183c
H 6 0X1904
H 5 0X19c2
H 8 0X1a9e
H 7 0X1b5c
H 9 0X1c2e
H E 0X1d14
H O 0X1db4
H T 0X1e68
B 3 0X1f80
B 4 0X200c
B 2 0X20b6
B 6 0X2188
B 1 0X2278
B 8 0X234a
B 5 0X2408
B 9 0X249e
B 7 0X258e
B O 0X2674
B E 0X2778
B T 0X282c
H 4 0X29c6
H 3 0X2a84
H 6 0X2b60
H 2 0X2c00
H 8 0X2caa
H 1 0X2dc2
H 9 0X2e62
H 5 0X2f66
H O 0X3010
H 7 0X30e2
H E 0X318c
H T 0X3240
B 4 0X3362
B 6 0X3416
B 3 0X34de
B 8 0X3588
B 2 0X361e
B 9 0X3704
B 1 0X37f4
B O 0X38d0
B 5 0X3998
B E 0X3a4c
B 7 0X3b3c
B T 0X3bdc
H 6 0X3dc6
H 4 0X3e70
H 3 0X3f38
H 2 0X4014
H 8 0X40dc
H 1 0X41b8
H 9 0X4244
H 5 0X4334
H O 0X43d4
H 7 0X449c
H E 0X4532
H T 0X460e
B 6 0X473a
B 3 0X47e4
B 4 0X48b6
B 8 0X499c
B 2 0X4a46
B 9 0X4b54
B 1 0X4c1c
B O 0X4cda
B 5 0X4d66
B E 0X4e1a
B 7 0X4eec
B T 0X4fbe
H 3 0X518a
H 6 0X5252
H 4 0X5306
H 2 0X5400
H 8 0X54a0
H 1 0X5590
H 9 0X566c
H 5 0X5720
H O 0X57d4
H 7 0X5892
H E 0X595a
H T 0X5a18
B 3 0X5ae0
B 4 0X5b94
B 6 0X5c7a
B 8 0X5d4c
B 2 0X5e00
B 9 0X5f2c
B 1 0X5fd6
B O 0X60b2
B 5 0X6152
B E 0X6224
B 7 0X6300
B T 0X63b4
H 4 0X653a
H 3 0X6602
H 8 0X66e8
H 6 0X67d8
H 9 0X6896
H 2 0X694a
H O 0X6a44
H 1 0X6b02
H 5 0X6bac
H 7 0X6c92
H E 0X6d28
H T 0X6dfa
B 3 0X6ee0
B 4 0X6f94
B 8 0X7052
B 9 0X7138
B 6 0X7214
B O 0X730e
B 2 0X7390
B 5 0X748a
B 1 0X7552
B E 0X761a
B 7 0X76ec
B T 0X77aa
H 3 0X793a
H 8 0X79f8
H 4 0X7ab6
H 6 0X7b9c
H 9 0X7ca0
H 2 0X7d40
H O 0X7e12
H 1 0X7eee
H 5 0X7f8e
H 7 0X8088
H E 0X8164
H T 0X8218
B 8 0X82fe
B 3 0X83d0
B 4 0X845c
B 9 0X8542
B 6 0X85f6
B O 0X86dc
B 2 0X874a
B 5 0X884e
B 1 0X892a
B E 0X8a06
B 7 0X8ac4
B T 0X8baa
H 8 0X8d4e
H 4 0X8e16
H 3 0X8ed4
H 6 0X8fe2
H 9 0X90aa
H 2 0X9154
H O 0X9208
H 1 0X92ee
H 5 0X937a
H 7 0X944c
H E 0X9500
H T 0X95dc
B 4 0X96e0
B 8 0X979e
B 3 0X9870
B 9 0X9938
B 6 0X9a14
B O 0X9ab4
B 2 0X9b54
B 5 0X9c4e
B 1 0X9d20
B E 0X9df2
B 7 0X9ea6
B T 0X9f78
H 8 0Xa14e
H 4 0Xa216
H 9 0Xa2de
H 3 0Xa388
H O 0Xa446
H 6 0Xa522
H 5 0Xa5e0
H 2 0Xa6c6
H E 0Xa7a2
H 1 0Xa860
H 7 0Xa928
H T 0Xa9b4
B 8 0Xaa90
B 9 0Xab94
B 4 0Xac66
B O 0Xad2e
B 3 0Xae14
B 5 0Xaebe
B 6 0Xafb8
B E 0Xb094
B 2 0Xb0d0
B 7 0Xb1de
B 1 0Xb29c
B T 0Xb350
H 9 0Xb56c
H 8 0Xb60c
H 4 0Xb6ca
H 3 0Xb79c
H O 0Xb850
H 6 0Xb922
H 5 0Xb9e0
H 2 0Xbab2
H E 0Xbb8e
H 1 0Xbc60
H 7 0Xbd32
H T 0Xbdb4
B 9 0Xbeb8
B 4 0Xbf4e
B 8 0Xc02a
B O 0Xc11a
B 3 0Xc1ec
B 5 0Xc2e6
B 6 0Xc3cc
B E 0Xc476
B 2 0Xc4bc
B 7 0Xc5e8
B 1 0Xc6b0
B T 0Xc750
H 4 0Xc91c
H 9 0Xc9ee
H 8 0Xca8e
H 3 0Xcb74
H O 0Xcc32
H 6 0Xcd22
H 5 0Xcdea
H 2 0Xcebc
H E 0Xcf48
H 1 0Xd02e
H 7 0Xd128
H T 0Xd1be
B 4 0Xd2ae
B 8 0Xd362
B 9 0Xd452
B O 0Xd51a
B 3 0Xd5d8
B 5 0Xd6fa
B 6 0Xd7c2
B E 0Xd84e
B 2 0Xd89e
B 7 0Xd9e8
B 1 0Xda92
B T 0Xdb50
H 8 0Xdd4e
H 4 0Xdde4
H O 0Xdea2
H 9 0Xdf88
H 5 0Xe046
H 3 0Xe10e
H E 0Xe1c2
H 6 0Xe2bc
H 7 0Xe370
H 2 0Xe410
H 1 0Xe50a
H T 0Xe5b4
B 4 0Xe6c2
B 8 0Xe780
B O 0Xe83e
B 5 0Xe8e8
B 9 0Xe9d8
B E 0Xeaaa
B 3 0Xeb86
B 7 0Xec44
B 6 0Xed2a
B 1 0Xedc0
B 2 0Xee4c
B T 0Xef28
H 4 0Xf0ea
H O 0Xf1c6
H 8 0Xf2a2
H 9 0Xf37e
H 5 0Xf432
H 3 0Xf50e
H E 0Xf5b8
H 6 0Xf68a
H 7 0Xf766
H 2 0Xf824
H 1 0Xf8f6
H T 0Xf9b4
B O 0Xfaae
B 4 0Xfb4e
B 8 0Xfc02
B 5 0Xfcde
B 9 0Xfd9c
B E 0Xfe96
B 3 0Xff54
B 7 0X0044
B 6 0X0120
B 1 0X0198
B 2 0X0238
B T 0X0332
H O 0X04c2
H 8 0X05a8
H 4 0X0670
H 9 0X0742
H 5 0X0800
H 3 0X08c8
H E 0X097c
H 6 0X0a62
H 7 0X0b34
H 2 0X0c06
H 1 0X0cf6
H T 0X0d8c
B 8 0X0e7c
B O 0X0f3a
B 4 0X1020
B 5 0X10c0
B 9 0X117e
B E 0X1232
B 3 0X1318
B 7 0X13e0
B 6 0X14c6
B 1 0X155c
B 2 0X1610
B T 0X1700
H O 0X18d6
H 8 0X1994
H 5 0X1a52
H 4 0X1b10
H E 0X1bd8
H 9 0X1caa
H 7 0X1d7c
H 3 0X1e3a
H 1 0X1f02
H 6 0X1fd4
H 2 0X20b0
H T 0X2178
B O 0X2236
B 5 0X233a
B 8 0X23f8
B E 0X24b6
B 4 0X25b0
B 7 0X260a
B 9 0X2704
B 1 0X27ae
B 3 0X289e
B 2 0X2934
B 6 0X2a2e
B T 0X2b0a
H 5 0X2ce0
H O 0X2d76
H 8 0X2e2a
H 4 0X2ef2
H E 0X2fc4
H 9 0X30c8
H 7 0X31a4
H 3 0X324e
H 1 0X3334
H 6 0X33fc
H 2 0X347e
H T 0X3564
B 5 0X3618
B 8 0X3708
B O 0X37e4
B E 0X38d4
B 4 0X39b0
B 7 0X3a78
B 9 0X3b2c
B 1 0X3bea
B 3 0X3c76
B 2 0X3d70
B 6 0X3e56
B T 0X3f00
H 8 0X40ae
H 5 0X419e
H O 0X422a
H 4 0X4306
H E 0X43c4
H 9 0X44be
H 7 0X45a4
H 3 0X463a
H 1 0X4720
H 6 0X47fc
H 2 0X48ba
H T 0X498c
B 8 0X4a36
B O 0X4b12
B 5 0X4c20
B E 0X4cd4
B 4 0X4d6a
B 7 0X4e3c
B 9 0X4f04
B 1 0X4fd6
B 3 0X5080
B 2 0X5166
B 6 0X5256
B T 0X530a
H O 0X54a4
H 8 0X556c
H E 0X565c
H 5 0X5742
H 7 0X581e
H 4 0X58a0
H 1 0X5986
H 9 0X5a58
H 2 0X5b0c
H 3 0X5bc0
H 6 0X5c7e
H T 0X5d6e
B 8 0X5e18
B O 0X5f12
B E 0X5ff8
B 7 0X60c0
B 5 0X619c
B 1 0X6250
B 4 0X62fa
B 2 0X6390
B 9 0X64d0
B 6 0X6584
B 3 0X661a
B T 0X66f6
H 8 0X68ae
H E 0X699e
H O 0X6a48
H 5 0X6b42
H 7 0X6c1e
H 4 0X6caa
H 1 0X6d90
H 9 0X6e80
H 2 0X6eee
H 3 0X6fc0
H 6 0X7088
H T 0X716e
B E 0X7272
B 8 0X7326
B O 0X73e4
B 7 0X74ca
B 5 0X75b0
B 1 0X765a
B 4 0X76f0
B 2 0X77b8
B 9 0X78a8
B 6 0X797a
B 3 0X7a06
B T 0X7af6
H E 0X7c7c
H O 0X7d8a
H 8 0X7e5c
H 5 0X7f42
H 7 0X801e
H 4 0X80b4
H 1 0X81c2
H 9 0X8276
H 2 0X8302
H 3 0X83c0
H 6 0X8492
H T 0X856e
B O 0X864a
B E 0X871c
B 8 0X87e4
B 7 0X88d4
B 5 0X89a6
B 1 0X8a64
B 4 0X8b0e
B 2 0X8bd6
B 9 0X8c94
B 6 0X8d98
B 3 0X8dfc
B T 0X8f00
H E 0X90cc
H O 0X91a8
H 7 0X9252
H 8 0X9306
H 1 0X941e
H 5 0X94dc
H 2 0X95b8
H 4 0X9608
H 6 0X9720
H 9 0X97e8
H 3 0X987e
H T 0X995a
B E 0X9a86
B 7 0X9b1c
B O 0X9bda
B 1 0X9cac
B 8 0X9d56
B 2 0X9e1e
B 5 0X9edc
B 6 0X9fc2
B 4 0Xa080
B 3 0Xa15c
B 9 0Xa242
B T 0Xa30a
H 7 0Xa47c
H E 0Xa576
H O 0Xa65c
H 8 0Xa72e
H 1 0Xa80a
H 5 0Xa8b4
H 2 0Xa972
H 4 0Xa9fe
H 6 0Xaada
H 9 0Xabca
H 3 0Xac74
H T 0Xad46
B 7 0Xae04
B O 0Xaefe
B E 0Xb00c
B 1 0Xb0ca
B 8 0Xb192
B 2 0Xb228
B 5 0Xb304
B 6 0Xb3d6
B 4 0Xb4a8
B 3 0Xb548
B 9 0Xb5f2
B T 0Xb6d8
H O 0Xb89a
H 7 0Xb958
H E 0Xba52
H 8 0Xbb10
H 1 0Xbbe2
H 5 0Xbcbe
H 2 0Xbd68
H 4 0Xbe12
H 6 0Xbee4
H 9 0Xbfd4
H 3 0Xc060
H T 0Xc13c
B O 0Xc218
B E 0Xc330
B 7 0Xc3ee
B 1 0Xc48e
B 8 0Xc560
B 2 0Xc61e
B 5 0Xc6fa
B 6 0Xc7ea
B 4 0Xc894
B 3 0Xc948
B 9 0Xca1a
B T 0Xcace
H E 0Xcc9a
H O 0Xcd76
H 1 0Xce34
H 7 0Xcf4c
H 2 0Xcff6
H 8 0Xd0a0
H 6 0Xd172
H 5 0Xd23a
H 3 0Xd2d0
H 4 0Xd38e
H 9 0Xd488
H T 0Xd550
B O 0Xd636
B E 0Xd71c
B 1 0Xd7c6
B 2 0Xd87a
B 7 0Xd960
B 6 0Xda28
B 8 0Xdb0e
B 3 0Xdba4
B 5 0Xdc4e
B 9 0Xdd3e
B 4 0Xddf2
B T 0Xdece
H O 0Xe072
H 1 0Xe158
H E 0Xe202
H 7 0Xe324
H 2 0Xe3ce
H 8 0Xe4aa
H 6 0Xe57c
H 5 0Xe63a
H 3 0Xe6da
H 4 0Xe784
H 9 0Xe86a
H T 0Xe93c
B 1 0Xea04
B O 0Xeaf4
B E 0Xebe4
B 2 0Xec84
B 7 0Xed56
B 6 0Xee46
B 8 0Xef04
B 3 0Xefa4
B 5 0Xf06c
B 9 0Xf170
B 4 0Xf21a
B T 0Xf2b0
H 1 0Xf486
H E 0Xf562
H O 0Xf62a
H 7 0Xf6de
H 2 0Xf7a6
H 8 0Xf882
H 6 0Xf968
H 5 0Xfa44
H 3 0Xfada
H 4 0Xfbac
H 9 0Xfc88
H T 0Xfd1e
B E 0Xfe4a
B 1 0Xfecc
B O 0Xffbc
B 2 0X003e
B 7 0X011a
B 6 0X021e
B 8 0X02e6
B 3 0X03ae
B 5 0X0462
B 9 0X052a
B 4 0X0624
B T 0X06c4
H 1 0X087c
H E 0X0944
H 2 0X0a20
H O 0X0aca
H 6 0X0bba
H 7 0X0c8c
H 3 0X0d40
H 8 0X0e1c
H 9 0X0eee
H 5 0X0fb6
H 4 0X1092
H T 0X1128
B 1 0X1204
B 2 0X12b8
B E 0X1376
B 6 0X1466
B O 0X1542
B 3 0X1614
B 7 0X16d2
B 9 0X179a
B 8 0X184e
B 4 0X193e
B 5 0X1a24
B T 0X1ace
H 2 0X1ccc
H 1 0X1db2
H E 0X1df8
H O 0X1ed4
H 6 0X1fb0
H 7 0X2082
H 3 0X212c
H 8 0X21f4
H 9 0X229e
H 5 0X23ac
H 4 0X2460
H T 0X2532
B 2 0X262c
B E 0X2730
B 1 0X27a8
B 6 0X283e
B O 0X2938
B 3 0X2a0a
B 7 0X2b0e
B 9 0X2ba4
B 8 0X2c44
B 4 0X2d16
B 5 0X2e06
B T 0X2ece
H E 0X30b8
H 2 0X316c
H 1 0X3252
H O 0X32fc
H 6 0X33ba
H 7 0X34aa
H 3 0X355e
H 8 0X361c
H 9 0X36da
H 5 0X37ac
H 4 0X3860
H T 0X3932
B E 0X3a54
B 1 0X3aae
B 2 0X3b76
B 6 0X3c98
B O 0X3d74
B 3 0X3e6e
B 7 0X3ef0
B 9 0X3fae
B 8 0X4094
B 4 0X415c
B 5 0X422e
B T 0X42ba
H 1 0X4490
H E 0X4544
H 6 0X4634
H 2 0X4710
H 3 0X4828
H O 0X48c8
H 9 0X4990
H 7 0X4a30
H 4 0X4af8
H 8 0X4bc0
H 5 0X4c4c
H T 0X4d28
B E 0X4e36
B 1 0X4ecc
B 6 0X4fb2
B 3 0X50ca
B 2 0X514c
B 9 0X5250
B O 0X52fa
B 4 0X53d6
B 7 0X546c
B 5 0X5552
B 8 0X5624
B T 0X56ce
H E 0X58a4
H 6 0X5976
H 1 0X5a52
H 2 0X5b10
H 3 0X5be2
H O 0X5c5a
H 9 0X5d5e
H 7 0X5e26
H 4 0X5eda
H 8 0X5fa2
H 5 0X6074
H T 0X6164
B 6 0X6240
B E 0X6326
B 1 0X63bc
B 3 0X6484
B 2 0X6506
B 9 0X6628
B O 0X66f0
B 4 0X67cc
B 7 0X688a
B 5 0X6970
B 8 0X6a2e
B T 0X6b00
H 6 0X6c90
H 1 0X6d8a
H E 0X6e20
H 2 0X6f1a
H 3 0X6fc4
H O 0X7078
H 9 0X7140
H 7 0X721c
H 4 0X72e4
H 8 0X73a2
H 5 0X7492
H T 0X7578
B 1 0X7622
B 6 0X7712
B E 0X77c6
B 3 0X7898
B 2 0X794c
B 9 0X7a28
B O 0X7afa
B 4 0X7bcc
B 7 0X7c94
B 5 0X7d7a
B 8 0X7e42
B T 0X7f14
H 6 0X80c2
H 1 0X81c6
H 3 0X827a
H E 0X8306
H 9 0X83e2
H 2 0X84aa
H 4 0X8554
H O 0X85ea
H 5 0X86ee
H 7 0X87f2
H 8 0X88b0
H T 0X896e
B 6 0X8a4a
B 3 0X8b08
B 1 0X8bda
B 9 0X8cb6
B E 0X8d60
B 4 0X8e0a
B 2 0X8ebe
B 5 0X8fc2
B O 0X9094
B 8 0X9198
B 7 0X9260
B T 0X9300
H 3 0X94cc
H 6 0X959e
H 1 0X96c0
H E 0X9738
H 9 0X9800
H 2 0X98be
H 4 0X9940
H O 0X9a1c
H 5 0X9ae4
H 7 0X9be8
H 8 0X9c92
H T 0X9d64
B 3 0X9e40
B 1 0X9f12
B 6 0X9fee
B 9 0Xa0b6
B E 0Xa19c
B 4 0Xa228
B 2 0Xa2c8
B 5 0Xa3b8
B O 0Xa4b2
B 8 0Xa57a
B 7 0Xa642
B T 0Xa70a
H 1 0Xa8ea
H 3 0Xa9b2
H 6 0Xaa7a
H E 0Xab2e
H 9 0Xac0a
H 2 0Xacb4
H 4 0Xad36
H O 0Xae58
H 5 0Xaef8
H 7 0Xaff2
H 8 0Xb09c
H T 0Xb15a
B 1 0Xb25e
B 6 0Xb330
B 3 0Xb420
B 9 0Xb4de
B E 0Xb59c
B 4 0Xb63c
B 2 0Xb6dc
B 5 0Xb7f4
B O 0Xb8d0
B 8 0Xb9a2
B 7 0Xba56
B T 0Xbb00
H 6 0Xbca4
H 1 0Xbdc6
H 9 0Xbeac
H 3 0Xbf4c
H 4 0Xc01e
H E 0Xc0d2
H 5 0Xc19a
H 2 0Xc26c
H 8 0Xc316
H O 0Xc3de
H 7 0Xc4d8
H T 0Xc58c
B 1 0Xc668
B 6 0Xc726
B 9 0Xc802
B 4 0Xc906
B 3 0Xc9a6
B 5 0Xca8c
B E 0Xcb0e
B 8 0Xcbe0
B 2 0Xcc94
B 7 0Xcd8e
B O 0Xce4c
B T 0Xcf3c
H 1 0Xd0fe
H 9 0Xd1b2
H 6 0Xd266
H 3 0Xd34c
H 4 0Xd414
H E 0Xd504
H 5 0Xd5cc
H 2 0Xd6b2
H 8 0Xd75c
H O 0Xd7f2
H 7 0Xd8ba
H T 0Xd98c
B 9 0Xda7c
B 1 0Xdb62
B 6 0Xdc34
B 4 0Xdce8
B 3 0Xdd92
B 5 0Xdeaa
B E 0Xdf4a
B 8 0Xe030
B 2 0Xe0bc
B 7 0Xe198
B O 0Xe26a
B T 0Xe332
H 9 0Xe526
H 6 0Xe5da
H 1 0Xe6d4
H 3 0Xe77e
H 4 0Xe80a
H E 0Xe90e
H 5 0Xe9cc
H 2 0Xead0
H 8 0Xeb7a
H O 0Xec24
H 7 0Xecec
H T 0Xed64
B 6 0Xee54
B 9 0Xef9e
B 1 0Xf066
B 4 0Xf0d4
B 3 0Xf1f6
B 5 0Xf2aa
B E 0Xf354
B 8 0Xf46c
B 2 0Xf4d0
B 7 0Xf5ca
B O 0Xf6b0
B T 0Xf76e
H 9 0Xf944
H 6 0Xf9ee
H 4 0Xfb06
H 1 0Xfbd8
H 5 0Xfc64
H 3 0Xfd22
H 8 0Xfde0
H E 0Xfea8
H 2 0Xff84
H O 0X0038
H 7 0X010a
H T 0X01d2
B 9 0X02b8
B 4 0X03ee
B 6 0X04a2
B 5 0X054c
B 1 0X05d8
B 8 0X06b4
B 3 0X07ae
B 2 0X081c
B E 0X08c6
B 7 0X09c0
B O 0X0aba
B T 0X0b82
H 4 0X0d1c
H 9 0X0e20
H 6 0X0eca
H 1 0X0f7e
H 5 0X1078
H 3 0X1122
H 8 0X1208
H E 0X12e4
H 2 0X1384
H O 0X144c
H 7 0X150a
H T 0X15c8
B 4 0X16ae
B 6 0X1744
B 9 0X1852
B 5 0X1960
B 1 0X1a00
B 8 0X1ad2
B 3 0X1b72
B 2 0X1c30
B E 0X1d16
B 7 0X1db6
B O 0X1eba
B T 0X1f8c
H 6 0X213a
H 4 0X21da
H 9 0X22ca
H 1 0X23c4
H 5 0X246e
H 3 0X2536
H 8 0X25f4
H E 0X26c6
H 2 0X277a
H O 0X282e
H 7 0X28ec
H T 0X29d2
B 6 0X2ac2
B 9 0X2b9e
B 4 0X2c52
B 5 0X2d38
B 1 0X2dec
B 8 0X2ec8
B 3 0X2f86
B 2 0X3044
B E 0X30d0
B 7 0X31a2
B O 0X32a6
B T 0X3364
H 9 0X354e
H 6 0X360c
H 5 0X36de
H 4 0X37a6
H 8 0X385a
H 1 0X3918
H 2 0X39fe
H 3 0X3abc
H 7 0X3b84
H E 0X3bf2
H O 0X3cc4
H T 0X3dbe
B 6 0X3ea4
B 9 0X3f9e
B 5 0X407a
B 8 0X4124
B 4 0X4214
B 2 0X42aa
B 1 0X437c
B 7 0X4458
B 3 0X44ee
B O 0X45ca
B E 0X466a
B T 0X4764
H 6 0X4926
H 5 0X4a02
H 9 0X4ad4
H 4 0X4b60
H 8 0X4c28
H 1 0X4d18
H 2 0X4dfe
H 3 0X4ebc
H 7 0X4fa2
H E 0X5024
H O 0X510a
H T 0X51b4
B 5 0X52b8
B 6 0X5376
B 9 0X5466
B 8 0X5524
B 4 0X55e2
B 2 0X56d2
B 1 0X5790
B 7 0X5876
B 3 0X590c
B O 0X59ca
B E 0X5a92
B T 0X5b5a
H 5 0X5d3a
H 9 0X5df8
H 6 0X5eca
H 4 0X5f7e
H 8 0X603c
H 1 0X6122
H 2 0X61cc
H 3 0X6294
H 7 0X6398
H E 0X6438
H O 0X6532
H T 0X65c8
B 9 0X669a
B 5 0X6794
B 6 0X685c
B 8 0X691a
B 4 0X6a14
B 2 0X6aa0
B 1 0X6b5e
B 7 0X6c6c
B 3 0X6ce4
B O 0X6dc0
B E 0X6ea6
B T 0X6f78
H 5 0X7130
H 9 0X7220
H 8 0X72c0
H 6 0X73ba
H 2 0X74b4
H 4 0X7536
H 7 0X763a
H 1 0X7702
H O 0X777a
H 3 0X7824
H E 0X78ec
H T 0X79dc
B 5 0X7aea
B 8 0X7ba8
B 9 0X7c70
B 2 0X7d56
B 6 0X7e1e
B 7 0X7efa
B 4 0X7fb8
B O 0X8062
B 1 0X8102
B E 0X81de
B 3 0X8292
B T 0X8378
H 8 0X854e
H 5 0X862a
H 9 0X8706
H 6 0X87ce
H 2 0X88a0
H 4 0X8954
H 7 0X8a44
H 1 0X8af8
H O 0X8b8e
H 3 0X8c60
H E 0X8cce
H T 0X8db4
B 8 0X8eb8
B 9 0X8fda
B 5 0X908e
B 2 0X9156
B 6 0X920a
B 7 0X9304
B 4 0X93cc
B O 0X9480
B 1 0X9520
B E 0X95a2
B 3 0X96a6
B T 0X9764
H 9 0X994e
H 8 0X9a0c
H 5 0X9ade
H 6 0X9bd8
H 2 0X9caa
H 4 0X9d72
H 7 0X9e3a
H 1 0X9eee
H O 0X9f84
H 3 0Xa07e
H E 0Xa0f6
H T 0Xa1c8
B 9 0Xa2a4
B 5 0Xa3a8
B 8 0Xa466
B 2 0Xa538
B 6 0Xa60a
B 7 0Xa6e6
B 4 0Xa7d6
B O 0Xa862
B 1 0Xa952
B E 0Xa9de
B 3 0Xaaa6
B T 0Xab78
H 5 0Xad62
H 9 0Xae20
H 2 0Xaec0
H 8 0Xaf7e
H 7 0Xb082
H 6 0Xb154
H O 0Xb21c
H 4 0Xb2a8
H 1 0Xb3b6
H 3 0Xb474
H E 0Xb50a
H T 0Xb5e6
B 9 0Xb6e0
B 5 0Xb7b2
B 2 0Xb870
B 7 0Xb92e
B 8 0Xb9e2
B O 0Xbae6
B 6 0Xbbae
B 1 0Xbc62
B 4 0Xbd02
B E 0Xbdf2
B 3 0Xbeb0
B T 0Xbf82
H 9 0Xc13a
H 2 0Xc1ee
H 5 0Xc2de
H 8 0Xc392
H 7 0Xc48c
H 6 0Xc54a
H O 0Xc5fe
H 4 0Xc68a
H 1 0Xc77a
H 3 0Xc86a
H E 0Xc8ba
H T 0Xc9be
B 2 0Xca90
B 9 0Xcb8a
B 5 0Xcc5c
B 7 0Xcd1a
B 8 0Xcde2
B O 0Xcedc
B 6 0Xcfa4
B 1 0Xd058
B 4 0Xd0f8
B E 0Xd1ca
B 3 0Xd26a
B T 0Xd36e
H 2 0Xd508
H 5 0Xd5da
H 9 0Xd6b6
H 8 0Xd77e
H 7 0Xd878
H 6 0Xd94a
H O 0Xda08
H 4 0Xda94
H 1 0Xdb84
H 3 0Xdc4c
H E 0Xdc92
H T 0Xddb4
B 5 0Xdee0
B 2 0Xdf94
B 9 0Xe03e
B 7 0Xe110
B 8 0Xe1b0
B O 0Xe2c8
B 6 0Xe39a
B 1 0Xe462
B 4 0Xe4f8
B E 0Xe58e
B 3 0Xe674
B T 0Xe750
H 2 0Xe944
H 5 0Xea0c
H 7 0Xeae8
H 9 0Xeb9c
H O 0Xec6e
H 8 0Xed22
H 1 0Xedf4
H 6 0Xeeda
H E 0Xef70
H 4 0Xeffc
H 3 0Xf0c4
H T 0Xf1a0
B 2 0Xf290
B 7 0Xf358
B 5 0Xf448
B O 0Xf51a
B 9 0Xf60a
B 1 0Xf6c8
B 8 0Xf77c
B E 0Xf862
B 6 0Xf934
B 3 0Xf9ac
B 4 0Xfa74
B T 0Xfb46
H 7 0Xfcf4
H 2 0Xfdee
H 5 0Xfeb6
H 9 0Xffb0
H O 0X0046
H 8 0X012c
H 1 0X01ea
H 6 0X02d0
H E 0X0384
H 4 0X03fc
H 3 0X04d8
H T 0X05c8
B 7 0X0686
B 5 0X076c
B 2 0X0848
B O 0X0910
B 9 0X09f6
B 1 0X0a8c
B 8 0X0b72
B E 0X0c62
B 6 0X0d3e
B 3 0X0dc0
B 4 0X0e92
B T 0X0f6e
H 5 0X1108
H 7 0X11ee
H 2 0X12e8
H 9 0X137e
H O 0X1414
H 8 0X150e
H 1 0X15d6
H 6 0X16b2
H E 0X1752
H 4 0X17f2
H 3 0X18e2
H T 0X19d2
B 5 0X1aae
B 2 0X1b8a
B 7 0X1c3e
B O 0X1d1a
B 9 0X1dc4
B 1 0X1e78
B 8 0X1f40
B E 0X2012
B 6 0X20da
B 3 0X21ac
B 4 0X227e
B T 0X235a
H 2 0X2530
H 5 0X25e4
H O 0X2684
H 7 0X2756
H 1 0X2832
H 9 0X2904
H E 0X29e0
H 8 0X2aa8
H 3 0X2b52
H 6 0X2c1a
H 4 0X2d0a
H T 0X2daa
B 5 0X2e9a
B 2 0X2f62
B O 0X303e
B 1 0X30f2
B 7 0X31c4
B E 0X328c
B 9 0X335e
B 3 0X3412
B 8 0X34e4
B 4 0X35de
B 6 0X3674
B T 0X3750
H 5 0X38e0
H O 0X39c6
H 2 0X3a98
H 7 0X3b92
H 1 0X3c50
H 9 0X3cf0
H E 0X3d90
H 8 0X3e80
H 3 0X3f34
H 6 0X401a
H 4 0X409c
H T 0X41b4
B O 0X42cc
B 5 0X4394
B 2 0X442a
B 1 0X44f2
B 7 0X45e2
B E 0X4682
B 9 0X4754
B 3 0X4826
B 8 0X48e4
B 4 0X4998
B 6 0X4a4c
B T 0X4b3c
H O 0X4d08
H 2 0X4dda
H 5 0X4e8e
H 7 0X4f9c
H 1 0X5046
H 9 0X50fa
H E 0X51cc
H 8 0X528a
H 3 0X533e
H 6 0X541a
H 4 0X5492
H T 0X5596
B 2 0X56ae
B O 0X5794
B 5 0X583e
B 1 0X5906
B 7 0X59d8
B E 0X5a96
B 9 0X5b68
B 3 0X5c30
B 8 0X5cee
B 4 0X5db6
B 6 0X5e6a
B T 0X5f28
H O 0X6130
H 2 0X61d0
H 1 0X62c0
H 5 0X637e
H E 0X6482
H 7 0X652c
H 3 0X65a4
H 9 0X66b2
H 4 0X6766
H 8 0X682e
H 6 0X6914
H T 0X69be
B O 0X6aae
B 1 0X6b44
B 2 0X6c20
B E 0X6d06
B 5 0X6e00
B 3 0X6ea0
B 7 0X6f5e
B 4 0X703a
B 9 0X70f8
B 6 0X71de
B 8 0X727e
B T 0X7378
H 1 0X7526
H O 0X75bc
H 2 0X7684
H 5 0X7788
H E 0X785a
H 7 0X790e
H 3 0X79d6
H 9 0X7aa8
H 4 0X7b5c
H 8 0X7c2e
H 6 0X7cf6
H T 0X7ddc
B 1 0X7ec2
B 2 0X7f6c
B O 0X8052
B E 0X8110
B 5 0X81f6
B 3 0X82b4
B 7 0X837c
B 4 0X8430
B 9 0X850c
B 6 0X85fc
B 8 0X86a6
B T 0X8764
H 2 0X8958
H 1 0X8a52
H O 0X8aa2
H 5 0X8b7e
H E 0X8c28
H 7 0X8d2c
H 3 0X8dd6
H 9 0X8ebc
H 4 0X8f70
H 8 0X904c
H 6 0X9128
H T 0X91fa
B 2 0X92ea
B O 0X93a8
B 1 0X9452
B E 0X9510
B 5 0X95b0
B 3 0X96be
B 7 0X975e
B 4 0X9844
B 9 0X9934
B 6 0X9a24
B 8 0X9ace
B T 0X9b96
H O 0X9d30
H 2 0X9df8
H E 0X9eb6
H 1 0X9fa6
H 3 0Xa06e
H 5 0Xa122
H 4 0Xa1f4
H 7 0Xa2a8
H 6 0Xa398
H 9 0Xa492
H 8 0Xa53c
H T 0Xa60e
B 2 0Xa6c2
B O 0Xa79e
B E 0Xa852
B 3 0Xa92e
B 1 0Xa9ec
B 4 0Xaaaa
B 5 0Xab90
B 6 0Xac30
B 7 0Xad16
B 8 0Xadf2
B 9 0Xaee2
B T 0Xafaa
H 2 0Xb126
H E 0Xb1ee
H O 0Xb2de
H 1 0Xb39c
H 3 0Xb45a
H 5 0Xb52c
H 4 0Xb5e0
H 7 0Xb6b2
H 6 0Xb770
H 9 0Xb856
H 8 0Xb91e
H T 0Xb9dc
B E 0Xbacc
B 2 0Xbb9e
B O 0Xbc52
B 3 0Xbd24
B 1 0Xbdec
B 4 0Xbe96
B 5 0Xbf72
B 6 0Xc01c
B 7 0Xc10c
B 8 0Xc1de
B 9 0Xc292
B T 0Xc36e
H E 0Xc508
H O 0Xc5ee
H 2 0Xc6b6
H 1 0Xc79c
H 3 0Xc846
H 5 0Xc8fa
H 4 0Xc9d6
H 7 0Xcab2
H 6 0Xcb66
H 9 0Xcc2e
H 8 0Xcd00
H T 0Xcda0
B O 0Xcecc
B E 0Xcfa8
B 2 0Xd03e
B 3 0Xd110
B 1 0Xd1e2
B 4 0Xd2b4
B 5 0Xd35e
B 6 0Xd426
B 7 0Xd502
B 8 0Xd5c0
B 9 0Xd69c
B T 0Xd746
H E 0Xd8fe
H O 0Xda02
H 3 0Xdac0
H 2 0Xdb92
H 4 0Xdc3c
H 1 0Xdd40
H 6 0Xddf4
H 5 0Xde9e
H 8 0Xdf48
H 7 0Xe02e
H 9 0Xe114
H T 0Xe1a0
B E 0Xe2a4
B 3 0Xe376
B O 0Xe448
B 4 0Xe510
B 2 0Xe5ba
B 6 0Xe678
B 8 0Xe808
B 1 0Xe83a
B 5 0Xe8ee
B 9 0Xe9d4
B 7 0Xea88
B T 0Xeb3c
H 3 0Xed1c
H E 0Xedd0
H O 0Xeeac
H 2 0Xefa6
H 4 0Xf032
H 1 0Xf104
H 6 0Xf1cc
H 5 0Xf2a8
H 8 0Xf35c
H 7 0Xf42e
H 9 0Xf4ec
H T 0Xf596
B 3 0Xf6ae
B O 0Xf758
B E 0Xf834
B 4 0Xf906
B 2 0Xf9c4
B 6 0Xfa64
B 1 0Xfb2c
B 8 0Xfc30
B 5 0Xfcee
B 9 0Xfdca
B 7 0Xfe92
B T 0Xff46
H O 0X00fe
H 3 0X0202
H E 0X0284
H 2 0X039c
H 4 0X0428
H 1 0X04fa
H 6 0X05b8
H 5 0X069e
H 8 0X0770
H 7 0X081a
H 9 0X08ec
H T 0X09aa
B O 0X0a90
B E 0X0b8a
B 3 0X0c5c
B 4 0X0d10
B 2 0X0dc4
B 6 0X0e78
B 1 0X0f54
B 8 0X101c
B 5 0X1102
B 9 0X11c0
B 7 0X1288
B T 0X1332
H E 0X1508
H O 0X15f8
H 4 0X1684
H 3 0X176a
H 6 0X1864
H 2 0X1936
H 8 0X19d6
H 1 0X1aa8
H 9 0X1b66
H 5 0X1c24
H 7 0X1d14
H T 0X1d96
B O 0X1e90
B E 0X1f80
B 4 0X2052
B 6 0X2124
B 3 0X21ce
B 8 0X22a0
B 2 0X235e
B 9 0X244e
B 1 0X24da
B 7 0X25ca
B 5 0X269c
B T 0X273c
H O 0X28cc
H 4 0X29bc
H E 0X2a98
H 3 0X2b92
H 6 0X2c6e
H 2 0X2d4a
H 8 0X2e26
H 1 0X2eb2
H 9 0X2f5c
H 5 0X3024
H 7 0X311e
H T 0X31be
B 4 0X327c
B O 0X3358
B E 0X340c
B 6 0X354c
B 3 0X35ce
B 8 0X36dc
B 2 0X3768
B 9 0X384e
B 1 0X38f8
B 7 0X39de
B 5 0X3a9c
B T 0X3b5a
H 4 0X3d26
H E 0X3dc6
H O 0X3e7a
H 3 0X3f6a
H 6 0X4046
H 2 0X4136
H 8 0X41ea
H 1 0X429e
H 9 0X4398
H 5 0X442e
H 7 0X450a
H T 0X45be
B E 0X46c2
B 4 0X478a
B O 0X483e
B 6 0X4942
B 3 0X49d8
B 8 0X4a96
B 2 0X4b54
B 9 0X4c3a
B 1 0X4cee
B 7 0X4de8
B 5 0X4eba
B T 0X4f5a
H 4 0X5112
H E 0X51ee
H 6 0X5298
H O 0X53b0
H 8 0X5446
H 3 0X5522
H 9 0X5608
H 2 0X56a8
H 7 0X57a2
H 1 0X5842
H 5 0X58e2
H T 0X59b4
B 4 0X5ab8
B 6 0X5b80
B E 0X5c16
B 8 0X5d24
B O 0X5e00
B 9 0X5ec8
B 3 0X5f86
B 7 0X6058
B 2 0X6120
B 5 0X6206
B 1 0X6292
B T 0X6346
H 6 0X6530
H 4 0X65da
H E 0X6698
H O 0X6792
H 8 0X6846
H 3 0X6918
H 9 0X69ea
H 2 0X6ae4
H 7 0X6bb6
H 1 0X6c4c
H 5 0X6d00
H T 0X6dc8
B 6 0X6e90
B E 0X6f76
B 4 0X7052
B 8 0X7106
B O 0X71ec
B 9 0X7296
B 3 0X737c
B 7 0X744e
B 2 0X750c
B 5 0X75e8
B 1 0X769c
B T 0X7764
H E 0X793a
H 6 0X7a16
H 4 0X7aca
H O 0X7b92
H 8 0X7c5a
H 3 0X7d04
H 9 0X7de0
H 2 0X7ec6
H 7 0X7f8e
H 1 0X804c
H 5 0X8114
H T 0X81c8
B E 0X82d6
B 4 0X83a8
B 6 0X8466
B 8 0X852e
B O 0X8600
B 9 0X86be
B 3 0X8786
B 7 0X884e
B 2 0X8920
B 5 0X89f2
B 1 0X8aba
B T 0X8b5a
H 4 0X8d44
H E 0X8e0c
H 8 0X8ed4
H 6 0X8fe2
H 9 0X9082
H O 0X9136
H 7 0X91fe
H 3 0X92d0
H 5 0X9370
H 2 0X9442
H 1 0X953c
H T 0X95b4
B E 0X96f4
B 4 0X9780
B 8 0X9848
B 9 0X9938
B 6 0X99f6
B 7 0X9ac8
B O 0X9b90
B 5 0X9c76
B 3 0X9d2a
B 1 0X9de8
B 2 0X9e60
B T 0X9f3c
H E 0Xa0e0
H 8 0Xa1da
H 4 0Xa28e
H 6 0Xa39c
H 9 0Xa45a
H O 0Xa50e
H 7 0Xa5f4
H 3 0Xa680
H 5 0Xa752
H 2 0Xa824
H 1 0Xa914
H T 0Xa9be
B 8 0Xaa7c
B E 0Xab58
B 4 0Xac16
B 9 0Xad24
B 6 0Xadd8
B 7 0Xae8c
B O 0Xaf68
B 5 0Xb03a
B 3 0Xb0d0
B 1 0Xb198
B 2 0Xb238
B T 0Xb328
H 8 0Xb526
H 4 0Xb5b2
H E 0Xb684
H 6 0Xb74c
H 9 0Xb846
H O 0Xb90e
H 7 0Xb9c2
H 3 0Xba6c
H 5 0Xbb2a
H 2 0Xbc10
H 1 0Xbcec
H T 0Xbd82
B 4 0Xbe90
B 8 0Xbf3a
B E 0Xc03e
B 9 0Xc0f2
B 6 0Xc1b0
B 7 0Xc2a0
B O 0Xc372
B 5 0Xc426
B 3 0Xc4bc
B 1 0Xc5a2
B 2 0Xc624
B T 0Xc6e2
H 8 0Xc8cc
H 4 0Xc9b2
H 9 0Xca7a
H E 0Xcb6a
H 7 0Xcc32
H 6 0Xcd04
H 5 0Xcdae
H O 0Xce9e
H 1 0Xcf7a
H 3 0Xd006
H 2 0Xd0a6
H T 0Xd146
B 8 0Xd218
B 9 0Xd31c
B 4 0Xd402
B 7 0Xd4ca
B E 0Xd574
B 5 0Xd66e
B 6 0Xd74a
B 1 0Xd812
B O 0Xd8da
B 2 0Xd97a
B 3 0Xda42
B T 0Xdae2
H 9 0Xdcb8
H 8 0Xdd8a
H 4 0Xde48
H E 0Xdf38
H 7 0Xdff6
H 6 0Xe0c8
H 5 0Xe1a4
H O 0Xe280
H 1 0Xe334
H 3 0Xe3e8
H 2 0Xe49c
H T 0Xe546
B 9 0Xe636
B 4 0Xe71c
B 8 0Xe7d0
B 7 0Xe8ac
B E 0Xe960
B 5 0Xea5a
B 6 0Xeb4a
B 1 0Xec08
B O 0Xecc6
B 2 0Xed52
B 3 0Xee06
B T 0Xeed8
H 4 0Xf09a
H 9 0Xf194
H 8 0Xf25c
H E 0Xf338
H 7 0Xf3ce
H 6 0Xf496
H 5 0Xf572
H O 0Xf64e
H 1 0Xf702
H 3 0Xf7ca
H 2 0Xf89c
H T 0Xf93c
B 4 0Xfa36
B 8 0Xfaf4
B 9 0Xfbf8
B 7 0Xfca2
B E 0Xfd6a
B 5 0Xfe46
B 6 0Xff18
B 1 0Xffcc
B O 0X009e
B 2 0X0148
B 3 0X0210
B T 0X02a6
H 8 0X04ae
H 4 0X054e
H 7 0X063e
H 9 0X0706
H 5 0X07b0
H E 0X0882
H 1 0X0972
H 6 0X0a30
H 2 0X0b16
H O 0X0bb6
H 3 0X0c60
H T 0X0d00
B 4 0X0ddc
B 8 0X0eae
B 7 0X0f94
B 5 0X1098
B 9 0X116a
B 1 0X1232
B E 0X12c8
B 2 0X139a
B 6 0X146c
B 3 0X1520
B O 0X1606
B T 0X16d8
H 4 0X1854
H 7 0X193a
H 8 0X19da
H 9 0X1ad4
H 5 0X1bce
H E 0X1c8c
H 1 0X1d68
H 6 0X1e30
H 2 0X1eee
H O 0X1f98
H 3 0X2038
H T 0X2132
B 7 0X21be
B 4 0X2286
B 8 0X233a
B 5 0X2498
B 9 0X2556
B 1 0X263c
B E 0X26d2
B 2 0X27a4
B 6 0X2876
B 3 0X2916
B O 0X29f2
B T 0X2ac4
H 7 0X2c86
H 8 0X2d1c
H 4 0X2dd0
H 9 0X2ed4
H 5 0X2fba
H E 0X30aa
H 1 0X315e
H 6 0X3226
H 2 0X32e4
H O 0X3398
H 3 0X3442
H T 0X351e
B 8 0X35e6
B 7 0X36cc
B 4 0X37a8
B 5 0X387a
B 9 0X394c
B 1 0X3a28
B E 0X3ad2
B 2 0X3b86
B 6 0X3c62
B 3 0X3d2a
B O 0X3e24
B T 0X3ea6
H 7 0X405e
H 8 0X40f4
H 5 0X41c6
H 4 0X42ca
H 1 0X43d8
H 9 0X4482
H 2 0X455e
H E 0X4608
H 6 0X46d0
H O 0X47a2
H 3 0X481a
H T 0X4914
B 7 0X49be
B 5 0X4aa4
B 8 0X4b76
B 1 0X4c66
B 4 0X4d06
B 2 0X4df6
B 9 0X4edc
B 6 0X4f7c
B E 0X5058
B 3 0X510c
B O 0X51d4
B T 0X52a6
H 5 0X5468
H 7 0X5562
H 8 0X5602
H 4 0X56b6
H 1 0X579c
H 9 0X588c
H 2 0X5904
H E 0X5a26
H 6 0X5ada
H O 0X5b70
H 3 0X5c10
H T 0X5cf6
B 5 0X5dfa
B 8 0X5eb8
B 7 0X5fb2
B 1 0X605c
B 4 0X60f2
B 2 0X61ce
B 9 0X62a0
B 6 0X639a
B E 0X6462
B 3 0X64ee
B O 0X65d4
B T 0X6692
H 8 0X6868
H 5 0X694e
H 7 0X6a34
H 4 0X6aca
H 1 0X6bb0
H 9 0X6c6e
H 2 0X6cf0
H E 0X6de0
H 6 0X6e9e
H O 0X6f5c
H 3 0X7024
H T 0X70ec
B 8 0X71dc
B 7 0X72c2
B 5 0X73b2
B 1 0X7466
B 4 0X7538
B 2 0X75d8
B 9 0X76aa
B 6 0X7768
B E 0X7812
B 3 0X78e4
B O 0X79de
B T 0X7a9c
H 7 0X7c36
H 8 0X7ccc
H 1 0X7de4
H 5 0X7eb6
H 2 0X7fe2
H 4 0X8064
H 6 0X8140
H 9 0X8208
H 3 0X82a8
H E 0X8334
H O 0X842e
H T 0X850a
B 8 0X85b4
B 7 0X867c
B 1 0X8744
B 2 0X883e
B 5 0X8910
B 6 0X89f6
B 4 0X8aaa
B 3 0X8b4a
B 9 0X8c4e
B O 0X8d02
B E 0X8dd4
B T 0X8e9c
H 8 0X9086
H 1 0X9162
H 7 0X920c
H 5 0X9298
H 2 0X9356
H 4 0X9414
H 6 0X9504
H 9 0X95c2
H 3 0X9680
H E 0X975c
H O 0X984c
H T 0X98d8
B 1 0X99d2
B 8 0X9aae
B 7 0X9b8a
B 2 0X9c0c
B 5 0X9cd4
B 6 0X9dba
B 4 0X9e82
B 3 0X9f22
B 9 0Xa044
B O 0Xa102
B E 0Xa1c0
B T 0Xa27e
H 1 0Xa436
H 7 0Xa53a
H 8 0Xa5e4
H 5 0Xa6a2
H 2 0Xa756
H 4 0Xa800
H 6 0Xa8dc
H 9 0Xa9cc
H 3 0Xaa6c
H E 0Xab34
H O 0Xac24
H T 0Xacc4
B 7 0Xaddc
B 1 0Xae9a
B 8 0Xaf76
B 2 0Xb052
B 5 0Xb0f2
B 6 0Xb1ce
B 4 0Xb250
B 3 0Xb336
B 9 0Xb41c
B O 0Xb4d0
B E 0Xb5ac
B T 0Xb67e
H 1 0Xb836
H 7 0Xb944
H 2 0Xb9ee
H 8 0Xba98
H 6 0Xbb92
H 5 0Xbc5a
H 3 0Xbd04
H 4 0Xbda4
H O 0Xbe62
H 9 0Xbf3e
H E 0Xbffc
H T 0Xc0e2
B 1 0Xc1a0
B 2 0Xc25e
B 7 0Xc362
B 6 0Xc416
B 8 0Xc4e8
B 3 0Xc5c4
B 5 0Xc696
B O 0Xc754
B 4 0Xc7fe
B E 0Xc8b2
B 9 0Xc9a2
B T 0Xca6a
H 2 0Xcc5e
H 1 0Xcd30
H 7 0Xce0c
H 8 0Xcea2
H 6 0Xcf74
H 5 0Xd050
H 3 0Xd104
H 4 0Xd186
H O 0Xd280
H 9 0Xd320
H E 0Xd3fc
H T 0Xd4c4
B 2 0Xd5b4
B 7 0Xd6ae
B 1 0Xd74e
B 6 0Xd802
B 8 0Xd8d4
B 3 0Xd99c
B 5 0Xda8c
B O 0Xdb36
B 4 0Xdbfe
B E 0Xdcb2
B 9 0Xdda2
B T 0Xde60
H 7 0Xe04a
H 2 0Xe112
H 1 0Xe1f8
H 8 0Xe298
H 6 0Xe356
H 5 0Xe446
H 3 0Xe4e6
H 4 0Xe57c
H O 0Xe680
H 9 0Xe75c
H E 0Xe806
H T 0Xe8c4
B 7 0Xe9b4
B 1 0Xea72
B 2 0Xeb08
B 6 0Xebee
B 8 0Xecb6
B 3 0Xed6a
B 5 0Xee82
B O 0Xef40
B 4 0Xeffe
B E 0Xf0b2
B 9 0Xf1ca
B T 0Xf260
H 1 0Xf42c
H 7 0Xf526
H 6 0Xf5ee
H 2 0Xf6b6
H 3 0Xf710
H 8 0Xf7ec
H O 0Xf904
H 5 0Xf99a
H 4 0Xfa62
H E 0Xfaf8
H 9 0Xfc06
H T 0Xfcb0
B 7 0Xfd8c
B 1 0Xfe36
B 6 0Xff1c
B 3 0X0002
B 2 0X00ca
B O 0X0192
B 8 0X0246
B 4 0X0336
B 5 0X03f4
B 9 0X04b2
B E 0X0552
B T 0X062e
H 7 0X080e
H 6 0X08cc
H 1 0X09b2
H 2 0X0a98
H 3 0X0b2e
H 8 0X0c00
H O 0X0cbe
H 5 0X0da4
H 4 0X0e4e
H E 0X0f16
H 9 0X1024
H T 0X1092
B 6 0X1178
B 7 0X125e
B 1 0X12fe
B 3 0X13b2
B 2 0X148e
B O 0X156a
B 8 0X1614
B 4 0X1722
B 5 0X17c2
B 9 0X18bc
B E 0X1984
B T 0X1a2e
H 6 0X1c0e
H 1 0X1ce0
H 7 0X1dc6
H 2 0X1e8e
H 3 0X1f24
H 8 0X1fe2
H O 0X2096
H 5 0X215e
H 4 0X221c
H E 0X2302
H 9 0X23e8
H T 0X2488
B 1 0X255a
B 6 0X2668
B 7 0X273a
B 3 0X2802
B 2 0X2898
B O 0X2942
B 8 0X29d8
B 4 0X2ae6
B 5 0X2bb8
B 9 0X2ca8
B E 0X2d66
B T 0X2e24
H 6 0X2fe6
H 1 0X30d6
H 3 0X319e
H 7 0X325c
H O 0X3310
H 2 0X33ce
H 4 0X346e
H 8 0X3536
H 9 0X3630
H 5 0X36f8
H E 0X37ca
H T 0X387e
B 6 0X3964
B 3 0X3a36
B 1 0X3b08
B O 0X3bbc
B 7 0X3ca2
B 4 0X3d56
B 2 0X3e00
B 9 0X3efa
B 8 0X3f86
B E 0X4076
B 5 0X4170
B T 0X421a
H 3 0X4404
H 6 0X44d6
H 1 0X45b2
H 7 0X4670
H O 0X46fc
H 2 0X47ce
H 4 0X4864
H 8 0X4940
H 9 0X4a12
H 5 0X4b02
H E 0X4ba2
H T 0X4c6a
B 3 0X4d64
B 1 0X4e2c
B 6 0X4f1c
B O 0X4fd0
B 7 0X5098
B 4 0X516a
B 2 0X5214
B 9 0X52dc
B 8 0X539a
B E 0X5476
B 5 0X557a
B T 0X5610
H 1 0X57c8
H 3 0X5890
H 6 0X5962
H 7 0X5a5c
H O 0X5b06
H 2 0X5bc4
H 4 0X5c5a
H 8 0X5d36
H 9 0X5e30
H 5 0X5ef8
H E 0X5fac
H T 0X6074
B 1 0X613c
B 6 0X6240
B 3 0X62f4
B O 0X639e
B 7 0X6452
B 4 0X6556
B 2 0X65ec
B 9 0X6704
B 8 0X67ae
B E 0X6862
B 5 0X6970
B T 0X6a1a
H 6 0X6bdc
H 1 0X6cd6
H O 0X6d80
H 3 0X6e20
H 4 0X6ede
H 7 0X6f42
H 9 0X70b4
H 2 0X7154
H 8 0X71ea
H E 0X72bc
H 5 0X73ac
H T 0X749c
B 1 0X7564
B 6 0X764a
B O 0X76f4
B 4 0X77c6
B 3 0X785c
B 9 0X7938
B 7 0X7a28
B 8 0X7adc
B 2 0X7b86
B 5 0X7c8a
B E 0X7d16
B T 0X7e1a
H 1 0X7fe6
H O 0X80c2
H 6 0X8180
H 3 0X822a
H 4 0X82d4
H 7 0X83d8
H 9 0X848c
H 2 0X855e
H 8 0X861c
H E 0X86da
H 5 0X878e
H T 0X887e
B O 0X8982
B 1 0X8a2c
B 6 0X8b08
B 4 0X8be4
B 3 0X8c84
B 9 0X8d6a
B 7 0X8e28
B 8 0X8edc
B 2 0X8f72
B 5 0X9076
B E 0X9102
B T 0X91fc
H O 0X93b4
H 6 0X945e
H 1 0X9558
H 3 0X962a
H 4 0X96e8
H 7 0X97f6
H 9 0X9896
H 2 0X994a
H 8 0X9a26
H E 0X9af8
H 5 0X9ba2
H T 0X9c56
B 6 0X9d32
B O 0X9e04
B 1 0X9eae
B 4 0X9f80
B 3 0Xa066
B 9 0Xa14c
B 7 0Xa21e
B 8 0Xa2fa
B 2 0Xa368
B 5 0Xa46c
B E 0Xa53e
B T 0Xa606
H O 0Xa7be
H 6 0Xa87c
H 4 0Xa930
H 1 0Xaa16
H 9 0Xaade
H 3 0Xabba
H 8 0Xac82
H 7 0Xad68
H 5 0Xadfe
H 2 0Xaee4
H E 0Xaf8e
H T 0Xb04c
B O 0Xb146
B 4 0Xb24a
B 6 0Xb2fe
B 9 0Xb3e4
B 1 0Xb470
B 8 0Xb556
B 3 0Xb60a
B 5 0Xb6dc
B 7 0Xb7ae
B E 0Xb862
B 2 0Xb8ee
B T 0Xb9e8
H 4 0Xbbbe
H O 0Xbcae
H 6 0Xbd76
H 1 0Xbe2a
H 9 0Xbf10
H 3 0Xbfce
H 8 0Xc096
H 7 0Xc172
H 5 0Xc21c
H 2 0Xc2ee
H E 0Xc32a
H T 0Xc424
B 4 0Xc546
B 6 0Xc62c
B O 0Xc6fe
B 9 0Xc7ee
B 1 0Xc884
B 8 0Xc960
B 3 0Xc9f6
B 5 0Xcaf0
B 7 0Xcbf4
B E 0Xcc6c
B 2 0Xccda
B T 0Xcdb6
H 6 0Xcfb4
H 4 0Xd072
H O 0Xd14e
H 1 0Xd22a
H 9 0Xd32e
H 3 0Xd3ba
H 8 0Xd48c
H 7 0Xd540
H 5 0Xd612
H 2 0Xd6da
H E 0Xd784
H T 0Xd838
B 6 0Xd95a
B O 0Xda22
B 4 0Xdac2
B 9 0Xdbee
B 1 0Xdc70
B 8 0Xdd38
B 3 0Xde00
B 5 0Xded2
B 7 0Xdfb8
B E 0Xe062
B 2 0Xe0d0
B T 0Xe1b6
H O 0Xe3b4
H 6 0Xe49a
H 9 0Xe562
H 4 0Xe5ee
H 8 0Xe6ca
H 1 0Xe79c
H 5 0Xe846
H 3 0Xe918
H E 0Xe9ea
H 7 0Xeaf8
H 2 0Xeba2
H T 0Xec10
B 6 0Xed28
B O 0Xedf0
B 9 0Xeee0
B 8 0Xefe4
B 4 0Xf070
B 5 0Xf12e
B 1 0Xf1ec
B E 0Xf2a0
B 3 0Xf35e
B 2 0Xf430
B 7 0Xf516
B T 0Xf5c0
H 6 0Xf796
H 9 0Xf84a
H O 0Xf930
H 4 0Xf9d0
H 8 0Xfaca
H 1 0Xfb88
H 5 0Xfc32
H 3 0Xfd04
H E 0Xfda4
H 7 0Xfe8a
H 2 0Xff52
H T 0X0010
B 9 0X010a
B 6 0X0222
B O 0X02c2
B 8 0X038a
B 4 0X043e
B 5 0X04e8
B 1 0X05ba
B E 0X0696
B 3 0X0722
B 2 0X07fe
B 7 0X08da
B T 0X098e
H 9 0X0b78
H O 0X0c2c
H 6 0X0d08
H 4 0X0dc6
H 8 0X0ea2
H 1 0X0f74
H 5 0X101e
H 3 0X10dc
H E 0X1190
H 7 0X1262
H 2 0X1316
H T 0X13e8
B O 0X14d8
B 9 0X15e6
B 6 0X16e0
B 8 0X178a
B 4 0X1816
B 5 0X18f2
B 1 0X19d8
B E 0X1a78
B 3 0X1b18
B 2 0X1bf4
B 7 0X1cc6
B T 0X1d70
H 9 0X1f8c
H O 0X202c
H 8 0X20ea
H 6 0X2202
H 5 0X2298
H 4 0X236a
H E 0X2428
H 1 0X2504
H 2 0X2590
H 3 0X264e
H 7 0X2752
H T 0X27d4
B 9 0X28e2
B 8 0X2996
B O 0X2a7c
B 5 0X2b6c
B 6 0X2c2a
B E 0X2cc0
B 4 0X2de2
B 2 0X2e50
B 1 0X2f40
B 7 0X301c
B 3 0X30bc
B T 0X3170
H 8 0X335a
H 9 0X342c
H O 0X34d6
H 6 0X35ee
H 5 0X36a2
H 4 0X374c
H E 0X37ec
H 1 0X38b4
H 2 0X399a
H 3 0X3a62
H 7 0X3b48
H T 0X3be8
B 8 0X3ca6
B O 0X3d82
B 9 0X3e86
B 5 0X3f62
B 6 0X4034
B E 0X40b6
B 4 0X41b0
B 2 0X425a
B 1 0X434a
B 7 0X4412
B 3 0X44b2
B T 0X4570
H O 0X4728
H 8 0X47e6
H 9 0X48c2
H 6 0X4994
H 5 0X4a84
H 4 0X4b4c
H E 0X4c14
H 1 0X4cdc
H 2 0X4d7c
H 3 0X4e58
H 7 0X4f2a
H T 0X4fde
B O 0X50a6
B 9 0X5164
B 8 0X522c
B 5 0X533a
B 6 0X540c
B E 0X54c0
B 4 0X557e
B 2 0X563c
B 1 0X5718
B 7 0X5808
B 3 0X5894
B T 0X595c
H 9 0X5b0a
H O 0X5bd2
H 5 0X5cc2
H 8 0X5d94
H E 0X5e70
H 6 0X5f6a
H 2 0X6014
H 4 0X60c8
H 7 0X61c2
H 1 0X6280
H 3 0X6320
H T 0X63a2
B O 0X64a6
B 9 0X6596
B 5 0X664a
B E 0X66ea
B 8 0X67f8
B 2 0X68ca
B 6 0X6974
B 7 0X6a64
B 4 0X6b40
B 3 0X6c12
B 1 0X6cc6
B T 0X6d3e
H O 0X6f1e
H 5 0X7004
H 9 0X70e0
H 8 0X7194
H E 0X7248
H 6 0X732e
H 2 0X73f6
H 4 0X7496
H 7 0X75a4
H 1 0X7676
H 3 0X770c
H T 0X77c0
B 5 0X78c4
B O 0X795a
B 9 0X7a40
B E 0X7b1c
B 8 0X7c0c
B 2 0X7ca2
B 6 0X7d60
B 7 0X7e6e
B 4 0X7f36
B 3 0X7fc2
B 1 0X8094
B T 0X815c
H 5 0X8346
H 9 0X83f0
H O 0X84b8
H 8 0X8594
H E 0X8648
H 6 0X871a
H 2 0X87ce
H 4 0X88a0
H 7 0X8990
H 1 0X8a6c
H 3 0X8b0c
H T 0X8bac
B 9 0X8cba
B 5 0X8d96
B O 0X8e36
B E 0X8efe
B 8 0X8fd0
B 2 0X9098
B 6 0X912e
B 7 0X9228
B 4 0X92fa
B 3 0X93b8
B 1 0X949e
B T 0X955c
H 5 0X971e
H 9 0X980e
H E 0X98cc
H O 0X99bc
H 2 0X9a66
H 8 0X9b06
H 7 0X9bec
H 6 0X9c8c
H 3 0X9d4a
H 4 0X9dea
H 1 0X9f20
H T 0X9fa2
B 5 0Xa0ba
B E 0Xa15a
B 9 0Xa268
B 2 0Xa312
B O 0Xa3da
B 7 0Xa470
B 8 0Xa52e
B 3 0Xa600
B 6 0Xa6d2
B 1 0Xa7cc
B 4 0Xa858
B T 0Xa92a
H E 0Xaac4
H 5 0Xabf0
H 9 0Xac90
H O 0Xad6c
H 2 0Xae48
H 8 0Xaf06
H 7 0Xafc4
H 6 0Xb082
H 3 0Xb122
H 4 0Xb1c2
H 1 0Xb2bc
H T 0Xb3a2
B E 0Xb488
B 9 0Xb546
B 5 0Xb62c
B 2 0Xb6ea
B O 0Xb79e
B 7 0Xb85c
B 8 0Xb924
B 3 0Xba0a
B 6 0Xbae6
B 1 0Xbb86
B 4 0Xbc12
B T 0Xbd0c
H 9 0Xbeec
H E 0Xbfb4
H 5 0Xc068
H O 0Xc158
H 2 0Xc1ee
H 8 0Xc2a2
H 7 0Xc37e
H 6 0Xc450
H 3 0Xc50e
H 4 0Xc5ae
H 1 0Xc6a8
H T 0Xc73e
B 9 0Xc856
B 5 0Xc93c
B E 0Xc9f0
B 2 0Xcaea
B O 0Xcb8a
B 7 0Xcc48
B 8 0Xccfc
B 3 0Xcdce
B 6 0Xce6e
B 1 0Xcf5e
B 4 0Xd01c
B T 0Xd0bc
H 5 0Xd2ce
H 9 0Xd3b4
H 2 0Xd454
H E 0Xd4f4
H 7 0Xd5da
H O 0Xd6c0
H 3 0Xd760
H 8 0Xd832
H 1 0Xd92c
H 6 0Xd9c2
H 4 0Xda94
H T 0Xdb20
B 9 0Xdc56
B 5 0Xdd3c
B 2 0Xddf0
B 7 0Xde9a
B E 0Xdf1c
B 3 0Xe016
B O 0Xe0e8
B 1 0Xe1ce
B 8 0Xe2a0
B 4 0Xe372
B 6 0Xe426
B T 0Xe4bc
H 9 0Xe688
H 2 0Xe76e
H 5 0Xe836
H E 0Xe8e0
H 7 0Xe9bc
H O 0Xeaa2
H 3 0Xeb2e
H 8 0Xec0a
H 1 0Xecfa
H 6 0Xedb8
H 4 0Xee6c
H T 0Xef3e
B 2 0Xf010
B 9 0Xf0d8
B 5 0Xf1b4
B 7 0Xf286
B E 0Xf344
B 3 0Xf402
B O 0Xf4ca
B 1 0Xf592
B 8 0Xf678
B 4 0Xf754
B 6 0Xf808
B T 0Xf8d0
H 2 0Xfa6a
H 5 0Xfb28
H 9 0Xfc22
H E 0Xfcea
H 7 0Xfda8
H O 0Xfe98
H 3 0Xff42
H 8 0Xffe2
H 1 0X00be
H 6 0X019a
H 4 0X0280
H T 0X033e
B 5 0X042e
B 2 0X04f6
B 9 0X058c
B 7 0X0672
B E 0X0712
B 3 0X0802
B O 0X08b6
B 1 0X096a
B 8 0X0a46
B 4 0X0b40
B 6 0X0bf4
B T 0X0cd0
H 2 0X0e92
H 5 0X0f5a
H 7 0X102c
H 9 0X10d6
H 3 0X11bc
H E 0X1248
H 1 0X132e
H O 0X13ec
H 4 0X14f0
H 8 0X159a
H 6 0X1680
H T 0X1734
B 2 0X1806
B 7 0X18ce
B 5 0X19aa
B 3 0X1a86
B 9 0X1b44
B 1 0X1bf8
B E 0X1c7a
B 4 0X1dc4
B O 0X1e5a
B 6 0X1f40
B 8 0X2008
B T 0X20b2
H 7 0X2274
H 2 0X2346
H 5 0X23f0
H 9 0X24f4
H 3 0X25c6
H E 0X265c
H 1 0X272e
H O 0X2814
H 4 0X28b4
H 8 0X2990
H 6 0X2a80
H T 0X2b34
B 7 0X2bf2
B 5 0X2ce2
B 2 0X2db4
B 3 0X2e68
B 9 0X2f62
B 1 0X3020
B E 0X3098
B 4 0X31b0
B O 0X325a
B 6 0X3340
B 8 0X33fe
B T 0X34d0
H 5 0X369c
H 7 0X3778
H 2 0X382c
H 9 0X391c
H 3 0X39da
H E 0X3a7a
H 1 0X3b42
H O 0X3c14
H 4 0X3cc8
H 8 0X3d5e
H 6 0X3e4e
H T 0X3f34
B 5 0X4038
B 2 0X4100
B 7 0X41aa
B 3 0X427c
B 9 0X4362
B 1 0X4416
B E 0X44ac
B 4 0X45d8
B O 0X4664
B 6 0X470e
B 8 0X47d6
B T 0X48b2
H 2 0X4a88
H 5 0X4b50
H 3 0X4c22
H 7 0X4cfe
H 1 0X4dc6
H 9 0X4e98
H 4 0X4f74
H E 0X4ff6
H 6 0X50dc
H O 0X51a4
H 8 0X5276
H T 0X533e
B 5 0X542e
B 2 0X54d8
B 3 0X5578
B 1 0X565e
B 7 0X5726
B 4 0X5816
B 9 0X58f2
B 6 0X5992
B E 0X5a32
B 8 0X5b40
B O 0X5c1c
B T 0X5ce4
H 5 0X5ea6
H 3 0X5f50
H 2 0X6018
H 7 0X60ea
H 1 0X61c6
H 9 0X62a2
H 4 0X6342
H E 0X6414
H 6 0X64d2
H O 0X6590
H 8 0X6694
H T 0X6752
B 3 0X682e
B 5 0X690a
B 2 0X69b4
B 1 0X6a90
B 7 0X6b44
B 4 0X6c16
B 9 0X6ce8
B 6 0X6dba
B E 0X6e64
B 8 0X6f2c
B O 0X7012
B T 0X70ee
H 3 0X72c4
H 2 0X7364
H 5 0X7404
H 7 0X74ea
H 1 0X75d0
H 9 0X76a2
H 4 0X772e
H E 0X7814
H 6 0X78d2
H O 0X799a
H 8 0X7a8a
H T 0X7b52
B 2 0X7c1a
B 3 0X7cc4
B 5 0X7dbe
B 1 0X7e7c
B 7 0X7f44
B 4 0X8002
B 9 0X80de
B 6 0X81b0
B E 0X8264
B 8 0X8340
B O 0X8408
B T 0X84ee
H 3 0X86b0
H 2 0X8746
H 1 0X8822
H 5 0X88ea
H 4 0X89a8
H 7 0X8a8e
H 6 0X8b42
H 9 0X8c00
H 8 0X8cfa
H E 0X8d9a
H O 0X8e6c
H T 0X8f34
B 3 0X9010
B 1 0X90b0
B 2 0X9182
B 4 0X925e
B 5 0X933a
B 6 0X93da
B 7 0X94ca
B 8 0X959c
B 9 0X9650
B O 0X9740
B E 0X97fe
B T 0X98d0
H 1 0X9a74
H 3 0X9b28
H 2 0X9bfa
H 5 0X9cc2
H 4 0X9d6c
H 7 0X9e48
H 6 0X9ef2
H 9 0X9ff6
H 8 0Xa0a0
H E 0Xa172
H O 0Xa262
H T 0Xa32a
B 1 0Xa3b6
B 2 0Xa492
B 3 0Xa546
B 4 0Xa5fa
B 5 0Xa6fe
B 6 0Xa79e
B 7 0Xa866
B 8 0Xa94c
B 9 0Xaa46
B O 0Xab0e
B E 0Xabea
B T 0Xac9e
H 1 0Xae42
H 2 0Xaf00
H 3 0Xafd2
H 4 0Xb072
H 5 0Xb11c
H 6 0Xb1da
H 7 0Xb2ac
H 8 0Xb374
H 9 0Xb45a
H O 0Xb52c
H E 0Xb5d6
H T 0Xb6b2
B 1 0Xb770
B 2 0Xb842
B 3 0Xb900
B 4 0Xb9b4
B 5 0Xba9a
B 6 0Xbb6c
B 7 0Xbc3e
B 8 0Xbce8
B 9 0Xbdba
B O 0Xbe78
B E 0Xbf4a
B T 0Xc01c
H 1 0Xc1f2
H 2 0Xc2a6
H 3 0Xc346
H 4 0Xc3fa
H 5 0Xc4ae
H 6 0Xc56c
H 7 0Xc648
H 8 0Xc71a
H 9 0Xc7ec
H O 0Xc8c8
H E 0Xc990
H T 0Xca3a
B 1 0Xcb20
B 2 0Xcbca
B 3 0Xcc9c
B 4 0Xcd50
B 5 0Xce2c
B 6 0Xced6
B 7 0Xcfc6
B 8 0Xd098
B 9 0Xd142
B O 0Xd21e
B E 0Xd304
B T 0Xd3b8
H 1 0Xd584
H 2 0Xd610
H 3 0Xd6c4
H 4 0Xd78c
H 5 0Xd854
H 6 0Xd908
H 7 0Xd9ee
H 8 0Xdaca
H 9 0Xdb60
H O 0Xdc32
H E 0Xdd0e
H T 0Xddd6
B 1 0Xdeb2
B 2 0Xdf5c
B 3 0Xe024
B 4 0Xe0d8
B 5 0Xe1c8
B 6 0Xe27c
B 7 0Xe380
B 8 0Xe434
B 9 0Xe4e8
B O 0Xe5b0
B E 0Xe68c
B T 0Xe7ae
