#. Lowndes: Version 2
#. SourceFilename: W:\Recordings\Guildford\Guildford.20220621-2115.s12t12.3.wav
#. Tower: Guildford Cathedral
#. RingingName: Touch_3
#. RingingDateTime: 20220621-2115
#. Rungon: 
#. Tenor: 12
#. NumBellsRinging: 12
#. Creator: HawkEar Team Edition V1 for Guildford Cathedral
#. CreatorVersion: 1.1.0.3
#. TranscribedFor: Guildford band
#. TranscriptionDateTime: 20220622-1647
#. FirstBlowMs: 7710
#. TouchdB: -15.5128
#. TraindB: -9.73, -8.5, -6.1, -3.11, -3.16, -3.1, -3.98, -4.12, -5.95, -5.43, -4.92, -3
#. TrainedOn: 20220102-1438
#. TrainDataRecordedOn: 20210813-1741
#. TrainParams: -ft:y -ws:0.05 -hs:0.01 -co:0.9 -sw:40 -ts:
#. GainParams: -fh:6000 -fl:200
#. OnsetParams: -mb:80 -mf:10 -ng:0.3 -oo:0
#. WriteParams: -hb:y
#. AnalParams: -au:y -xp:n -sg:n -hsg:-1
#. ExpString: 
#. Association:
#. Calling:
#. CompositionName:
#. Method:
#. Footnotes:
#. Ringers:
#. Stage:
H 1 0X0000
H 2 0X00d2
H 3 0X0190
H 4 0X02a8
H 5 0X0352
H 6 0X0406
H 7 0X04f6
H 8 0X05b4
H 9 0X069a
H O 0X0780
H E 0X0866
H T 0X09b0
B 1 0X0a5a
B 2 0X0b18
B 3 0X0bf4
B 4 0X0c80
B 5 0X0d3e
B 6 0X0e60
B 7 0X0f32
B 8 0X1004
B 9 0X10d6
B O 0X1194
B E 0X1248
B T 0X1356
H 1 0X150e
H 2 0X15e0
H 3 0X169e
H 4 0X1766
H 5 0X1806
H 6 0X18f6
H 7 0X19be
H 8 0X1a72
H 9 0X1b58
H O 0X1c3e
H E 0X1d10
H T 0X1de2
B 1 0X1ea0
B 2 0X1f5e
B 3 0X2026
B 4 0X20c6
B 5 0X217a
B 6 0X227e
B 7 0X2382
B 8 0X240e
B 9 0X24ea
B O 0X25b2
B E 0X26a2
B T 0X2760
H 1 0X294a
H 2 0X2a12
H 3 0X2ab2
H 4 0X2b70
H 5 0X2c2e
H 6 0X2d00
H 7 0X2de6
H 8 0X2ea4
H 9 0X2f58
H O 0X3052
H E 0X3106
H T 0X31ce
B 1 0X326e
B 2 0X3336
B 3 0X33fe
B 4 0X34a8
B 5 0X3566
B 6 0X3638
B 7 0X3746
B 8 0X37f0
B 9 0X38fe
B O 0X39d0
B E 0X3a98
B T 0X3b74
H 1 0X3d04
H 2 0X3dae
H 3 0X3e76
H 4 0X3f2a
H 5 0X3ff2
H 6 0X40a6
H 7 0X41a0
H 8 0X425e
H 9 0X431c
H O 0X4434
H E 0X44fc
H T 0X45c4
B 1 0X4646
B 2 0X470e
B 3 0X47fe
B 4 0X488a
B 5 0X4948
B 6 0X4a10
B 7 0X4b00
B 8 0X4baa
B 9 0X4cb8
B O 0X4d8a
B E 0X4e52
B T 0X4f24
H 1 0X50f0
H 2 0X51ae
H 3 0X524e
H 4 0X52f8
H 5 0X53ca
H 6 0X5474
H 7 0X555a
H 8 0X5618
H 9 0X56fe
H O 0X57f8
H E 0X58a2
H T 0X5974
B 1 0X5a28
B 2 0X5afa
B 3 0X5bae
B 4 0X5c58
B 5 0X5d34
B 6 0X5dde
B 7 0X5ece
B 8 0X5f78
B 9 0X6072
B O 0X6130
B E 0X620c
B T 0X62f2
H 1 0X64a0
H 2 0X6568
H 3 0X6612
H 4 0X66c6
H 5 0X6784
H 6 0X6838
H 7 0X6932
H 8 0X69e6
H 9 0X6aae
H O 0X6bb2
H E 0X6c34
H T 0X6d06
B 1 0X6db0
B 2 0X6e8c
B 3 0X6f72
B 4 0X6fe0
B 5 0X70d0
B 6 0X7184
B 7 0X7292
B 8 0X733c
B 9 0X7422
B O 0X74c2
B E 0X75bc
B T 0X7698
H 1 0X7832
H 2 0X7904
H 3 0X79cc
H 4 0X7a62
H 5 0X7b20
H 6 0X7bd4
H 7 0X7ce2
H 8 0X7d8c
H 9 0X7e68
H O 0X7f62
H E 0X802a
H T 0X80f2
B 1 0X819c
B 2 0X825a
B 3 0X8322
B 4 0X83b8
B 5 0X8480
B 6 0X8534
B 7 0X8624
B 8 0X86e2
B 9 0X87b4
B O 0X8886
B E 0X896c
B T 0X8a48
H 1 0X8c00
H 2 0X8cb4
H 3 0X8d40
H 4 0X8e26
H 5 0X8ef8
H 6 0X8fa2
H 7 0X909c
H 8 0X916e
H 9 0X91f0
H O 0X92d6
H E 0X93d0
H T 0X947a
B 1 0X9542
B 2 0X95e2
B 3 0X9696
B 4 0X9772
B 5 0X9830
B 6 0X9920
B 7 0X9a06
B 8 0X9aba
B 9 0X9b82
B O 0X9c4a
B E 0X9d4e
B T 0X9e02
H 2 0X9fc4
H 1 0Xa0b4
H 3 0Xa14a
H 5 0Xa1f4
H 4 0Xa2b2
H 7 0Xa384
H 6 0Xa424
H 9 0Xa50a
H 8 0Xa5f0
H E 0Xa6d6
H O 0Xa7c6
H T 0Xa870
B 2 0Xa910
B 3 0Xa9d8
B 1 0Xaac8
B 4 0Xab90
B 5 0Xac26
B 6 0Xacbc
B 7 0Xadb6
B 8 0Xae6a
B 9 0Xaf5a
B O 0Xb004
B E 0Xb0ea
B T 0Xb1d0
H 3 0Xb36a
H 2 0Xb414
H 4 0Xb54a
H 1 0Xb612
H 6 0Xb66c
H 5 0Xb766
H 8 0Xb824
H 7 0Xb900
H 9 0Xb9a0
H E 0Xba90
H O 0Xbb80
H T 0Xbc20
B 2 0Xbcfc
B 3 0Xbd9c
B 4 0Xbe6e
B 6 0Xbf04
B 1 0Xbff4
B 8 0Xc080
B 5 0Xc152
B 9 0Xc292
B 7 0Xc346
B O 0Xc3fa
B E 0Xc4d6
B T 0Xc594
H 2 0Xc74c
H 4 0Xc828
H 3 0Xc90e
H 1 0Xc9c2
H 6 0Xca4e
H 5 0Xcb20
H 8 0Xcbac
H 7 0Xccba
H 9 0Xcd78
H E 0Xce54
H O 0Xcf3a
H T 0Xcfd0
B 4 0Xd0ca
B 2 0Xd174
B 3 0Xd250
B 6 0Xd2be
B 1 0Xd3c2
B 8 0Xd44e
B 5 0Xd53e
B 9 0Xd638
B 7 0Xd700
B O 0Xd7c8
B E 0Xd8ae
B T 0Xd96c
H 4 0Xdaca
H 3 0Xdbd8
H 2 0Xdc8c
H 1 0Xdd68
H 6 0Xde08
H 5 0Xdf0c
H 8 0Xdfac
H 7 0Xe088
H 9 0Xe13c
H E 0Xe1fa
H O 0Xe2fe
H T 0Xe39e
B 3 0Xe48e
B 4 0Xe54c
B 2 0Xe60a
B 6 0Xe6b4
B 1 0Xe79a
B 8 0Xe830
B 5 0Xe934
B 9 0Xea06
B 7 0Xead8
B O 0Xebaa
B E 0Xec72
B T 0Xed3a
H 4 0Xeeca
H 3 0Xefba
H 6 0Xf082
H 2 0Xf172
H 8 0Xf230
H 1 0Xf2ee
H 9 0Xf3c0
H 5 0Xf47e
H O 0Xf546
H 7 0Xf604
H E 0Xf6b8
H T 0Xf76c
B 4 0Xf866
B 6 0Xf8f2
B 3 0Xf9f6
B 8 0Xfabe
B 2 0Xfba4
B 9 0Xfc62
B 1 0Xfd2a
B O 0Xfdd4
B 5 0Xfec4
B E 0Xffbe
B 7 0X007c
B T 0X0126
H 6 0X02d4
H 4 0X03a6
H 3 0X0464
H 2 0X054a
H 8 0X05fe
H 1 0X06da
H 9 0X075c
H 5 0X0888
H O 0X08ec
H 7 0X09b4
H E 0X0a5e
H T 0X0b6c
B 6 0X0c2a
B 3 0X0d42
B 4 0X0e00
B 8 0X0ec8
B 2 0X0f9a
B 9 0X1058
B 1 0X1102
B O 0X1198
B 5 0X126a
B E 0X1346
B 7 0X1422
B T 0X14fe
H 3 0X16a2
H 6 0X1756
H 4 0X1846
H 2 0X195e
H 8 0X1a08
H 1 0X1ad0
H 9 0X1b66
H 5 0X1c42
H O 0X1cd8
H 7 0X1dc8
H E 0X1e5e
H T 0X1f26
B 3 0X200c
B 4 0X20d4
B 6 0X21b0
B 8 0X226e
B 2 0X2368
B 9 0X244e
B 1 0X250c
B O 0X258e
B 5 0X2660
B E 0X2714
B 7 0X27f0
B T 0X28ae
H 4 0X2a52
H 3 0X2b2e
H 8 0X2c14
H 6 0X2cbe
H 9 0X2da4
H 2 0X2e9e
H O 0X2f66
H 1 0X3024
H 5 0X30ec
H 7 0X31d2
H E 0X3254
H T 0X3312
B 3 0X33da
B 4 0X3498
B 8 0X3560
B 9 0X3632
B 6 0X3718
B O 0X37c2
B 2 0X38bc
B 5 0X3998
B 1 0X3a6a
B E 0X3b14
B 7 0X3bfa
B T 0X3cd6
H 3 0X3e34
H 8 0X3f2e
H 4 0X3fba
H 6 0X406e
H 9 0X4154
H 2 0X4276
H O 0X42da
H 1 0X43ca
H 5 0X449c
H 7 0X45b4
H E 0X4640
H T 0X46fe
B 8 0X47e4
B 3 0X48ac
B 4 0X4942
B 9 0X4a14
B 6 0X4ad2
B O 0X4b9a
B 2 0X4c76
B 5 0X4d48
B 1 0X4e42
B E 0X4ee2
B 7 0X4fbe
B T 0X50ae
H 8 0X527a
H 4 0X5324
H 3 0X53d8
H 6 0X548c
H 9 0X5536
H 2 0X5644
H O 0X56c6
H 1 0X57b6
H 5 0X587e
H 7 0X598c
H E 0X5a04
H T 0X5acc
B 4 0X5b8a
B 8 0X5c84
B 3 0X5d74
B 9 0X5e3c
B 6 0X5efa
B O 0X5fb8
B 2 0X6080
B 5 0X613e
B 1 0X6206
B E 0X62b0
B 7 0X6396
B T 0X647c
H 8 0X663e
H 4 0X66f2
H 9 0X67ba
H 3 0X6896
H O 0X6968
H 6 0X6a26
H 5 0X6b16
H 2 0X6c24
H E 0X6c7e
H 1 0X6d46
H 7 0X6e2c
H T 0X6ea4
B 8 0X6f94
B 9 0X7098
B 4 0X7138
B O 0X720a
B 3 0X72f0
B 5 0X73b8
B 6 0X749e
B E 0X752a
B 2 0X7660
B 7 0X7728
B 1 0X77b4
B T 0X784a
H 9 0X7a3e
H 8 0X7b24
H 4 0X7bba
H 3 0X7ca0
H O 0X7d5e
H 6 0X7dfe
H 5 0X7eda
H 2 0X8010
H E 0X8074
H 1 0X8150
H 7 0X8222
H T 0X82cc
B 9 0X83c6
B 4 0X8484
B 8 0X8556
B O 0X8632
B 3 0X86dc
B 5 0X8786
B 6 0X8880
B E 0X8934
B 2 0X8a24
B 7 0X8af6
B 1 0X8baa
B T 0X8c68
H 4 0X8e3e
H 9 0X8ee8
H 8 0X9000
H 3 0X90aa
H O 0X915e
H 6 0X921c
H 5 0X9302
H 2 0X941a
H E 0X9474
H 1 0X955a
H 7 0X9640
H T 0X96e0
B 4 0X979e
B 8 0X987a
B 9 0X9974
B O 0X9a0a
B 3 0X9b0e
B 5 0X9bae
B 6 0X9c94
B E 0X9d52
B 2 0X9e1a
B 7 0X9f00
B 1 0X9fc8
B T 0Xa072
H 8 0Xa22a
H 4 0Xa2fc
H O 0Xa3c4
H 9 0Xa48c
H 5 0Xa572
H 3 0Xa612
H E 0Xa6ee
H 6 0Xa7de
H 7 0Xa8ba
H 2 0Xa9a0
H 1 0Xaa54
H T 0Xaaea
B 4 0Xabbc
B 8 0Xac98
B O 0Xad42
B 5 0Xae14
B 9 0Xaedc
B E 0Xaf9a
B 3 0Xb04e
B 7 0Xb152
B 6 0Xb210
B 1 0Xb2e2
B 2 0Xb3be
B T 0Xb47c
H 4 0Xb63e
H O 0Xb6d4
H 8 0Xb7ce
H 9 0Xb864
H 5 0Xb95e
H 3 0Xb9f4
H E 0Xba9e
H 6 0Xbb98
H 7 0Xbca6
H 2 0Xbd96
H 1 0Xbe5e
H T 0Xbef4
B O 0Xbfc6
B 4 0Xc084
B 8 0Xc156
B 5 0Xc1ec
B 9 0Xc2e6
B E 0Xc39a
B 3 0Xc49e
B 7 0Xc552
B 6 0Xc61a
B 1 0Xc6ce
B 2 0Xc7aa
B T 0Xc872
H O 0Xca34
H 8 0Xcb24
H 4 0Xcbe2
H 9 0Xcca0
H 5 0Xcd5e
H 3 0Xce26
H E 0Xceda
H 6 0Xcf98
H 7 0Xd0a6
H 2 0Xd196
H 1 0Xd268
H T 0Xd2ea
B 8 0Xd3d0
B O 0Xd4a2
B 4 0Xd592
B 5 0Xd650
B 9 0Xd70e
B E 0Xd7c2
B 3 0Xd8d0
B 7 0Xd97a
B 6 0Xda38
B 1 0Xdae2
B 2 0Xdba0
B T 0Xdc68
H O 0Xde48
H 8 0Xdf1a
H 5 0Xdfec
H 4 0Xe0e6
H E 0Xe172
H 9 0Xe26c
H 7 0Xe370
H 3 0Xe3e8
H 1 0Xe4b0
H 6 0Xe53c
H 2 0Xe654
H T 0Xe6fe
B O 0Xe7d0
B 5 0Xe8ca
B 8 0Xe988
B E 0Xea5a
B 4 0Xeb0e
B 7 0Xec1c
B 9 0Xecbc
B 1 0Xed5c
B 3 0Xee60
B 2 0Xef1e
B 6 0Xefc8
B T 0Xf090
H 5 0Xf27a
H O 0Xf310
H 8 0Xf3f6
H 4 0Xf4fa
H E 0Xf57c
H 9 0Xf662
H 7 0Xf734
H 3 0Xf806
H 1 0Xf8d8
H 6 0Xf982
H 2 0Xfa5e
H T 0Xfb12
B 5 0Xfc02
B 8 0Xfce8
B O 0Xfdc4
B E 0Xfeaa
B 4 0Xff7c
B 7 0X0008
B 9 0X00c6
B 1 0X017a
B 3 0X027e
B 2 0X031e
B 6 0X03e6
B T 0X04c2
H 8 0X06a2
H 5 0X077e
H O 0X07ec
H 4 0X0918
H E 0X09ae
H 9 0X0a9e
H 7 0X0b66
H 3 0X0c4c
H 1 0X0d32
H 6 0X0da0
H 2 0X0e90
H T 0X0f62
B 8 0X1020
B O 0X10de
B 5 0X119c
B E 0X128c
B 4 0X1368
B 7 0X144e
B 9 0X1520
B 1 0X15f2
B 3 0X169c
B 2 0X1782
B 6 0X182c
B T 0X18f4
H O 0X1a8e
H 8 0X1b92
H E 0X1c14
H 5 0X1d18
H 7 0X1e30
H 4 0X1ebc
H 1 0X1fb6
H 9 0X2074
H 2 0X216e
H 3 0X2204
H 6 0X22f4
H T 0X238a
B 8 0X243e
B O 0X2506
B E 0X25ba
B 7 0X26dc
B 5 0X2790
B 1 0X283a
B 4 0X28f8
B 2 0X29f2
B 9 0X2b00
B 6 0X2baa
B 3 0X2c54
B T 0X2d30
H 8 0X2ede
H E 0X2f7e
H O 0X306e
H 5 0X3140
H 7 0X323a
H 4 0X32ee
H 1 0X33de
H 9 0X34a6
H 2 0X353c
H 3 0X35f0
H 6 0X36cc
H T 0X37a8
B E 0X388e
B 8 0X3960
B O 0X3a00
B 7 0X3af0
B 5 0X3b9a
B 1 0X3c6c
B 4 0X3d52
B 2 0X3e24
B 9 0X3f00
B 6 0X3fa0
B 3 0X4072
B T 0X413a
H E 0X42c0
H O 0X4392
H 8 0X448c
H 5 0X457c
H 7 0X468a
H 4 0X4734
H 1 0X47e8
H 9 0X48a6
H 2 0X4964
H 3 0X4a18
H 6 0X4aea
H T 0X4bd0
B O 0X4c66
B E 0X4d38
B 8 0X4e5a
B 7 0X4f2c
B 5 0X4fea
B 1 0X50b2
B 4 0X517a
B 2 0X5260
B 9 0X5314
B 6 0X53b4
B 3 0X54b8
B T 0X554e
H E 0X5706
H O 0X57f6
H 7 0X58be
H 8 0X59a4
H 1 0X5a6c
H 5 0X5b3e
H 2 0X5c4c
H 4 0X5d00
H 6 0X5db4
H 9 0X5e72
H 3 0X5f30
H T 0X5fbc
B E 0X60ac
B 7 0X6192
B O 0X6246
B 1 0X6322
B 8 0X6408
B 2 0X64e4
B 5 0X6570
B 6 0X666a
B 4 0X673c
B 3 0X6822
B 9 0X68ea
B T 0X698a
H 7 0X6b2e
H E 0X6bec
H O 0X6cd2
H 8 0X6dcc
H 1 0X6e9e
H 5 0X6f3e
H 2 0X702e
H 4 0X710a
H 6 0X718c
H 9 0X7286
H 3 0X733a
H T 0X7402
B 7 0X74f2
B O 0X75ba
B E 0X76a0
B 1 0X7768
B 8 0X784e
B 2 0X7916
B 5 0X79b6
B 6 0X7a9c
B 4 0X7b6e
B 3 0X7c4a
B 9 0X7cfe
B T 0X7dc6
H O 0X7f6a
H 7 0X8046
H E 0X80fa
H 8 0X8212
H 1 0X82d0
H 5 0X837a
H 2 0X847e
H 4 0X8546
H 6 0X85c8
H 9 0X86c2
H 3 0X8780
H T 0X8852
B O 0X8924
B E 0X8a0a
B 7 0X8ad2
B 1 0X8b86
B 8 0X8c9e
B 2 0X8d48
B 5 0X8dde
B 6 0X8ee2
B 4 0X8f96
B 3 0X9086
B 9 0X914e
B T 0X9216
H E 0X93c4
H O 0X94aa
H 1 0X9554
H 7 0X9680
H 2 0X972a
H 8 0X97e8
H 6 0X98a6
H 5 0X9982
H 3 0X9a2c
H 4 0X9afe
H 9 0X9ba8
H T 0X9c98
B O 0X9d88
B E 0X9e64
B 1 0X9efa
B 2 0X9fe0
B 7 0Xa0e4
B 6 0Xa18e
B 8 0Xa238
B 3 0Xa314
B 5 0Xa3be
B 9 0Xa4ea
B 4 0Xa594
B T 0Xa652
H O 0Xa7e2
H 1 0Xa8be
H E 0Xa95e
H 7 0Xaa94
H 2 0Xab70
H 8 0Xac10
H 6 0Xacce
H 5 0Xadb4
H 3 0Xae7c
H 4 0Xaf30
H 9 0Xb00c
H T 0Xb0b6
B 1 0Xb17e
B O 0Xb214
B E 0Xb2f0
B 2 0Xb426
B 7 0Xb502
B 6 0Xb5c0
B 8 0Xb67e
B 3 0Xb76e
B 5 0Xb7fa
B 9 0Xb8fe
B 4 0Xb9f8
B T 0Xba8e
H 1 0Xbc32
H E 0Xbcb4
H O 0Xbd7c
H 7 0Xbe8a
H 2 0Xbf84
H 8 0Xc06a
H 6 0Xc10a
H 5 0Xc1fa
H 3 0Xc2ae
H 4 0Xc376
H 9 0Xc434
H T 0Xc4fc
B E 0Xc5ce
B 1 0Xc6aa
B O 0Xc772
B 2 0Xc86c
B 7 0Xc948
B 6 0Xc9f2
B 8 0Xcaba
B 3 0Xcb96
B 5 0Xcc4a
B 9 0Xccfe
B 4 0Xcdf8
B T 0Xcec0
H 1 0Xd0a0
H E 0Xd172
H 2 0Xd21c
H O 0Xd2da
H 6 0Xd3b6
H 7 0Xd4c4
H 3 0Xd546
H 8 0Xd604
H 9 0Xd6c2
H 5 0Xd7bc
H 4 0Xd884
H T 0Xd92e
B 1 0Xda28
B 2 0Xdb22
B E 0Xdbae
B 6 0Xdcb2
B O 0Xdd34
B 3 0Xde10
B 7 0Xdf1e
B 9 0Xdfaa
B 8 0Xe090
B 4 0Xe162
B 5 0Xe1ee
B T 0Xe2c0
H 2 0Xe4fa
H 1 0Xe5cc
H E 0Xe630
H O 0Xe748
H 6 0Xe7f2
H 7 0Xe8e2
H 3 0Xe98c
H 8 0Xea5e
H 9 0Xeaf4
H 5 0Xebd0
H 4 0Xec84
H T 0Xed7e
B 2 0Xee78
B E 0Xef2c
B 1 0Xf008
B 6 0Xf0c6
B O 0Xf184
B 3 0Xf242
B 7 0Xf332
B 9 0Xf40e
B 8 0Xf4fe
B 4 0Xf5b2
B 5 0Xf652
B T 0Xf72e
H E 0Xf8fa
H 2 0Xf9e0
H 1 0Xfabc
H O 0Xfb8e
H 6 0Xfc2e
H 7 0Xfd1e
H 3 0Xfdbe
H 8 0Xfea4
H 9 0Xff3a
H 5 0X000c
H 4 0X011a
H T 0X01ec
B E 0X0304
B 1 0X0386
B 2 0X0458
B 6 0X0516
B O 0X05ca
B 3 0X06c4
B 7 0X07aa
B 9 0X0840
B 8 0X0930
B 4 0X09e4
B 5 0X0aa2
B T 0X0b92
H 1 0X0d5e
H E 0X0e30
H 6 0X0ef8
H 2 0X0fde
H 3 0X109c
H O 0X116e
H 9 0X1222
H 7 0X12ea
H 4 0X13c6
H 8 0X1470
H 5 0X1524
H T 0X1628
B E 0X1722
B 1 0X17c2
B 6 0X1880
B 3 0X1966
B 2 0X1a38
B 9 0X1b0a
B O 0X1be6
B 4 0X1c90
B 7 0X1d6c
B 5 0X1e3e
B 8 0X1f24
B T 0X1fec
H E 0X21c2
H 6 0X226c
H 1 0X2348
H 2 0X2442
H 3 0X24c4
H O 0X25aa
H 9 0X2640
H 7 0X273a
H 4 0X280c
H 8 0X28de
H 5 0X29a6
H T 0X2a8c
B 6 0X2b5e
B E 0X2c3a
B 1 0X2cc6
B 3 0X2dac
B 2 0X2e7e
B 9 0X2f6e
B O 0X302c
B 4 0X30fe
B 7 0X31d0
B 5 0X328e
B 8 0X3388
B T 0X345a
H 6 0X35d6
H 1 0X36d0
H E 0X377a
H 2 0X389c
H 3 0X3946
H O 0X39e6
H 9 0X3aa4
H 7 0X3ba8
H 4 0X3c98
H 8 0X3d60
H 5 0X3e00
H T 0X3ec8
B 1 0X3f9a
B 6 0X4044
B E 0X4116
B 3 0X41ca
B 2 0X42d8
B 9 0X43aa
B O 0X445e
B 4 0X4562
B 7 0X4620
B 5 0X46fc
B 8 0X47d8
B T 0X48a0
H 6 0X4a30
H 1 0X4b2a
H 3 0X4bca
H E 0X4c7e
H 9 0X4d64
H 2 0X4e36
H 4 0X4f12
H O 0X4f9e
H 5 0X50b6
H 7 0X51ba
H 8 0X526e
H T 0X5340
B 6 0X53e0
B 3 0X54b2
B 1 0X557a
B 9 0X5638
B E 0X56f6
B 4 0X57be
B 2 0X589a
B 5 0X5976
B O 0X5a02
B 8 0X5b2e
B 7 0X5c28
B T 0X5cfa
H 3 0X5e80
H 6 0X5f2a
H 1 0X6038
H E 0X60ec
H 9 0X61c8
H 2 0X62ae
H 4 0X633a
H O 0X63e4
H 5 0X64b6
H 7 0X65ec
H 8 0X6678
H T 0X674a
B 3 0X6830
B 1 0X6902
B 6 0X69ac
B 9 0X6a88
B E 0X6b64
B 4 0X6c40
B 2 0X6d12
B 5 0X6dbc
B O 0X6e5c
B 8 0X6f60
B 7 0X703c
B T 0X7104
H 1 0X72c6
H 3 0X738e
H 6 0X742e
H E 0X7546
H 9 0X75fa
H 2 0X76cc
H 4 0X7794
H O 0X783e
H 5 0X7910
H 7 0X7a1e
H 8 0X7adc
H T 0X7b72
B 1 0X7c58
B 6 0X7cee
B 3 0X7dfc
B 9 0X7ee2
B E 0X7fa0
B 4 0X8072
B 2 0X8144
B 5 0X8216
B O 0X82ca
B 8 0X83a6
B 7 0X8482
B T 0X8540
H 6 0X86b2
H 1 0X87de
H 9 0X88ce
H 3 0X896e
H 4 0X8a54
H E 0X8b1c
H 5 0X8be4
H 2 0X8cf2
H 8 0X8db0
H O 0X8e8c
H 7 0X8f36
H T 0X8fd6
B 1 0X908a
B 6 0X9148
B 9 0X921a
B 4 0X935a
B 3 0X9418
B 5 0X94d6
B E 0X9594
B 8 0X9698
B 2 0X9738
B 7 0X9800
B O 0X98f0
B T 0X99c2
H 1 0X9b70
H 9 0X9bfc
H 6 0X9cc4
H 3 0X9dbe
H 4 0X9e9a
H E 0X9f62
H 5 0Xa020
H 2 0Xa12e
H 8 0Xa1f6
H O 0Xa2c8
H 7 0Xa390
H T 0Xa444
B 9 0Xa50c
B 1 0Xa5d4
B 6 0Xa674
B 4 0Xa782
B 3 0Xa87c
B 5 0Xa930
B E 0Xa9da
B 8 0Xaaca
B 2 0Xab74
B 7 0Xac5a
B O 0Xad2c
B T 0Xae12
H 9 0Xafc0
H 6 0Xb09c
H 1 0Xb16e
H 3 0Xb222
H 4 0Xb2f4
H E 0Xb39e
H 5 0Xb47a
H 2 0Xb5a6
H 8 0Xb650
H O 0Xb718
H 7 0Xb7ea
H T 0Xb88a
B 6 0Xb98e
B 9 0Xba60
B 1 0Xbb28
B 4 0Xbbf0
B 3 0Xbcae
B 5 0Xbd6c
B E 0Xbe34
B 8 0Xbf38
B 2 0Xbfec
B 7 0Xc0dc
B O 0Xc19a
B T 0Xc258
H 9 0Xc42e
H 6 0Xc4e2
H 4 0Xc5e6
H 1 0Xc6c2
H 5 0Xc762
H 3 0Xc83e
H 8 0Xc906
H E 0Xc9c4
H 2 0Xcad2
H O 0Xcb68
H 7 0Xcc30
H T 0Xccf8
B 9 0Xce06
B 4 0Xceba
B 6 0Xcf64
B 5 0Xd07c
B 1 0Xd144
B 8 0Xd22a
B 3 0Xd2b6
B 2 0Xd3a6
B E 0Xd41e
B 7 0Xd518
B O 0Xd5e0
B T 0Xd6d0
H 4 0Xd8a6
H 9 0Xd964
H 6 0Xda2c
H 1 0Xdb1c
H 5 0Xdba8
H 3 0Xdc84
H 8 0Xdd60
H E 0Xde0a
H 2 0Xdedc
H O 0Xdfa4
H 7 0Xe08a
H T 0Xe134
B 4 0Xe21a
B 6 0Xe30a
B 9 0Xe3f0
B 5 0Xe4d6
B 1 0Xe580
B 8 0Xe67a
B 3 0Xe72e
B 2 0Xe7b0
B E 0Xe86e
B 7 0Xe954
B O 0Xea26
B T 0Xeb0c
H 6 0Xecd8
H 4 0Xedb4
H 9 0Xee7c
H 1 0Xef6c
H 5 0Xf020
H 3 0Xf0f2
H 8 0Xf1ce
H E 0Xf26e
H 2 0Xf32c
H O 0Xf3f4
H 7 0Xf4b2
H T 0Xf58e
B 6 0Xf66a
B 9 0Xf782
B 4 0Xf818
B 5 0Xf8fe
B 1 0Xf9da
B 8 0Xfaca
B 3 0Xfba6
B 2 0Xfc50
B E 0Xfcb4
B 7 0Xfdb8
B O 0Xfe76
B T 0Xff5c
H 9 0X0146
H 6 0X0218
H 5 0X02d6
H 4 0X03bc
H 8 0X0498
H 1 0X04f2
H 2 0X063c
H 3 0X06fa
H 7 0X07e0
H E 0X084e
H O 0X0970
H T 0X0a10
B 6 0X0ac4
B 9 0X0bb4
B 5 0X0c68
B 8 0X0d4e
B 4 0X0e2a
B 2 0X0f10
B 1 0X0fec
B 7 0X10a0
B 3 0X1172
B O 0X1244
B E 0X12da
B T 0X13de
H 6 0X155a
H 5 0X1640
H 9 0X171c
H 4 0X17ee
H 8 0X18ac
H 1 0X19b0
H 2 0X1aaa
H 3 0X1b40
H 7 0X1c3a
H E 0X1cbc
H O 0X1dac
H T 0X1e56
B 5 0X1f46
B 6 0X1fdc
B 9 0X20f4
B 8 0X21bc
B 4 0X2284
B 2 0X2360
B 1 0X2446
B 7 0X250e
B 3 0X25c2
B O 0X2662
B E 0X2748
B T 0X2824
H 5 0X29f0
H 9 0X2a9a
H 6 0X2b6c
H 4 0X2c7a
H 8 0X2d38
H 1 0X2e00
H 2 0X2eb4
H 3 0X2f7c
H 7 0X308a
H E 0X310c
H O 0X31f2
H T 0X3292
B 9 0X3350
B 5 0X345e
B 6 0X3544
B 8 0X3602
B 4 0X3706
B 2 0X37a6
B 1 0X3878
B 7 0X3940
B 3 0X3a26
B O 0X3a9e
B E 0X3b7a
B T 0X3c4c
H 5 0X3e36
H 9 0X3efe
H 8 0X400c
H 6 0X40ac
H 2 0X41b0
H 4 0X428c
H 7 0X435e
H 1 0X43fe
H O 0X4494
H 3 0X4566
H E 0X45fc
H T 0X46d8
B 5 0X47f0
B 8 0X48e0
B 9 0X49c6
B 2 0X4a7a
B 6 0X4b24
B 7 0X4c1e
B 4 0X4ce6
B O 0X4d86
B 1 0X4e62
B E 0X4f02
B 3 0X5006
B T 0X50a6
H 8 0X5286
H 5 0X538a
H 9 0X5484
H 6 0X5510
H 2 0X5600
H 4 0X56aa
H 7 0X57a4
H 1 0X586c
H O 0X58ee
H 3 0X59ca
H E 0X5a6a
H T 0X5b3c
B 8 0X5c40
B 9 0X5d30
B 5 0X5df8
B 2 0X5efc
B 6 0X5fa6
B 7 0X608c
B 4 0X6168
B O 0X61ea
B 1 0X62b2
B E 0X635c
B 3 0X6456
B T 0X650a
H 9 0X671c
H 8 0X67ee
H 5 0X68ac
H 6 0X6956
H 2 0X6a5a
H 4 0X6b36
H 7 0X6bf4
H 1 0X6c76
H O 0X6d66
H 3 0X6e38
H E 0X6e92
H T 0X6f82
B 9 0X70a4
B 5 0X719e
B 8 0X7266
B 2 0X734c
B 6 0X7414
B 7 0X74e6
B 4 0X75ae
B O 0X766c
B 1 0X772a
B E 0X7798
B 3 0X78a6
B T 0X7996
H 5 0X7b4e
H 9 0X7c48
H 2 0X7d10
H 8 0X7dce
H 7 0X7ebe
H 6 0X7fa4
H O 0X8044
H 4 0X80d0
H 1 0X81d4
H 3 0X827e
H E 0X8350
H T 0X83aa
B 9 0X8512
B 5 0X8602
B 2 0X86de
B 7 0X87a6
B 8 0X8846
B O 0X8922
B 6 0X89fe
B 1 0X8abc
B 4 0X8b8e
B E 0X8c56
B 3 0X8d3c
B T 0X8da0
H 9 0X8f9e
H 2 0X908e
H 5 0X9142
H 8 0X9214
H 7 0X92f0
H 6 0X93b8
H O 0X948a
H 4 0X9548
H 1 0X9624
H 3 0X970a
H E 0X9796
H T 0X984a
B 2 0X9976
B 9 0X9a2a
B 5 0X9ae8
B 7 0X9be2
B 8 0X9c8c
B O 0X9d4a
B 6 0X9dfe
B 1 0X9ed0
B 4 0X9ff2
B E 0Xa09c
B 3 0Xa1a0
B T 0Xa22c
H 2 0Xa3e4
H 5 0Xa498
H 9 0Xa59c
H 8 0Xa63c
H 7 0Xa72c
H 6 0Xa7fe
H O 0Xa8c6
H 4 0Xa98e
H 1 0Xaa56
H 3 0Xab3c
H E 0Xabdc
H T 0Xaccc
B 5 0Xada8
B 2 0Xae8e
B 9 0Xaf4c
B 7 0Xb00a
B 8 0Xb08c
B O 0Xb17c
B 6 0Xb258
B 1 0Xb33e
B 4 0Xb41a
B E 0Xb500
B 3 0Xb596
B T 0Xb668
H 2 0Xb83e
H 5 0Xb910
H 7 0Xba32
H 9 0Xbab4
H O 0Xbbae
H 8 0Xbc26
H 1 0Xbd0c
H 6 0Xbda2
H E 0Xbe92
H 4 0Xbfa0
H 3 0Xc072
H T 0Xc0ea
B 2 0Xc1f8
B 7 0Xc2de
B 5 0Xc3ba
B O 0Xc478
B 9 0Xc55e
B 1 0Xc608
B 8 0Xc69e
B E 0Xc798
B 6 0Xc892
B 3 0Xc96e
B 4 0Xca2c
B T 0Xcaa4
H 7 0Xccde
H 2 0Xcdb0
H 5 0Xce3c
H 9 0Xcf04
H O 0Xcff4
H 8 0Xd0a8
H 1 0Xd17a
H 6 0Xd24c
H E 0Xd2f6
H 4 0Xd3d2
H 3 0Xd490
H T 0Xd56c
B 7 0Xd67a
B 5 0Xd760
B 2 0Xd850
B O 0Xd8d2
B 9 0Xd9a4
B 1 0Xda58
B 8 0Xdb2a
B E 0Xdbfc
B 6 0Xdcd8
B 3 0Xddbe
B 4 0Xde54
B T 0Xdf08
H 5 0Xe11a
H 7 0Xe214
H 2 0Xe2f0
H 9 0Xe372
H O 0Xe44e
H 8 0Xe53e
H 1 0Xe5fc
H 6 0Xe66a
H E 0Xe764
H 4 0Xe84a
H 3 0Xe8fe
H T 0Xe9d0
B 5 0Xea98
B 2 0Xeb9c
B 7 0Xec78
B O 0Xed36
B 9 0Xedfe
B 1 0Xeeda
B 8 0Xefc0
B E 0Xf07e
B 6 0Xf11e
B 3 0Xf222
B 4 0Xf2d6
B T 0Xf394
H 2 0Xf588
H 5 0Xf632
H O 0Xf722
H 7 0Xf7d6
H 1 0Xf8a8
H 9 0Xf948
H E 0Xfa24
H 8 0Xfb14
H 3 0Xfbf0
H 6 0Xfc7c
H 4 0Xfd76
H T 0Xfe16
B 5 0Xff2e
B 2 0X001e
B O 0X00aa
B 1 0X015e
B 7 0X024e
B E 0X030c
B 9 0X03f2
B 3 0X04e2
B 8 0X05b4
B 4 0X0654
B 6 0X0726
B T 0X07da
H 5 0X09b0
H O 0X0a8c
H 2 0X0b68
H 7 0X0c3a
H 1 0X0d02
H 9 0X0dc0
H E 0X0e7e
H 8 0X0f64
H 3 0X1036
H 6 0X10c2
H 4 0X11d0
H T 0X128e
B O 0X13c4
B 5 0X143c
B 2 0X1522
B 1 0X1608
B 7 0X16c6
B E 0X1766
B 9 0X1856
B 3 0X193c
B 8 0X1a0e
B 4 0X1ab8
B 6 0X1b62
B T 0X1c34
H O 0X1e3c
H 2 0X1f0e
H 5 0X1f9a
H 7 0X20bc
H 1 0X218e
H 9 0X2210
H E 0X22f6
H 8 0X23dc
H 3 0X249a
H 6 0X251c
H 4 0X2652
H T 0X26e8
B 2 0X281e
B O 0X286e
B 5 0X2936
B 1 0X2a4e
B 7 0X2b48
B E 0X2c10
B 9 0X2cba
B 3 0X2d96
B 8 0X2e86
B 4 0X2f30
B 6 0X2ff8
B T 0X30b6
H O 0X3278
H 2 0X3368
H 1 0X3444
H 5 0X34e4
H E 0X35a2
H 7 0X3692
H 3 0X376e
H 9 0X3822
H 4 0X38f4
H 8 0X3a02
H 6 0X3aca
H T 0X3b88
B O 0X3c5a
B 1 0X3d04
B 2 0X3de0
B E 0X3e94
B 5 0X3f48
B 3 0X4060
B 7 0X4128
B 4 0X41c8
B 9 0X42b8
B 6 0X4394
B 8 0X443e
B T 0X454c
H 1 0X4718
H O 0X4786
H 2 0X4894
H 5 0X4948
H E 0X49de
H 7 0X4ae2
H 3 0X4ba0
H 9 0X4c9a
H 4 0X4d62
H 8 0X4e5c
H 6 0X4ee8
H T 0X4fec
B 1 0X50b4
B 2 0X5186
B O 0X5212
B E 0X530c
B 5 0X53ca
B 3 0X54ba
B 7 0X5582
B 4 0X5636
B 9 0X5712
B 6 0X57c6
B 8 0X58a2
B T 0X5988
H 2 0X5b72
H 1 0X5c62
H O 0X5cd0
H 5 0X5dc0
H E 0X5e4c
H 7 0X5f64
H 3 0X6036
H 9 0X60c2
H 4 0X61c6
H 8 0X62c0
H 6 0X6360
H T 0X6432
B 2 0X6522
B O 0X65ea
B 1 0X669e
B E 0X6770
B 5 0X681a
B 3 0X6932
B 7 0X69f0
B 4 0X6a90
B 9 0X6b94
B 6 0X6c2a
B 8 0X6d24
B T 0X6e0a
H O 0X6ff4
H 2 0X70b2
H E 0X7166
H 1 0X7238
H 3 0X730a
H 5 0X73c8
H 4 0X74b8
H 7 0X758a
H 6 0X7634
H 9 0X76de
H 8 0X77f6
H T 0X78d2
B 2 0X79ae
B O 0X7a44
B E 0X7b2a
B 3 0X7c06
B 1 0X7cd8
B 4 0X7d6e
B 5 0X7e2c
B 6 0X7f12
B 7 0X7fee
B 8 0X80c0
B 9 0X8188
B T 0X8250
H 2 0X8458
H E 0X8516
H O 0X85fc
H 1 0X86c4
H 3 0X878c
H 5 0X884a
H 4 0X8930
H 7 0X89da
H 6 0X8a66
H 9 0X8b42
H 8 0X8c28
H T 0X8d0e
B E 0X8e1c
B 2 0X8ee4
B O 0X8fac
B 3 0X907e
B 1 0X913c
B 4 0X91f0
B 5 0X92ae
B 6 0X9394
B 7 0X9466
B 8 0X951a
B 9 0X95f6
B T 0X96b4
H E 0X9876
H O 0X9984
H 2 0X9a60
H 1 0X9b32
H 3 0X9c04
H 5 0X9c9a
H 4 0X9d8a
H 7 0X9e34
H 6 0X9ede
H 9 0X9fba
H 8 0Xa096
H T 0Xa168
B O 0Xa24e
B E 0Xa316
B 2 0Xa406
B 3 0Xa4d8
B 1 0Xa5aa
B 4 0Xa64a
B 5 0Xa712
B 6 0Xa7e4
B 7 0Xa8d4
B 8 0Xa97e
B 9 0Xaa6e
B T 0Xab22
H E 0Xace4
H O 0Xadd4
H 3 0Xae6a
H 2 0Xaf64
H 4 0Xb036
H 1 0Xb112
H 6 0Xb1a8
H 5 0Xb298
H 8 0Xb36a
H 7 0Xb43c
H 9 0Xb4f0
H T 0Xb5d6
B E 0Xb6c6
B 3 0Xb77a
B O 0Xb81a
B 4 0Xb8e2
B 2 0Xb9e6
B 6 0Xba86
B 1 0Xbb62
B 8 0Xbc66
B 5 0Xbd1a
B 9 0Xbdf6
B 7 0Xbeb4
B T 0Xbf86
H 3 0Xc148
H E 0Xc22e
H O 0Xc300
H 2 0Xc404
H 4 0Xc49a
H 1 0Xc576
H 6 0Xc602
H 5 0Xc6e8
H 8 0Xc792
H 7 0Xc86e
H 9 0Xc8fa
H T 0Xca1c
B 3 0Xcaf8
B O 0Xcbac
B E 0Xcca6
B 4 0Xcd6e
B 2 0Xce68
B 6 0Xcef4
B 1 0Xcfc6
B 8 0Xd0b6
B 5 0Xd14c
B 9 0Xd23c
B 7 0Xd30e
B T 0Xd3d6
H O 0Xd5ca
H 3 0Xd660
H E 0Xd746
H 2 0Xd85e
H 4 0Xd8ae
H 1 0Xd9da
H 6 0Xda84
H 5 0Xdb74
H 8 0Xdc3c
H 7 0Xdce6
H 9 0Xdd7c
H T 0Xde80
B O 0Xdf66
B E 0Xe060
B 3 0Xe10a
B 4 0Xe196
B 2 0Xe286
B 6 0Xe34e
B 1 0Xe43e
B 8 0Xe510
B 5 0Xe5ce
B 9 0Xe6a0
B 7 0Xe786
B T 0Xe844
H E 0Xea2e
H O 0Xeb1e
H 4 0Xeb82
H 3 0Xec86
H 6 0Xed3a
H 2 0Xee3e
H 8 0Xeefc
H 1 0Xefd8
H 9 0Xf082
H 5 0Xf154
H 7 0Xf258
H T 0Xf302
B O 0Xf3b6
B E 0Xf4ba
B 4 0Xf596
B 6 0Xf636
B 3 0Xf74e
B 8 0Xf80c
B 2 0Xf8de
B 9 0Xf992
B 1 0Xfa64
B 7 0Xfb36
B 5 0Xfbf4
B T 0Xfcda
H O 0Xfe60
H 4 0Xff28
H 6 0Xffc8
H E 0Xfffa
H 3 0X00fe
H 2 0X02de
H 8 0X03a6
H 1 0X046e
H 9 0X04fa
H 5 0X05ea
H 7 0X06bc
H T 0X078e
B 4 0X0842
B O 0X08b0
B E 0X0996
B 6 0X0a7c
B 3 0X0b58
B 8 0X0c7a
B 2 0X0d56
B 9 0X0e1e
B 1 0X0ed2
B 7 0X0fa4
B 5 0X108a
B T 0X1166
H 4 0X12ec
H E 0X138c
H O 0X147c
H 3 0X1530
H 6 0X1602
H 2 0X172e
H 8 0X17ec
H 1 0X18b4
H 9 0X195e
H 5 0X1a44
H 7 0X1b0c
H T 0X1c06
B E 0X1ce2
B 4 0X1de6
B O 0X1e2c
B 6 0X1f30
B 3 0X2016
B 8 0X20d4
B 2 0X2192
B 9 0X2296
B 1 0X2336
B 7 0X2408
B 5 0X24c6
B T 0X25b6
H 4 0X2778
H E 0X2804
H 6 0X291c
H O 0X29e4
H 8 0X2aca
H 3 0X2bb0
H 9 0X2c32
H 2 0X2d40
H 7 0X2e12
H 1 0X2ea8
H 5 0X2f66
H T 0X304c
B 4 0X3100
B 6 0X31dc
B E 0X3286
B 8 0X33b2
B O 0X345c
B 9 0X356a
B 3 0X363c
B 7 0X3704
B 2 0X37ae
B 5 0X3880
B 1 0X3952
B T 0X3a06
H 6 0X3ba0
H 4 0X3ca4
H E 0X3d08
H O 0X3e3e
H 8 0X3f10
H 3 0X3fec
H 9 0X40a0
H 2 0X41c2
H 7 0X4280
H 1 0X4348
H 5 0X441a
H T 0X44ba
B 6 0X4564
B E 0X4618
B 4 0X46ea
B 8 0X4820
B O 0X48ca
B 9 0X497e
B 3 0X4a78
B 7 0X4b4a
B 2 0X4bfe
B 5 0X4ce4
B 1 0X4dac
B T 0X4e7e
H E 0X5022
H 6 0X50d6
H 4 0X5194
H O 0X528e
H 8 0X537e
H 3 0X545a
H 9 0X54fa
H 2 0X5612
H 7 0X56b2
H 1 0X5770
H 5 0X5842
H T 0X5914
B E 0X59fa
B 4 0X5acc
B 6 0X5b62
B 8 0X5c5c
B O 0X5d1a
B 9 0X5e14
B 3 0X5edc
B 7 0X5fae
B 2 0X6062
B 5 0X612a
B 1 0X6206
B T 0X62ba
H 4 0X6486
H E 0X6544
H 8 0X663e
H 6 0X66fc
H 9 0X67c4
H O 0X68a0
H 7 0X6986
H 3 0X6a4e
H 5 0X6b20
H 2 0X6bf2
H 1 0X6cce
H T 0X6d64
B E 0X6e4a
B 4 0X6f1c
B 8 0X6fee
B 9 0X70d4
B 6 0X7174
B 7 0X725a
B O 0X7318
B 5 0X7412
B 3 0X74d0
B 1 0X755c
B 2 0X7674
B T 0X7700
H E 0X78b8
H 8 0X79da
H 4 0X7aac
H 6 0X7b42
H 9 0X7c00
H O 0X7d04
H 7 0X7dcc
H 3 0X7e94
H 5 0X7f3e
H 2 0X801a
H 1 0X80f6
H T 0X81be
B 8 0X82b8
B E 0X834e
B 4 0X843e
B 9 0X851a
B 6 0X857e
B 7 0X86aa
B O 0X8772
B 5 0X8812
B 3 0X88f8
B 1 0X8998
B 2 0X8aa6
B T 0X8b46
H 8 0X8d58
H 4 0X8e0c
H E 0X8eac
H 6 0X8f6a
H 9 0X9028
H O 0X914a
H 7 0X921c
H 3 0X92ee
H 5 0X93ac
H 2 0X947e
H 1 0X9550
H T 0X95e6
B 4 0X96b8
B 8 0X97d0
B E 0X9866
B 9 0X9924
B 6 0X99d8
B 7 0X9ae6
B O 0X9bb8
B 5 0X9c4e
B 3 0X9d7a
B 1 0X9e24
B 2 0X9eba
B T 0X9f96
H 8 0Xa18a
H 4 0Xa270
H 9 0Xa324
H E 0Xa3e2
H 7 0Xa4dc
H 6 0Xa586
H 5 0Xa644
H O 0Xa73e
H 1 0Xa806
H 3 0Xa8ec
H 2 0Xa996
H T 0Xaa4a
B 8 0Xab30
B 9 0Xac20
B 4 0Xace8
B 7 0Xada6
B E 0Xae6e
B 5 0Xaf04
B 6 0Xafea
B 1 0Xb0c6
B O 0Xb166
B 2 0Xb27e
B 3 0Xb33c
B T 0Xb3fa
H 9 0Xb5da
H 8 0Xb6c0
H 4 0Xb788
H E 0Xb846
H 7 0Xb94a
H 6 0Xb9b8
H 5 0Xbaa8
H O 0Xbb5c
H 1 0Xbc24
H 3 0Xbcec
H 2 0Xbde6
H T 0Xbe90
B 9 0Xbf4e
B 4 0Xc066
B 8 0Xc110
B 7 0Xc1ec
B E 0Xc2be
B 5 0Xc386
B 6 0Xc476
B 1 0Xc534
B O 0Xc5b6
B 2 0Xc6ec
B 3 0Xc78c
B T 0Xc836
H 4 0Xca0c
H 9 0Xcaca
H 8 0Xcbb0
H E 0Xccaa
H 7 0Xcd86
H 6 0Xce3a
H 5 0Xcf02
H O 0Xcfb6
H 1 0Xd07e
H 3 0Xd16e
H 2 0Xd236
H T 0Xd2ea
B 4 0Xd3c6
B 8 0Xd48e
B 9 0Xd57e
B 7 0Xd65a
B E 0Xd6fa
B 5 0Xd7ea
B 6 0Xd8ee
B 1 0Xd9b6
B O 0Xd9fc
B 2 0Xdb14
B 3 0Xdbdc
B T 0Xdcae
H 8 0Xde70
H 4 0Xdf60
H 7 0Xe050
H 9 0Xe0be
H 5 0Xe1cc
H E 0Xe280
H 1 0Xe35c
H 6 0Xe41a
H 2 0Xe51e
H O 0Xe5aa
H 3 0Xe668
H T 0Xe74e
B 4 0Xe80c
B 8 0Xe906
B 7 0Xe9ce
B 5 0Xeab4
B 9 0Xeb7c
B 1 0Xec62
B E 0Xecc6
B 2 0Xedf2
B 6 0Xee7e
B 3 0Xef96
B O 0Xf00e
B T 0Xf126
H 4 0Xf2ac
H 7 0Xf3a6
H 8 0Xf450
H 9 0Xf518
H 5 0Xf612
H E 0Xf6f8
H 1 0Xf7b6
H 6 0Xf856
H 2 0Xf964
H O 0Xfa04
H 3 0Xfab8
H T 0Xfba8
B 7 0Xfc66
B 4 0Xfd42
B 8 0Xfe14
B 5 0Xfefa
B 9 0Xffa4
B 1 0X00a8
B E 0X0134
B 2 0X0242
B 6 0X02d8
B 3 0X040e
B O 0X047c
B T 0X0562
H 7 0X0756
H 8 0X0814
H 4 0X08fa
H 9 0X0968
H 5 0X0a3a
H E 0X0b16
H 1 0X0bf2
H 6 0X0ca6
H 2 0X0db4
H O 0X0e54
H 3 0X0f12
H T 0X0fe4
B 8 0X10e8
B 7 0X11e2
B 4 0X1282
B 5 0X134a
B 9 0X143a
B 1 0X14e4
B E 0X1566
B 2 0X1674
B 6 0X1746
B 3 0X185e
B O 0X18ae
B T 0X1994
H 7 0X1b92
H 8 0X1c78
H 5 0X1d22
H 4 0X1e26
H 1 0X1f16
H 9 0X1fac
H 2 0X2074
H E 0X2100
H 6 0X2240
H O 0X22b8
H 3 0X236c
H T 0X2452
B 7 0X254c
B 5 0X261e
B 8 0X26f0
B 1 0X27b8
B 4 0X2894
B 2 0X2970
B 9 0X2a38
B 6 0X2aec
B E 0X2b82
B 3 0X2c7c
B O 0X2d26
B T 0X2e16
H 5 0X3000
H 7 0X30fa
H 8 0X31ae
H 4 0X328a
H 1 0X3352
H 9 0X3406
H 2 0X34e2
H E 0X356e
H 6 0X3668
H O 0X3712
H 3 0X37bc
H T 0X38b6
B 5 0X39b0
B 8 0X3a8c
B 7 0X3b68
B 1 0X3c1c
B 4 0X3cf8
B 2 0X3de8
B 9 0X3ea6
B 6 0X3f5a
B E 0X3fdc
B 3 0X40f4
B O 0X4176
B T 0X4266
H 8 0X4464
H 5 0X455e
H 7 0X464e
H 4 0X46e4
H 1 0X47de
H 9 0X486a
H 2 0X4946
H E 0X49fa
H 6 0X4ac2
H O 0X4b8a
H 3 0X4c48
H T 0X4d10
B 8 0X4e28
B 7 0X4f22
B 5 0X4ff4
B 1 0X50a8
B 4 0X5152
B 2 0X5256
B 9 0X530a
B 6 0X53aa
B E 0X547c
B 3 0X558a
B O 0X5620
B T 0X56f2
H 7 0X58e6
H 8 0X59d6
H 1 0X5aa8
H 5 0X5b52
H 2 0X5c38
H 4 0X5d28
H 6 0X5dd2
H 9 0X5e86
H 3 0X5f62
H E 0X6016
H O 0X60fc
H T 0X6174
B 8 0X62aa
B 7 0X6372
B 1 0X643a
B 2 0X652a
B 5 0X65ca
B 6 0X66ba
B 4 0X67a0
B 3 0X6886
B 9 0X6926
B O 0X6a02
B E 0X6aca
B T 0X6b7e
H 8 0X6d54
H 1 0X6e26
H 7 0X6f34
H 5 0X6ff2
H 2 0X70d8
H 4 0X716e
H 6 0X7204
H 9 0X72ea
H 3 0X73c6
H E 0X7484
H O 0X7560
H T 0X7614
B 1 0X76fa
B 8 0X77f4
B 7 0X78d0
B 2 0X79a2
B 5 0X7a2e
B 6 0X7b1e
B 4 0X7be6
B 3 0X7ccc
B 9 0X7d8a
B O 0X7e48
B E 0X7f06
B T 0X7fe2
H 1 0X81a4
H 7 0X829e
H 8 0X837a
H 5 0X842e
H 2 0X8514
H 4 0X85f0
H 6 0X8668
H 9 0X8758
H 3 0X883e
H E 0X88de
H O 0X89d8
H T 0X8aaa
B 7 0X8b68
B 1 0X8c44
B 8 0X8d52
B 2 0X8e1a
B 5 0X8e88
B 6 0X8f82
B 4 0X902c
B 3 0X913a
B 9 0X920c
B O 0X92ca
B E 0X939c
B T 0X9482
H 1 0X964e
H 7 0X972a
H 2 0X97f2
H 8 0X98ba
H 6 0X998c
H 5 0X9a4a
H 3 0X9b1c
H 4 0X9bbc
H O 0X9c8e
H 9 0X9d1a
H E 0X9e14
H T 0X9f18
B 1 0X9fcc
B 2 0Xa0c6
B 7 0Xa198
B 6 0Xa260
B 8 0Xa328
B 3 0Xa3e6
B 5 0Xa4d6
B O 0Xa562
B 4 0Xa652
B E 0Xa706
B 9 0Xa7c4
B T 0Xa8aa
H 2 0Xaab2
H 1 0Xab8e
H 7 0Xac74
H 8 0Xad0a
H 6 0Xade6
H 5 0Xaeb8
H 3 0Xaf62
H 4 0Xb05c
H O 0Xb0e8
H 9 0Xb1a6
H E 0Xb26e
H T 0Xb340
B 2 0Xb49e
B 7 0Xb570
B 1 0Xb610
B 6 0Xb6ce
B 8 0Xb796
B 3 0Xb85e
B 5 0Xb93a
B O 0Xb9bc
B 4 0Xbade
B E 0Xbb42
B 9 0Xbc78
B T 0Xbd22
H 7 0Xbf5c
H 2 0Xc024
H 1 0Xc0ec
H 8 0Xc1b4
H 6 0Xc240
H 5 0Xc326
H 3 0Xc3ee
H 4 0Xc4ac
H O 0Xc560
H 9 0Xc632
H E 0Xc6d2
H T 0Xc7b8
B 7 0Xc8ee
B 1 0Xc9a2
B 2 0Xca92
B 6 0Xcb3c
B 8 0Xcc36
B 3 0Xcd12
B 5 0Xcdb2
B O 0Xce3e
B 4 0Xcf4c
B E 0Xcfba
B 9 0Xd0fa
B T 0Xd1b8
H 1 0Xd398
H 7 0Xd4ba
H 6 0Xd55a
H 2 0Xd636
H 3 0Xd6cc
H 8 0Xd79e
H O 0Xd88e
H 5 0Xd938
H 4 0Xd9ec
H E 0Xdad2
H 9 0Xdbae
H T 0Xdc6c
B 7 0Xdd66
B 1 0Xde10
B 6 0Xde92
B 3 0Xdf96
B 2 0Xe068
B O 0Xe130
B 8 0Xe22a
B 4 0Xe2d4
B 5 0Xe3a6
B 9 0Xe4a0
B E 0Xe568
B T 0Xe64e
H 7 0Xe842
H 6 0Xe8d8
H 1 0Xe9be
H 2 0Xea54
H 3 0Xeb30
H 8 0Xebf8
H O 0Xecde
H 5 0Xed74
H 4 0Xee5a
H E 0Xef36
H 9 0Xefea
H T 0Xf0c6
B 6 0Xf18e
B 7 0Xf292
B 1 0Xf328
B 3 0Xf3fa
B 2 0Xf4cc
B O 0Xf576
B 8 0Xf67a
B 4 0Xf756
B 5 0Xf81e
B 9 0Xf8f0
B E 0Xf9c2
B T 0Xfa80
H 6 0Xfc1a
H 1 0Xfd0a
H 7 0Xfe0e
H 2 0Xfee0
H 3 0Xff80
H 8 0X0070
H O 0X0138
H 5 0X0200
H 4 0X02f0
H E 0X039a
H 9 0X0444
H T 0X052a
B 1 0X05de
B 6 0X0674
B 7 0X078c
B 3 0X087c
B 2 0X0930
B O 0X09da
B 8 0X0aca
B 4 0X0be2
B 5 0X0c8c
B 9 0X0d4a
B E 0X0e1c
B T 0X0ef8
H 6 0X10a6
H 1 0X1178
H 3 0X124a
H 7 0X1326
H O 0X13f8
H 2 0X14c0
H 4 0X1574
H 8 0X163c
H 9 0X1722
H 5 0X1812
H E 0X188a
H T 0X1966
B 6 0X1a2e
B 3 0X1b32
B 1 0X1be6
B O 0X1cae
B 7 0X1da8
B 4 0X1e3e
B 2 0X1f24
B 9 0X201e
B 8 0X20e6
B E 0X2186
B 5 0X229e
B T 0X2370
H 3 0X2528
H 6 0X25aa
H 1 0X26ae
H 7 0X2794
H O 0X2852
H 2 0X2906
H 4 0X29e2
H 8 0X2ab4
H 9 0X2b5e
H 5 0X2c76
H E 0X2cee
H T 0X2dd4
B 3 0X2ea6
B 1 0X2f82
B 6 0X304a
B O 0X311c
B 7 0X3202
B 4 0X32c0
B 2 0X337e
B 9 0X3478
B 8 0X3554
B E 0X3612
B 5 0X36f8
B T 0X3798
H 1 0X3978
H 3 0X3a36
H 6 0X3afe
H 7 0X3c0c
H O 0X3cd4
H 2 0X3d42
H 4 0X3e28
H 8 0X3f04
H 9 0X3fea
H 5 0X40d0
H E 0X4184
H T 0X4242
B 1 0X4300
B 6 0X438c
B 3 0X44c2
B O 0X4580
B 7 0X467a
B 4 0X472e
B 2 0X4800
B 9 0X48d2
B 8 0X49c2
B E 0X4a80
B 5 0X4b70
B T 0X4c10
H 6 0X4d8c
H 1 0X4e90
H O 0X4f58
H 3 0X5020
H 4 0X50e8
H 7 0X51ec
H 9 0X52aa
H 2 0X5390
H 8 0X5476
H E 0X5516
H 5 0X5606
H T 0X56d8
B 1 0X576e
B 6 0X580e
B O 0X58ea
B 4 0X59da
B 3 0X5ac0
B 9 0X5b92
B 7 0X5c78
B 8 0X5d7c
B 2 0X5e1c
B 5 0X5ec6
B E 0X5f98
B T 0X6092
H 1 0X6254
H O 0X62d6
H 6 0X639e
H 3 0X648e
H 4 0X6556
H 7 0X6664
H 9 0X66fa
H 2 0X67e0
H 8 0X68bc
H E 0X6998
H 5 0X6a60
H T 0X6b0a
B O 0X6c04
B 1 0X6ccc
B 6 0X6d58
B 4 0X6e66
B 3 0X6f60
B 9 0X6fd8
B 7 0X70c8
B 8 0X71c2
B 2 0X7258
B 5 0X735c
B E 0X7406
B T 0X74e2
H O 0X76c2
H 6 0X7776
H 1 0X787a
H 3 0X7942
H 4 0X7a00
H 7 0X7afa
H 9 0X7b7c
H 2 0X7c76
H 8 0X7d48
H E 0X7dd4
H 5 0X7ec4
H T 0X7f8c
B 6 0X807c
B O 0X8112
B 1 0X81f8
B 4 0X82d4
B 3 0X83c4
B 9 0X8496
B 7 0X857c
B 8 0X8644
B 2 0X86da
B 5 0X87c0
B E 0X8856
B T 0X895a
H O 0X8b26
H 6 0X8bda
H 4 0X8ce8
H 1 0X8db0
H 9 0X8eaa
H 3 0X8f2c
H 8 0X8ffe
H 7 0X90f8
H 5 0X9198
H 2 0X92a6
H E 0X92e2
H T 0X93f0
B O 0X94e0
B 4 0X9594
B 6 0X967a
B 9 0X976a
B 1 0X9828
B 8 0X98fa
B 3 0X99c2
B 5 0X9a8a
B 7 0X9b98
B E 0X9c10
B 2 0X9cec
B T 0X9dbe
H 4 0X9fb2
H O 0Xa03e
H 6 0Xa12e
H 1 0Xa21e
H 9 0Xa2dc
H 3 0Xa390
H 8 0Xa458
H 7 0Xa53e
H 5 0Xa606
H 2 0Xa6e2
H E 0Xa746
H T 0Xa840
B 4 0Xa912
B 6 0Xa9f8
B O 0Xaaac
B 9 0Xabce
B 1 0Xac5a
B 8 0Xad54
B 3 0Xae30
B 5 0Xaef8
B 7 0Xafd4
B E 0Xb060
B 2 0Xb146
B T 0Xb218
H 6 0Xb3da
H 4 0Xb4de
H O 0Xb574
H 1 0Xb650
H 9 0Xb72c
H 3 0Xb7d6
H 8 0Xb8bc
H 7 0Xb98e
H 5 0Xba6a
H 2 0Xbb50
H E 0Xbbaa
H T 0Xbca4
B 6 0Xbd94
B O 0Xbe48
B 4 0Xbf42
B 9 0Xc014
B 1 0Xc0d2
B 8 0Xc1ae
B 3 0Xc29e
B 5 0Xc352
B 7 0Xc424
B E 0Xc4b0
B 2 0Xc5aa
B T 0Xc67c
H O 0Xc82a
H 6 0Xc8fc
H 9 0Xc9d8
H 4 0Xcac8
H 8 0Xcb86
H 1 0Xcc62
H 5 0Xcd16
H 3 0Xcdfc
H E 0Xcea6
H 7 0Xcfb4
H 2 0Xd090
H T 0Xd0fe
B 6 0Xd1b2
B O 0Xd25c
B 9 0Xd392
B 8 0Xd482
B 4 0Xd52c
B 5 0Xd626
B 1 0Xd6ee
B E 0Xd78e
B 3 0Xd888
B 2 0Xd93c
B 7 0Xda36
B T 0Xdacc
H 6 0Xdcac
H 9 0Xdd60
H O 0Xde64
H 4 0Xdf0e
H 8 0Xdff4
H 1 0Xe0a8
H 5 0Xe17a
H 3 0Xe260
H E 0Xe2ec
H 7 0Xe3f0
H 2 0Xe4b8
H T 0Xe580
B 9 0Xe67a
B 6 0Xe724
B O 0Xe800
B 8 0Xe8e6
B 4 0Xe9a4
B 5 0Xea6c
B 1 0Xeb34
B E 0Xebfc
B 3 0Xecec
B 2 0Xedaa
B 7 0Xee68
B T 0Xef58
H 9 0Xf110
H O 0Xf1e2
H 6 0Xf2a0
H 4 0Xf3ae
H 8 0Xf46c
H 1 0Xf53e
H 5 0Xf5f2
H 3 0Xf6ba
H E 0Xf71e
H 7 0Xf822
H 2 0Xf912
H T 0Xf9f8
B O 0Xfab6
B 9 0Xfb7e
B 6 0Xfc82
B 8 0Xfd68
B 4 0Xfdea
B 5 0Xfed0
B 1 0Xffac
B E 0X0056
B 3 0X013c
B 2 0X01f0
B 7 0X02e0
B T 0X03a8
H 9 0X0588
H O 0X065a
H 8 0X0718
H 6 0X07fe
H 5 0X08c6
H 4 0X09ac
H E 0X0a2e
H 1 0X0b1e
H 2 0X0c18
H 3 0X0cc2
H 7 0X0dbc
H T 0X0e3e
B 9 0X0f42
B 8 0X1028
B O 0X10c8
B 5 0X11d6
B 6 0X128a
B E 0X1316
B 4 0X13e8
B 2 0X14ce
B 1 0X1596
B 7 0X1686
B 3 0X176c
B T 0X1802
H 8 0X19c4
H 9 0X1aa0
H O 0X1b9a
H 6 0X1c4e
H 5 0X1d52
H 4 0X1de8
H E 0X1e6a
H 1 0X1f50
H 2 0X2040
H 3 0X211c
H 7 0X220c
H T 0X22ac
B 8 0X2392
B O 0X245a
B 9 0X254a
B 5 0X2612
B 6 0X26f8
B E 0X277a
B 4 0X2842
B 2 0X2932
B 1 0X2a0e
B 7 0X2ae0
B 3 0X2bc6
B T 0X2c52
H O 0X2e46
H 8 0X2f40
H 9 0X2fcc
H 6 0X30a8
H 5 0X31a2
H 4 0X3256
H E 0X32d8
H 1 0X33b4
H 2 0X34cc
H 3 0X358a
H 7 0X365c
H T 0X3724
B O 0X37d8
B 9 0X38b4
B 8 0X39cc
B 5 0X3a94
B 6 0X3b8e
B E 0X3be8
B 4 0X3c9c
B 2 0X3d8c
B 1 0X3e54
B 7 0X3f3a
B 3 0X4020
B T 0X40e8
H 9 0X4296
H O 0X4372
H 5 0X4458
H 8 0X4520
H E 0X45d4
H 6 0X46ce
H 2 0X47aa
H 4 0X485e
H 7 0X4962
H 1 0X49da
H 3 0X4aa2
H T 0X4ba6
B O 0X4c64
B 9 0X4d4a
B 5 0X4e1c
B E 0X4eee
B 8 0X4fb6
B 2 0X50a6
B 6 0X511e
B 7 0X5254
B 4 0X52fe
B 3 0X53ee
B 1 0X5498
B T 0X556a
H O 0X5704
H 5 0X581c
H 9 0X58d0
H 8 0X5998
H E 0X5a38
H 6 0X5b28
H 2 0X5c0e
H 4 0X5ce0
H 7 0X5dbc
H 1 0X5e52
H 3 0X5f38
H T 0X601e
B 5 0X6104
B O 0X6190
B 9 0X626c
B E 0X633e
B 8 0X6438
B 2 0X650a
B 6 0X65c8
B 7 0X6690
B 4 0X6758
B 3 0X6866
B 1 0X68f2
B T 0X69ba
H 5 0X6b7c
H 9 0X6c3a
H O 0X6d0c
H 8 0X6dfc
H E 0X6eb0
H 6 0X6faa
H 2 0X7072
H 4 0X716c
H 7 0X722a
H 1 0X72fc
H 3 0X739c
H T 0X7450
B 9 0X7554
B 5 0X7612
B O 0X76da
B E 0X77de
B 8 0X78d8
B 2 0X79a0
B 6 0X7a40
B 7 0X7b26
B 4 0X7bd0
B 3 0X7cd4
B 1 0X7d4c
B T 0X7e14
H 5 0X7ff4
H 9 0X80e4
H E 0X81a2
H O 0X8292
H 2 0X836e
H 8 0X845e
H 7 0X8526
H 6 0X85ee
H 3 0X8698
H 4 0X872e
H 1 0X8828
H T 0X88d2
B 5 0X89b8
B E 0X8a94
B 9 0X8b66
B 2 0X8c60
B O 0X8cec
B 7 0X8ddc
B 8 0X8ee0
B 3 0X8f94
B 6 0X900c
B 1 0X90fc
B 4 0X91ce
B T 0X9296
H E 0X946c
H 5 0X9570
H 9 0X9610
H O 0X96f6
H 2 0X97dc
H 8 0X98cc
H 7 0X9980
H 6 0X9a16
H 3 0X9b10
H 4 0X9b9c
H 1 0X9c96
H T 0X9d40
B E 0X9e30
B 9 0X9f16
B 5 0X9fde
B 2 0Xa0ce
B O 0Xa132
B 7 0Xa222
B 8 0Xa330
B 3 0Xa40c
B 6 0Xa48e
B 1 0Xa57e
B 4 0Xa650
B T 0Xa6fa
H 9 0Xa8e4
H E 0Xa9a2
H 5 0Xaa7e
H O 0Xab50
H 2 0Xac2c
H 8 0Xad12
H 7 0Xadee
H 6 0Xae66
H 3 0Xaf7e
H 4 0Xb03c
H 1 0Xb10e
H T 0Xb1a4
B 9 0Xb28a
B 5 0Xb398
B E 0Xb46a
B 2 0Xb550
B O 0Xb5d2
B 7 0Xb6cc
B 8 0Xb794
B 3 0Xb866
B 6 0Xb910
B 1 0Xba00
B 4 0Xbab4
B T 0Xbb7c
H 5 0Xbd52
H 9 0Xbe24
H 2 0Xbee2
H E 0Xbfbe
H 7 0Xc0ae
H O 0Xc16c
H 3 0Xc220
H 8 0Xc2e8
H 1 0Xc3d8
H 6 0Xc45a
H 4 0Xc54a
H T 0Xc630
B 9 0Xc72a
B 5 0Xc82e
B 2 0Xc8e2
B 7 0Xc9a0
B E 0Xca54
B 3 0Xcb26
B O 0Xcbc6
B 1 0Xccb6
B 8 0Xcd9c
B 4 0Xce14
B 6 0Xcedc
B T 0Xcfea
H 9 0Xd198
H 2 0Xd292
H 5 0Xd382
H E 0Xd440
H 7 0Xd51c
H O 0Xd5e4
H 3 0Xd652
H 8 0Xd77e
H 1 0Xd83c
H 6 0Xd896
H 4 0Xd968
H T 0Xda6c
B 2 0Xdb66
B 9 0Xdc4c
B 5 0Xdd28
B 7 0Xde04
B E 0Xdeae
B 3 0Xdf8a
B O 0Xe03e
B 1 0Xe110
B 8 0Xe214
B 4 0Xe2a0
B 6 0Xe354
B T 0Xe43a
H 2 0Xe610
H 5 0Xe6e2
H 9 0Xe7aa
H E 0Xe868
H 7 0Xe958
H O 0Xea2a
H 3 0Xeade
H 8 0Xebec
H 1 0Xecaa
H 6 0Xed18
H 4 0Xedea
H T 0Xef0c
B 5 0Xefd4
B 2 0Xf0b0
B 9 0Xf182
B 7 0Xf25e
B E 0Xf2e0
B 3 0Xf3e4
B O 0Xf470
B 1 0Xf560
B 8 0Xf66e
B 4 0Xf6c8
B 6 0Xf7e0
B T 0Xf8bc
H 2 0Xfa60
H 5 0Xfb50
H 7 0Xfc5e
H 9 0Xfd08
H 3 0Xfdda
H E 0Xfe66
H 1 0Xff10
H O 0Xffe2
H 4 0X00c8
H 8 0X0190
H 6 0X0280
H T 0X0366
B 2 0X042e
B 7 0X053c
B 5 0X05f0
B 3 0X06c2
B 9 0X0776
B 1 0X082a
B E 0X08d4
B 4 0X09ba
B O 0X0a64
B 6 0X0b68
B 8 0X0c44
B T 0X0d20
H 7 0X0f00
H 2 0X0ff0
H 5 0X1090
H 9 0X116c
H 3 0X123e
H E 0X12b6
H 1 0X1392
H O 0X1450
H 4 0X1540
H 8 0X1630
H 6 0X16bc
H T 0X17c0
B 7 0X18ba
B 5 0X198c
B 2 0X1a72
B 3 0X1b26
B 9 0X1c16
B 1 0X1c98
B E 0X1d1a
B 4 0X1df6
B O 0X1ec8
B 6 0X1fcc
B 8 0X20a8
B T 0X217a
H 5 0X235a
H 7 0X2454
H 2 0X251c
H 9 0X25bc
H 3 0X2684
H E 0X274c
H 1 0X280a
H O 0X28d2
H 4 0X2990
H 8 0X2a80
H 6 0X2b34
H T 0X2c2e
B 5 0X2d28
B 2 0X2e18
B 7 0X2ec2
B 3 0X2f8a
B 9 0X3034
B 1 0X30fc
B E 0X319c
B 4 0X3282
B O 0X334a
B 6 0X3430
B 8 0X34f8
B T 0X35e8
H 2 0X37dc
H 5 0X3872
H 3 0X394e
H 7 0X3a3e
H 1 0X3ade
H 9 0X3bba
H 4 0X3c64
H E 0X3cfa
H 6 0X3dea
H O 0X3eb2
H 8 0X3fa2
H T 0X407e
B 5 0X4178
B 2 0X424a
B 3 0X431c
B 1 0X43da
B 7 0X44a2
B 4 0X456a
B 9 0X4632
B 6 0X46e6
B E 0X4786
B 8 0X488a
B O 0X4948
B T 0X4a38
H 5 0X4c04
H 3 0X4cf4
H 2 0X4da8
H 7 0X4e8e
H 1 0X4f42
H 9 0X5014
H 4 0X50dc
H E 0X519a
H 6 0X524e
H O 0X532a
H 8 0X53f2
H T 0X54ce
B 3 0X55a0
B 5 0X56ae
B 2 0X5758
B 1 0X582a
B 7 0X5910
B 4 0X59ce
B 9 0X5a8c
B 6 0X5b36
B E 0X5bd6
B 8 0X5cf8
B O 0X5dac
B T 0X5e9c
H 3 0X6036
H 2 0X60ea
H 5 0X61b2
H 7 0X62ca
H 1 0X6388
H 9 0X646e
H 4 0X6522
H E 0X65ea
H 6 0X66a8
H O 0X6766
H 8 0X6842
H T 0X6932
B 2 0X6a04
B 3 0X6ac2
B 5 0X6b9e
B 1 0X6c70
B 7 0X6d38
B 4 0X6e00
B 9 0X6ebe
B 6 0X6f68
B E 0X703a
B 8 0X713e
B O 0X71fc
B T 0X72e2
H 3 0X7490
H 2 0X7576
H 1 0X763e
H 5 0X76e8
H 4 0X77f6
H 7 0X78a0
H 6 0X795e
H 9 0X7a08
H 8 0X7b20
H E 0X7bd4
H O 0X7cec
H T 0X7d8c
B 3 0X7e2c
B 1 0X7ee0
B 2 0X7fc6
B 4 0X8070
B 5 0X8156
B 6 0X823c
B 7 0X8318
B 8 0X83e0
B 9 0X84bc
B O 0X8584
B E 0X8656
B T 0X871e
H 1 0X88d6
H 3 0X89b2
H 2 0X8a70
H 5 0X8b2e
H 4 0X8c14
H 7 0X8cdc
H 6 0X8d9a
H 9 0X8e6c
H 8 0X8f5c
H E 0X902e
H O 0X911e
H T 0X91c8
B 1 0X9272
B 2 0X9358
B 3 0X940c
B 4 0X94c0
B 5 0X9592
B 6 0X966e
B 7 0X975e
B 8 0X9826
B 9 0X98c6
B O 0X99a2
B E 0X9a92
B T 0X9b5a
H 1 0X9d3a
H 2 0X9e02
H 3 0X9eac
H 4 0X9f6a
H 5 0Xa028
H 6 0Xa0fa
H 7 0Xa1cc
H 8 0Xa29e
H 9 0Xa316
H O 0Xa438
H E 0Xa50a
H T 0Xa5c8
B 1 0Xa686
B 2 0Xa758
B 3 0Xa82a
B 4 0Xa8f2
B 5 0Xa9ce
B 6 0Xaaa0
B 7 0Xab90
B 8 0Xac4e
B 9 0Xacee
B O 0Xadc0
B E 0Xaece
B T 0Xaf6e
H 1 0Xb130
H 2 0Xb216
H 3 0Xb2c0
H 4 0Xb360
H 5 0Xb428
H 6 0Xb504
H 7 0Xb5e0
H 8 0Xb6d0
H 9 0Xb7ac
H O 0Xb8b0
H E 0Xb982
H T 0Xba18
B 1 0Xbab8
B 2 0Xbb9e
B 3 0Xbc70
B 4 0Xbd24
B 5 0Xbde2
B 6 0Xbebe
B 7 0Xbfc2
B 8 0Xc08a
B 9 0Xc166
B O 0Xc24c
B E 0Xc328
B T 0Xc454
