#. Lowndes: Version 2
#. SourceFilename: C:\Users\Guildford Ringers\Documents\guildfordcathedralbells.bitbucket.io\Recordings\Guildford\Guildford.20220511-2100.s0t0.4.wav
#. Tower: Guildford Cathedral
#. RingingName: Touch_4
#. RingingDateTime: 20220511-2100
#. Rungon: 
#. Tenor: 12
#. NumBellsRinging: 12
#. Creator: HawkEar Team Edition V1 for Guildford Cathedral
#. CreatorVersion: 1.1.0.3
#. TranscribedFor: Guildford band
#. TranscriptionDateTime: 20220511-2248
#. FirstBlowMs: 5600
#. TouchdB: -21.9729
#. TraindB: -9.73, -8.5, -6.1, -3.11, -3.16, -3.1, -3.98, -4.12, -5.95, -5.43, -4.92, -3
#. TrainedOn: 20220102-1438
#. TrainDataRecordedOn: 20210813-1741
#. TrainParams: -ft:y -ws:0.05 -hs:0.01 -co:0.9 -sw:40 -ts:
#. GainParams: -fh:6000 -fl:200
#. OnsetParams: -mb:80 -mf:10 -ng:0.3 -oo:0
#. WriteParams: -hb:y
#. AnalParams: -au:n -xp:n -sg:n -hsg:-1
#. ExpString: 
#. Association:
#. Calling:
#. CompositionName:
#. Method:
#. Footnotes:
#. Ringers:
#. Stage:
H 1 0X0000
H 2 0X00dc
H 3 0X01a4
H 4 0X026c
H 5 0X0370
H 6 0X0410
H 7 0X050a
H 8 0X05dc
H 9 0X06b8
H O 0X0780
H E 0X0834
H T 0X0910
B 1 0X09f6
B 2 0X0ad2
B 3 0X0bb8
B 4 0X0c76
B 5 0X0d34
B 6 0X0e10
B 7 0X0f00
B 8 0X0fdc
B 9 0X10a4
B O 0X1162
B E 0X123e
B T 0X131a
H 1 0X14d2
H 2 0X1586
H 3 0X1662
H 4 0X1734
H 5 0X17fc
H 6 0X18a6
H 7 0X1982
H 8 0X1a40
H 9 0X1b12
H O 0X1bee
H E 0X1cca
H T 0X1dba
B 1 0X1e64
B 2 0X1f40
B 3 0X1fe0
B 4 0X20a8
B 5 0X217a
B 6 0X222e
B 7 0X2332
B 8 0X23f0
B 9 0X24c2
B O 0X2594
B E 0X268e
B T 0X2760
H 1 0X2904
H 2 0X29cc
H 3 0X2a94
H 4 0X2b5c
H 5 0X2c10
H 6 0X2c92
H 7 0X2db4
H 8 0X2e7c
H 9 0X2f44
H O 0X302a
H E 0X30fc
H T 0X31d8
B 1 0X328c
B 2 0X335e
B 3 0X3426
B 4 0X34ee
B 5 0X35c0
B 6 0X3660
B 7 0X375a
B 8 0X3818
B 9 0X38c2
B O 0X399e
B E 0X3a8e
B T 0X3b74
H 1 0X3d0e
H 2 0X3dd6
H 3 0X3e8a
H 4 0X3f66
H 5 0X4024
H 6 0X40e2
H 7 0X41e6
H 8 0X4290
H 9 0X4344
H O 0X4416
H E 0X44de
H T 0X45b0
B 1 0X468c
B 2 0X4754
B 3 0X47fe
B 4 0X48c6
B 5 0X49a2
B 6 0X4a7e
B 7 0X4b82
B 8 0X4c40
B 9 0X4cf4
B O 0X4dbc
B E 0X4e8e
B T 0X4f6a
H 1 0X50fa
H 2 0X51a4
H 3 0X5276
H 4 0X532a
H 5 0X5406
H 6 0X54c4
H 7 0X55c8
H 8 0X5672
H 9 0X5744
H O 0X5816
H E 0X58f2
H T 0X59d8
B 1 0X5a82
B 2 0X5b36
B 3 0X5bfe
B 4 0X5cbc
B 5 0X5d98
B 6 0X5e60
B 7 0X5f64
B 8 0X6018
B 9 0X60d6
B O 0X6194
B E 0X6270
B T 0X6356
H 1 0X64dc
H 2 0X6590
H 3 0X666c
H 4 0X6748
H 5 0X67fc
H 6 0X68ba
H 7 0X69b4
H 8 0X6a5e
H 9 0X6b30
H O 0X6bf8
H E 0X6cca
H T 0X6dba
B 1 0X6e64
B 2 0X6f22
B 3 0X6fe0
B 4 0X70c6
B 5 0X71a2
B 6 0X7256
B 7 0X7350
B 8 0X740e
B 9 0X74c2
B O 0X759e
B E 0X7652
B T 0X7738
H 1 0X78c8
H 2 0X7990
H 3 0X7a58
H 4 0X7b66
H 5 0X7c1a
H 6 0X7cce
H 7 0X7dbe
H 8 0X7e5e
H 9 0X7f26
H O 0X8016
H E 0X80ac
H T 0X817e
B 1 0X8264
B 2 0X8318
B 3 0X83ea
B 4 0X84bc
B 5 0X8598
B 6 0X867e
B 7 0X876e
B 8 0X882c
B 9 0X88e0
B O 0X89b2
B E 0X8a66
B T 0X8b24
H 1 0X8cf0
H 2 0X8d90
H 3 0X8e4e
H 4 0X8f2a
H 5 0X8fe8
H 6 0X90ba
H 7 0X91b4
H 8 0X925e
H 9 0X9326
H O 0X9420
H E 0X94b6
H T 0X959c
B 1 0X9650
B 2 0X9718
B 3 0X97ea
B 4 0X9880
B 5 0X9966
B 6 0X9a56
B 7 0X9b6e
B 8 0X9c36
B 9 0X9ca4
B O 0X9d9e
B E 0X9e5c
B T 0X9f38
H 1 0Xa0dc
H 2 0Xa186
H 3 0Xa24e
H 4 0Xa302
H 5 0Xa3d4
H 6 0Xa492
H 7 0Xa596
H 8 0Xa64a
H 9 0Xa708
H O 0Xa7ee
H E 0Xa8c0
H T 0Xa99c
B 1 0Xaa64
B 2 0Xab36
B 3 0Xabea
B 4 0Xacb2
B 5 0Xad70
B 6 0Xae38
B 7 0Xaf32
B 8 0Xb004
B 9 0Xb0b8
B O 0Xb194
B E 0Xb25c
B T 0Xb338
H 2 0Xb518
H 1 0Xb5ea
H 3 0Xb6a8
H 5 0Xb784
H 4 0Xb84c
H 7 0Xb8ec
H 6 0Xb996
H 9 0Xba7c
H 8 0Xbb4e
H E 0Xbc34
H O 0Xbd1a
H T 0Xbde2
B 2 0Xbe96
B 3 0Xbf72
B 1 0Xc030
B 4 0Xc10c
B 5 0Xc1f2
B 6 0Xc2b0
B 7 0Xc396
B 8 0Xc44a
B 9 0Xc4fe
B O 0Xc5d0
B E 0Xc6b6
B T 0Xc774
H 3 0Xc936
H 2 0Xc9ea
H 4 0Xcaee
H 1 0Xcbac
H 6 0Xcc6a
H 5 0Xcd50
H 8 0Xce04
H 7 0Xceea
H 9 0Xcf94
H E 0Xd084
H O 0Xd156
H T 0Xd20a
B 2 0Xd2fa
B 3 0Xd3a4
B 4 0Xd480
B 6 0Xd570
B 1 0Xd642
B 8 0Xd6f6
B 5 0Xd7f0
B 9 0Xd8ae
B 7 0Xd98a
B O 0Xda34
B E 0Xdb06
B T 0Xdbd8
H 2 0Xdd54
H 4 0Xde44
H 3 0Xdf16
H 1 0Xdfe8
H 6 0Xe09c
H 5 0Xe1aa
H 8 0Xe272
H 7 0Xe33a
H 9 0Xe3da
H E 0Xe4a2
H O 0Xe588
H T 0Xe65a
B 4 0Xe772
B 2 0Xe81c
B 3 0Xe8da
B 6 0Xe998
B 1 0Xea6a
B 8 0Xeb5a
B 5 0Xec36
B 9 0Xeccc
B 7 0Xedc6
B O 0Xee84
B E 0Xef4c
B T 0Xf00a
H 4 0Xf1fe
H 3 0Xf2bc
H 2 0Xf37a
H 1 0Xf438
H 6 0Xf4c4
H 5 0Xf5c8
H 8 0Xf6b8
H 7 0Xf79e
H 9 0Xf852
H O 0Xf88e
H E 0Xf8f2
H T 0Xfa8c
B 3 0Xfbae
B 4 0Xfc8a
B 2 0Xfd3e
B 6 0Xfe1a
B 1 0Xfee2
B 8 0Xff96
B 5 0X007c
B 9 0X00ea
B 7 0X020c
B O 0X02fc
B E 0X03a6
B T 0X0446
H 4 0X0662
H 3 0X0716
H 6 0X07ca
H 2 0X08ce
H 8 0X0978
H 1 0X0a2c
H 9 0X0aea
H 5 0X0bee
H O 0X0cb6
H 7 0X0d9c
H E 0X0e3c
H T 0X0f04
B 4 0X0ffe
B 6 0X109e
B 3 0X1198
B 8 0X124c
B 2 0X1346
B 9 0X1404
B 1 0X14b8
B O 0X1576
B 5 0X167a
B E 0X1742
B 7 0X1814
B T 0X18f0
H 6 0X1ab2
H 4 0X1b70
H 3 0X1c2e
H 2 0X1d32
H 8 0X1dfa
H 1 0X1e86
H 9 0X1f30
H 5 0X205c
H O 0X2110
H 7 0X21d8
H E 0X226e
H T 0X234a
B 6 0X243a
B 3 0X252a
B 4 0X25e8
B 8 0X26ce
B 2 0X27c8
B 9 0X2872
B 1 0X28e0
B O 0X29f8
B 5 0X2ab6
B E 0X2b7e
B 7 0X2c6e
B T 0X2d18
H 3 0X2f0c
H 6 0X2fde
H 4 0X3092
H 2 0X31a0
H 8 0X324a
H 1 0X32ea
H 9 0X339e
H 5 0X34a2
H O 0X3556
H 7 0X3632
H E 0X36f0
H T 0X37b8
B 3 0X38da
B 4 0X397a
B 6 0X3a6a
B 8 0X3b46
B 2 0X3c36
B 9 0X3c9a
B 1 0X3d9e
B O 0X3e70
B 5 0X3f2e
B E 0X4000
B 7 0X40fa
B T 0X41a4
H 4 0X435c
H 3 0X442e
H 8 0X450a
H 6 0X45f0
H 9 0X467c
H 2 0X4780
H O 0X48a2
H 1 0X491a
H 5 0X49b0
H 7 0X4abe
H E 0X4b54
H T 0X4c1c
B 3 0X4d34
B 4 0X4df2
B 8 0X4eba
B 9 0X4f96
B 6 0X507c
B O 0X5158
B 2 0X5220
B 5 0X52d4
B 1 0X53c4
B E 0X5464
B 7 0X5540
B T 0X5608
H 3 0X57e8
H 8 0X5874
H 4 0X5946
H 6 0X5a36
H 9 0X5afe
H 2 0X5bee
H O 0X5ca2
H 1 0X5d6a
H 5 0X5e32
H 7 0X5f0e
H E 0X5fb8
H T 0X6094
B 8 0X618e
B 3 0X6256
B 4 0X630a
B 9 0X63dc
B 6 0X64ae
B O 0X658a
B 2 0X6666
B 5 0X6738
B 1 0X6800
B E 0X68b4
B 7 0X69ae
B T 0X6a80
H 8 0X6c38
H 4 0X6d00
H 3 0X6ddc
H 6 0X6e7c
H 9 0X6f4e
H 2 0X7066
H O 0X711a
H 1 0X71c4
H 5 0X72a0
H 7 0X7386
H E 0X741c
H T 0X750c
B 4 0X75de
B 8 0X76ba
B 3 0X77b4
B 9 0X7872
B 6 0X791c
B O 0X7a0c
B 2 0X7ad4
B 5 0X7ba6
B 1 0X7c6e
B E 0X7d18
B 7 0X7df4
B T 0X7eda
H 8 0X8074
H 4 0X815a
H 9 0X8236
H 3 0X8326
H O 0X83ee
H 6 0X84c0
H 5 0X85b0
H 2 0X868c
H E 0X870e
H 1 0X8790
H 7 0X8876
H T 0X8970
B 8 0X8a74
B 9 0X8b32
B 4 0X8c04
B O 0X8cea
B 3 0X8df8
B 5 0X8e8e
B 6 0X8f4c
B E 0X9032
B 2 0X9104
B 7 0X91c2
B 1 0X9294
B T 0X933e
H 9 0X955a
H 8 0X9618
H 4 0X96e0
H 3 0X97bc
H O 0X988e
H 6 0X994c
H 5 0X9a0a
H 2 0X9b0e
H E 0X9bae
H 1 0X9c58
H 7 0X9d52
H T 0X9dde
B 9 0X9ed8
B 4 0X9fc8
B 8 0Xa072
B O 0Xa18a
B 3 0Xa25c
B 5 0Xa2fc
B 6 0Xa3f6
B E 0Xa4dc
B 2 0Xa590
B 7 0Xa694
B 1 0Xa73e
B T 0Xa7de
H 4 0Xa9dc
H 9 0Xaa5e
H 8 0Xab26
H 3 0Xac20
H O 0Xad38
H 6 0Xadc4
H 5 0Xae96
H 2 0Xaf7c
H E 0Xb044
H 1 0Xb0ee
H 7 0Xb210
H T 0Xb2ce
B 4 0Xb382
B 8 0Xb44a
B 9 0Xb508
B O 0Xb5ee
B 3 0Xb6fc
B 5 0Xb792
B 6 0Xb882
B E 0Xb972
B 2 0Xb9fe
B 7 0Xbb02
B 1 0Xbbac
B T 0Xbca6
H 8 0Xbe86
H 4 0Xbf30
H O 0Xbfe4
H 9 0Xc0a2
H 5 0Xc192
H 3 0Xc25a
H E 0Xc35e
H 6 0Xc408
H 7 0Xc516
H 2 0Xc5ac
H 1 0Xc688
H T 0Xc714
B 4 0Xc818
B 8 0Xc912
B O 0Xc9c6
B 5 0Xca8e
B 9 0Xcb56
B E 0Xcc5a
B 3 0Xcd2c
B 7 0Xcdfe
B 6 0Xcef8
B 1 0Xcf8e
B 2 0Xd060
B T 0Xd10a
H 4 0Xd2f4
H O 0Xd3bc
H 8 0Xd47a
H 9 0Xd542
H 5 0Xd63c
H 3 0Xd722
H E 0Xd7ae
H 6 0Xd8b2
H 7 0Xd9a2
H 2 0Xda56
H 1 0Xdb28
H T 0Xdbfa
B O 0Xdcf4
B 4 0Xddbc
B 8 0Xde48
B 5 0Xdf42
B 9 0Xe014
B E 0Xe0dc
B 3 0Xe1cc
B 7 0Xe2bc
B 6 0Xe3a2
B 1 0Xe438
B 2 0Xe514
B T 0Xe5be
H O 0Xe794
H 8 0Xe87a
H 4 0Xe96a
H 9 0Xea3c
H 5 0Xeb04
H 3 0Xebe0
H E 0Xec80
H 6 0Xed70
H 7 0Xee56
H 2 0Xeef6
H 1 0Xefd2
H T 0Xf086
B 8 0Xf16c
B O 0Xf252
B 4 0Xf338
B 5 0Xf400
B 9 0Xf4e6
B E 0Xf5ae
B 3 0Xf6a8
B 7 0Xf78e
B 6 0Xf838
B 1 0Xf8ec
B 2 0Xf98c
B T 0Xfa54
H O 0Xfc52
H 8 0Xfd42
H 5 0Xfe00
H 4 0Xfed2
H E 0Xffa4
H 9 0X0058
H 7 0X015c
H 3 0X0238
H 1 0X02e2
H 6 0X03be
H 2 0X049a
H T 0X054e
B O 0X0652
B 5 0X071a
B 8 0X07d8
B E 0X08be
B 4 0X0968
B 7 0X0a4e
B 9 0X0aee
B 1 0X0bde
B 3 0X0cce
B 2 0X0daa
B 6 0X0e86
B T 0X0f26
H 5 0X1110
H O 0X11c4
H 8 0X12aa
H 4 0X1386
H E 0X143a
H 9 0X1516
H 7 0X15e8
H 3 0X16a6
H 1 0X1778
H 6 0X1872
H 2 0X1926
H T 0X19e4
B 5 0X1ad4
B 8 0X1ba6
B O 0X1c82
B E 0X1d54
B 4 0X1e1c
B 7 0X1f0c
B 9 0X1fc0
B 1 0X2088
B 3 0X215a
B 2 0X2254
B 6 0X22f4
B T 0X23da
H 8 0X25a6
H 5 0X2678
H O 0X275e
H 4 0X2830
H E 0X28bc
H 9 0X29ca
H 7 0X2a92
H 3 0X2b64
H 1 0X2c40
H 6 0X2d1c
H 2 0X2db2
H T 0X2e84
B 8 0X2fa6
B O 0X30a0
B 5 0X314a
B E 0X31fe
B 4 0X32f8
B 7 0X33ca
B 9 0X344c
B 1 0X3532
B 3 0X3604
B 2 0X36fe
B 6 0X37c6
B T 0X3884
H O 0X3a50
H 8 0X3b2c
H E 0X3bfe
H 5 0X3cda
H 7 0X3df2
H 4 0X3e9c
H 1 0X3f5a
H 9 0X4022
H 2 0X40ea
H 3 0X41a8
H 6 0X428e
H T 0X4338
B 8 0X441e
B O 0X44fa
B E 0X45d6
B 7 0X46a8
B 5 0X477a
B 1 0X4888
B 4 0X4950
B 2 0X4a04
B 9 0X4afe
B 6 0X4bb2
B 3 0X4c8e
B T 0X4d1a
H 8 0X4efa
H E 0X4fea
H O 0X509e
H 5 0X5152
H 7 0X5256
H 4 0X533c
H 1 0X53dc
H 9 0X54cc
H 2 0X5580
H 3 0X5670
H 6 0X574c
H T 0X580a
B E 0X58fa
B 8 0X59b8
B O 0X5a80
B 7 0X5b5c
B 5 0X5c2e
B 1 0X5cd8
B 4 0X5dbe
B 2 0X5e9a
B 9 0X5f80
B 6 0X6070
B 3 0X6138
B T 0X61ec
H E 0X6390
H O 0X6476
H 8 0X653e
H 5 0X6624
H 7 0X671e
H 4 0X6804
H 1 0X68a4
H 9 0X6980
H 2 0X69f8
H 3 0X6ae8
H 6 0X6be2
H T 0X6cbe
B O 0X6db8
B E 0X6e3a
B 8 0X6f34
B 7 0X7038
B 5 0X70f6
B 1 0X71d2
B 4 0X7290
B 2 0X7330
B 9 0X7434
B 6 0X74de
B 3 0X75ce
B T 0X768c
H E 0X784e
H O 0X7934
H 7 0X7a1a
H 8 0X7ad8
H 1 0X7b96
H 5 0X7c7c
H 2 0X7d58
H 4 0X7e34
H 6 0X7f06
H 9 0X7fb0
H 3 0X8078
H T 0X8140
B E 0X821c
B 7 0X832a
B O 0X83fc
B 1 0X84c4
B 8 0X8578
B 2 0X8654
B 5 0X8730
B 6 0X880c
B 4 0X88fc
B 3 0X89c4
B 9 0X8a82
B T 0X8b40
H 7 0X8cd0
H E 0X8dde
H O 0X8eba
H 8 0X8f78
H 1 0X9036
H 5 0X9130
H 2 0X9202
H 4 0X92d4
H 6 0X93b0
H 9 0X945a
H 3 0X9518
H T 0X95e0
B 7 0X96e4
B O 0X97c0
B E 0X9892
B 1 0X9978
B 8 0X9a22
B 2 0X9afe
B 5 0X9bc6
B 6 0X9ca2
B 4 0X9d74
B 3 0X9e64
B 9 0X9f18
B T 0X9fe0
H O 0Xa1b6
H 7 0Xa292
H E 0Xa332
H 8 0Xa42c
H 1 0Xa4e0
H 5 0Xa5b2
H 2 0Xa684
H 4 0Xa788
H 6 0Xa85a
H 9 0Xa90e
H 3 0Xa9e0
H T 0Xaaa8
B O 0Xabb6
B E 0Xac74
B 7 0Xad50
B 1 0Xae2c
B 8 0Xaed6
B 2 0Xafb2
B 5 0Xb066
B 6 0Xb156
B 4 0Xb232
B 3 0Xb32c
B 9 0Xb3cc
B T 0Xb494
H E 0Xb674
H O 0Xb76e
H 1 0Xb7e6
H 7 0Xb8f4
H 2 0Xb98a
H 8 0Xba84
H 6 0Xbb4c
H 5 0Xbc1e
H 3 0Xbcf0
H 4 0Xbdb8
H 9 0Xbe9e
H T 0Xbf52
B O 0Xc06a
B E 0Xc150
B 1 0Xc204
B 2 0Xc2d6
B 7 0Xc3b2
B 6 0Xc45c
B 8 0Xc538
B 3 0Xc61e
B 5 0Xc6d2
B 9 0Xc7a4
B 4 0Xc894
B T 0Xc92a
H O 0Xcb00
H 1 0Xcbd2
H E 0Xccb8
H 7 0Xcdc6
H 2 0Xce7a
H 8 0Xcf24
H 6 0Xcff6
H 5 0Xd0e6
H 3 0Xd19a
H 4 0Xd244
H 9 0Xd352
H T 0Xd410
B 1 0Xd4f6
B O 0Xd5aa
B E 0Xd6c2
B 2 0Xd776
B 7 0Xd85c
B 6 0Xd906
B 8 0Xd9e2
B 3 0Xdab4
B 5 0Xdb86
B 9 0Xdc62
B 4 0Xdd48
B T 0Xdde8
H 1 0Xdfb4
H E 0Xe09a
H O 0Xe180
H 7 0Xe248
H 2 0Xe306
H 8 0Xe3ec
H 6 0Xe4c8
H 5 0Xe590
H 3 0Xe658
H 4 0Xe75c
H 9 0Xe7e8
H T 0Xe89c
B E 0Xe9b4
B 1 0Xea7c
B O 0Xeb58
B 2 0Xec2a
B 7 0Xecfc
B 6 0Xedce
B 8 0Xeeaa
B 3 0Xef7c
B 5 0Xf008
B 9 0Xf10c
B 4 0Xf1fc
B T 0Xf2ba
H 1 0Xf472
H E 0Xf56c
H 2 0Xf62a
H O 0Xf6de
H 6 0Xf7d8
H 7 0Xf8be
H 3 0Xf990
H 8 0Xfa44
H 9 0Xfad0
H 5 0Xfbc0
H 4 0Xfce2
H T 0Xfd78
B 1 0Xfe72
B 2 0Xff62
B E 0X0034
B 6 0X011a
B O 0X01c4
B 3 0X02b4
B 7 0X0390
B 9 0X0408
B 8 0X04c6
B 4 0X05ac
B 5 0X0674
B T 0X076e
H 2 0X0976
H 1 0X0a3e
H E 0X0ade
H O 0X0bce
H 6 0X0c78
H 7 0X0d7c
H 3 0X0e4e
H 8 0X0ef8
H 9 0X0fac
H 5 0X107e
H 4 0X116e
H T 0X1236
B 2 0X131c
B E 0X1416
B 1 0X14c0
B 6 0X15ba
B O 0X1682
B 3 0X1786
B 7 0X1858
B 9 0X18da
B 8 0X1998
B 4 0X1a7e
B 5 0X1b50
B T 0X1c18
H E 0X1e2a
H 2 0X1ed4
H 1 0X1fa6
H O 0X20a0
H 6 0X2168
H 7 0X2276
H 3 0X2348
H 8 0X23d4
H 9 0X2474
H 5 0X255a
H 4 0X2618
H T 0X26f4
B E 0X280c
B 1 0X28b6
B 2 0X2960
B 6 0X2a5a
B O 0X2b2c
B 3 0X2c4e
B 7 0X2d34
B 9 0X2db6
B 8 0X2e92
B 4 0X2f5a
B 5 0X3004
B T 0X30e0
H 1 0X32c0
H E 0X33b0
H 6 0X345a
H 2 0X3554
H 3 0X361c
H O 0X36b2
H 9 0X37b6
H 7 0X389c
H 4 0X396e
H 8 0X3a4a
H 5 0X3ad6
H T 0X3bbc
B E 0X3d06
B 1 0X3dba
B 6 0X3e0a
B 3 0X3f40
B 2 0X4008
B 9 0X40bc
B O 0X41a2
B 4 0X4274
B 7 0X4350
B 5 0X4422
B 8 0X44f4
B T 0X45d0
H E 0X4792
H 6 0X483c
H 1 0X48fa
H 2 0X49ea
H 3 0X4ad0
H O 0X4ba2
H 9 0X4c38
H 7 0X4d3c
H 4 0X4e0e
H 8 0X4ec2
H 5 0X4f9e
H T 0X5084
B 6 0X5160
B E 0X528c
B 1 0X530e
B 3 0X53d6
B 2 0X54a8
B 9 0X555c
B O 0X5642
B 4 0X5714
B 7 0X57e6
B 5 0X58cc
B 8 0X598a
B T 0X5a66
H 6 0X5c46
H 1 0X5d04
H E 0X5dfe
H 2 0X5eb2
H 3 0X5f8e
H O 0X606a
H 9 0X6100
H 7 0X61fa
H 4 0X62c2
H 8 0X636c
H 5 0X6448
H T 0X651a
B 1 0X660a
B 6 0X66fa
B E 0X67fe
B 3 0X68c6
B 2 0X6970
B 9 0X6a24
B O 0X6b0a
B 4 0X6bf0
B 7 0X6cb8
B 5 0X6d9e
B 8 0X6e66
B T 0X6f10
H 6 0X710e
H 1 0X71d6
H 3 0X72b2
H E 0X735c
H 9 0X7424
H 2 0X7500
H 4 0X75fa
H O 0X76a4
H 5 0X7776
H 7 0X787a
H 8 0X794c
H T 0X7a0a
B 6 0X7abe
B 3 0X7bcc
B 1 0X7c80
B 9 0X7d20
B E 0X7de8
B 4 0X7f0a
B 2 0X7fc8
B 5 0X80a4
B O 0X8176
B 8 0X8266
B 7 0X832e
B T 0X8400
H 3 0X85a4
H 6 0X8680
H 1 0X8766
H E 0X8810
H 9 0X8900
H 2 0X89c8
H 4 0X8acc
H O 0X8bc6
H 5 0X8c66
H 7 0X8d4c
H 8 0X8dec
H T 0X8eb4
B 3 0X8fcc
B 1 0X909e
B 6 0X9148
B 9 0X91e8
B E 0X92e2
B 4 0X93b4
B 2 0X947c
B 5 0X9580
B O 0X9666
B 8 0X9710
B 7 0X9800
B T 0X98dc
H 1 0X9a76
H 3 0X9b7a
H 6 0X9c42
H E 0X9d28
H 9 0X9de6
H 2 0X9e90
H 4 0X9f76
H O 0Xa05c
H 5 0Xa106
H 7 0Xa20a
H 8 0Xa2f0
H T 0Xa3ae
B 1 0Xa48a
B 6 0Xa52a
B 3 0Xa62e
B 9 0Xa70a
B E 0Xa7fa
B 4 0Xa890
B 2 0Xa962
B 5 0Xaa48
B O 0Xab1a
B 8 0Xac00
B 7 0Xace6
B T 0Xad9a
H 6 0Xaf8e
H 1 0Xb06a
H 9 0Xb114
H 3 0Xb1e6
H 4 0Xb2cc
H E 0Xb38a
H 5 0Xb43e
H 2 0Xb542
H 8 0Xb614
H O 0Xb6e6
H 7 0Xb7a4
H T 0Xb86c
B 1 0Xb93e
B 6 0Xba10
B 9 0Xbaf6
B 4 0Xbbdc
B 3 0Xbcc2
B 5 0Xbd8a
B E 0Xbe52
B 8 0Xbf24
B 2 0Xbff6
B 7 0Xc0e6
B O 0Xc1ae
B T 0Xc28a
H 1 0Xc410
H 9 0Xc50a
H 6 0Xc5d2
H 3 0Xc6d6
H 4 0Xc758
H E 0Xc852
H 5 0Xc91a
H 2 0Xca0a
H 8 0Xcadc
H O 0Xcbc2
H 7 0Xcc94
H T 0Xcd48
B 9 0Xce38
B 1 0Xcf0a
B 6 0Xcfd2
B 4 0Xd086
B 3 0Xd18a
B 5 0Xd270
B E 0Xd342
B 8 0Xd3f6
B 2 0Xd4be
B 7 0Xd590
B O 0Xd69e
B T 0Xd75c
H 9 0Xd93c
H 6 0Xda04
H 1 0Xdab8
H 3 0Xdb8a
H 4 0Xdc5c
H E 0Xdd38
H 5 0Xde1e
H 2 0Xdf22
H 8 0Xdff4
H O 0Xe0c6
H 7 0Xe18e
H T 0Xe22e
B 6 0Xe31e
B 9 0Xe40e
B 1 0Xe4f4
B 4 0Xe5b2
B 3 0Xe6a2
B 5 0Xe774
B E 0Xe800
B 8 0Xe904
B 2 0Xe9cc
B 7 0Xeaa8
B O 0Xeb8e
B T 0Xec4c
H 9 0Xee18
H 6 0Xeef4
H 4 0Xefda
H 1 0Xf098
H 5 0Xf188
H 3 0Xf25a
H 8 0Xf336
H E 0Xf3e0
H 2 0Xf4c6
H O 0Xf5a2
H 7 0Xf66a
H T 0Xf714
B 9 0Xf804
B 4 0Xf8d6
B 6 0Xf9a8
B 5 0Xfac0
B 1 0Xfb7e
B 8 0Xfc50
B 3 0Xfd40
B 2 0Xfdfe
B E 0Xfe94
B 7 0Xff5c
B O 0X006a
B T 0X011e
H 4 0X0312
H 9 0X03c6
H 6 0X048e
H 1 0X0556
H 5 0X0632
H 3 0X0722
H 8 0X0808
H E 0X08a8
H 2 0X0998
H O 0X0a74
H 7 0X0b0a
H T 0X0bbe
B 4 0X0cea
B 6 0X0dbc
B 9 0X0e7a
B 5 0X0f88
B 1 0X101e
B 8 0X1118
B 3 0X11fe
B 2 0X12b2
B E 0X13a2
B 7 0X146a
B O 0X155a
B T 0X15fa
H 6 0X17da
H 4 0X1898
H 9 0X194c
H 1 0X1a46
H 5 0X1ae6
H 3 0X1bea
H 8 0X1cc6
H E 0X1da2
H 2 0X1e4c
H O 0X1f3c
H 7 0X2004
H T 0X20d6
B 6 0X21d0
B 9 0X2284
B 4 0X2356
B 5 0X2446
B 1 0X24e6
B 8 0X25d6
B 3 0X26bc
B 2 0X2770
B E 0X2888
B 7 0X2950
B O 0X2a36
B T 0X2ae0
H 9 0X2c98
H 6 0X2d7e
H 5 0X2e46
H 4 0X2f2c
H 8 0X3026
H 1 0X30c6
H 2 0X31a2
H 3 0X3274
H 7 0X3364
H E 0X342c
H O 0X3512
H T 0X35a8
B 6 0X3684
B 9 0X376a
B 5 0X383c
B 8 0X3922
B 4 0X3a08
B 2 0X3ad0
B 1 0X3ba2
B 7 0X3ca6
B 3 0X3d32
B O 0X3e22
B E 0X3eea
B T 0X3fd0
H 6 0X4192
H 5 0X4264
H 9 0X430e
H 4 0X4412
H 8 0X44b2
H 1 0X457a
H 2 0X4642
H 3 0X4746
H 7 0X4840
H E 0X48d6
H O 0X49bc
H T 0X4a98
B 5 0X4b88
B 6 0X4c32
B 9 0X4d0e
B 8 0X4dd6
B 4 0X4ec6
B 2 0X4f98
B 1 0X5042
B 7 0X515a
B 3 0X5236
B O 0X52cc
B E 0X5394
B T 0X547a
H 5 0X5646
H 9 0X5704
H 6 0X57f4
H 4 0X58b2
H 8 0X5970
H 1 0X5a42
H 2 0X5b0a
H 3 0X5bfa
H 7 0X5ce0
H E 0X5d8a
H O 0X5e98
H T 0X5f4c
B 9 0X6028
B 5 0X6122
B 6 0X61cc
B 8 0X62bc
B 4 0X6398
B 2 0X6460
B 1 0X6528
B 7 0X6618
B 3 0X66ae
B O 0X679e
B E 0X6866
B T 0X6956
H 5 0X6b18
H 9 0X6bd6
H 8 0X6ca8
H 6 0X6d98
H 2 0X6e6a
H 4 0X6f6e
H 7 0X705e
H 1 0X7090
H O 0X71bc
H 3 0X7270
H E 0X7306
H T 0X740a
B 5 0X752c
B 8 0X75d6
B 9 0X768a
B 2 0X77a2
B 6 0X7860
B 7 0X7950
B 4 0X7a40
B O 0X7b08
B 1 0X7bd0
B E 0X7c3e
B 3 0X7d74
B T 0X7df6
H 8 0X7ff4
H 5 0X80da
H 9 0X81b6
H 6 0X826a
H 2 0X833c
H 4 0X8418
H 7 0X84f4
H 1 0X8594
H O 0X86ac
H 3 0X8788
H E 0X881e
H T 0X88c8
B 8 0X89cc
B 9 0X8abc
B 5 0X8b84
B 2 0X8c60
B 6 0X8d14
B 7 0X8e04
B 4 0X8ecc
B O 0X8fb2
B 1 0X9070
B E 0X9174
B 3 0X923c
B T 0X92e6
H 9 0X94c6
H 8 0X957a
H 5 0X9656
H 6 0X975a
H 2 0X980e
H 4 0X9908
H 7 0X99da
H 1 0X9a70
H O 0X9b56
H 3 0X9c3c
H E 0X9cfa
H T 0X9db8
B 9 0X9e8a
B 5 0X9f84
B 8 0Xa038
B 2 0Xa150
B 6 0Xa1fa
B 7 0Xa2fe
B 4 0Xa3bc
B O 0Xa470
B 1 0Xa542
B E 0Xa61e
B 3 0Xa6fa
B T 0Xa7ae
H 5 0Xa98e
H 9 0Xaa60
H 2 0Xab28
H 8 0Xabfa
H 7 0Xad12
H 6 0Xadbc
H O 0Xaeca
H 4 0Xaf56
H 1 0Xb028
H 3 0Xb104
H E 0Xb1b8
H T 0Xb276
B 9 0Xb35c
B 5 0Xb47e
B 2 0Xb550
B 7 0Xb604
B 8 0Xb6b8
B O 0Xb7b2
B 6 0Xb88e
B 1 0Xb956
B 4 0Xba3c
B E 0Xbb0e
B 3 0Xbbcc
B T 0Xbc80
H 9 0Xbe42
H 2 0Xbf28
H 5 0Xc022
H 8 0Xc0fe
H 7 0Xc1d0
H 6 0Xc284
H O 0Xc360
H 4 0Xc432
H 1 0Xc4fa
H 3 0Xc5e0
H E 0Xc66c
H T 0Xc75c
B 2 0Xc86a
B 9 0Xc914
B 5 0Xc9c8
B 7 0Xcab8
B 8 0Xcb9e
B O 0Xcc66
B 6 0Xcd38
B 1 0Xce1e
B 4 0Xcedc
B E 0Xcfe0
B 3 0Xd0a8
B T 0Xd166
H 2 0Xd33c
H 5 0Xd3fa
H 9 0Xd4cc
H 8 0Xd5a8
H 7 0Xd670
H 6 0Xd77e
H O 0Xd81e
H 4 0Xd8aa
H 1 0Xd99a
H 3 0Xda8a
H E 0Xdb5c
H T 0Xdc2e
B 5 0Xdd50
B 2 0Xde18
B 9 0Xdecc
B 7 0Xdf94
B 8 0Xe052
B O 0Xe142
B 6 0Xe228
B 1 0Xe304
B 4 0Xe372
B E 0Xe476
B 3 0Xe552
B T 0Xe62e
H 2 0Xe7dc
H 5 0Xe8b8
H 7 0Xe99e
H 9 0Xea5c
H O 0Xeb4c
H 8 0Xec1e
H 1 0Xece6
H 6 0Xedb8
H E 0Xee76
H 4 0Xef20
H 3 0Xf006
H T 0Xf100
B 2 0Xf1e6
B 7 0Xf2c2
B 5 0Xf39e
B O 0Xf470
B 9 0Xf538
B 1 0Xf614
B 8 0Xf6be
B E 0Xf7b8
B 6 0Xf876
B 3 0Xf966
B 4 0Xfa24
B T 0Xfae2
H 7 0Xfc72
H 2 0Xfd6c
H 5 0Xfe2a
H 9 0Xff2e
H O 0X001e
H 8 0X00d2
H 1 0X0190
H 6 0X028a
H E 0X032a
H 4 0X03de
H 3 0X04ce
H T 0X05b4
B 7 0X069a
B 5 0X0780
B 2 0X087a
B O 0X091a
B 9 0X0a00
B 1 0X0aa0
B 8 0X0b68
B E 0X0c58
B 6 0X0d3e
B 3 0X0e42
B 4 0X0eec
B T 0X0fa0
H 5 0X11c6
H 7 0X12a2
H 2 0X137e
H 9 0X1400
H O 0X14fa
H 8 0X1590
H 1 0X163a
H 6 0X1752
H E 0X17e8
H 4 0X18e2
H 3 0X1996
H T 0X1a68
B 5 0X1b8a
B 2 0X1c8e
B 7 0X1d60
B O 0X1e3c
B 9 0X1ed2
B 1 0X1fae
B 8 0X203a
B E 0X2120
B 6 0X2224
B 3 0X230a
B 4 0X23b4
B T 0X2472
H 2 0X268e
H 5 0X2742
H O 0X2846
H 7 0X28e6
H 1 0X29a4
H 9 0X2a8a
H E 0X2b3e
H 8 0X2c4c
H 3 0X2d00
H 6 0X2ddc
H 4 0X2e7c
H T 0X2f62
B 5 0X3066
B 2 0X3160
B O 0X321e
B 1 0X32dc
B 7 0X33b8
B E 0X3480
B 9 0X353e
B 3 0X364c
B 8 0X3714
B 4 0X37be
B 6 0X384a
B T 0X396c
H 5 0X3b2e
H O 0X3c0a
H 2 0X3d04
H 7 0X3db8
H 1 0X3e80
H 9 0X3f16
H E 0X3fde
H 8 0X40ec
H 3 0X41d2
H 6 0X429a
H 4 0X4376
H T 0X4434
B O 0X4574
B 5 0X461e
B 2 0X470e
B 1 0X47cc
B 7 0X48d0
B E 0X4934
B 9 0X4a10
B 3 0X4af6
B 8 0X4bbe
B 4 0X4cc2
B 6 0X4d62
B T 0X4e3e
H O 0X501e
H 2 0X50f0
H 5 0X519a
H 7 0X529e
H 1 0X535c
H 9 0X541a
H E 0X54d8
H 8 0X55d2
H 3 0X56a4
H 6 0X578a
H 4 0X5870
H T 0X592e
B 2 0X5a46
B O 0X5ad2
B 5 0X5bae
B 1 0X5c8a
B 7 0X5d48
B E 0X5e2e
B 9 0X5eec
B 3 0X5ff0
B 8 0X609a
B 4 0X61a8
B 6 0X623e
B T 0X6342
H O 0X6536
H 2 0X65e0
H 1 0X66a8
H 5 0X6770
H E 0X6842
H 7 0X690a
H 3 0X6a22
H 9 0X6aa4
H 4 0X6b94
H 8 0X6c52
H 6 0X6d42
H T 0X6e28
B O 0X6f2c
B 1 0X6fc2
B 2 0X709e
B E 0X718e
B 5 0X7238
B 3 0X7332
B 7 0X7404
B 4 0X74a4
B 9 0X7580
B 6 0X7634
B 8 0X772e
B T 0X7800
H 1 0X79c2
H O 0X7a6c
H 2 0X7bb6
H 5 0X7c4c
H E 0X7d3c
H 7 0X7e04
H 3 0X7ecc
H 9 0X7fb2
H 4 0X80a2
H 8 0X8156
H 6 0X8214
H T 0X82dc
B 1 0X83d6
B 2 0X849e
B O 0X8566
B E 0X866a
B 5 0X8714
B 3 0X87e6
B 7 0X88c2
B 4 0X89c6
B 9 0X8a7a
B 6 0X8b2e
B 8 0X8c14
B T 0X8cdc
H 2 0X8eee
H 1 0X8fc0
H O 0X907e
H 5 0X9146
H E 0X9218
H 7 0X92fe
H 3 0X93bc
H 9 0X945c
H 4 0X956a
H 8 0X9628
H 6 0X96f0
H T 0X97cc
B 2 0X98bc
B O 0X9984
B 1 0X9a56
B E 0X9b46
B 5 0X9bf0
B 3 0X9cd6
B 7 0X9d9e
B 4 0X9e98
B 9 0X9f4c
B 6 0Xa028
B 8 0Xa10e
B T 0Xa1d6
H O 0Xa3ac
H 2 0Xa4ba
H E 0Xa564
H 1 0Xa618
H 3 0Xa708
H 5 0Xa7a8
H 4 0Xa898
H 7 0Xa97e
H 6 0Xaa32
H 9 0Xab18
H 8 0Xabb8
H T 0Xacbc
B 2 0Xadd4
B O 0Xae4c
B E 0Xaf78
B 3 0Xb036
B 1 0Xb0ea
B 4 0Xb1e4
B 5 0Xb298
B 6 0Xb356
B 7 0Xb446
B 8 0Xb504
B 9 0Xb5a4
B T 0Xb694
H 2 0Xb89c
H E 0Xb964
H O 0Xba4a
H 1 0Xbae0
H 3 0Xbbc6
H 5 0Xbc66
H 4 0Xbd4c
H 7 0Xbe28
H 6 0Xbed2
H 9 0Xbfa4
H 8 0Xc062
H T 0Xc170
B E 0Xc288
B 2 0Xc350
B O 0Xc422
B 3 0Xc508
B 1 0Xc5b2
B 4 0Xc65c
B 5 0Xc706
B 6 0Xc828
B 7 0Xc8f0
B 8 0Xc9b8
B 9 0Xca76
B T 0Xcb52
H E 0Xcd46
H O 0Xce0e
H 2 0Xced6
H 1 0Xcf94
H 3 0Xd08e
H 5 0Xd138
H 4 0Xd1ec
H 7 0Xd2dc
H 6 0Xd3ae
H 9 0Xd480
H 8 0Xd520
H T 0Xd642
B O 0Xd728
B E 0Xd822
B 2 0Xd8e0
B 3 0Xd99e
B 1 0Xda66
B 4 0Xdb60
B 5 0Xdc0a
B 6 0Xdcc8
B 7 0Xddae
B 8 0Xde76
B 9 0Xdf16
B T 0Xe006
H E 0Xe20e
H O 0Xe2e0
H 3 0Xe3b2
H 2 0Xe48e
H 4 0Xe574
H 1 0Xe63c
H 6 0Xe6dc
H 5 0Xe7c2
H 8 0Xe880
H 7 0Xe98e
H 9 0Xea4c
H T 0Xeaec
B E 0Xebd2
B 3 0Xecd6
B O 0Xed80
B 4 0Xee7a
B 2 0Xef4c
B 6 0Xeff6
B 1 0Xf0f0
B 8 0Xf1cc
B 5 0Xf28a
B 9 0Xf33e
B 7 0Xf438
B T 0Xf4e2
H 3 0Xf6f4
H E 0Xf780
H O 0Xf834
H 2 0Xf960
H 4 0Xfa14
H 1 0Xfae6
H 6 0Xfbb8
H 5 0Xfcb2
H 8 0Xfd84
H 7 0Xfe2e
H 9 0Xfed8
H T 0Xffbe
B 3 0X00f4
B O 0X0180
B E 0X0252
B 4 0X0342
B 2 0X041e
B 6 0X04aa
B 1 0X0590
B 8 0X0680
B 5 0X0752
B 9 0X0810
B 7 0X0900
B T 0X09b4
H O 0X0b9e
H 3 0X0c8e
H E 0X0d38
H 2 0X0e5a
H 4 0X0f2c
H 1 0X0fe0
H 6 0X1080
H 5 0X1170
H 8 0X121a
H 7 0X130a
H 9 0X13aa
H T 0X1490
B O 0X15b2
B E 0X1670
B 3 0X1756
B 4 0X181e
B 2 0X18fa
B 6 0X19e0
B 1 0X1ab2
B 8 0X1b34
B 5 0X1bfc
B 9 0X1cd8
B 7 0X1dfa
B T 0X1ea4
H E 0X207a
H O 0X216a
H 4 0X2250
H 3 0X2304
H 6 0X23e0
H 2 0X24da
H 8 0X257a
H 1 0X2638
H 9 0X2700
H 5 0X27c8
H 7 0X28b8
H T 0X2976
B O 0X2a66
B E 0X2b56
B 4 0X2c0a
B 6 0X2ce6
B 3 0X2dea
B 8 0X2e9e
B 2 0X2f98
B 9 0X302e
B 1 0X30ec
B 7 0X31c8
B 5 0X329a
B T 0X3376
H O 0X354c
H 4 0X3600
H E 0X36f0
H 3 0X381c
H 6 0X38bc
H 2 0X39c0
H 8 0X3a7e
H 1 0X3b00
H 9 0X3bb4
H 5 0X3ccc
H 7 0X3dc6
H T 0X3e52
B 4 0X3efc
B O 0X3fec
B E 0X40f0
B 6 0X41cc
B 3 0X42ee
B 8 0X4384
B 2 0X4442
B 9 0X44f6
B 1 0X45b4
B 7 0X469a
B 5 0X479e
B T 0X487a
H 4 0X4a0a
H E 0X4ae6
H O 0X4bd6
H 3 0X4cf8
H 6 0X4dac
H 2 0X4e92
H 8 0X4f5a
H 1 0X4fd2
H 9 0X50b8
H 5 0X5194
H 7 0X528e
H T 0X534c
B E 0X5450
B 4 0X5504
B O 0X55b8
B 6 0X56bc
B 3 0X57d4
B 8 0X586a
B 2 0X5950
B 9 0X59e6
B 1 0X5aa4
B 7 0X5b94
B 5 0X5c8e
B T 0X5d60
H 4 0X5f40
H E 0X6008
H 6 0X60da
H O 0X61c0
H 8 0X6288
H 3 0X6382
H 9 0X6422
H 2 0X6512
H 7 0X65e4
H 1 0X668e
H 5 0X6742
H T 0X6828
B 4 0X68fa
B 6 0X69f4
B E 0X6af8
B 8 0X6b66
B O 0X6c6a
B 9 0X6d50
B 3 0X6e2c
B 7 0X6f1c
B 2 0X6fe4
B 5 0X70a2
B 1 0X7174
B T 0X7200
H 6 0X7426
H 4 0X74f8
H E 0X75b6
H O 0X76ba
H 8 0X775a
H 3 0X7822
H 9 0X78e0
H 2 0X79da
H 7 0X7aca
H 1 0X7b56
H 5 0X7c28
H T 0X7d04
B 6 0X7dea
B E 0X7ee4
B 4 0X7f84
B 8 0X806a
B O 0X815a
B 9 0X81fa
B 3 0X82e0
B 7 0X83da
B 2 0X848e
B 5 0X8556
B 1 0X861e
B T 0X86f0
H E 0X88ee
H 6 0X89e8
H 4 0X8a92
H O 0X8b96
H 8 0X8c54
H 3 0X8d3a
H 9 0X8dbc
H 2 0X8ea2
H 7 0X8f7e
H 1 0X901e
H 5 0X90c8
H T 0X91b8
B E 0X92d0
B 4 0X93ca
B 6 0X949c
B 8 0X9564
B O 0X9672
B 9 0X96ea
B 3 0X9802
B 7 0X98e8
B 2 0X999c
B 5 0X9a46
B 1 0X9b22
B T 0X9bae
H 4 0X9db6
H E 0X9e9c
H 8 0X9f5a
H 6 0Xa040
H 9 0Xa112
H O 0Xa216
H 7 0Xa306
H 3 0Xa3ba
H 5 0Xa464
H 2 0Xa52c
H 1 0Xa5ea
H T 0Xa694
B E 0Xa7de
B 4 0Xa86a
B 8 0Xa950
B 9 0Xaa2c
B 6 0Xab1c
B 7 0Xabf8
B O 0Xacf2
B 5 0Xadb0
B 3 0Xae64
B 1 0Xaf18
B 2 0Xb008
B T 0Xb094
H E 0Xb27e
H 8 0Xb364
H 4 0Xb436
H 6 0Xb4fe
H 9 0Xb5bc
H O 0Xb6ac
H 7 0Xb792
H 3 0Xb896
H 5 0Xb936
H 2 0Xba26
H 1 0Xbaee
H T 0Xbb98
B 8 0Xbc60
B E 0Xbd6e
B 4 0Xbe18
B 9 0Xbef4
B 6 0Xbfbc
B 7 0Xc098
B O 0Xc188
B 5 0Xc264
B 3 0Xc354
B 1 0Xc41c
B 2 0Xc4bc
B T 0Xc5ac
H 8 0Xc750
H 4 0Xc82c
H E 0Xc908
H 6 0Xc9e4
H 9 0Xcaac
H O 0Xcbc4
H 7 0Xcc78
H 3 0Xcd4a
H 5 0Xce08
H 2 0Xcee4
H 1 0Xcfc0
H T 0Xd06a
B 4 0Xd132
B 8 0Xd20e
B E 0Xd31c
B 9 0Xd3a8
B 6 0Xd4ac
B 7 0Xd59c
B O 0Xd696
B 5 0Xd74a
B 3 0Xd7f4
B 1 0Xd8d0
B 2 0Xd97a
B T 0Xda56
H 8 0Xdc22
H 4 0Xdd26
H 9 0Xddb2
H E 0Xdeb6
H 7 0Xdfa6
H 6 0Xe05a
H 5 0Xe14a
H O 0Xe24e
H 1 0Xe2f8
H 3 0Xe3b6
H 2 0Xe488
H T 0Xe528
B 8 0Xe5dc
B 9 0Xe6d6
B 4 0Xe7c6
B 7 0Xe88e
B E 0Xe992
B 5 0Xea64
B 6 0Xeb2c
B 1 0Xec12
B O 0Xecf8
B 2 0Xedb6
B 3 0Xee88
B T 0Xef14
H 9 0Xf108
H 8 0Xf1b2
H 4 0Xf2ac
H E 0Xf36a
H 7 0Xf450
H 6 0Xf540
H 5 0Xf626
H O 0Xf70c
H 1 0Xf7b6
H 3 0Xf892
H 2 0Xf95a
H T 0Xfa0e
B 9 0Xfae0
B 4 0Xfbee
B 8 0Xfc98
B 7 0Xfd74
B E 0Xfe50
B 5 0Xff36
B 6 0Xffea
B 1 0X00da
B O 0X01a2
B 2 0X0288
B 3 0X0364
B T 0X03fa
H 4 0X05f8
H 9 0X06a2
H 8 0X074c
H E 0X0850
H 7 0X090e
H 6 0X0a12
H 5 0X0ada
H O 0X0bca
H 1 0X0c74
H 3 0X0d5a
H 2 0X0e0e
H T 0X0ed6
B 4 0X0fbc
B 8 0X1066
B 9 0X1174
B 7 0X123c
B E 0X1340
B 5 0X13fe
B 6 0X14d0
B 1 0X15a2
B O 0X1656
B 2 0X173c
B 3 0X180e
B T 0X18ae
H 8 0X1a7a
H 4 0X1b6a
H 7 0X1c64
H 9 0X1d0e
H 5 0X1e12
H E 0X1eee
H 1 0X1f8e
H 6 0X207e
H 2 0X2182
H O 0X220e
H 3 0X22a4
H T 0X239e
B 4 0X2470
B 8 0X254c
B 7 0X2600
B 5 0X2736
B 9 0X27fe
B 1 0X28c6
B E 0X29ac
B 2 0X2a7e
B 6 0X2b46
B 3 0X2c18
B O 0X2cea
B T 0X2dc6
H 4 0X2f6a
H 7 0X3032
H 8 0X30d2
H 9 0X31cc
H 5 0X32c6
H E 0X33ac
H 1 0X3442
H 6 0X3528
H 2 0X360e
H O 0X3708
H 3 0X37c6
H T 0X3898
B 7 0X394c
B 4 0X3a00
B 8 0X3ab4
B 5 0X3bb8
B 9 0X3ca8
B 1 0X3d70
B E 0X3e74
B 2 0X3f0a
B 6 0X3fe6
B 3 0X40e0
B O 0X41a8
B T 0X428e
H 7 0X443c
H 8 0X44dc
H 4 0X45d6
H 9 0X46bc
H 5 0X4770
H E 0X484c
H 1 0X48f6
H 6 0X4a0e
H 2 0X4aea
H O 0X4bb2
H 3 0X4c70
H T 0X4d38
B 8 0X4e46
B 7 0X4f0e
B 4 0X4fd6
B 5 0X5094
B 9 0X5166
B 1 0X522e
B E 0X5328
B 2 0X53f0
B 6 0X54c2
B 3 0X55d0
B O 0X5670
B T 0X574c
H 7 0X58f0
H 8 0X59b8
H 5 0X5a8a
H 4 0X5b70
H 1 0X5c4c
H 9 0X5d3c
H 2 0X5df0
H E 0X5ecc
H 6 0X5fda
H O 0X6070
H 3 0X6156
H T 0X621e
B 7 0X62f0
B 5 0X63c2
B 8 0X6494
B 1 0X657a
B 4 0X6624
B 2 0X6714
B 9 0X67d2
B 6 0X68c2
B E 0X69da
B 3 0X6a8e
B O 0X6b4c
B T 0X6c14
H 5 0X6dd6
H 7 0X6ec6
H 8 0X6f5c
H 4 0X6ffc
H 1 0X70e2
H 9 0X71d2
H 2 0X72d6
H E 0X73a8
H 6 0X7466
H O 0X752e
H 3 0X7628
H T 0X76dc
B 5 0X77c2
B 8 0X788a
B 7 0X797a
B 1 0X7a56
B 4 0X7ac4
B 2 0X7bf0
B 9 0X7cb8
B 6 0X7d62
B E 0X7e8e
B 3 0X7f74
B O 0X8000
B T 0X80f0
H 8 0X8294
H 5 0X8384
H 7 0X8460
H 4 0X84e2
H 1 0X85c8
H 9 0X86b8
H 2 0X8780
H E 0X888e
H 6 0X894c
H O 0X8a0a
H 3 0X8b0e
H T 0X8bc2
B 8 0X8ca8
B 7 0X8d8e
B 5 0X8e6a
B 1 0X8f3c
B 4 0X8fb4
B 2 0X90a4
B 9 0X916c
B 6 0X9266
B E 0X9360
B 3 0X9446
B O 0X94fa
B T 0X95cc
H 7 0X9798
H 8 0X984c
H 1 0X990a
H 5 0X99f0
H 2 0X9ab8
H 4 0X9bc6
H 6 0X9c8e
H 9 0X9d2e
H 3 0X9e3c
H E 0X9ee6
H O 0X9fe0
H T 0Xa0b2
B 7 0Xa15c
B 8 0Xa18e
B 1 0Xa2e2
B 2 0Xa3fa
B 5 0Xa4a4
B 6 0Xa5a8
B 4 0Xa666
B 3 0Xa756
B 9 0Xa80a
B O 0Xa8f0
B E 0Xa9b8
B T 0Xaa94
H 8 0Xac88
H 1 0Xad3c
H 7 0Xae36
H 5 0Xaee0
H 2 0Xaf9e
H 4 0Xb066
H 6 0Xb12e
H 9 0Xb1ec
H 3 0Xb2dc
H E 0Xb3a4
H O 0Xb4a8
H T 0Xb584
B 1 0Xb656
B 8 0Xb714
B 7 0Xb7e6
B 2 0Xb8cc
B 5 0Xb962
B 6 0Xba48
B 4 0Xbb10
B 3 0Xbc0a
B 9 0Xbcaa
B O 0Xbdcc
B E 0Xbe80
B T 0Xbf5c
H 1 0Xc10a
H 7 0Xc1e6
H 8 0Xc2b8
H 5 0Xc394
H 2 0Xc470
H 4 0Xc54c
H 6 0Xc600
H 9 0Xc6be
H 3 0Xc7cc
H E 0Xc862
H O 0Xc934
H T 0Xca06
B 7 0Xcaec
B 1 0Xcbbe
B 8 0Xcc9a
B 2 0Xcd80
B 5 0Xce20
B 6 0Xcf24
B 4 0Xcfec
B 3 0Xd0f0
B 9 0Xd1a4
B O 0Xd262
B E 0Xd316
B T 0Xd3e8
H 1 0Xd5be
H 7 0Xd6c2
H 2 0Xd794
H 8 0Xd870
H 6 0Xd91a
H 5 0Xd9f6
H 3 0Xdac8
H 4 0Xdb72
H O 0Xdc76
H 9 0Xdd20
H E 0Xddb6
H T 0Xdeb0
B 1 0Xdfaa
B 2 0Xe086
B 7 0Xe16c
B 6 0Xe234
B 8 0Xe306
B 3 0Xe3ec
B 5 0Xe482
B O 0Xe57c
B 4 0Xe63a
B E 0Xe6f8
B 9 0Xe7d4
B T 0Xe8b0
H 2 0Xea7c
H 1 0Xeb76
H 7 0Xec3e
H 8 0Xecde
H 6 0Xede2
H 5 0Xeedc
H 3 0Xefa4
H 4 0Xf06c
H O 0Xf13e
H 9 0Xf1d4
H E 0Xf274
H T 0Xf364
B 2 0Xf47c
B 7 0Xf558
B 1 0Xf616
B 6 0Xf6f2
B 8 0Xf7a6
B 3 0Xf896
B 5 0Xf95e
B O 0Xfa26
B 4 0Xfb16
B E 0Xfbca
B 9 0Xfc74
B T 0Xfd64
H 7 0Xff08
H 2 0X0016
H 1 0X00fc
H 8 0X01d8
H 6 0X0296
H 5 0X0390
H 3 0X044e
H 4 0X0516
H O 0X05f2
H 9 0X06a6
H E 0X0764
H T 0X0840
B 7 0X0912
B 1 0X09da
B 2 0X0ad4
B 6 0X0b92
B 8 0X0c6e
B 3 0X0d36
B 5 0X0e1c
B O 0X0f02
B 4 0X0ff2
B E 0X10a6
B 9 0X115a
B T 0X1240
H 1 0X1402
H 7 0X14ca
H 6 0X157e
H 2 0X1696
H 3 0X174a
H 8 0X1812
H O 0X18ee
H 5 0X19d4
H 4 0X1ace
H E 0X1b78
H 9 0X1c68
H T 0X1d12
B 7 0X1de4
B 1 0X1eb6
B 6 0X1fa6
B 3 0X208c
B 2 0X2140
B O 0X221c
B 8 0X22d0
B 4 0X23ca
B 5 0X2460
B 9 0X256e
B E 0X262c
B T 0X271c
H 7 0X28de
H 6 0X2988
H 1 0X2a8c
H 2 0X2b54
H 3 0X2c30
H 8 0X2ce4
H O 0X2dca
H 5 0X2e7e
H 4 0X2f5a
H E 0X3036
H 9 0X311c
H T 0X31bc
B 6 0X32c0
B 7 0X3392
B 1 0X341e
B 3 0X352c
B 2 0X361c
B O 0X36d0
B 8 0X37a2
B 4 0X3874
B 5 0X3928
B 9 0X3a18
B E 0X3aea
B T 0X3bd0
H 6 0X3da6
H 1 0X3e64
H 7 0X3f2c
H 2 0X3ffe
H 3 0X40d0
H 8 0X41b6
H O 0X4292
H 5 0X4364
H 4 0X4436
H E 0X44ea
H 9 0X45bc
H T 0X467a
B 1 0X4774
B 6 0X483c
B 7 0X4918
B 3 0X49ea
B 2 0X4ad0
B O 0X4bb6
B 8 0X4c88
B 4 0X4d5a
B 5 0X4de6
B 9 0X4ed6
B E 0X4fbc
B T 0X508e
H 6 0X5246
H 1 0X5336
H 3 0X5408
H 7 0X54e4
H O 0X55b6
H 2 0X5674
H 4 0X573c
H 8 0X5822
H 9 0X58ea
H 5 0X59bc
H E 0X5a84
H T 0X5b4c
B 6 0X5c28
B 3 0X5d2c
B 1 0X5df4
B O 0X5ed0
B 7 0X5f7a
B 4 0X6056
B 2 0X611e
B 9 0X61fa
B 8 0X62cc
B E 0X63bc
B 5 0X6470
B T 0X6556
H 3 0X672c
H 6 0X67d6
H 1 0X68c6
H 7 0X698e
H O 0X6a7e
H 2 0X6b50
H 4 0X6bfa
H 8 0X6ccc
H 9 0X6d9e
H 5 0X6e5c
H E 0X6f60
H T 0X701e
B 3 0X712c
B 1 0X71fe
B 6 0X729e
B O 0X73a2
B 7 0X7442
B 4 0X7500
B 2 0X75e6
B 9 0X76c2
B 8 0X7794
B E 0X78a2
B 5 0X7960
B T 0X7a0a
H 1 0X7bc2
H 3 0X7cd0
H 6 0X7d70
H 7 0X7e6a
H O 0X7f78
H 2 0X8004
H 4 0X80b8
H 8 0X81a8
H 9 0X82a2
H 5 0X8374
H E 0X8450
H T 0X84f0
B 1 0X85e0
B 6 0X8662
B 3 0X877a
B O 0X889c
B 7 0X8950
B 4 0X8a04
B 2 0X8acc
B 9 0X8ba8
B 8 0X8c84
B E 0X8d7e
B 5 0X8e78
B T 0X8ef0
H 6 0X90ee
H 1 0X91ca
H O 0X9242
H 3 0X933c
H 4 0X9422
H 7 0X9512
H 9 0X95b2
H 2 0X968e
H 8 0X9742
H E 0X9828
H 5 0X992c
H T 0X99ea
B 1 0X9ada
B 6 0X9b98
B O 0X9c60
B 4 0X9d46
B 3 0X9e36
B 9 0X9ee0
B 7 0X9fc6
B 8 0Xa07a
B 2 0Xa14c
B 5 0Xa20a
B E 0Xa318
B T 0Xa3d6
H 1 0Xa57a
H O 0Xa64c
H 6 0Xa714
H 3 0Xa822
H 4 0Xa8ea
H 7 0Xa9e4
H 9 0Xaa8e
H 2 0Xab60
H 8 0Xac32
H E 0Xad22
H 5 0Xadcc
H T 0Xaea8
B O 0Xaf98
B 1 0Xb07e
B 6 0Xb11e
B 4 0Xb1fa
B 3 0Xb2f4
B 9 0Xb3b2
B 7 0Xb47a
B 8 0Xb542
B 2 0Xb632
B 5 0Xb718
B E 0Xb7ea
B T 0Xb894
H O 0Xba88
H 6 0Xbb28
H 1 0Xbc22
H 3 0Xbcf4
H 4 0Xbd8a
H 7 0Xbe70
H 9 0Xbf42
H 2 0Xc046
H 8 0Xc0fa
H E 0Xc1c2
H 5 0Xc280
H T 0Xc398
B 6 0Xc44c
B O 0Xc546
B 1 0Xc622
B 4 0Xc6c2
B 3 0Xc7ee
B 9 0Xc884
B 7 0Xc942
B 8 0Xca00
B 2 0Xcae6
B 5 0Xcbb8
B E 0Xcc94
B T 0Xcd66
H O 0Xcf5a
H 6 0Xd04a
H 4 0Xd11c
H 1 0Xd1e4
H 9 0Xd2ac
H 3 0Xd36a
H 8 0Xd432
H 7 0Xd518
H 5 0Xd5c2
H 2 0Xd6bc
H E 0Xd770
H T 0Xd82e
B O 0Xd964
B 4 0Xd9fa
B 6 0Xdae0
B 9 0Xdbb2
B 1 0Xdc7a
B 8 0Xdd2e
B 3 0Xde64
B 5 0Xdf0e
B 7 0Xdfe0
B E 0Xe0a8
B 2 0Xe1ac
B T 0Xe224
H 4 0Xe454
H O 0Xe508
H 6 0Xe5c6
H 1 0Xe67a
H 9 0Xe760
H 3 0Xe86e
H 8 0Xe940
H 7 0Xea08
H 5 0Xeaa8
H 2 0Xeb98
H E 0Xec2e
H T 0Xecf6
B 4 0Xedbe
B 6 0Xeeb8
B O 0Xefe4
B 9 0Xf07a
B 1 0Xf160
B 8 0Xf232
B 3 0Xf322
B 5 0Xf3f4
B 7 0Xf4d0
B E 0Xf57a
B 2 0Xf638
B T 0Xf6ec
H 6 0Xf8f4
H 4 0Xf9d0
H O 0Xfaa2
H 1 0Xfb6a
H 9 0Xfc50
H 3 0Xfd18
H 8 0Xfdd6
H 7 0Xfea8
H 5 0Xff7a
H 2 0X004c
H E 0X0114
H T 0X01dc
B 6 0X02ae
B O 0X03c6
B 4 0X045c
B 9 0X0556
B 1 0X063c
B 8 0X06e6
B 3 0X07d6
B 5 0X08d0
B 7 0X09ac
B E 0X0a56
B 2 0X0b46
B T 0X0be6
H O 0X0dbc
H 6 0X0eac
H 9 0X0f60
H 4 0X103c
H 8 0X10fa
H 1 0X11a4
H 5 0X12a8
H 3 0X1384
H E 0X1442
H 7 0X1532
H 2 0X1618
H T 0X1708
B 6 0X17bc
B O 0X188e
B 9 0X1956
B 8 0X1a32
B 4 0X1afa
B 5 0X1bcc
B 1 0X1c94
B E 0X1d84
B 3 0X1e74
B 2 0X1f3c
B 7 0X200e
B T 0X20e0
H 6 0X2284
H 9 0X237e
H O 0X245a
H 4 0X2518
H 8 0X25d6
H 1 0X269e
H 5 0X2766
H 3 0X2856
H E 0X2932
H 7 0X29f0
H 2 0X2acc
H T 0X2bb2
B 9 0X2c66
B 6 0X2d24
B O 0X2e32
B 8 0X2f04
B 4 0X2ff4
B 5 0X30c6
B 1 0X315c
B E 0X3274
B 3 0X335a
B 2 0X3404
B 7 0X34d6
B T 0X35b2
H 9 0X3742
H O 0X385a
H 6 0X38f0
H 4 0X39fe
H 8 0X3ae4
H 1 0X3ba2
H 5 0X3c4c
H 3 0X3d46
H E 0X3e22
H 7 0X3ee0
H 2 0X3f9e
H T 0X408e
B O 0X416a
B 9 0X423c
B 6 0X430e
B 8 0X4412
B 4 0X44a8
B 5 0X4584
B 1 0X4674
B E 0X4746
B 3 0X4818
B 2 0X4912
B 7 0X49da
B T 0X4a98
H 9 0X4c3c
H O 0X4d22
H 8 0X4df4
H 6 0X4ed0
H 5 0X4fb6
H 4 0X5092
H E 0X515a
H 1 0X5204
H 2 0X52ea
H 3 0X53a8
H 7 0X54ac
H T 0X5560
B 9 0X563c
B 8 0X570e
B O 0X5812
B 5 0X58ee
B 6 0X5984
B E 0X5a74
B 4 0X5b28
B 2 0X5c0e
B 1 0X5ccc
B 7 0X5db2
B 3 0X5e98
B T 0X5f74
H 8 0X610e
H 9 0X61e0
H O 0X62c6
H 6 0X6384
H 5 0X6474
H 4 0X6546
H E 0X65fa
H 1 0X66ae
H 2 0X6794
H 3 0X6870
H 7 0X6942
H T 0X6a32
B 8 0X6ad2
B O 0X6bfe
B 9 0X6cee
B 5 0X6d8e
B 6 0X6e56
B E 0X6f3c
B 4 0X6fdc
B 2 0X70b8
B 1 0X718a
B 7 0X728e
B 3 0X734c
B T 0X740a
H O 0X7626
H 8 0X76bc
H 9 0X7798
H 6 0X7874
H 5 0X793c
H 4 0X7a22
H E 0X7ac2
H 1 0X7b58
H 2 0X7c2a
H 3 0X7d24
H 7 0X7e0a
H T 0X7edc
B O 0X7fe0
B 9 0X80e4
B 8 0X81ca
B 5 0X8260
B 6 0X831e
B E 0X840e
B 4 0X84cc
B 2 0X859e
B 1 0X8666
B 7 0X8738
B 3 0X8800
B T 0X88c8
H 9 0X8a6c
H O 0X8b66
H 5 0X8c42
H 8 0X8d3c
H E 0X8e2c
H 6 0X8eea
H 2 0X8f9e
H 4 0X9084
H 7 0X914c
H 1 0X9192
H 3 0X92c8
H T 0X939a
B O 0X9494
B 9 0X9548
B 5 0X9642
B E 0X971e
B 8 0X980e
B 2 0X98fe
B 6 0X998a
B 7 0X9a8e
B 4 0X9b06
B 3 0X9c3c
B 1 0X9cf0
B T 0X9d86
H O 0X9f66
H 5 0Xa038
H 9 0Xa146
H 8 0Xa20e
H E 0Xa2e0
H 6 0Xa38a
H 2 0Xa448
H 4 0Xa588
H 7 0Xa646
H 1 0Xa68c
H 3 0Xa7cc
H T 0Xa876
B 5 0Xa970
B O 0Xaa2e
B 9 0Xaaf6
B E 0Xabf0
B 8 0Xacea
B 2 0Xadb2
B 6 0Xae52
B 7 0Xaf42
B 4 0Xb014
B 3 0Xb0e6
B 1 0Xb1ae
B T 0Xb262
H 5 0Xb44c
H 9 0Xb51e
H O 0Xb5f0
H 8 0Xb6cc
H E 0Xb79e
H 6 0Xb898
H 2 0Xb942
H 4 0Xba82
H 7 0Xbb2c
H 1 0Xbba4
H 3 0Xbc94
H T 0Xbd3e
B 9 0Xbe2e
B 5 0Xbf0a
B O 0Xbfc8
B E 0Xc0b8
B 8 0Xc1bc
B 2 0Xc298
B 6 0Xc356
B 7 0Xc446
B 4 0Xc4e6
B 3 0Xc5c2
B 1 0Xc68a
B T 0Xc734
H 5 0Xc91e
H 9 0Xca0e
H E 0Xcae0
H O 0Xcb9e
H 2 0Xcc84
H 8 0Xcd60
H 7 0Xce46
H 6 0Xcf04
H 3 0Xcfe0
H 4 0Xd0bc
H 1 0Xd18e
H T 0Xd21a
B 5 0Xd332
B E 0Xd3fa
B 9 0Xd4d6
B 2 0Xd5a8
B O 0Xd670
B 7 0Xd71a
B 8 0Xd800
B 3 0Xd904
B 6 0Xd9d6
B 1 0Xda9e
B 4 0Xdb5c
B T 0Xdc24
H E 0Xde36
H 5 0Xded6
H 9 0Xdfbc
H O 0Xe084
H 2 0Xe14c
H 8 0Xe20a
H 7 0Xe2dc
H 6 0Xe3d6
H 3 0Xe494
H 4 0Xe57a
H 1 0Xe638
H T 0Xe714
B E 0Xe804
B 9 0Xe890
B 5 0Xe976
B 2 0Xea7a
B O 0Xeb4c
B 7 0Xebf6
B 8 0Xecc8
B 3 0Xedc2
B 6 0Xee80
B 1 0Xef5c
B 4 0Xf024
B T 0Xf100
H 9 0Xf2b8
H E 0Xf394
H 5 0Xf43e
H O 0Xf54c
H 2 0Xf60a
H 8 0Xf6fa
H 7 0Xf7c2
H 6 0Xf880
H 3 0Xf966
H 4 0Xfa60
H 1 0Xfb14
H T 0Xfbaa
B 9 0Xfcae
B 5 0Xfd9e
B E 0Xfe84
B 2 0Xff60
B O 0X0014
B 7 0X00dc
B 8 0X01ae
B 3 0X0280
B 6 0X033e
B 1 0X0424
B 4 0X050a
B T 0X05a0
H 5 0X079e
H 9 0X0884
H 2 0X0938
H E 0X0a64
H 7 0X0b0e
H O 0X0be0
H 3 0X0cda
H 8 0X0db6
H 1 0X0e4c
H 6 0X0f5a
H 4 0X0ff0
H T 0X10a4
B 9 0X116c
B 5 0X1284
B 2 0X1342
B 7 0X141e
B E 0X1518
B 3 0X161c
B O 0X16c6
B 1 0X1770
B 8 0X1856
B 4 0X1964
B 6 0X19f0
B T 0X1acc
H 9 0X1c7a
H 2 0X1d42
H 5 0X1e1e
H E 0X1f0e
H 7 0X1fcc
H O 0X20da
H 3 0X21ac
H 8 0X2256
H 1 0X2314
H 6 0X242c
H 4 0X24d6
H T 0X25a8
B 2 0X2698
B 9 0X274c
B 5 0X281e
B 7 0X2904
B E 0X29cc
B 3 0X2ac6
B O 0X2ba2
B 1 0X2c56
B 8 0X2d14
B 4 0X2ddc
B 6 0X2ecc
B T 0X2fbc
H 2 0X3156
H 5 0X321e
H 9 0X3322
H E 0X33f4
H 7 0X349e
H O 0X358e
H 3 0X366a
H 8 0X3728
H 1 0X37dc
H 6 0X38ea
H 4 0X39c6
H T 0X3a8e
B 5 0X3b74
B 2 0X3c5a
B 9 0X3d2c
B 7 0X3dea
B E 0X3eb2
B 3 0X3f8e
B O 0X4074
B 1 0X4132
B 8 0X41e6
B 4 0X42c2
B 6 0X43b2
B T 0X447a
H 2 0X4646
H 5 0X46fa
H 7 0X47fe
H 9 0X48c6
H 3 0X49d4
H E 0X4a92
H 1 0X4b14
H O 0X4c22
H 4 0X4cd6
H 8 0X4d9e
H 6 0X4ea2
H T 0X4f74
B 2 0X5028
B 7 0X5122
B 5 0X51ea
B 3 0X52f8
B 9 0X53b6
B 1 0X544c
B E 0X5514
B 4 0X55f0
B O 0X5708
B 6 0X57e4
B 8 0X58ac
B T 0X5974
H 7 0X5b4a
H 2 0X5bfe
H 5 0X5cbc
H 9 0X5dca
H 3 0X5e9c
H E 0X5f5a
H 1 0X6018
H O 0X6130
H 4 0X61c6
H 8 0X6298
H 6 0X637e
H T 0X645a
B 7 0X652c
B 5 0X6612
B 2 0X6702
B 3 0X67de
B 9 0X687e
B 1 0X6978
B E 0X69fa
B 4 0X6ae0
B O 0X6bc6
B 6 0X6cb6
B 8 0X6d88
B T 0X6e64
H 5 0X7044
H 7 0X710c
H 2 0X71de
H 9 0X72a6
H 3 0X73a0
H E 0X745e
H 1 0X7526
H O 0X75f8
H 4 0X76b6
H 8 0X7774
H 6 0X7878
H T 0X7940
B 5 0X7a26
B 2 0X7b16
B 7 0X7bc0
B 3 0X7cce
B 9 0X7d96
B 1 0X7e5e
B E 0X7f1c
B 4 0X7fee
B O 0X80ca
B 6 0X8192
B 8 0X8264
B T 0X8354
H 2 0X8548
H 5 0X85ca
H 3 0X86ec
H 7 0X87a0
H 1 0X884a
H 9 0X8944
H 4 0X8a2a
H E 0X8af2
H 6 0X8bce
H O 0X8c96
H 8 0X8d72
H T 0X8e26
B 5 0X8ef8
B 2 0X8ffc
B 3 0X90ce
B 1 0X9182
B 7 0X925e
B 4 0X931c
B 9 0X9402
B 6 0X94e8
B E 0X95a6
B 8 0X9696
B O 0X97a4
B T 0X983a
H 5 0X99f2
H 3 0X9ac4
H 2 0X9bbe
H 7 0X9c90
H 1 0X9d44
H 9 0X9e2a
H 4 0X9ef2
H E 0X9fb0
H 6 0Xa0aa
H O 0Xa17c
H 8 0Xa262
H T 0Xa32a
B 3 0Xa410
B 5 0Xa4f6
B 2 0Xa5d2
B 1 0Xa690
B 7 0Xa76c
B 4 0Xa7f8
B 9 0Xa8e8
B 6 0Xa9ce
B E 0Xaa96
B 8 0Xab68
B O 0Xac4e
B T 0Xad3e
H 3 0Xaee2
H 2 0Xafbe
H 5 0Xb072
H 7 0Xb158
H 1 0Xb234
H 9 0Xb310
H 4 0Xb3ba
H E 0Xb4b4
H 6 0Xb586
H O 0Xb694
H 8 0Xb734
H T 0Xb7f2
B 2 0Xb928
B 3 0Xb9c8
B 5 0Xbaa4
B 1 0Xbb80
B 7 0Xbc48
B 4 0Xbcf2
B 9 0Xbdd8
B 6 0Xbe96
B E 0Xbf7c
B 8 0Xc03a
B O 0Xc12a
B T 0Xc22e
H 3 0Xc3f0
H 2 0Xc4ae
H 1 0Xc576
H 5 0Xc63e
H 4 0Xc72e
H 7 0Xc7e2
H 6 0Xc8d2
H 9 0Xc9a4
H 8 0Xca4e
H E 0Xcb34
H O 0Xcbe8
H T 0Xcce2
B 3 0Xcdfa
B 1 0Xceae
B 2 0Xcf80
B 4 0Xd00c
B 5 0Xd0de
B 6 0Xd1d8
B 7 0Xd2c8
B 8 0Xd386
B 9 0Xd444
B O 0Xd520
B E 0Xd5de
B T 0Xd6d8
H 1 0Xd8a4
H 3 0Xd958
H 2 0Xda48
H 5 0Xdb06
H 4 0Xdbf6
H 7 0Xdcc8
H 6 0Xdda4
H 9 0Xde62
H 8 0Xdf16
H E 0Xdfde
H O 0Xe0ce
H T 0Xe1aa
B 1 0Xe286
B 2 0Xe358
B 3 0Xe420
B 4 0Xe4c0
B 5 0Xe5b0
B 6 0Xe6aa
B 7 0Xe79a
B 8 0Xe86c
B 9 0Xe92a
B O 0Xe9fc
B E 0Xeab0
B T 0Xeb8c
H 1 0Xed62
H 2 0Xee0c
H 3 0Xeeca
H 4 0Xef74
H 5 0Xf046
H 6 0Xf140
H 7 0Xf212
H 8 0Xf2da
H 9 0Xf3ca
H O 0Xf49c
H E 0Xf56e
H T 0Xf64a
B 1 0Xf730
B 2 0Xf7da
B 3 0Xf884
B 4 0Xf94c
B 5 0Xfa46
B 6 0Xfaf0
B 7 0Xfbf4
B 8 0Xfcb2
B 9 0Xfd84
B O 0Xfe38
B E 0Xff46
B T 0X0022
H 1 0X01da
H 2 0X0298
H 3 0X0342
H 4 0X03f6
H 5 0X04c8
H 6 0X05cc
H 7 0X069e
H 8 0X0752
H 9 0X081a
H O 0X090a
H E 0X09d2
H T 0X0ac2
B 1 0X0ba8
B 2 0X0c70
B 3 0X0d06
B 4 0X0db0
B 5 0X0ea0
B 6 0X0f68
B 7 0X108a
B 8 0X112a
B 9 0X11fc
B O 0X12d8
B E 0X13c8
B T 0X1490
H 1 0X163e
H 2 0X1710
H 3 0X17ce
H 4 0X186e
H 5 0X192c
H 6 0X1a26
H 7 0X1b16
H 8 0X1bca
H 9 0X1cb0
H O 0X1d96
H E 0X1e68
H T 0X1f58
B 1 0X200c
B 2 0X20de
B 3 0X219c
B 4 0X2250
B 5 0X2322
B 6 0X2412
B 7 0X2502
B 8 0X25c0
B 9 0X26a6
B O 0X27a0
B E 0X2872
B T 0X298a
