#. Lowndes: Version 2
#. SourceFilename: C:\Users\Guildford Ringers\Documents\guildfordcathedralbells.bitbucket.io\Recordings\Guildford\Guildford.20220511-2045.s0t0.3.wav
#. Tower: Guildford Cathedral
#. RingingName: Touch_3
#. RingingDateTime: 20220511-2045
#. Rungon: 
#. Tenor: 12
#. NumBellsRinging: 12
#. Creator: HawkEar Team Edition V1 for Guildford Cathedral
#. CreatorVersion: 1.1.0.3
#. TranscribedFor: Guildford band
#. TranscriptionDateTime: 20220511-2247
#. FirstBlowMs: 5530
#. TouchdB: -21.9729
#. TraindB: -9.73, -8.5, -6.1, -3.11, -3.16, -3.1, -3.98, -4.12, -5.95, -5.43, -4.92, -3
#. TrainedOn: 20220102-1438
#. TrainDataRecordedOn: 20210813-1741
#. TrainParams: -ft:y -ws:0.05 -hs:0.01 -co:0.9 -sw:40 -ts:
#. GainParams: -fh:6000 -fl:200
#. OnsetParams: -mb:80 -mf:10 -ng:0.3 -oo:0
#. WriteParams: -hb:y
#. AnalParams: -au:n -xp:n -sg:n -hsg:-1
#. ExpString: 
#. Association:
#. Calling:
#. CompositionName:
#. Method:
#. Footnotes:
#. Ringers:
#. Stage:
H 1 0X0000
H 2 0X00d2
H 3 0X0190
H 4 0X0262
H 5 0X037a
H 6 0X0424
H 7 0X0514
H 8 0X05d2
H 9 0X06c2
H O 0X07d0
H E 0X0884
H T 0X0988
B 1 0X0a32
B 2 0X0b18
B 3 0X0bd6
B 4 0X0cc6
B 5 0X0d84
B 6 0X0e6a
B 7 0X0f3c
B 8 0X0ff0
B 9 0X10cc
B O 0X11b2
B E 0X1298
B T 0X1360
H 1 0X14fa
H 2 0X15cc
H 3 0X1680
H 4 0X1748
H 5 0X1824
H 6 0X1900
H 7 0X19d2
H 8 0X1a68
H 9 0X1b6c
H O 0X1c66
H E 0X1d2e
H T 0X1e0a
B 1 0X1eb4
B 2 0X1f90
B 3 0X203a
B 4 0X210c
B 5 0X21b6
B 6 0X2292
B 7 0X2382
B 8 0X244a
B 9 0X2530
B O 0X260c
B E 0X26de
B T 0X27a6
H 1 0X2922
H 2 0X29e0
H 3 0X2a9e
H 4 0X2b70
H 5 0X2c56
H 6 0X2d1e
H 7 0X2dfa
H 8 0X2ea4
H 9 0X2f8a
H O 0X308e
H E 0X3138
H T 0X3214
B 1 0X32a0
B 2 0X3390
B 3 0X3430
B 4 0X3502
B 5 0X35d4
B 6 0X36b0
B 7 0X378c
B 8 0X3868
B 9 0X3930
B O 0X3a16
B E 0X3a98
B T 0X3ba6
H 1 0X3d2c
H 2 0X3dea
H 3 0X3e9e
H 4 0X3f66
H 5 0X4042
H 6 0X40ec
H 7 0X41e6
H 8 0X42a4
H 9 0X439e
H O 0X44a2
H E 0X4542
H T 0X45f6
B 1 0X46c8
B 2 0X479a
B 3 0X4844
B 4 0X48e4
B 5 0X49c0
B 6 0X4a92
B 7 0X4b64
B 8 0X4c36
B 9 0X4d12
B O 0X4dee
B E 0X4eca
B T 0X4f9c
H 1 0X5122
H 2 0X51f4
H 3 0X5294
H 4 0X5366
H 5 0X5438
H 6 0X54f6
H 7 0X55e6
H 8 0X5690
H 9 0X574e
H O 0X5848
H E 0X5910
H T 0X59ec
B 1 0X5aaa
B 2 0X5b7c
B 3 0X5c1c
B 4 0X5cda
B 5 0X5dc0
B 6 0X5e88
B 7 0X5f78
B 8 0X6036
B 9 0X60fe
B O 0X61ee
B E 0X62ac
B T 0X637e
H 1 0X6518
H 2 0X65d6
H 3 0X6694
H 4 0X6752
H 5 0X682e
H 6 0X68c4
H 7 0X69aa
H 8 0X6a5e
H 9 0X6b62
H O 0X6c66
H E 0X6cfc
H T 0X6dec
B 1 0X6e96
B 2 0X6f68
B 3 0X7008
B 4 0X70ee
B 5 0X71c0
B 6 0X726a
B 7 0X7382
B 8 0X7440
B 9 0X74e0
B O 0X75c6
B E 0X76a2
B T 0X7774
H 1 0X7918
H 2 0X79d6
H 3 0X7a8a
H 4 0X7b66
H 5 0X7c2e
H 6 0X7cd8
H 7 0X7dc8
H 8 0X7e68
H 9 0X7f30
H O 0X802a
H E 0X80fc
H T 0X81d8
B 1 0X828c
B 2 0X834a
B 3 0X83f4
B 4 0X84b2
B 5 0X85a2
B 6 0X8656
B 7 0X8764
B 8 0X882c
B 9 0X88e0
B O 0X89da
B E 0X8a98
B T 0X8b74
H 1 0X8cfa
H 2 0X8db8
H 3 0X8e6c
H 4 0X8f48
H 5 0X9010
H 6 0X90ba
H 7 0X91aa
H 8 0X925e
H 9 0X931c
H O 0X9402
H E 0X94e8
H T 0X95ce
B 1 0X9696
B 2 0X974a
B 3 0X97f4
B 4 0X989e
B 5 0X997a
B 6 0X9a42
B 7 0X9b32
B 8 0X9bfa
B 9 0X9cae
B O 0X9da8
B E 0X9e66
B T 0X9f4c
H 1 0Xa10e
H 2 0Xa1c2
H 3 0Xa280
H 4 0Xa33e
H 5 0Xa410
H 6 0Xa4c4
H 7 0Xa5aa
H 8 0Xa67c
H 9 0Xa708
H O 0Xa82a
H E 0Xa8d4
H T 0Xa9b0
B 1 0Xaa6e
B 2 0Xab40
B 3 0Xabe0
B 4 0Xacbc
B 5 0Xad8e
B 6 0Xae74
B 7 0Xaf5a
B 8 0Xb022
B 9 0Xb0b8
B O 0Xb1b2
B E 0Xb266
B T 0Xb342
H 1 0Xb4d2
H 2 0Xb59a
H 3 0Xb644
H 4 0Xb70c
H 5 0Xb7f2
H 6 0Xb8a6
H 7 0Xb9a0
H 8 0Xba5e
H 9 0Xbb12
H O 0Xbc16
H E 0Xbcc0
H T 0Xbd9c
B 1 0Xbe78
B 2 0Xbf36
B 3 0Xbfe0
B 4 0Xc08a
B 5 0Xc15c
B 6 0Xc210
B 7 0Xc31e
B 8 0Xc3dc
B 9 0Xc4cc
B O 0Xc58a
B E 0Xc666
B T 0Xc72e
H 1 0Xc8c8
H 2 0Xc990
H 3 0Xca3a
H 4 0Xcb2a
H 5 0Xcbe8
H 6 0Xcca6
H 7 0Xcd82
H 8 0Xce40
H 9 0Xcef4
H O 0Xcfee
H E 0Xd0ca
H T 0Xd1a6
B 1 0Xd264
B 2 0Xd304
B 3 0Xd3b8
B 4 0Xd480
B 5 0Xd548
B 6 0Xd624
B 7 0Xd700
B 8 0Xd7c8
B 9 0Xd890
B O 0Xd980
B E 0Xda5c
B T 0Xdb2e
H 1 0Xdcaa
H 2 0Xdd4a
H 3 0Xde1c
H 4 0Xdf0c
H 5 0Xdfb6
H 6 0Xe074
H 7 0Xe13c
H 8 0Xe1fa
H 9 0Xe2d6
H O 0Xe3f8
H E 0Xe4a2
H T 0Xe57e
B 1 0Xe650
B 2 0Xe704
B 3 0Xe7b8
B 4 0Xe880
B 5 0Xe948
B 6 0Xe9f2
B 7 0Xeaec
B 8 0Xebb4
B 9 0Xec90
B O 0Xed6c
B E 0Xee5c
B T 0Xef24
H 2 0Xf0e6
H 1 0Xf1cc
H 3 0Xf26c
H 5 0Xf352
H 4 0Xf424
H 7 0Xf4c4
H 6 0Xf578
H 9 0Xf65e
H 8 0Xf6fe
H E 0Xf7f8
H O 0Xf8f2
H T 0Xf99c
B 2 0Xfaa0
B 3 0Xfb40
B 1 0Xfc1c
B 4 0Xfce4
B 5 0Xfd98
B 6 0Xfe6a
B 7 0Xff3c
B 8 0X0004
B 9 0X00b8
B O 0X019e
B E 0X0266
B T 0X0338
H 3 0X054a
H 2 0X05ea
H 4 0X069e
H 1 0X077a
H 6 0X081a
H 5 0X08ec
H 8 0X09a0
H 7 0X0a7c
H 9 0X0b58
H E 0X0c48
H O 0X0d2e
H T 0X0dce
B 2 0X0edc
B 3 0X0f72
B 4 0X1030
B 6 0X113e
B 1 0X11de
B 8 0X12a6
B 5 0X135a
B 9 0X1422
B 7 0X14ea
B O 0X15c6
B E 0X16ac
B T 0X177e
H 2 0X1904
H 4 0X1a12
H 3 0X1abc
H 1 0X1b70
H 6 0X1c42
H 5 0X1d32
H 8 0X1df0
H 7 0X1eae
H 9 0X1f62
H E 0X2052
H O 0X2124
H T 0X21f6
B 4 0X22e6
B 2 0X239a
B 3 0X246c
B 6 0X2552
B 1 0X2610
B 8 0X26e2
B 5 0X27aa
B 9 0X285e
B 7 0X2930
B O 0X29f8
B E 0X2ad4
B T 0X2b92
H 4 0X2d68
H 3 0X2e30
H 2 0X2eda
H 1 0X2f84
H 6 0X3056
H 5 0X315a
H 8 0X324a
H 7 0X331c
H 9 0X33c6
H E 0X3470
H O 0X3560
H T 0X3628
B 3 0X372c
B 4 0X37ea
B 2 0X38b2
B 6 0X397a
B 1 0X3a4c
B 8 0X3b32
B 5 0X3bf0
B 9 0X3c90
B 7 0X3d9e
B O 0X3e66
B E 0X3f06
B T 0X3fe2
H 4 0X41d6
H 3 0X428a
H 6 0X4370
H 2 0X4460
H 8 0X4500
H 1 0X45b4
H 9 0X4672
H 5 0X4744
H O 0X4834
H 7 0X48fc
H E 0X496a
H T 0X4a6e
B 4 0X4ba4
B 6 0X4c4e
B 3 0X4d20
B 8 0X4dde
B 2 0X4ec4
B 9 0X4f82
B 1 0X5036
B O 0X5130
B 5 0X51e4
B E 0X5270
B 7 0X537e
B T 0X5450
H 6 0X563a
H 4 0X570c
H 3 0X57b6
H 2 0X58a6
H 8 0X596e
H 1 0X5a0e
H 9 0X5ac2
H 5 0X5bbc
H O 0X5c7a
H 7 0X5d2e
H E 0X5e0a
H T 0X5ec8
B 6 0X5fe0
B 3 0X6094
B 4 0X617a
B 8 0X6260
B 2 0X6332
B 9 0X63f0
B 1 0X649a
B O 0X656c
B 5 0X6620
B E 0X671a
B 7 0X6800
B T 0X68aa
H 3 0X6a94
H 6 0X6b66
H 4 0X6c2e
H 2 0X6d28
H 8 0X6ddc
H 1 0X6e7c
H 9 0X6f4e
H 5 0X7016
H O 0X70c0
H 7 0X71a6
H E 0X728c
H T 0X7340
B 3 0X7458
B 4 0X7516
B 6 0X761a
B 8 0X76e2
B 2 0X77c8
B 9 0X7868
B 1 0X7930
B O 0X79e4
B 5 0X7a98
B E 0X7b74
B 7 0X7c5a
B T 0X7d22
H 4 0X7f02
H 3 0X7fc0
H 8 0X8088
H 6 0X8150
H 9 0X824a
H 2 0X831c
H O 0X83f8
H 1 0X848e
H 5 0X8556
H 7 0X865a
H E 0X86e6
H T 0X87ae
B 3 0X88b2
B 4 0X8998
B 8 0X8a56
B 9 0X8b28
B 6 0X8bf0
B O 0X8cd6
B 2 0X8dbc
B 5 0X8e5c
B 1 0X8f2e
B E 0X8fce
B 7 0X90be
B T 0X9190
H 3 0X9352
H 8 0X9410
H 4 0X950a
H 6 0X95aa
H 9 0X96b8
H 2 0X978a
H O 0X9834
H 1 0X98e8
H 5 0X99b0
H 7 0X9aaa
H E 0X9b40
H T 0X9c1c
B 8 0X9d2a
B 3 0X9de8
B 4 0X9e92
B 9 0X9fa0
B 6 0Xa09a
B O 0Xa144
B 2 0Xa202
B 5 0Xa2b6
B 1 0Xa37e
B E 0Xa43c
B 7 0Xa522
B T 0Xa5f4
H 8 0Xa7b6
H 4 0Xa888
H 3 0Xa950
H 6 0Xaa36
H 9 0Xab1c
H 2 0Xabf8
H O 0Xacac
H 1 0Xad56
H 5 0Xae1e
H 7 0Xaefa
H E 0Xafcc
H T 0Xb09e
B 4 0Xb198
B 8 0Xb26a
B 3 0Xb346
B 9 0Xb40e
B 6 0Xb4ae
B O 0Xb5c6
B 2 0Xb666
B 5 0Xb738
B 1 0Xb80a
B E 0Xb8c8
B 7 0Xb990
B T 0Xba58
H 8 0Xbc2e
H 4 0Xbd1e
H 9 0Xbddc
H 3 0Xbe90
H O 0Xbfb2
H 6 0Xc05c
H 5 0Xc142
H 2 0Xc21e
H E 0Xc2c8
H 1 0Xc34a
H 7 0Xc43a
H T 0Xc50c
B 8 0Xc5de
B 9 0Xc6f6
B 4 0Xc7be
B O 0Xc8b8
B 3 0Xc994
B 5 0Xca3e
B 6 0Xcad4
B E 0Xcbc4
B 2 0Xcc96
B 7 0Xcd68
B 1 0Xce26
B T 0Xcef8
H 9 0Xd0c4
H 8 0Xd1a0
H 4 0Xd272
H 3 0Xd34e
H O 0Xd420
H 6 0Xd4f2
H 5 0Xd5ba
H 2 0Xd6c8
H E 0Xd754
H 1 0Xd812
H 7 0Xd8ee
H T 0Xd9a2
B 9 0Xda7e
B 4 0Xdb82
B 8 0Xdc36
B O 0Xdd26
B 3 0Xde02
B 5 0Xdec0
B 6 0Xdfa6
B E 0Xe064
B 2 0Xe136
B 7 0Xe230
B 1 0Xe2d0
B T 0Xe37a
H 4 0Xe550
H 9 0Xe618
H 8 0Xe6cc
H 3 0Xe7da
H O 0Xe8d4
H 6 0Xe96a
H 5 0Xea46
H 2 0Xeb36
H E 0Xebe0
H 1 0Xec6c
H 7 0Xeda2
H T 0Xee60
B 4 0Xeef6
B 8 0Xefb4
B 9 0Xf09a
B O 0Xf19e
B 3 0Xf298
B 5 0Xf338
B 6 0Xf446
B E 0Xf518
B 2 0Xf5ae
B 7 0Xf6bc
B 1 0Xf75c
B T 0Xf842
H 8 0Xf9f0
H 4 0Xfac2
H O 0Xfb80
H 9 0Xfc48
H 5 0Xfd24
H 3 0Xfdf6
H E 0Xfedc
H 6 0Xffb8
H 7 0X00bc
H 2 0X015c
H 1 0X022e
H T 0X02ec
B 4 0X0422
B 8 0X04a4
B O 0X0558
B 5 0X062a
B 9 0X06e8
B E 0X07ec
B 3 0X08d2
B 7 0X099a
B 6 0X0aa8
B 1 0X0b3e
B 2 0X0c06
B T 0X0cc4
H 4 0X0eea
H O 0X0f80
H 8 0X1020
H 9 0X10fc
H 5 0X11c4
H 3 0X12b4
H E 0X137c
H 6 0X148a
H 7 0X155c
H 2 0X1606
H 1 0X16e2
H T 0X17b4
B O 0X18b8
B 4 0X1962
B 8 0X19e4
B 5 0X1aca
B 9 0X1bce
B E 0X1c6e
B 3 0X1d5e
B 7 0X1e3a
B 6 0X1ef8
B 1 0X1fc0
B 2 0X2092
B T 0X216e
H O 0X234e
H 8 0X23f8
H 4 0X24d4
H 9 0X25c4
H 5 0X2682
H 3 0X2768
H E 0X281c
H 6 0X28ee
H 7 0X29ca
H 2 0X2a92
H 1 0X2b6e
H T 0X2c0e
B 8 0X2d08
B O 0X2dd0
B 4 0X2eac
B 5 0X2f9c
B 9 0X305a
B E 0X312c
B 3 0X3212
B 7 0X330c
B 6 0X3384
B 1 0X3474
B 2 0X3550
B T 0X35f0
H O 0X37d0
H 8 0X388e
H 5 0X3988
H 4 0X3a82
H E 0X3b18
H 9 0X3ba4
H 7 0X3cda
H 3 0X3d84
H 1 0X3e56
H 6 0X3f5a
H 2 0X400e
H T 0X40ea
B O 0X41a8
B 5 0X42a2
B 8 0X434c
B E 0X4400
B 4 0X4504
B 7 0X45d6
B 9 0X4680
B 1 0X475c
B 3 0X4824
B 2 0X4900
B 6 0X49d2
B T 0X4ab8
H 5 0X4c8e
H O 0X4d38
H 8 0X4df6
H 4 0X4ef0
H E 0X4fb8
H 9 0X50b2
H 7 0X5170
H 3 0X5224
H 1 0X52f6
H 6 0X5404
H 2 0X547c
H T 0X5562
B 5 0X5648
B 8 0X5706
B O 0X57f6
B E 0X58dc
B 4 0X599a
B 7 0X5a76
B 9 0X5b20
B 1 0X5be8
B 3 0X5cd8
B 2 0X5d96
B 6 0X5e86
B T 0X5f44
H 8 0X6106
H 5 0X61c4
H O 0X62aa
H 4 0X6386
H E 0X6476
H 9 0X6516
H 7 0X65e8
H 3 0X66e2
H 1 0X67be
H 6 0X68b8
H 2 0X6912
H T 0X69f8
B 8 0X6aca
B O 0X6bb0
B 5 0X6c78
B E 0X6d72
B 4 0X6e3a
B 7 0X6f20
B 9 0X6fca
B 1 0X70a6
B 3 0X7178
B 2 0X7254
B 6 0X731c
B T 0X73ee
H O 0X75ba
H 8 0X768c
H E 0X7772
H 5 0X7826
H 7 0X792a
H 4 0X79d4
H 1 0X7a92
H 9 0X7b82
H 2 0X7c5e
H 3 0X7d08
H 6 0X7de4
H T 0X7ee8
B 8 0X7f6a
B O 0X803c
B E 0X8140
B 7 0X8212
B 5 0X82f8
B 1 0X83de
B 4 0X84c4
B 2 0X8550
B 9 0X865e
B 6 0X8708
B 3 0X87c6
B T 0X8898
H 8 0X8a6e
H E 0X8b36
H O 0X8c30
H 5 0X8ce4
H 7 0X8dca
H 4 0X8ea6
H 1 0X8f5a
H 9 0X9040
H 2 0X90cc
H 3 0X919e
H 6 0X927a
H T 0X937e
B E 0X9446
B 8 0X952c
B O 0X95f4
B 7 0X96da
B 5 0X9784
B 1 0X986a
B 4 0X9964
B 2 0X9a22
B 9 0X9aea
B 6 0X9bb2
B 3 0X9c8e
B T 0X9d42
H E 0X9f18
H O 0X9ffe
H 8 0Xa0e4
H 5 0Xa1a2
H 7 0Xa274
H 4 0Xa346
H 1 0Xa3fa
H 9 0Xa512
H 2 0Xa5a8
H 3 0Xa68e
H 6 0Xa742
H T 0Xa81e
B O 0Xa922
B E 0Xa9f4
B 8 0Xaada
B 7 0Xabac
B 5 0Xac38
B 1 0Xad0a
B 4 0Xadd2
B 2 0Xaeae
B 9 0Xafa8
B 6 0Xb070
B 3 0Xb110
B T 0Xb1ce
H E 0Xb3c2
H O 0Xb4b2
H 7 0Xb566
H 8 0Xb624
H 1 0Xb6ec
H 5 0Xb7dc
H 2 0Xb8cc
H 4 0Xb99e
H 6 0Xba48
H 9 0Xbb24
H 3 0Xbbd8
H T 0Xbcc8
B E 0Xbd7c
B 7 0Xbe80
B O 0Xbf34
B 1 0Xc024
B 8 0Xc0e2
B 2 0Xc1c8
B 5 0Xc290
B 6 0Xc358
B 4 0Xc452
B 3 0Xc506
B 9 0Xc5d8
B T 0Xc6aa
H 7 0Xc880
H E 0Xc952
H O 0Xca24
H 8 0Xcad8
H 1 0Xcb8c
H 5 0Xcc90
H 2 0Xcd3a
H 4 0Xce34
H 6 0Xcf10
H 9 0Xcfd8
H 3 0Xd096
H T 0Xd154
B 7 0Xd26c
B O 0Xd334
B E 0Xd410
B 1 0Xd4c4
B 8 0Xd5a0
B 2 0Xd672
B 5 0Xd712
B 6 0Xd834
B 4 0Xd8fc
B 3 0Xd9e2
B 9 0Xda50
B T 0Xdb36
H O 0Xdd20
H 7 0Xddca
H E 0Xdea6
H 8 0Xdf8c
H 1 0Xe04a
H 5 0Xe126
H 2 0Xe1e4
H 4 0Xe2d4
H 6 0Xe39c
H 9 0Xe46e
H 3 0Xe54a
H T 0Xe608
B O 0Xe70c
B E 0Xe7de
B 7 0Xe892
B 1 0Xe91e
B 8 0Xea22
B 2 0Xeb08
B 5 0Xeb9e
B 6 0Xecde
B 4 0Xed9c
B 3 0Xee82
B 9 0Xef18
B T 0Xefea
H E 0Xf1ca
H O 0Xf2a6
H 1 0Xf314
H 7 0Xf436
H 2 0Xf4fe
H 8 0Xf5d0
H 6 0Xf6ac
H 5 0Xf76a
H 3 0Xf882
H 4 0Xf968
H 9 0Xfa08
H T 0Xfabc
B O 0Xfbb6
B E 0Xfc88
B 1 0Xfd3c
B 2 0Xfe2c
B 7 0Xff26
B 6 0Xffda
B 8 0X0098
B 3 0X019c
B 5 0X021e
B 9 0X0340
B 4 0X03f4
B T 0X049e
H O 0X0660
H 1 0X070a
H E 0X0804
H 7 0X08ea
H 2 0X09a8
H 8 0X0a8e
H 6 0X0b6a
H 5 0X0c78
H 3 0X0d2c
H 4 0X0dcc
H 9 0X0ec6
H T 0X0f5c
B 1 0X1042
B O 0X10e2
B E 0X1204
B 2 0X12ae
B 7 0X13b2
B 6 0X1470
B 8 0X1556
B 3 0X1646
B 5 0X170e
B 9 0X17ea
B 4 0X189e
B T 0X192a
H 1 0X1aec
H E 0X1be6
H O 0X1ccc
H 7 0X1d80
H 2 0X1e52
H 8 0X1f38
H 6 0X1ff6
H 5 0X210e
H 3 0X21cc
H 4 0X2280
H 9 0X235c
H T 0X241a
B E 0X2500
B 1 0X25be
B O 0X2686
B 2 0X276c
B 7 0X283e
B 6 0X2924
B 8 0X29f6
B 3 0X2ac8
B 5 0X2b9a
B 9 0X2c9e
B 4 0X2d66
B T 0X2dfc
H 1 0X2fb4
H E 0X30a4
H 2 0X314e
H O 0X3220
H 6 0X3324
H 7 0X33f6
H 3 0X34b4
H 8 0X3586
H 9 0X364e
H 5 0X3720
H 4 0X382e
H T 0X38c4
B 1 0X39dc
B 2 0X3a72
B E 0X3b8a
B 6 0X3c52
B O 0X3cfc
B 3 0X3dd8
B 7 0X3e8c
B 9 0X3f68
B 8 0X4026
B 4 0X4120
B 5 0X41de
B T 0X4288
H 2 0X4472
H 1 0X4562
H E 0X463e
H O 0X472e
H 6 0X47ba
H 7 0X4896
H 3 0X4968
H 8 0X4a3a
H 9 0X4ae4
H 5 0X4bde
H 4 0X4cce
H T 0X4d6e
B 2 0X4e68
B E 0X4f58
B 1 0X4fee
B 6 0X50a2
B O 0X5192
B 3 0X52be
B 7 0X5386
B 9 0X5426
B 8 0X54e4
B 4 0X55de
B 5 0X56b0
B T 0X5750
H E 0X5976
H 2 0X5a20
H 1 0X5ae8
H O 0X5b9c
H 6 0X5c96
H 7 0X5d68
H 3 0X5e44
H 8 0X5eee
H 9 0X5fc0
H 5 0X60ba
H 4 0X6182
H T 0X6236
B E 0X6344
B 1 0X63b2
B 2 0X64b6
B 6 0X65a6
B O 0X6682
B 3 0X6754
B 7 0X6830
B 9 0X68ee
B 8 0X69ac
B 4 0X6ab0
B 5 0X6b6e
B T 0X6c36
H 1 0X6d94
H E 0X6eac
H 6 0X6f56
H 2 0X7046
H 3 0X7122
H O 0X7226
H 9 0X72e4
H 7 0X73c0
H 4 0X7492
H 8 0X755a
H 5 0X7618
H T 0X771c
B E 0X77e4
B 1 0X7898
B 6 0X7960
B 3 0X7a32
B 2 0X7b0e
B 9 0X7bcc
B O 0X7cb2
B 4 0X7d84
B 7 0X7e60
B 5 0X7f5a
B 8 0X8018
B T 0X80f4
H E 0X82ca
H 6 0X8338
H 1 0X8432
H 2 0X8540
H 3 0X85f4
H O 0X86c6
H 9 0X877a
H 7 0X884c
H 4 0X893c
H 8 0X8a04
H 5 0X8aea
H T 0X8bc6
B 6 0X8c84
B E 0X8d88
B 1 0X8e1e
B 3 0X8efa
B 2 0X8fe0
B 9 0X90a8
B O 0X91a2
B 4 0X9242
B 7 0X930a
B 5 0X940e
B 8 0X94d6
B T 0X95a8
H 6 0X9760
H 1 0X9832
H E 0X9922
H 2 0X99ea
H 3 0X9ac6
H O 0X9ba2
H 9 0X9c56
H 7 0X9cf6
H 4 0X9df0
H 8 0X9e86
H 5 0X9f80
H T 0Xa070
B 1 0Xa160
B 6 0Xa23c
B E 0Xa30e
B 3 0Xa3cc
B 2 0Xa4a8
B 9 0Xa55c
B O 0Xa66a
B 4 0Xa750
B 7 0Xa7fa
B 5 0Xa8c2
B 8 0Xa980
B T 0Xaa5c
H 6 0Xac78
H 1 0Xad72
H 3 0Xae1c
H E 0Xaea8
H 9 0Xafa2
H 2 0Xb056
H 4 0Xb13c
H O 0Xb204
H 5 0Xb2e0
H 7 0Xb3bc
H 8 0Xb48e
H T 0Xb556
B 6 0Xb61e
B 3 0Xb718
B 1 0Xb7f4
B 9 0Xb8b2
B E 0Xb97a
B 4 0Xba4c
B 2 0Xbb1e
B 5 0Xbbe6
B O 0Xbce0
B 8 0Xbd9e
B 7 0Xbe98
B T 0Xbf6a
H 3 0Xc118
H 6 0Xc1cc
H 1 0Xc2da
H E 0Xc3ac
H 9 0Xc47e
H 2 0Xc528
H 4 0Xc5fa
H O 0Xc6fe
H 5 0Xc78a
H 7 0Xc88e
H 8 0Xc97e
H T 0Xca28
B 3 0Xcb18
B 1 0Xcbfe
B 6 0Xcc80
B 9 0Xcd8e
B E 0Xce6a
B 4 0Xcf00
B 2 0Xcfdc
B 5 0Xd0cc
B O 0Xd1b2
B 8 0Xd298
B 7 0Xd374
B T 0Xd43c
H 1 0Xd608
H 3 0Xd6b2
H 6 0Xd784
H E 0Xd87e
H 9 0Xd95a
H 2 0Xda04
H 4 0Xdb08
H O 0Xdbd0
H 5 0Xdc66
H 7 0Xdd60
H 8 0Xde5a
H T 0Xdf40
B 1 0Xdffe
B 6 0Xe0b2
B 3 0Xe198
B 9 0Xe274
B E 0Xe350
B 4 0Xe440
B 2 0Xe4e0
B 5 0Xe5d0
B O 0Xe68e
B 8 0Xe774
B 7 0Xe864
B T 0Xe936
H 6 0Xeb16
H 1 0Xebfc
H 9 0Xec74
H 3 0Xed3c
H 4 0Xee22
H E 0Xef12
H 5 0Xefe4
H 2 0Xf0ca
H 8 0Xf192
H O 0Xf26e
H 7 0Xf336
H T 0Xf3fe
B 1 0Xf516
B 6 0Xf5c0
B 9 0Xf6a6
B 4 0Xf76e
B 3 0Xf822
B 5 0Xf8fe
B E 0Xf9e4
B 8 0Xfab6
B 2 0Xfb60
B 7 0Xfc6e
B O 0Xfd40
B T 0Xfdfe
H 1 0Xffd4
H 9 0X00ba
H 6 0X0164
H 3 0X024a
H 4 0X02ea
H E 0X03ee
H 5 0X04b6
H 2 0X059c
H 8 0X0664
H O 0X0786
H 7 0X0830
H T 0X08da
B 9 0X09d4
B 1 0X0ac4
B 6 0X0b46
B 4 0X0c5e
B 3 0X0cfe
B 5 0X0e02
B E 0X0eb6
B 8 0X0f92
B 2 0X103c
B 7 0X1168
B O 0X1230
B T 0X130c
H 9 0X14ce
H 6 0X1578
H 1 0X1668
H 3 0X1712
H 4 0X17ee
H E 0X18b6
H 5 0X19a6
H 2 0X1a82
H 8 0X1b4a
H O 0X1c58
H 7 0X1d20
H T 0X1dc0
B 6 0X1e92
B 9 0X1faa
B 1 0X209a
B 4 0X2176
B 3 0X2252
B 5 0X22fc
B E 0X23b0
B 8 0X24a0
B 2 0X254a
B 7 0X263a
B O 0X2716
B T 0X27de
H 9 0X29c8
H 6 0X2a90
H 4 0X2b58
H 1 0X2c52
H 5 0X2d10
H 3 0X2dce
H 8 0X2eb4
H E 0X2f7c
H 2 0X3058
H O 0X3148
H 7 0X31e8
H T 0X32a6
B 9 0X3396
B 4 0X344a
B 6 0X353a
B 5 0X363e
B 1 0X3724
B 8 0X3814
B 3 0X38aa
B 2 0X3972
B E 0X3a58
B 7 0X3b20
B O 0X3c10
B T 0X3cf6
H 4 0X3e9a
H 9 0X3f44
H 6 0X4048
H 1 0X412e
H 5 0X41c4
H 3 0X4296
H 8 0X43a4
H E 0X4480
H 2 0X44ee
H O 0X4606
H 7 0X46b0
H T 0X47be
B 4 0X489a
B 6 0X499e
B 9 0X4a52
B 5 0X4b1a
B 1 0X4bf6
B 8 0X4cdc
B 3 0X4db8
B 2 0X4e62
B E 0X4f48
B 7 0X5010
B O 0X50d8
B T 0X51d2
H 6 0X53a8
H 4 0X547a
H 9 0X5538
H 1 0X5632
H 5 0X56dc
H 3 0X57a4
H 8 0X58a8
H E 0X595c
H 2 0X59ca
H O 0X5ace
H 7 0X5baa
H T 0X5cb8
B 6 0X5d4e
B 9 0X5e52
B 4 0X5f42
B 5 0X6000
B 1 0X610e
B 8 0X61cc
B 3 0X62a8
B 2 0X6352
B E 0X6406
B 7 0X64d8
B O 0X65be
B T 0X66b8
H 9 0X6898
H 6 0X6960
H 5 0X6a46
H 4 0X6b40
H 8 0X6bf4
H 1 0X6cc6
H 2 0X6d7a
H 3 0X6e56
H 7 0X6f46
H E 0X6fdc
H O 0X70a4
H T 0X718a
B 6 0X725c
B 9 0X7342
B 5 0X740a
B 8 0X74e6
B 4 0X75ea
B 2 0X769e
B 1 0X773e
B 7 0X7860
B 3 0X7950
B O 0X79f0
B E 0X7aae
B T 0X7b80
H 6 0X7d7e
H 5 0X7e46
H 9 0X7edc
H 4 0X7fd6
H 8 0X8094
H 1 0X8166
H 2 0X81fc
H 3 0X82ec
H 7 0X83f0
H E 0X8490
H O 0X8562
H T 0X8652
B 5 0X874c
B 6 0X8814
B 9 0X8904
B 8 0X89c2
B 4 0X8ac6
B 2 0X8b34
B 1 0X8c10
B 7 0X8d00
B 3 0X8dc8
B O 0X8e86
B E 0X8f4e
B T 0X903e
H 5 0X921e
H 9 0X92f0
H 6 0X93b8
H 4 0X94c6
H 8 0X958e
H 1 0X9660
H 2 0X96ce
H 3 0X97b4
H 7 0X9886
H E 0X9962
H O 0X9a2a
H T 0X9afc
B 9 0X9bc4
B 5 0X9ce6
B 6 0X9d86
B 8 0X9e6c
B 4 0X9f98
B 2 0Xa024
B 1 0Xa11e
B 7 0Xa1dc
B 3 0Xa290
B O 0Xa362
B E 0Xa420
B T 0Xa4f2
H 5 0Xa6fa
H 9 0Xa79a
H 8 0Xa858
H 6 0Xa934
H 2 0Xaa2e
H 4 0Xab14
H 7 0Xabe6
H 1 0Xac22
H O 0Xad8a
H 3 0Xae0c
H E 0Xaee8
H T 0Xafc4
B 5 0Xb0dc
B 8 0Xb172
B 9 0Xb26c
B 2 0Xb366
B 6 0Xb3f2
B 7 0Xb50a
B 4 0Xb5e6
B O 0Xb6ae
B 1 0Xb794
B E 0Xb802
B 3 0Xb938
B T 0Xb9b0
H 8 0Xbbae
H 5 0Xbc80
H 9 0Xbd52
H 6 0Xbe06
H 2 0Xbeec
H 4 0Xbfd2
H 7 0Xc0c2
H 1 0Xc16c
H O 0Xc22a
H 3 0Xc338
H E 0Xc400
H T 0Xc4a0
B 8 0Xc55e
B 9 0Xc644
B 5 0Xc734
B 2 0Xc82e
B 6 0Xc8ec
B 7 0Xc9f0
B 4 0Xcaae
B O 0Xcb80
B 1 0Xcc48
B E 0Xcd06
B 3 0Xce00
B T 0Xce96
H 9 0Xd062
H 8 0Xd148
H 5 0Xd21a
H 6 0Xd2ec
H 2 0Xd3c8
H 4 0Xd4c2
H 7 0Xd59e
H 1 0Xd670
H O 0Xd71a
H 3 0Xd80a
H E 0Xd8b4
H T 0Xd990
B 9 0Xda6c
B 5 0Xdb3e
B 8 0Xdc06
B 2 0Xdd0a
B 6 0Xdda0
B 7 0Xde90
B 4 0Xdf6c
B O 0Xe03e
B 1 0Xe12e
B E 0Xe1ec
B 3 0Xe2dc
B T 0Xe386
H 5 0Xe566
H 9 0Xe642
H 2 0Xe714
H 8 0Xe7e6
H 7 0Xe8cc
H 6 0Xe962
H O 0Xea5c
H 4 0Xeb60
H 1 0Xec50
H 3 0Xed0e
H E 0Xed90
H T 0Xee58
B 9 0Xef5c
B 5 0Xf04c
B 2 0Xf13c
B 7 0Xf1fa
B 8 0Xf2a4
B O 0Xf3b2
B 6 0Xf43e
B 1 0Xf54c
B 4 0Xf628
B E 0Xf6be
B 3 0Xf7d6
B T 0Xf844
H 9 0Xfa60
H 2 0Xfb3c
H 5 0Xfbfa
H 8 0Xfcb8
H 7 0Xfd94
H 6 0Xfe52
H O 0Xff38
H 4 0X0014
H 1 0X00f0
H 3 0X01cc
H E 0X0258
H T 0X032a
B 2 0X0442
B 9 0X053c
B 5 0X05c8
B 7 0X06c2
B 8 0X078a
B O 0X0866
B 6 0X0924
B 1 0X0a14
B 4 0X0ac8
B E 0X0b86
B 3 0X0c62
B T 0X0d34
H 2 0X0f00
H 5 0X0fdc
H 9 0X10d6
H 8 0X119e
H 7 0X127a
H 6 0X1338
H O 0X1446
H 4 0X14d2
H 1 0X15b8
H 3 0X1680
H E 0X1720
H T 0X1810
B 5 0X18f6
B 2 0X19d2
B 9 0X1ab8
B 7 0X1b8a
B 8 0X1c34
B O 0X1d56
B 6 0X1e1e
B 1 0X1f18
B 4 0X1fe0
B E 0X208a
B 3 0X2166
B T 0X2206
H 2 0X23c8
H 5 0X2486
H 7 0X259e
H 9 0X268e
H O 0X276a
H 8 0X281e
H 1 0X2904
H 6 0X29ae
H E 0X2a80
H 4 0X2b52
H 3 0X2c24
H T 0X2d14
B 2 0X2db4
B 7 0X2ea4
B 5 0X2f62
B O 0X3066
B 9 0X3138
B 1 0X3228
B 8 0X32c8
B E 0X33a4
B 6 0X346c
B 3 0X355c
B 4 0X362e
B T 0X3700
H 7 0X38ae
H 2 0X398a
H 5 0X3a3e
H 9 0X3b38
H O 0X3c32
H 8 0X3ce6
H 1 0X3dae
H 6 0X3e9e
H E 0X3f52
H 4 0X4010
H 3 0X40d8
H T 0X41c8
B 7 0X42e0
B 5 0X43bc
B 2 0X4498
B O 0X4524
B 9 0X45d8
B 1 0X46d2
B 8 0X4772
B E 0X486c
B 6 0X495c
B 3 0X4a56
B 4 0X4b0a
B T 0X4bb4
H 5 0X4dda
H 7 0X4ea2
H 2 0X4f74
H 9 0X4ff6
H O 0X50d2
H 8 0X5190
H 1 0X5262
H 6 0X5366
H E 0X5442
H 4 0X550a
H 3 0X55c8
H T 0X56b8
B 5 0X579e
B 2 0X58ac
B 7 0X596a
B O 0X5a1e
B 9 0X5ad2
B 1 0X5bcc
B 8 0X5c44
B E 0X5d48
B 6 0X5e4c
B 3 0X5f32
B 4 0X5fe6
B T 0X609a
H 2 0X62a2
H 5 0X6356
H O 0X6428
H 7 0X64c8
H 1 0X65ae
H 9 0X668a
H E 0X6766
H 8 0X6860
H 3 0X6946
H 6 0X69fa
H 4 0X6acc
H T 0X6ba8
B 5 0X6c84
B 2 0X6d7e
B O 0X6e28
B 1 0X6f36
B 7 0X6fe0
B E 0X7080
B 9 0X7170
B 3 0X7274
B 8 0X7328
B 4 0X7404
B 6 0X74e0
B T 0X75a8
H 5 0X776a
H O 0X7832
H 2 0X7922
H 7 0X79f4
H 1 0X7ada
H 9 0X7b8e
H E 0X7c1a
H 8 0X7d0a
H 3 0X7df0
H 6 0X7ef4
H 4 0X7fa8
H T 0X808e
B O 0X81b0
B 5 0X8278
B 2 0X8354
B 1 0X843a
B 7 0X8516
B E 0X858e
B 9 0X866a
B 3 0X8732
B 8 0X87e6
B 4 0X88ea
B 6 0X8994
B T 0X8a8e
H O 0X8c6e
H 2 0X8d2c
H 5 0X8e12
H 7 0X8f02
H 1 0X8fe8
H 9 0X906a
H E 0X9132
H 8 0X9254
H 3 0X9308
H 6 0X93c6
H 4 0X9484
H T 0X9574
B 2 0X966e
B O 0X9722
B 5 0X9808
B 1 0X990c
B 7 0X99e8
B E 0X9a9c
B 9 0X9b46
B 3 0X9c18
B 8 0X9cf4
B 4 0X9dbc
B 6 0X9e8e
B T 0X9f6a
H O 0Xa14a
H 2 0Xa21c
H 1 0Xa2ee
H 5 0Xa3ca
H E 0Xa47e
H 7 0Xa564
H 3 0Xa636
H 9 0Xa708
H 4 0Xa7ee
H 8 0Xa8c0
H 6 0Xa988
H T 0Xaa64
B O 0Xab68
B 1 0Xac3a
B 2 0Xacda
B E 0Xadac
B 5 0Xae88
B 3 0Xaf5a
B 7 0Xb040
B 4 0Xb13a
B 9 0Xb1e4
B 6 0Xb28e
B 8 0Xb36a
B T 0Xb46e
H 1 0Xb658
H O 0Xb6f8
H 2 0Xb7ac
H 5 0Xb892
H E 0Xb964
H 7 0Xba40
H 3 0Xbb26
H 9 0Xbbe4
H 4 0Xbca2
H 8 0Xbd88
H 6 0Xbe0a
H T 0Xbf36
B 1 0Xc030
B 2 0Xc0f8
B O 0Xc1ca
B E 0Xc2c4
B 5 0Xc36e
B 3 0Xc440
B 7 0Xc51c
B 4 0Xc5c6
B 9 0Xc6a2
B 6 0Xc76a
B 8 0Xc83c
B T 0Xc92c
H 2 0Xcb0c
H 1 0Xcc06
H O 0Xccba
H 5 0Xcd8c
H E 0Xce54
H 7 0Xcf44
H 3 0Xcfee
H 9 0Xd0c0
H 4 0Xd1ce
H 8 0Xd282
H 6 0Xd340
H T 0Xd41c
B 2 0Xd53e
B O 0Xd5d4
B 1 0Xd6a6
B E 0Xd78c
B 5 0Xd872
B 3 0Xd93a
B 7 0Xda0c
B 4 0Xdade
B 9 0Xdba6
B 6 0Xdc5a
B 8 0Xdd40
B T 0Xde3a
H O 0Xdffc
H 2 0Xe0ec
H E 0Xe16e
H 1 0Xe25e
H 3 0Xe344
H 5 0Xe40c
H 4 0Xe51a
H 7 0Xe5c4
H 6 0Xe678
H 9 0Xe754
H 8 0Xe81c
H T 0Xe920
B 2 0Xea24
B O 0Xeab0
B E 0Xebaa
B 3 0Xec86
B 1 0Xed4e
B 4 0Xee2a
B 5 0Xeee8
B 6 0Xefce
B 7 0Xf096
B 8 0Xf14a
B 9 0Xf230
B T 0Xf302
H 2 0Xf500
H E 0Xf5aa
H O 0Xf690
H 1 0Xf762
H 3 0Xf83e
H 5 0Xf8d4
H 4 0Xf9a6
H 7 0Xfa8c
H 6 0Xfb4a
H 9 0Xfc3a
H 8 0Xfcf8
H T 0Xfdf2
B E 0Xfeec
B 2 0Xffb4
B O 0X0086
B 3 0X0176
B 1 0X023e
B 4 0X02fc
B 5 0X03a6
B 6 0X043c
B 7 0X0568
B 8 0X063a
B 9 0X06da
B T 0X07e8
H E 0X09aa
H O 0X0a7c
H 2 0X0b26
H 1 0X0c3e
H 3 0X0d24
H 5 0X0dba
H 4 0X0ebe
H 7 0X0f90
H 6 0X1026
H 9 0X1102
H 8 0X11ca
H T 0X12ba
B O 0X13be
B E 0X147c
B 2 0X153a
B 3 0X162a
B 1 0X1706
B 4 0X1814
B 5 0X18b4
B 6 0X1968
B 7 0X1a58
B 8 0X1b02
B 9 0X1bc0
B T 0X1cba
H E 0X1e72
H O 0X1f62
H 3 0X2048
H 2 0X20fc
H 4 0X21c4
H 1 0X22b4
H 6 0X2368
H 5 0X2430
H 8 0X24ee
H 7 0X25fc
H 9 0X26c4
H T 0X278c
B E 0X285e
B 3 0X2980
B O 0X2a34
B 4 0X2b06
B 2 0X2bce
B 6 0X2c78
B 1 0X2d54
B 8 0X2e44
B 5 0X2ef8
B 9 0X2fe8
B 7 0X30ec
B T 0X31be
H 3 0X3362
H E 0X342a
H O 0X34fc
H 2 0X3600
H 4 0X36aa
H 1 0X3786
H 6 0X383a
H 5 0X392a
H 8 0X39f2
H 7 0X3aba
H 9 0X3b82
H T 0X3c7c
B 3 0X3d8a
B O 0X3e3e
B E 0X3efc
B 4 0X3fec
B 2 0X40aa
B 6 0X414a
B 1 0X4230
B 8 0X4320
B 5 0X43de
B 9 0X44c4
B 7 0X45a0
B T 0X4672
H O 0X4848
H 3 0X492e
H E 0X49e2
H 2 0X4af0
H 4 0X4bc2
H 1 0X4c76
H 6 0X4d20
H 5 0X4e24
H 8 0X4eec
H 7 0X4fbe
H 9 0X507c
H T 0X5162
B O 0X5270
B E 0X5342
B 3 0X541e
B 4 0X54dc
B 2 0X55b8
B 6 0X5662
B 1 0X575c
B 8 0X5810
B 5 0X58e2
B 9 0X59be
B 7 0X5ab8
B T 0X5b94
H E 0X5d56
H O 0X5e32
H 4 0X5f2c
H 3 0X5fd6
H 6 0X60a8
H 2 0X61a2
H 8 0X621a
H 1 0X6314
H 9 0X63dc
H 5 0X64a4
H 7 0X658a
H T 0X6666
B O 0X674c
B E 0X681e
B 4 0X6936
B 6 0X69e0
B 3 0X6ada
B 8 0X6b7a
B 2 0X6c38
B 9 0X6cf6
B 1 0X6ddc
B 7 0X6ed6
B 5 0X6f94
B T 0X707a
H O 0X7228
H 4 0X7304
H E 0X73d6
H 3 0X74f8
H 6 0X75ac
H 2 0X76b0
H 8 0X7746
H 1 0X780e
H 9 0X78e0
H 5 0X79a8
H 7 0X7a98
H T 0X7b6a
B 4 0X7c00
B O 0X7ce6
B E 0X7de0
B 6 0X7ea8
B 3 0X7fe8
B 8 0X806a
B 2 0X8150
B 9 0X824a
B 1 0X82ae
B 7 0X83d0
B 5 0X848e
B T 0X856a
H 4 0X8722
H E 0X87ea
H O 0X88b2
H 3 0X89de
H 6 0X8a92
H 2 0X8b8c
H 8 0X8c4a
H 1 0X8ce0
H 9 0X8d9e
H 5 0X8eac
H 7 0X8f9c
H T 0X9046
B E 0X912c
B 4 0X9212
B O 0X92bc
B 6 0X93ac
B 3 0X9488
B 8 0X9578
B 2 0X965e
B 9 0X96d6
B 1 0X97c6
B 7 0X98d4
B 5 0X99a6
B T 0X9a6e
H 4 0X9c1c
H E 0X9cee
H 6 0X9dc0
H O 0X9e88
H 8 0X9f96
H 3 0Xa068
H 9 0Xa108
H 2 0Xa1ee
H 7 0Xa2de
H 1 0Xa388
H 5 0Xa45a
H T 0Xa55e
B 4 0Xa626
B 6 0Xa6e4
B E 0Xa7f2
B 8 0Xa860
B O 0Xa964
B 9 0Xaa5e
B 3 0Xab58
B 7 0Xac3e
B 2 0Xace8
B 5 0Xadc4
B 1 0Xae82
B T 0Xaf4a
H 6 0Xb12a
H 4 0Xb224
H E 0Xb2ba
H O 0Xb3b4
H 8 0Xb486
H 3 0Xb53a
H 9 0Xb602
H 2 0Xb706
H 7 0Xb7f6
H 1 0Xb8aa
H 5 0Xb95e
H T 0Xba30
B 6 0Xbb0c
B E 0Xbc24
B 4 0Xbcd8
B 8 0Xbdaa
B O 0Xbe7c
B 9 0Xbf62
B 3 0Xc016
B 7 0Xc110
B 2 0Xc1ec
B 5 0Xc2a0
B 1 0Xc368
B T 0Xc43a
H E 0Xc610
H 6 0Xc70a
H 4 0Xc7be
H O 0Xc8b8
H 8 0Xc994
H 3 0Xca3e
H 9 0Xcb10
H 2 0Xcc0a
H 7 0Xccc8
H 1 0Xcd7c
H 5 0Xce4e
H T 0Xcf34
B E 0Xd006
B 4 0Xd0ec
B 6 0Xd1a0
B 8 0Xd29a
B O 0Xd3a8
B 9 0Xd42a
B 3 0Xd542
B 7 0Xd61e
B 2 0Xd6c8
B 5 0Xd7b8
B 1 0Xd880
B T 0Xd916
H 4 0Xdb00
H E 0Xdbb4
H 8 0Xdc90
H 6 0Xddd0
H 9 0Xde52
H O 0Xdf60
H 7 0Xe032
H 3 0Xe0e6
H 5 0Xe1cc
H 2 0Xe294
H 1 0Xe37a
H T 0Xe424
B E 0Xe514
B 4 0Xe5aa
B 8 0Xe686
B 9 0Xe776
B 6 0Xe848
B 7 0Xe92e
B O 0Xea3c
B 5 0Xeb0e
B 3 0Xebea
B 1 0Xec80
B 2 0Xed5c
B T 0Xedfc
H E 0Xefbe
H 8 0Xf0b8
H 4 0Xf180
H 6 0Xf25c
H 9 0Xf310
H O 0Xf40a
H 7 0Xf4be
H 3 0Xf5c2
H 5 0Xf69e
H 2 0Xf784
H 1 0Xf84c
H T 0Xf914
B 8 0Xf9e6
B E 0Xfaae
B 4 0Xfb80
B 9 0Xfc5c
B 6 0Xfd06
B 7 0Xfde2
B O 0Xfefa
B 5 0Xffcc
B 3 0X00c6
B 1 0X0170
B 2 0X021a
B T 0X02d8
H 8 0X04a4
H 4 0X0576
H E 0X0666
H 6 0X0756
H 9 0X0814
H O 0X092c
H 7 0X09ae
H 3 0X0a9e
H 5 0X0b66
H 2 0X0c4c
H 1 0X0d28
H T 0X0df0
B 4 0X0eae
B 8 0X0f6c
B E 0X1084
B 9 0X1110
B 6 0X120a
B 7 0X12e6
B O 0X13f4
B 5 0X14a8
B 3 0X1584
B 1 0X164c
B 2 0X173c
B T 0X17c8
H 8 0X1976
H 4 0X1a5c
H 9 0X1b10
H E 0X1c00
H 7 0X1d04
H 6 0X1dc2
H 5 0X1eb2
H O 0X1fac
H 1 0X206a
H 3 0X2128
H 2 0X2204
H T 0X22c2
B 8 0X2376
B 9 0X243e
B 4 0X252e
B 7 0X260a
B E 0X26f0
B 5 0X27b8
B 6 0X2880
B 1 0X2966
B O 0X2a38
B 2 0X2b1e
B 3 0X2c0e
B T 0X2c9a
H 9 0X2ea2
H 8 0X2f4c
H 4 0X3028
H E 0X30dc
H 7 0X31a4
H 6 0X329e
H 5 0X3384
H O 0X3488
H 1 0X350a
H 3 0X35fa
H 2 0X36b8
H T 0X3762
B 9 0X3852
B 4 0X394c
B 8 0X3a00
B 7 0X3afa
B E 0X3bcc
B 5 0X3c9e
B 6 0X3d70
B 1 0X3e2e
B O 0X3f0a
B 2 0X3ff0
B 3 0X40c2
B T 0X414e
H 4 0X4392
H 9 0X441e
H 8 0X44e6
H E 0X45d6
H 7 0X469e
H 6 0X477a
H 5 0X484c
H O 0X4946
H 1 0X49fa
H 3 0X4acc
H 2 0X4b6c
H T 0X4c52
B 4 0X4d42
B 8 0X4df6
B 9 0X4f04
B 7 0X4ff4
B E 0X50bc
B 5 0X5166
B 6 0X522e
B 1 0X5314
B O 0X53be
B 2 0X549a
B 3 0X5576
B T 0X5616
H 8 0X57e2
H 4 0X58f0
H 7 0X59ea
H 9 0X5aa8
H 5 0X5b7a
H E 0X5c56
H 1 0X5ce2
H 6 0X5ddc
H 2 0X5ec2
H O 0X5f76
H 3 0X6048
H T 0X60fc
B 4 0X61d8
B 8 0X62a0
B 7 0X6386
B 5 0X6494
B 9 0X655c
B 1 0X662e
B E 0X671e
B 2 0X67dc
B 6 0X68b8
B 3 0X699e
B O 0X6a48
B T 0X6af2
H 4 0X6cbe
H 7 0X6d9a
H 8 0X6e44
H 9 0X6f34
H 5 0X7042
H E 0X711e
H 1 0X71c8
H 6 0X729a
H 2 0X7380
H O 0X7448
H 3 0X7524
H T 0X7600
B 7 0X76d2
B 4 0X779a
B 8 0X7826
B 5 0X7948
B 9 0X7a10
B 1 0X7ad8
B E 0X7bc8
B 2 0X7c7c
B 6 0X7d62
B 3 0X7e48
B O 0X7f06
B T 0X7ff6
H 7 0X81c2
H 8 0X8258
H 4 0X8352
H 9 0X8406
H 5 0X84e2
H E 0X85c8
H 1 0X8672
H 6 0X8758
H 2 0X8834
H O 0X88fc
H 3 0X89e2
H T 0X8ad2
B 8 0X8b86
B 7 0X8c62
B 4 0X8d70
B 5 0X8e42
B 9 0X8eec
B 1 0X8fc8
B E 0X907c
B 2 0X914e
B 6 0X9216
B 3 0X931a
B O 0X93c4
B T 0X94b4
H 7 0X9658
H 8 0X9720
H 5 0X9824
H 4 0X991e
H 1 0X99f0
H 9 0X9aae
H 2 0X9b76
H E 0X9c34
H 6 0X9d2e
H O 0X9dba
H 3 0X9e96
H T 0X9f7c
B 7 0Xa076
B 5 0Xa152
B 8 0Xa210
B 1 0Xa2ec
B 4 0Xa3d2
B 2 0Xa4ae
B 9 0Xa56c
B 6 0Xa63e
B E 0Xa724
B 3 0Xa7ce
B O 0Xa8a0
B T 0Xa95e
H 5 0Xab70
H 7 0Xac60
H 8 0Xad1e
H 4 0Xadd2
H 1 0Xae90
H 9 0Xaf76
H 2 0Xb03e
H E 0Xb106
H 6 0Xb1f6
H O 0Xb2dc
H 3 0Xb386
H T 0Xb43a
B 5 0Xb548
B 8 0Xb61a
B 7 0Xb714
B 1 0Xb7b4
B 4 0Xb890
B 2 0Xb98a
B 9 0Xba5c
B 6 0Xbb10
B E 0Xbbec
B 3 0Xbcc8
B O 0Xbdae
B T 0Xbe62
H 8 0Xc01a
H 5 0Xc11e
H 7 0Xc1f0
H 4 0Xc2a4
H 1 0Xc36c
H 9 0Xc452
H 2 0Xc4f2
H E 0Xc5ec
H 6 0Xc6c8
H O 0Xc7c2
H 3 0Xc88a
H T 0Xc948
B 8 0Xca42
B 7 0Xcb0a
B 5 0Xcbf0
B 1 0Xcccc
B 4 0Xcda8
B 2 0Xce34
B 9 0Xcefc
B 6 0Xcfe2
B E 0Xd0e6
B 3 0Xd1b8
B O 0Xd29e
B T 0Xd366
H 7 0Xd4ce
H 8 0Xd596
H 1 0Xd672
H 5 0Xd780
H 2 0Xd848
H 4 0Xd906
H 6 0Xda28
H 9 0Xdabe
H 3 0Xdbd6
H E 0Xdc80
H O 0Xdd52
H T 0Xde42
B 8 0Xdef6
B 7 0Xdfd2
B 1 0Xe0a4
B 2 0Xe162
B 5 0Xe220
B 6 0Xe338
B 4 0Xe40a
B 3 0Xe4fa
B 9 0Xe57c
B O 0Xe676
B E 0Xe748
B T 0Xe81a
H 8 0Xe9f0
H 1 0Xeac2
H 7 0Xeb9e
H 5 0Xec52
H 2 0Xed24
H 4 0Xedce
H 6 0Xeed2
H 9 0Xef90
H 3 0Xf058
H E 0Xf12a
H O 0Xf21a
H T 0Xf300
B 1 0Xf3c8
B 8 0Xf4ae
B 7 0Xf58a
B 2 0Xf67a
B 5 0Xf738
B 6 0Xf7f6
B 4 0Xf8d2
B 3 0Xf990
B 9 0Xfa76
B O 0Xfb52
B E 0Xfc06
B T 0Xfce2
H 1 0Xfe90
H 7 0Xffbc
H 8 0X0052
H 5 0X0160
H 2 0X0200
H 4 0X02dc
H 6 0X03ae
H 9 0X0476
H 3 0X0520
H E 0X05e8
H O 0X06e2
H T 0X07be
B 7 0X08d6
B 1 0X0976
B 8 0X0a48
B 2 0X0b42
B 5 0X0be2
B 6 0X0cdc
B 4 0X0dae
B 3 0X0e9e
B 9 0X0f7a
B O 0X1042
B E 0X10d8
B T 0X11c8
H 1 0X1376
H 7 0X1484
H 2 0X1542
H 8 0X160a
H 6 0X16e6
H 5 0X17d6
H 3 0X18b2
H 4 0X195c
H O 0X1a1a
H 9 0X1ab0
H E 0X1b96
H T 0X1c9a
B 1 0X1d6c
B 2 0X1e5c
B 7 0X1f2e
B 6 0X1fec
B 8 0X20be
B 3 0X21c2
B 5 0X2294
B O 0X233e
B 4 0X241a
B E 0X24ce
B 9 0X2582
B T 0X2686
H 2 0X2870
H 1 0X2960
H 7 0X2a14
H 8 0X2abe
H 6 0X2bae
H 5 0X2ca8
H 3 0X2d66
H 4 0X2e1a
H O 0X2ed8
H 9 0X2fa0
H E 0X3054
H T 0X3144
B 2 0X325c
B 7 0X334c
B 1 0X33ec
B 6 0X34c8
B 8 0X35b8
B 3 0X368a
B 5 0X3766
B O 0X381a
B 4 0X38d8
B E 0X39a0
B 9 0X3a5e
B T 0X3b3a
H 7 0X3d42
H 2 0X3df6
H 1 0X3ebe
H 8 0X3fb8
H 6 0X40a8
H 5 0X418e
H 3 0X4242
H 4 0X42f6
H O 0X43e6
H 9 0X4486
H E 0X4530
H T 0X4616
B 7 0X4738
B 1 0X47c4
B 2 0X48b4
B 6 0X499a
B 8 0X4a76
B 3 0X4b52
B 5 0X4c2e
B O 0X4d00
B 4 0X4de6
B E 0X4e9a
B 9 0X4f62
B T 0X502a
H 1 0X51c4
H 7 0X52dc
H 6 0X53ae
H 2 0X548a
H 3 0X5548
H 8 0X5606
H O 0X56f6
H 5 0X57dc
H 4 0X5890
H E 0X594e
H 9 0X5a3e
H T 0X5b24
B 7 0X5c1e
B 1 0X5caa
B 6 0X5da4
B 3 0X5e94
B 2 0X5f5c
B O 0X6038
B 8 0X60d8
B 4 0X61a0
B 5 0X6286
B 9 0X6362
B E 0X642a
B T 0X6510
H 7 0X66e6
H 6 0X677c
H 1 0X686c
H 2 0X695c
H 3 0X6a42
H 8 0X6b0a
H O 0X6c18
H 5 0X6ca4
H 4 0X6d80
H E 0X6e20
H 9 0X6ede
H T 0X6ff6
B 6 0X708c
B 7 0X717c
B 1 0X723a
B 3 0X735c
B 2 0X7438
B O 0X7528
B 8 0X75d2
B 4 0X76b8
B 5 0X7776
B 9 0X7834
B E 0X78e8
B T 0X79d8
H 6 0X7bf4
H 1 0X7cbc
H 7 0X7d70
H 2 0X7e38
H 3 0X7f0a
H 8 0X7faa
H O 0X80a4
H 5 0X8176
H 4 0X8298
H E 0X8324
H 9 0X83f6
H T 0X84c8
B 1 0X85a4
B 6 0X868a
B 7 0X8784
B 3 0X884c
B 2 0X891e
B O 0X89b4
B 8 0X8a7c
B 4 0X8b8a
B 5 0X8c52
B 9 0X8d38
B E 0X8e00
B T 0X8ebe
H 6 0X90c6
H 1 0X91a2
H 3 0X9274
H 7 0X9332
H O 0X9422
H 2 0X94b8
H 4 0X959e
H 8 0X967a
H 9 0X9710
H 5 0X97ec
H E 0X98d2
H T 0X99cc
B 6 0X9a9e
B 3 0X9b8e
B 1 0X9c38
B O 0X9d46
B 7 0X9e04
B 4 0X9eb8
B 2 0X9f76
B 9 0Xa070
B 8 0Xa12e
B E 0Xa200
B 5 0Xa2dc
B T 0Xa3c2
H 3 0Xa5c0
H 6 0Xa66a
H 1 0Xa746
H 7 0Xa818
H O 0Xa8f4
H 2 0Xa99e
H 4 0Xaa52
H 8 0Xab1a
H 9 0Xabec
H 5 0Xace6
H E 0Xadae
H T 0Xae80
B 3 0Xaf8e
B 1 0Xb074
B 6 0Xb100
B O 0Xb1fa
B 7 0Xb2ea
B 4 0Xb39e
B 2 0Xb45c
B 9 0Xb538
B 8 0Xb5f6
B E 0Xb6e6
B 5 0Xb7d6
B T 0Xb89e
H 1 0Xba4c
H 3 0Xbb32
H 6 0Xbc04
H 7 0Xbcfe
H O 0Xbe02
H 2 0Xbe8e
H 4 0Xbf42
H 8 0Xc000
H 9 0Xc0d2
H 5 0Xc1cc
H E 0Xc294
H T 0Xc352
B 1 0Xc3fc
B 6 0Xc500
B 3 0Xc622
B O 0Xc708
B 7 0Xc7d0
B 4 0Xc8b6
B 2 0Xc960
B 9 0Xca32
B 8 0Xcafa
B E 0Xcbe0
B 5 0Xccc6
B T 0Xcd66
H 6 0Xcf5a
H 1 0Xd02c
H O 0Xd108
H 3 0Xd1d0
H 4 0Xd2a2
H 7 0Xd36a
H 9 0Xd478
H 2 0Xd540
H 8 0Xd5cc
H E 0Xd680
H 5 0Xd784
H T 0Xd888
B 1 0Xd90a
B 6 0Xda22
B O 0Xdafe
B 4 0Xdbd0
B 3 0Xdcb6
B 9 0Xdd74
B 7 0Xde50
B 8 0Xdefa
B 2 0Xdfd6
B 5 0Xe0bc
B E 0Xe170
B T 0Xe260
H 1 0Xe418
H O 0Xe4d6
H 6 0Xe5b2
H 3 0Xe6b6
H 4 0Xe774
H 7 0Xe86e
H 9 0Xe918
H 2 0Xe9e0
H 8 0Xeaa8
H E 0Xeb7a
H 5 0Xec56
H T 0Xed5a
B O 0Xee4a
B 1 0Xef1c
B 6 0Xefd0
B 4 0Xf0ac
B 3 0Xf19c
B 9 0Xf250
B 7 0Xf322
B 8 0Xf3d6
B 2 0Xf49e
B 5 0Xf5a2
B E 0Xf674
B T 0Xf732
H O 0Xf912
H 6 0Xf9d0
H 1 0Xfaa2
H 3 0Xfb60
H 4 0Xfc46
H 7 0Xfd40
H 9 0Xfe12
H 2 0Xfec6
H 8 0Xffa2
H E 0X0056
H 5 0X010a
H T 0X0218
B 6 0X02f4
B O 0X03da
B 1 0X04b6
B 4 0X0574
B 3 0X0664
B 9 0X074a
B 7 0X0808
B 8 0X08c6
B 2 0X09a2
B 5 0X0a7e
B E 0X0b32
B T 0X0bf0
H O 0X0dda
H 6 0X0eb6
H 4 0X0fa6
H 1 0X108c
H 9 0X117c
H 3 0X123a
H 8 0X1320
H 7 0X1406
H 5 0X149c
H 2 0X156e
H E 0X1618
H T 0X16ea
B O 0X180c
B 4 0X18b6
B 6 0X19a6
B 9 0X1a6e
B 1 0X1b54
B 8 0X1c4e
B 3 0X1d3e
B 5 0X1dde
B 7 0X1ec4
B E 0X1f5a
B 2 0X2036
B T 0X20cc
H 4 0X2306
H O 0X23b0
H 6 0X248c
H 1 0X254a
H 9 0X263a
H 3 0X2734
H 8 0X27f2
H 7 0X28c4
H 5 0X2978
H 2 0X2a54
H E 0X2b08
H T 0X2bd0
B 4 0X2cfc
B 6 0X2dce
B O 0X2e8c
B 9 0X2f4a
B 1 0X3012
B 8 0X3116
B 3 0X3206
B 5 0X32a6
B 7 0X33be
B E 0X345e
B 2 0X3526
B T 0X35da
H 6 0X37d8
H 4 0X38be
H O 0X3990
H 1 0X3a4e
H 9 0X3b2a
H 3 0X3c1a
H 8 0X3ce2
H 7 0X3daa
H 5 0X3e54
H 2 0X3f4e
H E 0X400c
H T 0X40d4
B 6 0X41ce
B O 0X42b4
B 4 0X435e
B 9 0X443a
B 1 0X4502
B 8 0X45de
B 3 0X4700
B 5 0X47be
B 7 0X4886
B E 0X4958
B 2 0X4a02
B T 0X4ad4
H O 0X4cc8
H 6 0X4da4
H 9 0X4e58
H 4 0X4f34
H 8 0X4fd4
H 1 0X50ba
H 5 0X51a0
H 3 0X5286
H E 0X5362
H 7 0X5434
H 2 0X54fc
H T 0X55d8
B 6 0X56c8
B O 0X57a4
B 9 0X5876
B 8 0X5902
B 4 0X59e8
B 5 0X5ace
B 1 0X5b96
B E 0X5c7c
B 3 0X5d6c
B 2 0X5e16
B 7 0X5efc
B T 0X5fe2
H 6 0X6186
H 9 0X6230
H O 0X6348
H 4 0X63fc
H 8 0X64b0
H 1 0X656e
H 5 0X6640
H 3 0X674e
H E 0X682a
H 7 0X6906
H 2 0X69ba
H T 0X6ab4
B 9 0X6b68
B 6 0X6c62
B O 0X6d2a
B 8 0X6de8
B 4 0X6ec4
B 5 0X6fb4
B 1 0X707c
B E 0X7158
B 3 0X7234
B 2 0X72f2
B 7 0X73ec
B T 0X74aa
H 9 0X7680
H O 0X7748
H 6 0X7810
H 4 0X78a6
H 8 0X7996
H 1 0X7a72
H 5 0X7b44
H 3 0X7c34
H E 0X7d06
H 7 0X7dba
H 2 0X7e78
H T 0X7f7c
B O 0X8076
B 9 0X8148
B 6 0X822e
B 8 0X82e2
B 4 0X83b4
B 5 0X8468
B 1 0X8580
B E 0X862a
B 3 0X871a
B 2 0X87ce
B 7 0X88b4
B T 0X8986
H 9 0X8b3e
H O 0X8c1a
H 8 0X8ce2
H 6 0X8dbe
H 5 0X8eae
H 4 0X8f9e
H E 0X9048
H 1 0X9110
H 2 0X91b0
H 3 0X92a0
H 7 0X9386
H T 0X9462
B 9 0X9566
B 8 0X9610
B O 0X96f6
B 5 0X97dc
B 6 0X98ae
B E 0X998a
B 4 0X9a52
B 2 0X9b10
B 1 0X9bd8
B 7 0X9cb4
B 3 0X9d72
B T 0X9e76
H 8 0X9ff2
H 9 0Xa0ec
H O 0Xa1c8
H 6 0Xa2b8
H 5 0Xa38a
H 4 0Xa470
H E 0Xa52e
H 1 0Xa5d8
H 2 0Xa68c
H 3 0Xa786
H 7 0Xa844
H T 0Xa920
B 8 0Xa9f2
B O 0Xab00
B 9 0Xabf0
B 5 0Xacae
B 6 0Xad76
B E 0Xae7a
B 4 0Xaf06
B 2 0Xafd8
B 1 0Xb08c
B 7 0Xb1ae
B 3 0Xb280
B T 0Xb334
H O 0Xb528
H 8 0Xb5be
H 9 0Xb686
H 6 0Xb7b2
H 5 0Xb870
H 4 0Xb94c
H E 0Xba14
H 1 0Xba82
H 2 0Xbb4a
H 3 0Xbc3a
H 7 0Xbd2a
H T 0Xbe10
B O 0Xbf14
B 9 0Xbfc8
B 8 0Xc090
B 5 0Xc19e
B 6 0Xc270
B E 0Xc360
B 4 0Xc400
B 2 0Xc4be
B 1 0Xc590
B 7 0Xc66c
B 3 0Xc73e
B T 0Xc806
H 9 0Xc9c8
H O 0Xcaae
H 5 0Xcba8
H 8 0Xcc5c
H E 0Xcd6a
H 6 0Xce14
H 2 0Xcef0
H 4 0Xcfd6
H 7 0Xd0a8
H 1 0Xd0e4
H 3 0Xd224
H T 0Xd2ec
B O 0Xd3f0
B 9 0Xd4fe
B 5 0Xd5bc
B E 0Xd6ac
B 8 0Xd76a
B 2 0Xd83c
B 6 0Xd8fa
B 7 0Xd9ea
B 4 0Xdab2
B 3 0Xdb7a
B 1 0Xdc42
B T 0Xdcec
H O 0Xdee0
H 5 0Xdfbc
H 9 0Xe08e
H 8 0Xe16a
H E 0Xe246
H 6 0Xe30e
H 2 0Xe3cc
H 4 0Xe4bc
H 7 0Xe58e
H 1 0Xe5d4
H 3 0Xe71e
H T 0Xe822
B 5 0Xe8e0
B O 0Xe99e
B 9 0Xea66
B E 0Xeb6a
B 8 0Xec5a
B 2 0Xed36
B 6 0Xedcc
B 7 0Xeeb2
B 4 0Xef7a
B 3 0Xf04c
B 1 0Xf114
B T 0Xf1fa
H 5 0Xf3c6
H 9 0Xf484
H O 0Xf556
H 8 0Xf650
H E 0Xf736
H 6 0Xf7ea
H 2 0Xf8b2
H 4 0Xf97a
H 7 0Xfa4c
H 1 0Xfb00
H 3 0Xfbc8
H T 0Xfccc
B 9 0Xfda8
B 5 0Xfe8e
B O 0Xff60
B E 0X005a
B 8 0X0154
B 2 0X0208
B 6 0X02b2
B 7 0X03b6
B 4 0X0460
B 3 0X0532
B 1 0X05fa
B T 0X06ae
H 5 0X08a2
H 9 0X096a
H E 0X0a32
H O 0X0b2c
H 2 0X0bfe
H 8 0X0cb2
H 7 0X0d98
H 6 0X0e56
H 3 0X0f50
H 4 0X0ff0
H 1 0X10ea
H T 0X1176
B 5 0X1298
B E 0X1360
B 9 0X1428
B 2 0X1522
B O 0X15b8
B 7 0X16a8
B 8 0X1770
B 3 0X1860
B 6 0X193c
B 1 0X1a22
B 4 0X1ac2
B T 0X1b94
H E 0X1d9c
H 5 0X1e5a
H 9 0X1f2c
H O 0X1fcc
H 2 0X20c6
H 8 0X2170
H 7 0X2242
H 6 0X2328
H 3 0X23f0
H 4 0X24e0
H 1 0X25b2
H T 0X26a2
B E 0X276a
B 9 0X2832
B 5 0X290e
B 2 0X2a08
B O 0X2ac6
B 7 0X2b66
B 8 0X2c24
B 3 0X2d46
B 6 0X2e0e
B 1 0X2ed6
B 4 0X2fa8
B T 0X307a
H 9 0X3246
H E 0X3318
H 5 0X33cc
H O 0X34f8
H 2 0X35b6
H 8 0X3656
H 7 0X3728
H 6 0X3804
H 3 0X38f4
H 4 0X39bc
H 1 0X3a84
H T 0X3b6a
B 9 0X3c32
B 5 0X3d22
B E 0X3df4
B 2 0X3f02
B O 0X3fc0
B 7 0X4060
B 8 0X411e
B 3 0X4222
B 6 0X42f4
B 1 0X43e4
B 4 0X4484
B T 0X454c
H 5 0X472c
H 9 0X47f4
H 2 0X48c6
H E 0X49d4
H 7 0X4a9c
H O 0X4b6e
H 3 0X4c54
H 8 0X4d08
H 1 0X4dbc
H 6 0X4eb6
H 4 0X4f74
H T 0X5032
B 9 0X5136
B 5 0X5230
B 2 0X5302
B 7 0X53ca
B E 0X5492
B 3 0X558c
B O 0X5654
B 1 0X56fe
B 8 0X57da
B 4 0X58a2
B 6 0X597e
B T 0X5a46
H 9 0X5c30
H 2 0X5d02
H 5 0X5dd4
H E 0X5eb0
H 7 0X5f6e
H O 0X6068
H 3 0X614e
H 8 0X61f8
H 1 0X62b6
H 6 0X63c4
H 4 0X6446
H T 0X6536
B 2 0X6630
B 9 0X66ee
B 5 0X6798
B 7 0X6892
B E 0X6978
B 3 0X6a68
B O 0X6b44
B 1 0X6bee
B 8 0X6cca
B 4 0X6dba
B 6 0X6e6e
B T 0X6f5e
H 2 0X70ee
H 5 0X71b6
H 9 0X72a6
H E 0X73aa
H 7 0X7454
H O 0X753a
H 3 0X762a
H 8 0X76de
H 1 0X777e
H 6 0X7896
H 4 0X797c
H T 0X7a62
B 5 0X7af8
B 2 0X7be8
B 9 0X7ce2
B 7 0X7d96
B E 0X7e7c
B 3 0X7f80
B O 0X802a
B 1 0X80de
B 8 0X819c
B 4 0X8278
B 6 0X834a
B T 0X844e
H 2 0X861a
H 5 0X86d8
H 7 0X87b4
H 9 0X8886
H 3 0X898a
H E 0X8a3e
H 1 0X8ad4
H O 0X8bb0
H 4 0X8ca0
H 8 0X8d5e
H 6 0X8e62
H T 0X8f48
B 2 0X9006
B 7 0X9114
B 5 0X91b4
B 3 0X92a4
B 9 0X9380
B 1 0X9420
B E 0X94e8
B 4 0X9592
B O 0X96a0
B 6 0X9790
B 8 0X986c
B T 0X992a
H 7 0X9ae2
H 2 0X9baa
H 5 0X9c7c
H 9 0X9da8
H 3 0X9e84
H E 0X9f1a
H 1 0X9fc4
H O 0Xa0b4
H 4 0Xa17c
H 8 0Xa258
H 6 0Xa320
H T 0Xa410
B 7 0Xa500
B 5 0Xa5c8
B 2 0Xa6b8
B 3 0Xa780
B 9 0Xa870
B 1 0Xa91a
B E 0Xa9ce
B 4 0Xaadc
B O 0Xab7c
B 6 0Xac80
B 8 0Xad52
B T 0Xae06
H 5 0Xb018
H 7 0Xb0f4
H 2 0Xb1c6
H 9 0Xb266
H 3 0Xb34c
H E 0Xb400
H 1 0Xb4b4
H O 0Xb586
H 4 0Xb64e
H 8 0Xb748
H 6 0Xb824
H T 0Xb900
B 5 0Xba04
B 2 0Xbaf4
B 7 0Xbbbc
B 3 0Xbc84
B 9 0Xbd4c
B 1 0Xbe00
B E 0Xbeb4
B 4 0Xbf90
B O 0Xc08a
B 6 0Xc134
B 8 0Xc224
B T 0Xc300
H 2 0Xc4fe
H 5 0Xc5bc
H 3 0Xc684
H 7 0Xc742
H 1 0Xc7ec
H 9 0Xc8fa
H 4 0Xc9ea
H E 0Xca76
H 6 0Xcb84
H O 0Xcc2e
H 8 0Xcd00
H T 0Xcdf0
B 5 0Xceea
B 2 0Xcfb2
B 3 0Xd05c
B 1 0Xd12e
B 7 0Xd1ec
B 4 0Xd2be
B 9 0Xd3ae
B 6 0Xd494
B E 0Xd566
B 8 0Xd656
B O 0Xd746
B T 0Xd80e
H 5 0Xd9c6
H 3 0Xda7a
H 2 0Xdb56
H 7 0Xdc14
H 1 0Xdcfa
H 9 0Xddd6
H 4 0Xde8a
H E 0Xdf5c
H 6 0Xe024
H O 0Xe15a
H 8 0Xe236
H T 0Xe2fe
B 3 0Xe3da
B 5 0Xe4ac
B 2 0Xe588
B 1 0Xe63c
B 7 0Xe722
B 4 0Xe7c2
B 9 0Xe88a
B 6 0Xe948
B E 0Xea42
B 8 0Xeb28
B O 0Xec2c
B T 0Xed08
H 3 0Xeec0
H 2 0Xef74
H 5 0Xf03c
H 7 0Xf0fa
H 1 0Xf1e0
H 9 0Xf2a8
H 4 0Xf35c
H E 0Xf442
H 6 0Xf528
H O 0Xf622
H 8 0Xf6ea
H T 0Xf794
B 2 0Xf8ac
B 3 0Xf974
B 5 0Xfa5a
B 1 0Xfb36
B 7 0Xfbea
B 4 0Xfcb2
B 9 0Xfd84
B 6 0Xfe38
B E 0Xff28
B 8 0Xffe6
B O 0X00ea
B T 0X01bc
H 3 0X037e
H 2 0X043c
H 1 0X0518
H 5 0X05ea
H 4 0X0716
H 7 0X07ac
H 6 0X086a
H 9 0X0932
H 8 0X09fa
H E 0X0acc
H O 0X0b9e
H T 0X0c98
B 3 0X0d92
B 1 0X0e46
B 2 0X0ec8
B 4 0X0fb8
B 5 0X1094
B 6 0X118e
B 7 0X1260
B 8 0X1332
B 9 0X13e6
B O 0X14c2
B E 0X1594
B T 0X1670
H 1 0X183c
H 3 0X1904
H 2 0X19cc
H 5 0X1a94
H 4 0X1b7a
H 7 0X1c2e
H 6 0X1d0a
H 9 0X1dfa
H 8 0X1ecc
H E 0X1fb2
H O 0X208e
H T 0X2160
B 1 0X2246
B 2 0X22e6
B 3 0X23a4
B 4 0X244e
B 5 0X2548
B 6 0X25e8
B 7 0X26e2
B 8 0X27be
B 9 0X28a4
B O 0X2980
B E 0X2a48
B T 0X2b1a
H 1 0X2cd2
H 2 0X2d7c
H 3 0X2e6c
H 4 0X2f20
H 5 0X2ff2
H 6 0X30b0
H 7 0X318c
H 8 0X3254
H 9 0X3326
H O 0X3402
H E 0X34e8
H T 0X35ba
B 1 0X36a0
B 2 0X3754
B 3 0X3830
B 4 0X38da
B 5 0X39b6
B 6 0X3a74
B 7 0X3b6e
B 8 0X3c4a
B 9 0X3d12
B O 0X3dee
B E 0X3eb6
B T 0X3f74
H 1 0X4154
H 2 0X41f4
H 3 0X42d0
H 4 0X4398
H 5 0X444c
H 6 0X4532
H 7 0X460e
H 8 0X46cc
H 9 0X479e
H O 0X4866
H E 0X4938
H T 0X4a1e
B 1 0X4afa
B 2 0X4bb8
B 3 0X4c8a
B 4 0X4d3e
B 5 0X4e38
B 6 0X4f0a
B 7 0X5004
B 8 0X50cc
B 9 0X5194
B O 0X5270
B E 0X5374
B T 0X5450
