#. Lowndes: Version 2
#. SourceFilename: C:\Users\Guildford Ringers\Documents\guildfordcathedralbells.bitbucket.io\Recordings\Guildford\Guildford.20220422-2053.s12t12.5.wav
#. Tower: Guildford Cathedral
#. RingingName: Touch_5
#. RingingDateTime: 20220422-2053
#. Rungon: 
#. Tenor: 12
#. NumBellsRinging: 12
#. Creator: HawkEar Team Edition V1 for Guildford Cathedral
#. CreatorVersion: 1.1.0.3
#. TranscribedFor: Guildford band
#. TranscriptionDateTime: 20220423-0016
#. FirstBlowMs: 2430
#. TouchdB: -9.38456
#. TraindB: -9.73, -8.5, -6.1, -3.11, -3.16, -3.1, -3.98, -4.12, -5.95, -5.43, -4.92, -3
#. TrainedOn: 20220102-1438
#. TrainDataRecordedOn: 20210813-1741
#. TrainParams: -ft:y -ws:0.05 -hs:0.01 -co:0.9 -sw:40 -ts:
#. GainParams: -fh:6000 -fl:200
#. OnsetParams: -mb:80 -mf:10 -ng:0.3 -oo:0
#. WriteParams: -hb:y
#. AnalParams: -au:n -xp:n -sg:n -hsg:-1
#. ExpString: 
#. Association:
#. Calling:
#. CompositionName:
#. Method:
#. Footnotes:
#. Ringers:
#. Stage:
H 1 0X0000
H 2 0X00d2
H 3 0X01d6
H 4 0X026c
H 5 0X0352
H 6 0X03fc
H 7 0X050a
H 8 0X05be
H 9 0X069a
H O 0X0780
H E 0X0866
H T 0X09a6
B 1 0X0a6e
B 2 0X0b36
B 3 0X0bf4
B 4 0X0ca8
B 5 0X0d84
B 6 0X0e1a
B 7 0X0f00
B 8 0X0fc8
B 9 0X10a4
B O 0X114e
B E 0X1266
B T 0X1306
H 1 0X1522
H 2 0X15ea
H 3 0X16bc
H 4 0X1770
H 5 0X1824
H 6 0X18c4
H 7 0X1982
H 8 0X1a4a
H 9 0X1b1c
H O 0X1bee
H E 0X1c98
H T 0X1d9c
B 1 0X1e5a
B 2 0X1f18
B 3 0X2012
B 4 0X20bc
B 5 0X218e
B 6 0X2242
B 7 0X2300
B 8 0X23b4
B 9 0X2490
B O 0X2562
B E 0X263e
B T 0X2706
H 1 0X28aa
H 2 0X2968
H 3 0X2a3a
H 4 0X2af8
H 5 0X2bac
H 6 0X2c60
H 7 0X2d32
H 8 0X2e04
H 9 0X2ed6
H O 0X2f80
H E 0X305c
H T 0X314c
B 1 0X31ec
B 2 0X32d2
B 3 0X339a
B 4 0X343a
B 5 0X34f8
B 6 0X35b6
B 7 0X3692
B 8 0X375a
B 9 0X3840
B O 0X3908
B E 0X39da
B T 0X3a98
H 1 0X3c0a
H 2 0X3cdc
H 3 0X3da4
H 4 0X3e44
H 5 0X3f02
H 6 0X3fb6
H 7 0X40a6
H 8 0X41aa
H 9 0X427c
H O 0X433a
H E 0X440c
H T 0X44ca
B 1 0X457e
B 2 0X463c
B 3 0X46fa
B 4 0X474a
B 5 0X4858
B 6 0X4934
B 7 0X49fc
B 8 0X4ab0
B 9 0X4ba0
B O 0X4c86
B E 0X4d58
B T 0X4e34
H 1 0X4f9c
H 2 0X5046
H 3 0X5118
H 4 0X51cc
H 5 0X5262
H 6 0X5352
H 7 0X541a
H 8 0X54d8
H 9 0X55a0
H O 0X5690
H E 0X5758
H T 0X582a
B 1 0X58fc
B 2 0X59ba
B 3 0X5a6e
B 4 0X5b04
B 5 0X5be0
B 6 0X5c8a
B 7 0X5d48
B 8 0X5e1a
B 9 0X5ed8
B O 0X5faa
B E 0X6086
B T 0X6158
H 1 0X6310
H 2 0X63ce
H 3 0X6496
H 4 0X6554
H 5 0X65f4
H 6 0X66a8
H 7 0X6770
H 8 0X6856
H 9 0X691e
H O 0X69d2
H E 0X6ab8
H T 0X6b8a
B 1 0X6c3e
B 2 0X6d10
B 3 0X6dc4
B 4 0X6e8c
B 5 0X6f68
B 6 0X701c
B 7 0X70c6
B 8 0X718e
B 9 0X7260
B O 0X7300
B E 0X73fa
B T 0X74cc
H 1 0X765c
H 2 0X7710
H 3 0X77d8
H 4 0X788c
H 5 0X795e
H 6 0X79f4
H 7 0X7ac6
H 8 0X7bb6
H 9 0X7c92
H O 0X7d46
H E 0X7e04
H T 0X7ef4
B 1 0X7fb2
B 2 0X8066
B 3 0X8106
B 4 0X819c
B 5 0X828c
B 6 0X834a
B 7 0X83fe
B 8 0X84c6
B 9 0X85a2
B O 0X866a
B E 0X876e
B T 0X8836
H 1 0X89da
H 2 0X8a98
H 3 0X8b56
H 4 0X8c0a
H 5 0X8caa
H 6 0X8d5e
H 7 0X8e26
H 8 0X8f20
H 9 0X8fca
H O 0X9092
H E 0X9182
H T 0X9254
B 1 0X931c
B 2 0X93da
B 3 0X9498
B 4 0X9556
B 5 0X9614
B 6 0X96dc
B 7 0X9754
B 8 0X9844
B 9 0X9920
B O 0X99de
B E 0X9ac4
B T 0X9ba0
H 1 0X9d1c
H 2 0X9dbc
H 3 0X9eac
H 4 0X9f7e
H 5 0Xa01e
H 6 0Xa0be
H 7 0Xa186
H 8 0Xa26c
H 9 0Xa334
H O 0Xa410
H E 0Xa4ba
H T 0Xa58c
B 1 0Xa65e
B 2 0Xa726
B 3 0Xa802
B 4 0Xa88e
B 5 0Xa960
B 6 0Xaa0a
B 7 0Xaab4
B 8 0Xab7c
B 9 0Xac62
B O 0Xad2a
B E 0Xae10
B T 0Xaec4
H 1 0Xb068
H 2 0Xb130
H 3 0Xb20c
H 4 0Xb2ca
H 5 0Xb356
H 6 0Xb428
H 7 0Xb4e6
H 8 0Xb5c2
H 9 0Xb694
H O 0Xb748
H E 0Xb838
H T 0Xb900
B 1 0Xb9a0
B 2 0Xba68
B 3 0Xbb3a
B 4 0Xbbf8
B 5 0Xbc98
B 6 0Xbd74
B 7 0Xbe14
B 8 0Xbf04
B 9 0Xbfc2
B O 0Xc08a
B E 0Xc184
B T 0Xc24c
H 1 0Xc3b4
H 2 0Xc472
H 3 0Xc544
H 4 0Xc60c
H 5 0Xc6ac
H 6 0Xc76a
H 7 0Xc828
H 8 0Xc918
H 9 0Xc9e0
H O 0Xcabc
H E 0Xcb84
H T 0Xcc4c
B 1 0Xcd00
B 2 0Xcdbe
B 3 0Xce90
B 4 0Xcf3a
B 5 0Xcfee
B 6 0Xd0d4
B 7 0Xd14c
B 8 0Xd232
B 9 0Xd304
B O 0Xd3ea
B E 0Xd4b2
B T 0Xd5a2
H 2 0Xd764
H 1 0Xd836
H 3 0Xd8d6
H 5 0Xd99e
H 4 0Xda70
H 7 0Xdae8
H 6 0Xdbce
H 9 0Xdca0
H 8 0Xdd4a
H E 0Xddf4
H O 0Xdeda
H T 0Xdfac
B 2 0Xe09c
B 3 0Xe150
B 1 0Xe218
B 4 0Xe2d6
B 5 0Xe3c6
B 6 0Xe466
B 7 0Xe4fc
B 8 0Xe5e2
B 9 0Xe6b4
B O 0Xe75e
B E 0Xe830
B T 0Xe90c
H 3 0Xeae2
H 2 0Xeb82
H 4 0Xec5e
H 1 0Xed3a
H 6 0Xedc6
H 5 0Xeeac
H 8 0Xef4c
H 7 0Xefec
H 9 0Xf0d2
H E 0Xf17c
H O 0Xf262
H T 0Xf352
B 2 0Xf42e
B 3 0Xf4ce
B 4 0Xf582
B 6 0Xf65e
B 1 0Xf73a
B 8 0Xf7f8
B 5 0Xf8de
B 9 0Xf97e
B 7 0Xfa0a
B O 0Xfab4
B E 0Xfbc2
B T 0Xfc76
H 2 0Xfe42
H 4 0Xff28
H 3 0Xffe6
H 1 0X00b8
H 6 0X0130
H 5 0X0248
H 8 0X0306
H 7 0X03a6
H 9 0X0464
H E 0X0504
H O 0X05e0
H T 0X06bc
B 4 0X07fc
B 2 0X089c
B 3 0X093c
B 6 0X09fa
B 1 0X0ae0
B 8 0X0b9e
B 5 0X0c48
B 9 0X0d10
B 7 0X0d9c
B O 0X0e50
B E 0X0f4a
B T 0X1008
H 4 0X11d4
H 3 0X12ba
H 2 0X135a
H 1 0X144a
H 6 0X14ea
H 5 0X15d0
H 8 0X16ac
H 7 0X1738
H 9 0X180a
H E 0X1896
H O 0X19cc
H T 0X1a4e
B 3 0X1b48
B 4 0X1c06
B 2 0X1cc4
B 6 0X1d8c
B 1 0X1e72
B 8 0X1f26
B 5 0X2002
B 9 0X20a2
B 7 0X2156
B O 0X220a
B E 0X22f0
B T 0X23c2
H 4 0X25ac
H 3 0X2656
H 6 0X2714
H 2 0X27fa
H 8 0X28cc
H 1 0X2980
H 9 0X2a20
H 5 0X2afc
H O 0X2b88
H 7 0X2c46
H E 0X2cf0
H T 0X2df4
B 4 0X2ed0
B 6 0X2fac
B 3 0X3088
B 8 0X3146
B 2 0X322c
B 9 0X32e0
B 1 0X33bc
B O 0X3416
B 5 0X3524
B E 0X35e2
B 7 0X3682
B T 0X3754
H 6 0X3920
H 4 0X3a10
H 3 0X3ab0
H 2 0X3ba0
H 8 0X3c86
H 1 0X3d44
H 9 0X3df8
H 5 0X3e84
H O 0X3f2e
H 7 0X3fd8
H E 0X408c
H T 0X41a4
B 6 0X42a8
B 3 0X4370
B 4 0X4410
B 8 0X4500
B 2 0X45aa
B 9 0X46ae
B 1 0X4762
B O 0X47e4
B 5 0X48b6
B E 0X497e
B 7 0X49ec
B T 0X4afa
H 3 0X4cda
H 6 0X4db6
H 4 0X4e9c
H 2 0X4f64
H 8 0X5022
H 1 0X50cc
H 9 0X5180
H 5 0X5234
H O 0X52de
H 7 0X5356
H E 0X5428
H T 0X5536
B 3 0X5626
B 4 0X56c6
B 6 0X57c0
B 8 0X58a6
B 2 0X596e
B 9 0X5a54
B 1 0X5aea
B O 0X5b8a
B 5 0X5c52
B E 0X5d1a
B 7 0X5d74
B T 0X5e82
H 4 0X6026
H 3 0X60f8
H 8 0X61e8
H 6 0X62c4
H 9 0X63a0
H 2 0X6472
H O 0X6558
H 1 0X65c6
H 5 0X6684
H E 0X66a2
H 7 0X6756
H T 0X68dc
B 3 0X69ae
B 4 0X6a76
B 8 0X6b20
B 9 0X6c10
B 6 0X6c88
B O 0X6d96
B 2 0X6e90
B E 0X6f6c
B 5 0X6f76
B 1 0X6fee
B 7 0X7160
B T 0X7250
H 3 0X73fe
H 8 0X7502
H 4 0X75a2
H 6 0X7638
H 9 0X7728
H O 0X77a0
H 2 0X77fa
H 1 0X7976
H E 0X7a16
H 5 0X7a20
H 7 0X7ac0
H T 0X7c6e
B 8 0X7d86
B 3 0X7e4e
B 4 0X7f0c
B 9 0X7fb6
B 6 0X806a
B O 0X8146
B 2 0X8182
B 5 0X82ae
B E 0X82c2
B 1 0X8376
B 7 0X8510
B T 0X85b0
H 8 0X87cc
H 4 0X8858
H 3 0X892a
H 6 0X89de
H 2 0X8b78
H O 0X8c18
H 1 0X8d12
H 5 0X8dbc
H 7 0X8eca
H E 0X8ef2
H T 0X900a
B 4 0X9064
B 8 0X9212
B 3 0X9352
B 6 0X93ac
B 2 0X9442
B 1 0X95dc
B 5 0X967c
B O 0X96f4
B 7 0X98ca
B E 0X9ac8
B T 0X9afa
