#. Lowndes: Version 2
#. SourceFilename: C:\Users\Guildford Ringers\Documents\guildfordcathedralbells.bitbucket.io\Recordings\Guildford\Guildford.20220529-1706.s0t0.5.wav
#. Tower: Guildford Cathedral
#. RingingName: Touch 5
#. RingingDateTime: 20220529-1706
#. Rungon: 
#. Tenor: 12
#. NumBellsRinging: 12
#. Creator: HawkEar Team Edition V1 for Guildford Cathedral
#. CreatorVersion: 1.1.0.3
#. TranscribedFor: Guildford band
#. TranscriptionDateTime: 20220529-1807
#. FirstBlowMs: 6930
#. Touchdb: -8.64899
#. TraindB: -9.73, -8.5, -6.1, -3.11, -3.16, -3.1, -3.98, -4.12, -5.95, -5.43, -4.92, -3
#. TrainedOn: 20220102-1438
#. TrainDataRecordedOn: 20210813-1741
#. TrainParams: -ft:y -ws:0.05 -hs:0.01 -co:0.9 -sw:40 -ts:
#. GainParams: -fh:6000 -fl:200
#. OnsetParams: -mb:80 -mf:10 -ng:0.3 -oo:0
#. WriteParams: -hb:y
#. AnalParams: -au:y -xp:n -sg:n -hsg:-1
#. ExpString: 
#. Association: 
#. Calling: 
#. Compositionname: 
#. Method: 
#. Footnotes: 
#. Ringers: 
#. Stage: 
H 1 0X1b12
H 2 0X1c0c
H 3 0X1cc0
H 4 0X1d60
H 5 0X1e28
H 6 0X1f04
H 7 0X2008
H 8 0X209e
H 9 0X2166
H O 0X2210
H E 0X2300
H T 0X2404
B 1 0X2508
B 2 0X25bc
B 3 0X2698
B 4 0X2760
B 5 0X283c
B 6 0X2904
B 7 0X29ea
B 8 0X2abc
B 9 0X2b84
B O 0X2c6a
B E 0X2d28
B T 0X2e4a
H 1 0X2fee
H 2 0X30ac
H 3 0X316a
H 4 0X3200
H 5 0X32fa
H 6 0X33b8
H 7 0X349e
H 8 0X3552
H 9 0X3642
H O 0X36ec
H E 0X37dc
H T 0X38c2
B 1 0X3962
B 2 0X3a20
B 3 0X3ad4
B 4 0X3b92
B 5 0X3c6e
B 6 0X3d36
B 7 0X3e30
B 8 0X3ee4
B 9 0X3fe8
B O 0X40ce
B E 0X41b4
B T 0X4268
H 1 0X4416
H 2 0X44b6
H 3 0X457e
H 4 0X4614
H 5 0X46f0
H 6 0X47c2
H 7 0X48bc
H 8 0X497a
H 9 0X4a2e
H O 0X4af6
H E 0X4baa
H T 0X4c90
B 1 0X4d62
B 2 0X4e0c
B 3 0X4ede
B 4 0X4fb0
B 5 0X5064
B 6 0X5136
B 7 0X5212
B 8 0X52da
B 9 0X53ac
B O 0X5492
B E 0X5550
B T 0X5622
H 1 0X57da
H 2 0X587a
H 3 0X594c
H 4 0X5a00
H 5 0X5adc
H 6 0X5ba4
H 7 0X5c8a
H 8 0X5d34
H 9 0X5df2
H O 0X5eba
H E 0X5f82
H T 0X6054
B 1 0X6144
B 2 0X61e4
B 3 0X62a2
B 4 0X6356
B 5 0X641e
B 6 0X64f0
B 7 0X65e0
B 8 0X669e
B 9 0X6770
B O 0X6856
B E 0X6932
B T 0X69f0
H 1 0X6ba8
H 2 0X6c5c
H 3 0X6d1a
H 4 0X6d9c
H 5 0X6e78
H 6 0X6f4a
H 7 0X7026
H 8 0X70e4
H 9 0X71a2
H O 0X7274
H E 0X735a
H T 0X7422
B 1 0X74fe
B 2 0X75a8
B 3 0X767a
B 4 0X772e
B 5 0X7800
B 6 0X78d2
B 7 0X79b8
B 8 0X7a76
B 9 0X7b0c
B O 0X7bf2
B E 0X7cce
B T 0X7db4
H 1 0X7f80
H 2 0X8016
H 3 0X80d4
H 4 0X817e
H 5 0X8246
H 6 0X8322
H 7 0X83f4
H 8 0X84a8
H 9 0X8566
H O 0X8610
H E 0X86f6
H T 0X87c8
B 1 0X8886
B 2 0X894e
B 3 0X8a16
B 4 0X8ae8
B 5 0X8ba6
B 6 0X8c78
B 7 0X8d54
B 8 0X8e12
B 9 0X8eee
B O 0X8fc0
B E 0X90b0
B T 0X9164
H 1 0X92fe
H 2 0X93a8
H 3 0X9470
H 4 0X9538
H 5 0X95ec
H 6 0X96be
H 7 0X9790
H 8 0X984e
H 9 0X992a
H O 0X99fc
H E 0X9aba
H T 0X9b82
B 1 0X9c4a
B 2 0X9cf4
B 3 0X9db2
B 4 0X9e7a
B 5 0X9f42
B 6 0Xa014
B 7 0Xa0fa
B 8 0Xa1cc
B 9 0Xa294
B O 0Xa35c
B E 0Xa438
B T 0Xa50a
H 1 0Xa6a4
H 2 0Xa758
H 3 0Xa816
H 4 0Xa8d4
H 5 0Xa9a6
H 6 0Xaa78
H 7 0Xab22
H 8 0Xabea
H 9 0Xace4
H O 0Xada2
H E 0Xaea6
H T 0Xaf5a
B 1 0Xb04a
B 2 0Xb0c2
B 3 0Xb18a
B 4 0Xb234
B 5 0Xb2fc
B 6 0Xb3ba
B 7 0Xb48c
B 8 0Xb568
B 9 0Xb626
B O 0Xb72a
B E 0Xb810
B T 0Xb8ce
H 1 0Xba90
H 2 0Xbb44
H 3 0Xbbee
H 4 0Xbca2
H 5 0Xbd7e
H 6 0Xbe3c
H 7 0Xbf04
H 8 0Xbfcc
H 9 0Xc062
H O 0Xc15c
H E 0Xc242
H T 0Xc30a
B 1 0Xc3d2
B 2 0Xc486
B 3 0Xc54e
B 4 0Xc5f8
B 5 0Xc6b6
B 6 0Xc7a6
B 7 0Xc864
B 8 0Xc918
B 9 0Xca08
B O 0Xcabc
B E 0Xcbb6
B T 0Xcc92
H 1 0Xce40
H 2 0Xcee0
H 3 0Xcfc6
H 4 0Xd048
H 5 0Xd106
H 6 0Xd1e2
H 7 0Xd2be
H 8 0Xd37c
H 9 0Xd444
H O 0Xd52a
H E 0Xd5f2
H T 0Xd6ba
B 1 0Xd7a0
B 2 0Xd840
B 3 0Xd8fe
B 4 0Xd9d0
B 5 0Xda66
B 6 0Xdb4c
B 7 0Xdc14
B 8 0Xdcdc
B 9 0Xddb8
B O 0Xde8a
B E 0Xdf5c
B T 0Xe02e
H 1 0Xe1d2
H 2 0Xe290
H 3 0Xe34e
H 4 0Xe3ee
H 5 0Xe4c0
H 6 0Xe5a6
H 7 0Xe68c
H 8 0Xe74a
H 9 0Xe7ea
H O 0Xe8c6
H E 0Xe998
H T 0Xea6a
B 1 0Xeb14
B 2 0Xebe6
B 3 0Xecae
B 4 0Xed62
B 5 0Xee16
B 6 0Xeefc
B 7 0Xefe2
B 8 0Xf0aa
B 9 0Xf17c
B O 0Xf26c
B E 0Xf334
B T 0Xf410
H 2 0Xf5a0
H 1 0Xf67c
H 3 0Xf73a
H 5 0Xf7ee
H 4 0Xf88e
H 7 0Xf956
H 6 0Xfa28
H 9 0Xfae6
H 8 0Xfbc2
H E 0Xfcb2
H O 0Xfd84
H T 0Xfe42
B 2 0Xfef6
B 3 0Xffbe
B 1 0X009a
B 4 0X0144
B 5 0X020c
B 6 0X02de
B 7 0X03a6
B 8 0X046e
B 9 0X0522
B O 0X061c
B E 0X06ee
B T 0X07ca
H 3 0X095a
H 2 0X0a04
H 4 0X0ac2
H 1 0X0bb2
H 6 0X0c7a
H 5 0X0d60
H 8 0X0e1e
H 7 0X0ee6
H 9 0X0fa4
H E 0X1062
H O 0X112a
H T 0X11de
B 2 0X12c4
B 3 0X138c
B 4 0X1436
B 6 0X151c
B 1 0X15e4
B 8 0X16b6
B 5 0X177e
B 9 0X185a
B 7 0X1922
B O 0X19d6
B E 0X1aa8
B T 0X1b84
H 2 0X1d14
H 4 0X1daa
H 3 0X1e90
H 1 0X1f6c
H 6 0X203e
H 5 0X2106
H 8 0X21ce
H 7 0X228c
H 9 0X2368
H E 0X2444
H O 0X24f8
H T 0X25b6
B 4 0X2692
B 2 0X2714
B 3 0X27f0
B 6 0X28cc
B 1 0X29c6
B 8 0X2aa2
B 5 0X2b4c
B 9 0X2c0a
B 7 0X2cdc
B O 0X2d90
B E 0X2e80
B T 0X2f5c
H 4 0X30ec
H 3 0X31b4
H 2 0X324a
H 1 0X334e
H 6 0X3416
H 5 0X34d4
H 8 0X35b0
H 7 0X366e
H 9 0X3740
H E 0X3826
H O 0X38c6
H T 0X397a
B 3 0X3a92
B 4 0X3b1e
B 2 0X3bc8
B 6 0X3c9a
B 1 0X3d8a
B 8 0X3e5c
B 5 0X3f1a
B 9 0X3fb0
B 7 0X40a0
B O 0X4186
B E 0X428a
B T 0X433e
H 4 0X44d8
H 3 0X4596
H 6 0X4672
H 2 0X4712
H 8 0X47bc
H 1 0X48d4
H 9 0X4974
H 5 0X4a78
H O 0X4b22
H 7 0X4bf4
H E 0X4c9e
H T 0X4d52
B 4 0X4e74
B 6 0X4f28
B 3 0X4ff0
B 8 0X509a
B 2 0X5130
B 9 0X5216
B 1 0X5306
B O 0X53e2
B 5 0X54aa
B E 0X555e
B 7 0X564e
B T 0X56ee
H 6 0X58d8
H 4 0X5982
H 3 0X5a4a
H 2 0X5b26
H 8 0X5bee
H 1 0X5cca
H 9 0X5d56
H 5 0X5e46
H O 0X5ee6
H 7 0X5fae
H E 0X6044
H T 0X6120
B 6 0X624c
B 3 0X62f6
B 4 0X63c8
B 8 0X64ae
B 2 0X6558
B 9 0X6666
B 1 0X672e
B O 0X67ec
B 5 0X6878
B E 0X692c
B 7 0X69fe
B T 0X6ad0
H 3 0X6c9c
H 6 0X6d64
H 4 0X6e18
H 2 0X6f12
H 8 0X6fb2
H 1 0X70a2
H 9 0X717e
H 5 0X7232
H O 0X72e6
H 7 0X73a4
H E 0X746c
H T 0X752a
B 3 0X75f2
B 4 0X76a6
B 6 0X778c
B 8 0X785e
B 2 0X7912
B 9 0X7a3e
B 1 0X7ae8
B O 0X7bc4
B 5 0X7c64
B E 0X7d36
B 7 0X7e12
B T 0X7ec6
H 4 0X804c
H 3 0X8114
H 8 0X81fa
H 6 0X82ea
H 9 0X83a8
H 2 0X845c
H O 0X8556
H 1 0X8614
H 5 0X86be
H 7 0X87a4
H E 0X883a
H T 0X890c
B 3 0X89f2
B 4 0X8aa6
B 8 0X8b64
B 9 0X8c4a
B 6 0X8d26
B O 0X8e20
B 2 0X8ea2
B 5 0X8f9c
B 1 0X9064
B E 0X912c
B 7 0X91fe
B T 0X92bc
H 3 0X944c
H 8 0X950a
H 4 0X95c8
H 6 0X96ae
H 9 0X97b2
H 2 0X9852
H O 0X9924
H 1 0X9a00
H 5 0X9aa0
H 7 0X9b9a
H E 0X9c76
H T 0X9d2a
B 8 0X9e10
B 3 0X9ee2
B 4 0X9f6e
B 9 0Xa054
B 6 0Xa108
B O 0Xa1ee
B 2 0Xa25c
B 5 0Xa360
B 1 0Xa43c
B E 0Xa518
B 7 0Xa5d6
B T 0Xa6bc
H 8 0Xa860
H 4 0Xa928
H 3 0Xa9e6
H 6 0Xaaf4
H 9 0Xabbc
H 2 0Xac66
H O 0Xad1a
H 1 0Xae00
H 5 0Xae8c
H 7 0Xaf5e
H E 0Xb012
H T 0Xb0ee
B 4 0Xb1f2
B 8 0Xb2b0
B 3 0Xb382
B 9 0Xb44a
B 6 0Xb526
B O 0Xb5c6
B 2 0Xb666
B 5 0Xb760
B 1 0Xb832
B E 0Xb904
B 7 0Xb9b8
B T 0Xba8a
H 8 0Xbc60
H 4 0Xbd28
H 9 0Xbdf0
H 3 0Xbe9a
H O 0Xbf58
H 6 0Xc034
H 5 0Xc0f2
H 2 0Xc1d8
H E 0Xc2b4
H 1 0Xc372
H 7 0Xc43a
H T 0Xc4c6
B 8 0Xc5a2
B 9 0Xc6a6
B 4 0Xc778
B O 0Xc840
B 3 0Xc926
B 5 0Xc9d0
B 6 0Xcaca
B E 0Xcba6
B 2 0Xcbe2
B 7 0Xccf0
B 1 0Xcdae
B T 0Xce62
H 9 0Xd07e
H 8 0Xd11e
H 4 0Xd1dc
H 3 0Xd2ae
H O 0Xd362
H 6 0Xd434
H 5 0Xd4f2
H 2 0Xd5c4
H E 0Xd6a0
H 1 0Xd772
H 7 0Xd844
H T 0Xd8c6
B 9 0Xd9ca
B 4 0Xda60
B 8 0Xdb3c
B O 0Xdc2c
B 3 0Xdcfe
B 5 0Xddf8
B 6 0Xdede
B E 0Xdf88
B 2 0Xdfce
B 7 0Xe0fa
B 1 0Xe1c2
B T 0Xe262
H 4 0Xe42e
H 9 0Xe500
H 8 0Xe5a0
H 3 0Xe686
H O 0Xe744
H 6 0Xe834
H 5 0Xe8fc
H 2 0Xe9ce
H E 0Xea5a
H 1 0Xeb40
H 7 0Xec3a
H T 0Xecd0
B 4 0Xedc0
B 8 0Xee74
B 9 0Xef64
B O 0Xf02c
B 3 0Xf0ea
B 5 0Xf20c
B 6 0Xf2d4
B E 0Xf360
B 2 0Xf3b0
B 7 0Xf4fa
B 1 0Xf5a4
B T 0Xf662
H 8 0Xf860
H 4 0Xf8f6
H O 0Xf9b4
H 9 0Xfa9a
H 5 0Xfb58
H 3 0Xfc20
H E 0Xfcd4
H 6 0Xfdce
H 7 0Xfe82
H 2 0Xff22
H 1 0X001c
H T 0X00c6
B 4 0X01d4
B 8 0X0292
B O 0X0350
B 5 0X03fa
B 9 0X04ea
B E 0X05bc
B 3 0X0698
B 7 0X0756
B 6 0X083c
B 1 0X08d2
B 2 0X095e
B T 0X0a3a
H 4 0X0bfc
H O 0X0cd8
H 8 0X0db4
H 9 0X0e90
H 5 0X0f44
H 3 0X1020
H E 0X10ca
H 6 0X119c
H 7 0X1278
H 2 0X1336
H 1 0X1408
H T 0X14c6
B O 0X15c0
B 4 0X1660
B 8 0X1714
B 5 0X17f0
B 9 0X18ae
B E 0X19a8
B 3 0X1a66
B 7 0X1b56
B 6 0X1c32
B 1 0X1caa
B 2 0X1d4a
B T 0X1e44
H O 0X1fd4
H 8 0X20ba
H 4 0X2182
H 9 0X2254
H 5 0X2312
H 3 0X23da
H E 0X248e
H 6 0X2574
H 7 0X2646
H 2 0X2718
H 1 0X2808
H T 0X289e
B 8 0X298e
B O 0X2a4c
B 4 0X2b32
B 5 0X2bd2
B 9 0X2c90
B E 0X2d44
B 3 0X2e2a
B 7 0X2ef2
B 6 0X2fd8
B 1 0X306e
B 2 0X3122
B T 0X3212
H O 0X33e8
H 8 0X34a6
H 5 0X3564
H 4 0X3622
H E 0X36ea
H 9 0X37bc
H 7 0X388e
H 3 0X394c
H 1 0X3a14
H 6 0X3ae6
H 2 0X3bc2
H T 0X3c8a
B O 0X3d48
B 5 0X3e4c
B 8 0X3f0a
B E 0X3fc8
B 4 0X40c2
B 7 0X411c
B 9 0X4216
B 1 0X42c0
B 3 0X43b0
B 2 0X4446
B 6 0X4540
B T 0X461c
H 5 0X47f2
H O 0X4888
H 8 0X493c
H 4 0X4a04
H E 0X4ad6
H 9 0X4bda
H 7 0X4cb6
H 3 0X4d60
H 1 0X4e46
H 6 0X4f0e
H 2 0X4f90
H T 0X5076
B 5 0X512a
B 8 0X521a
B O 0X52f6
B E 0X53e6
B 4 0X54c2
B 7 0X558a
B 9 0X563e
B 1 0X56fc
B 3 0X5788
B 2 0X5882
B 6 0X5968
B T 0X5a12
H 8 0X5bc0
H 5 0X5cb0
H O 0X5d3c
H 4 0X5e18
H E 0X5ed6
H 9 0X5fd0
H 7 0X60b6
H 3 0X614c
H 1 0X6232
H 6 0X630e
H 2 0X63cc
H T 0X649e
B 8 0X6548
B O 0X6624
B 5 0X6732
B E 0X67e6
B 4 0X687c
B 7 0X694e
B 9 0X6a16
B 1 0X6ae8
B 3 0X6b92
B 2 0X6c78
B 6 0X6d68
B T 0X6e1c
H O 0X6fb6
H 8 0X707e
H E 0X716e
H 5 0X7254
H 7 0X7330
H 4 0X73b2
H 1 0X7498
H 9 0X756a
H 2 0X761e
H 3 0X76d2
H 6 0X7790
H T 0X7880
B 8 0X792a
B O 0X7a24
B E 0X7b0a
B 7 0X7bd2
B 5 0X7cae
B 1 0X7d62
B 4 0X7e0c
B 2 0X7ea2
B 9 0X7fe2
B 6 0X8096
B 3 0X812c
B T 0X8208
H 8 0X83c0
H E 0X84b0
H O 0X855a
H 5 0X8654
H 7 0X8730
H 4 0X87bc
H 1 0X88a2
H 9 0X8992
H 2 0X8a00
H 3 0X8ad2
H 6 0X8b9a
H T 0X8c80
B E 0X8d84
B 8 0X8e38
B O 0X8ef6
B 7 0X8fdc
B 5 0X90c2
B 1 0X916c
B 4 0X9202
B 2 0X92ca
B 9 0X93ba
B 6 0X948c
B 3 0X9518
B T 0X9608
H E 0X978e
H O 0X989c
H 8 0X996e
H 5 0X9a54
H 7 0X9b30
H 4 0X9bc6
H 1 0X9cd4
H 9 0X9d88
H 2 0X9e14
H 3 0X9ed2
H 6 0X9fa4
H T 0Xa080
B O 0Xa15c
B E 0Xa22e
B 8 0Xa2f6
B 7 0Xa3e6
B 5 0Xa4b8
B 1 0Xa576
B 4 0Xa620
B 2 0Xa6e8
B 9 0Xa7a6
B 6 0Xa8aa
B 3 0Xa90e
B T 0Xaa12
H E 0Xabde
H O 0Xacba
H 7 0Xad64
H 8 0Xae18
H 1 0Xaf30
H 5 0Xafee
H 2 0Xb0ca
H 4 0Xb11a
H 6 0Xb232
H 9 0Xb2fa
H 3 0Xb390
H T 0Xb46c
B E 0Xb598
B 7 0Xb62e
B O 0Xb6ec
B 1 0Xb7be
B 8 0Xb868
B 2 0Xb930
B 5 0Xb9ee
B 6 0Xbad4
B 4 0Xbb92
B 3 0Xbc6e
B 9 0Xbd54
B T 0Xbe1c
H 7 0Xbf8e
H E 0Xc088
H O 0Xc16e
H 8 0Xc240
H 1 0Xc31c
H 5 0Xc3c6
H 2 0Xc484
H 4 0Xc510
H 6 0Xc5ec
H 9 0Xc6dc
H 3 0Xc786
H T 0Xc858
B 7 0Xc916
B O 0Xca10
B E 0Xcb1e
B 1 0Xcbdc
B 8 0Xcca4
B 2 0Xcd3a
B 5 0Xce16
B 6 0Xcee8
B 4 0Xcfba
B 3 0Xd05a
B 9 0Xd104
B T 0Xd1ea
H O 0Xd3ac
H 7 0Xd46a
H E 0Xd564
H 8 0Xd622
H 1 0Xd6f4
H 5 0Xd7d0
H 2 0Xd87a
H 4 0Xd924
H 6 0Xd9f6
H 9 0Xdae6
H 3 0Xdb72
H T 0Xdc4e
B O 0Xdd2a
B E 0Xde42
B 7 0Xdf00
B 1 0Xdfa0
B 8 0Xe072
B 2 0Xe130
B 5 0Xe20c
B 6 0Xe2fc
B 4 0Xe3a6
B 3 0Xe45a
B 9 0Xe52c
B T 0Xe5e0
H E 0Xe7ac
H O 0Xe888
H 1 0Xe946
H 7 0Xea5e
H 2 0Xeb08
H 8 0Xebb2
H 6 0Xec84
H 5 0Xed4c
H 3 0Xede2
H 4 0Xeea0
H 9 0Xef9a
H T 0Xf062
B O 0Xf148
B E 0Xf22e
B 1 0Xf2d8
B 2 0Xf38c
B 7 0Xf472
B 6 0Xf53a
B 8 0Xf620
B 3 0Xf6b6
B 5 0Xf760
B 9 0Xf850
B 4 0Xf904
B T 0Xf9e0
H O 0Xfb84
H 1 0Xfc6a
H E 0Xfd14
H 7 0Xfe36
H 2 0Xfee0
H 8 0Xffbc
H 6 0X008e
H 5 0X014c
H 3 0X01ec
H 4 0X0296
H 9 0X037c
H T 0X044e
B 1 0X0516
B O 0X0606
B E 0X06f6
B 2 0X0796
B 7 0X0868
B 6 0X0958
B 8 0X0a16
B 3 0X0ab6
B 5 0X0b7e
B 9 0X0c82
B 4 0X0d2c
B T 0X0dc2
H 1 0X0f98
H E 0X1074
H O 0X113c
H 7 0X11f0
H 2 0X12b8
H 8 0X1394
H 6 0X147a
H 5 0X1556
H 3 0X15ec
H 4 0X16be
H 9 0X179a
H T 0X1830
B E 0X195c
B 1 0X19de
B O 0X1ace
B 2 0X1b50
B 7 0X1c2c
B 6 0X1d30
B 8 0X1df8
B 3 0X1ec0
B 5 0X1f74
B 9 0X203c
B 4 0X2136
B T 0X21d6
H 1 0X238e
H E 0X2456
H 2 0X2532
H O 0X25dc
H 6 0X26cc
H 7 0X279e
H 3 0X2852
H 8 0X292e
H 9 0X2a00
H 5 0X2ac8
H 4 0X2ba4
H T 0X2c3a
B 1 0X2d16
B 2 0X2dca
B E 0X2e88
B 6 0X2f78
B O 0X3054
B 3 0X3126
B 7 0X31e4
B 9 0X32ac
B 8 0X3360
B 4 0X3450
B 5 0X3536
B T 0X35e0
H 2 0X37de
H 1 0X38c4
H E 0X390a
H O 0X39e6
H 6 0X3ac2
H 7 0X3b94
H 3 0X3c3e
H 8 0X3d06
H 9 0X3db0
H 5 0X3ebe
H 4 0X3f72
H T 0X4044
B 2 0X413e
B E 0X4242
B 1 0X42ba
B 6 0X4350
B O 0X444a
B 3 0X451c
B 7 0X4620
B 9 0X46b6
B 8 0X4756
B 4 0X4828
B 5 0X4918
B T 0X49e0
H E 0X4bca
H 2 0X4c7e
H 1 0X4d64
H O 0X4e0e
H 6 0X4ecc
H 7 0X4fbc
H 3 0X5070
H 8 0X512e
H 9 0X51ec
H 5 0X52be
H 4 0X5372
H T 0X5444
B E 0X5566
B 1 0X55c0
B 2 0X5688
B 6 0X57aa
B O 0X5886
B 3 0X5980
B 7 0X5a02
B 9 0X5ac0
B 8 0X5ba6
B 4 0X5c6e
B 5 0X5d40
B T 0X5dcc
H 1 0X5fa2
H E 0X6056
H 6 0X6146
H 2 0X6222
H 3 0X633a
H O 0X63da
H 9 0X64a2
H 7 0X6542
H 4 0X660a
H 8 0X66d2
H 5 0X675e
H T 0X683a
B E 0X6948
B 1 0X69de
B 6 0X6ac4
B 3 0X6bdc
B 2 0X6c5e
B 9 0X6d62
B O 0X6e0c
B 4 0X6ee8
B 7 0X6f7e
B 5 0X7064
B 8 0X7136
B T 0X71e0
H E 0X73b6
H 6 0X7488
H 1 0X7564
H 2 0X7622
H 3 0X76f4
H O 0X776c
H 9 0X7870
H 7 0X7938
H 4 0X79ec
H 8 0X7ab4
H 5 0X7b86
H T 0X7c76
B 6 0X7d52
B E 0X7e38
B 1 0X7ece
B 3 0X7f96
B 2 0X8018
B 9 0X813a
B O 0X8202
B 4 0X82de
B 7 0X839c
B 5 0X8482
B 8 0X8540
B T 0X8612
H 6 0X87a2
H 1 0X889c
H E 0X8932
H 2 0X8a2c
H 3 0X8ad6
H O 0X8b8a
H 9 0X8c52
H 7 0X8d2e
H 4 0X8df6
H 8 0X8eb4
H 5 0X8fa4
H T 0X908a
B 1 0X9134
B 6 0X9224
B E 0X92d8
B 3 0X93aa
B 2 0X945e
B 9 0X953a
B O 0X960c
B 4 0X96de
B 7 0X97a6
B 5 0X988c
B 8 0X9954
B T 0X9a26
H 6 0X9bd4
H 1 0X9cd8
H 3 0X9d8c
H E 0X9e18
H 9 0X9ef4
H 2 0X9fbc
H 4 0Xa066
H O 0Xa0fc
H 5 0Xa200
H 7 0Xa304
H 8 0Xa3c2
H T 0Xa480
B 6 0Xa55c
B 3 0Xa61a
B 1 0Xa6ec
B 9 0Xa7c8
B E 0Xa872
B 4 0Xa91c
B 2 0Xa9d0
B 5 0Xaad4
B O 0Xaba6
B 8 0Xacaa
B 7 0Xad72
B T 0Xae12
H 3 0Xafde
H 6 0Xb0b0
H 1 0Xb1d2
H E 0Xb24a
H 9 0Xb312
H 2 0Xb3d0
H 4 0Xb452
H O 0Xb52e
H 5 0Xb5f6
H 7 0Xb6fa
H 8 0Xb7a4
H T 0Xb876
B 3 0Xb952
B 1 0Xba24
B 6 0Xbb00
B 9 0Xbbc8
B E 0Xbcae
B 4 0Xbd3a
B 2 0Xbdda
B 5 0Xbeca
B O 0Xbfc4
B 8 0Xc08c
B 7 0Xc154
B T 0Xc21c
H 1 0Xc3fc
H 3 0Xc4c4
H 6 0Xc58c
H E 0Xc640
H 9 0Xc71c
H 2 0Xc7c6
H 4 0Xc848
H O 0Xc96a
H 5 0Xca0a
H 7 0Xcb04
H 8 0Xcbae
H T 0Xcc6c
B 1 0Xcd70
B 6 0Xce42
B 3 0Xcf32
B 9 0Xcff0
B E 0Xd0ae
B 4 0Xd14e
B 2 0Xd1ee
B 5 0Xd306
B O 0Xd3e2
B 8 0Xd4b4
B 7 0Xd568
B T 0Xd612
H 6 0Xd7b6
H 1 0Xd8d8
H 9 0Xd9be
H 3 0Xda5e
H 4 0Xdb30
H E 0Xdbe4
H 5 0Xdcac
H 2 0Xdd7e
H 8 0Xde28
H O 0Xdef0
H 7 0Xdfea
H T 0Xe09e
B 1 0Xe17a
B 6 0Xe238
B 9 0Xe314
B 4 0Xe418
B 3 0Xe4b8
B 5 0Xe59e
B E 0Xe620
B 8 0Xe6f2
B 2 0Xe7a6
B 7 0Xe8a0
B O 0Xe95e
B T 0Xea4e
H 1 0Xec10
H 9 0Xecc4
H 6 0Xed78
H 3 0Xee5e
H 4 0Xef26
H E 0Xf016
H 5 0Xf0de
H 2 0Xf1c4
H 8 0Xf26e
H O 0Xf304
H 7 0Xf3cc
H T 0Xf49e
B 9 0Xf58e
B 1 0Xf674
B 6 0Xf746
B 4 0Xf7fa
B 3 0Xf8a4
B 5 0Xf9bc
B E 0Xfa5c
B 8 0Xfb42
B 2 0Xfbce
B 7 0Xfcaa
B O 0Xfd7c
B T 0Xfe44
H 9 0X0038
H 6 0X00ec
H 1 0X01e6
H 3 0X0290
H 4 0X031c
H E 0X0420
H 5 0X04de
H 2 0X05e2
H 8 0X068c
H O 0X0736
H 7 0X07fe
H T 0X0876
B 6 0X0966
B 9 0X0ab0
B 1 0X0b78
B 4 0X0be6
B 3 0X0d08
B 5 0X0dbc
B E 0X0e66
B 8 0X0f7e
B 2 0X0fe2
B 7 0X10dc
B O 0X11c2
B T 0X1280
H 9 0X1456
H 6 0X1500
H 4 0X1618
H 1 0X16ea
H 5 0X1776
H 3 0X1834
H 8 0X18f2
H E 0X19ba
H 2 0X1a96
H O 0X1b4a
H 7 0X1c1c
H T 0X1ce4
B 9 0X1dca
B 4 0X1f00
B 6 0X1fb4
B 5 0X205e
B 1 0X20ea
B 8 0X21c6
B 3 0X22c0
B 2 0X232e
B E 0X23d8
B 7 0X24d2
B O 0X25cc
B T 0X2694
H 4 0X282e
H 9 0X2932
H 6 0X29dc
H 1 0X2a90
H 5 0X2b8a
H 3 0X2c34
H 8 0X2d1a
H E 0X2df6
H 2 0X2e96
H O 0X2f5e
H 7 0X301c
H T 0X30da
B 4 0X31c0
B 6 0X3256
B 9 0X3364
B 5 0X3472
B 1 0X3512
B 8 0X35e4
B 3 0X3684
B 2 0X3742
B E 0X3828
B 7 0X38c8
B O 0X39cc
B T 0X3a9e
H 6 0X3c4c
H 4 0X3cec
H 9 0X3ddc
H 1 0X3ed6
H 5 0X3f80
H 3 0X4048
H 8 0X4106
H E 0X41d8
H 2 0X428c
H O 0X4340
H 7 0X43fe
H T 0X44e4
B 6 0X45d4
B 9 0X46b0
B 4 0X4764
B 5 0X484a
B 1 0X48fe
B 8 0X49da
B 3 0X4a98
B 2 0X4b56
B E 0X4be2
B 7 0X4cb4
B O 0X4db8
B T 0X4e76
H 9 0X5060
H 6 0X511e
H 5 0X51f0
H 4 0X52b8
H 8 0X536c
H 1 0X542a
H 2 0X5510
H 3 0X55ce
H 7 0X5696
H E 0X5704
H O 0X57d6
H T 0X58d0
B 6 0X59b6
B 9 0X5ab0
B 5 0X5b8c
B 8 0X5c36
B 4 0X5d26
B 2 0X5dbc
B 1 0X5e8e
B 7 0X5f6a
B 3 0X6000
B O 0X60dc
B E 0X617c
B T 0X6276
H 6 0X6438
H 5 0X6514
H 9 0X65e6
H 4 0X6672
H 8 0X673a
H 1 0X682a
H 2 0X6910
H 3 0X69ce
H 7 0X6ab4
H E 0X6b36
H O 0X6c1c
H T 0X6cc6
B 5 0X6dca
B 6 0X6e88
B 9 0X6f78
B 8 0X7036
B 4 0X70f4
B 2 0X71e4
B 1 0X72a2
B 7 0X7388
B 3 0X741e
B O 0X74dc
B E 0X75a4
B T 0X766c
H 5 0X784c
H 9 0X790a
H 6 0X79dc
H 4 0X7a90
H 8 0X7b4e
H 1 0X7c34
H 2 0X7cde
H 3 0X7da6
H 7 0X7eaa
H E 0X7f4a
H O 0X8044
H T 0X80da
B 9 0X81ac
B 5 0X82a6
B 6 0X836e
B 8 0X842c
B 4 0X8526
B 2 0X85b2
B 1 0X8670
B 7 0X877e
B 3 0X87f6
B O 0X88d2
B E 0X89b8
B T 0X8a8a
H 5 0X8c42
H 9 0X8d32
H 8 0X8dd2
H 6 0X8ecc
H 2 0X8fc6
H 4 0X9048
H 7 0X914c
H 1 0X9214
H O 0X928c
H 3 0X9336
H E 0X93fe
H T 0X94ee
B 5 0X95fc
B 8 0X96ba
B 9 0X9782
B 2 0X9868
B 6 0X9930
B 7 0X9a0c
B 4 0X9aca
B O 0X9b74
B 1 0X9c14
B E 0X9cf0
B 3 0X9da4
B T 0X9e8a
H 8 0Xa060
H 5 0Xa13c
H 9 0Xa218
H 6 0Xa2e0
H 2 0Xa3b2
H 4 0Xa466
H 7 0Xa556
H 1 0Xa60a
H O 0Xa6a0
H 3 0Xa772
H E 0Xa7e0
H T 0Xa8c6
B 8 0Xa9ca
B 9 0Xaaec
B 5 0Xaba0
B 2 0Xac68
B 6 0Xad1c
B 7 0Xae16
B 4 0Xaede
B O 0Xaf92
B 1 0Xb032
B E 0Xb0b4
B 3 0Xb1b8
B T 0Xb276
H 9 0Xb460
H 8 0Xb51e
H 5 0Xb5f0
H 6 0Xb6ea
H 2 0Xb7bc
H 4 0Xb884
H 7 0Xb94c
H 1 0Xba00
H O 0Xba96
H 3 0Xbb90
H E 0Xbc08
H T 0Xbcda
B 9 0Xbdb6
B 5 0Xbeba
B 8 0Xbf78
B 2 0Xc04a
B 6 0Xc11c
B 7 0Xc1f8
B 4 0Xc2e8
B O 0Xc374
B 1 0Xc464
B E 0Xc4f0
B 3 0Xc5b8
B T 0Xc68a
H 5 0Xc874
H 9 0Xc932
H 2 0Xc9d2
H 8 0Xca90
H 7 0Xcb94
H 6 0Xcc66
H O 0Xcd2e
H 4 0Xcdba
H 1 0Xcec8
H 3 0Xcf86
H E 0Xd01c
H T 0Xd0f8
B 9 0Xd1f2
B 5 0Xd2c4
B 2 0Xd382
B 7 0Xd440
B 8 0Xd4f4
B O 0Xd5f8
B 6 0Xd6c0
B 1 0Xd774
B 4 0Xd814
B E 0Xd904
B 3 0Xd9c2
B T 0Xda94
H 9 0Xdc4c
H 2 0Xdd00
H 5 0Xddf0
H 8 0Xdea4
H 7 0Xdf9e
H 6 0Xe05c
H O 0Xe110
H 4 0Xe19c
H 1 0Xe28c
H 3 0Xe37c
H E 0Xe3cc
H T 0Xe4d0
B 2 0Xe5a2
B 9 0Xe69c
B 5 0Xe76e
B 7 0Xe82c
B 8 0Xe8f4
B O 0Xe9ee
B 6 0Xeab6
B 1 0Xeb6a
B 4 0Xec0a
B E 0Xecdc
B 3 0Xed7c
B T 0Xee80
H 2 0Xf01a
H 5 0Xf0ec
H 9 0Xf1c8
H 8 0Xf290
H 7 0Xf38a
H 6 0Xf45c
H O 0Xf51a
H 4 0Xf5a6
H 1 0Xf696
H 3 0Xf75e
H E 0Xf7a4
H T 0Xf8c6
B 5 0Xf9f2
B 2 0Xfaa6
B 9 0Xfb50
B 7 0Xfc22
B 8 0Xfcc2
B O 0Xfdda
B 6 0Xfeac
B 1 0Xff74
B 4 0X000a
B E 0X00a0
B 3 0X0186
B T 0X0262
H 2 0X0456
H 5 0X051e
H 7 0X05fa
H 9 0X06ae
H O 0X0780
H 8 0X0834
H 1 0X0906
H 6 0X09ec
H E 0X0a82
H 4 0X0b0e
H 3 0X0bd6
H T 0X0cb2
B 2 0X0da2
B 7 0X0e6a
B 5 0X0f5a
B O 0X102c
B 9 0X111c
B 1 0X11da
B 8 0X128e
B E 0X1374
B 6 0X1446
B 3 0X14be
B 4 0X1586
B T 0X1658
H 7 0X1806
H 2 0X1900
H 5 0X19c8
H 9 0X1ac2
H O 0X1b58
H 8 0X1c3e
H 1 0X1cfc
H 6 0X1de2
H E 0X1e96
H 4 0X1f0e
H 3 0X1fea
H T 0X20da
B 7 0X2198
B 5 0X227e
B 2 0X235a
B O 0X2422
B 9 0X2508
B 1 0X259e
B 8 0X2684
B E 0X2774
B 6 0X2850
B 3 0X28d2
B 4 0X29a4
B T 0X2a80
H 5 0X2c1a
H 7 0X2d00
H 2 0X2dfa
H 9 0X2e90
H O 0X2f26
H 8 0X3020
H 1 0X30e8
H 6 0X31c4
H E 0X3264
H 4 0X3304
H 3 0X33f4
H T 0X34e4
B 5 0X35c0
B 2 0X369c
B 7 0X3750
B O 0X382c
B 9 0X38d6
B 1 0X398a
B 8 0X3a52
B E 0X3b24
B 6 0X3bec
B 3 0X3cbe
B 4 0X3d90
B T 0X3e6c
H 2 0X4042
H 5 0X40f6
H O 0X4196
H 7 0X4268
H 1 0X4344
H 9 0X4416
H E 0X44f2
H 8 0X45ba
H 3 0X4664
H 6 0X472c
H 4 0X481c
H T 0X48bc
B 5 0X49ac
B 2 0X4a74
B O 0X4b50
B 1 0X4c04
B 7 0X4cd6
B E 0X4d9e
B 9 0X4e70
B 3 0X4f24
B 8 0X4ff6
B 4 0X50f0
B 6 0X5186
B T 0X5262
H 5 0X53f2
H O 0X54d8
H 2 0X55aa
H 7 0X56a4
H 1 0X5762
H 9 0X5802
H E 0X58a2
H 8 0X5992
H 3 0X5a46
H 6 0X5b2c
H 4 0X5bae
H T 0X5cc6
B O 0X5dde
B 5 0X5ea6
B 2 0X5f3c
B 1 0X6004
B 7 0X60f4
B E 0X6194
B 9 0X6266
B 3 0X6338
B 8 0X63f6
B 4 0X64aa
B 6 0X655e
B T 0X664e
H O 0X681a
H 2 0X68ec
H 5 0X69a0
H 7 0X6aae
H 1 0X6b58
H 9 0X6c0c
H E 0X6cde
H 8 0X6d9c
H 3 0X6e50
H 6 0X6f2c
H 4 0X6fa4
H T 0X70a8
B 2 0X71c0
B O 0X72a6
B 5 0X7350
B 1 0X7418
B 7 0X74ea
B E 0X75a8
B 9 0X767a
B 3 0X7742
B 8 0X7800
B 4 0X78c8
B 6 0X797c
B T 0X7a3a
H O 0X7c42
H 2 0X7ce2
H 1 0X7dd2
H 5 0X7e90
H E 0X7f94
H 7 0X803e
H 3 0X80b6
H 9 0X81c4
H 4 0X8278
H 8 0X8340
H 6 0X8426
H T 0X84d0
B O 0X85c0
B 1 0X8656
B 2 0X8732
B E 0X8818
B 5 0X8912
B 3 0X89b2
B 7 0X8a70
B 4 0X8b4c
B 9 0X8c0a
B 6 0X8cf0
B 8 0X8d90
B T 0X8e8a
H 1 0X9038
H O 0X90ce
H 2 0X9196
H 5 0X929a
H E 0X936c
H 7 0X9420
H 3 0X94e8
H 9 0X95ba
H 4 0X966e
H 8 0X9740
H 6 0X9808
H T 0X98ee
B 1 0X99d4
B 2 0X9a7e
B O 0X9b64
B E 0X9c22
B 5 0X9d08
B 3 0X9dc6
B 7 0X9e8e
B 4 0X9f42
B 9 0Xa01e
B 6 0Xa10e
B 8 0Xa1b8
B T 0Xa276
H 2 0Xa46a
H 1 0Xa564
H O 0Xa5b4
H 5 0Xa690
H E 0Xa73a
H 7 0Xa83e
H 3 0Xa8e8
H 9 0Xa9ce
H 4 0Xaa82
H 8 0Xab5e
H 6 0Xac3a
H T 0Xad0c
B 2 0Xadfc
B O 0Xaeba
B 1 0Xaf64
B E 0Xb022
B 5 0Xb0c2
B 3 0Xb1d0
B 7 0Xb270
B 4 0Xb356
B 9 0Xb446
B 6 0Xb536
B 8 0Xb5e0
B T 0Xb6a8
H O 0Xb842
H 2 0Xb90a
H E 0Xb9c8
H 1 0Xbab8
H 3 0Xbb80
H 5 0Xbc34
H 4 0Xbd06
H 7 0Xbdba
H 6 0Xbeaa
H 9 0Xbfa4
H 8 0Xc04e
H T 0Xc120
B 2 0Xc1d4
B O 0Xc2b0
B E 0Xc364
B 3 0Xc440
B 1 0Xc4fe
B 4 0Xc5bc
B 5 0Xc6a2
B 6 0Xc742
B 7 0Xc828
B 8 0Xc904
B 9 0Xc9f4
B T 0Xcabc
H 2 0Xcc38
H E 0Xcd00
H O 0Xcdf0
H 1 0Xceae
H 3 0Xcf6c
H 5 0Xd03e
H 4 0Xd0f2
H 7 0Xd1c4
H 6 0Xd282
H 9 0Xd368
H 8 0Xd430
H T 0Xd4ee
B E 0Xd5de
B 2 0Xd6b0
B O 0Xd764
B 3 0Xd836
B 1 0Xd8fe
B 4 0Xd9a8
B 5 0Xda84
B 6 0Xdb2e
B 7 0Xdc1e
B 8 0Xdcf0
B 9 0Xdda4
B T 0Xde80
H E 0Xe01a
H O 0Xe100
H 2 0Xe1c8
H 1 0Xe2ae
H 3 0Xe358
H 5 0Xe40c
H 4 0Xe4e8
H 7 0Xe5c4
H 6 0Xe678
H 9 0Xe740
H 8 0Xe812
H T 0Xe8b2
B O 0Xe9de
B E 0Xeaba
B 2 0Xeb50
B 3 0Xec22
B 1 0Xecf4
B 4 0Xedc6
B 5 0Xee70
B 6 0Xef38
B 7 0Xf014
B 8 0Xf0d2
B 9 0Xf1ae
B T 0Xf258
H E 0Xf410
H O 0Xf514
H 3 0Xf5d2
H 2 0Xf6a4
H 4 0Xf74e
H 1 0Xf852
H 6 0Xf906
H 5 0Xf9b0
H 8 0Xfa5a
H 7 0Xfb40
H 9 0Xfc26
H T 0Xfcb2
B E 0Xfdb6
B 3 0Xfe88
B O 0Xff5a
B 4 0X0022
B 2 0X00cc
B 6 0X018a
B 8 0X031a
B 1 0X034c
B 5 0X0400
B 9 0X04e6
B 7 0X059a
B T 0X064e
H 3 0X082e
H E 0X08e2
H O 0X09be
H 2 0X0ab8
H 4 0X0b44
H 1 0X0c16
H 6 0X0cde
H 5 0X0dba
H 8 0X0e6e
H 7 0X0f40
H 9 0X0ffe
H T 0X10a8
B 3 0X11c0
B O 0X126a
B E 0X1346
B 4 0X1418
B 2 0X14d6
B 6 0X1576
B 1 0X163e
B 8 0X1742
B 5 0X1800
B 9 0X18dc
B 7 0X19a4
B T 0X1a58
H O 0X1c10
H 3 0X1d14
H E 0X1d96
H 2 0X1eae
H 4 0X1f3a
H 1 0X200c
H 6 0X20ca
H 5 0X21b0
H 8 0X2282
H 7 0X232c
H 9 0X23fe
H T 0X24bc
B O 0X25a2
B E 0X269c
B 3 0X276e
B 4 0X2822
B 2 0X28d6
B 6 0X298a
B 1 0X2a66
B 8 0X2b2e
B 5 0X2c14
B 9 0X2cd2
B 7 0X2d9a
B T 0X2e44
H E 0X301a
H O 0X310a
H 4 0X3196
H 3 0X327c
H 6 0X3376
H 2 0X3448
H 8 0X34e8
H 1 0X35ba
H 9 0X3678
H 5 0X3736
H 7 0X3826
H T 0X38a8
B O 0X39a2
B E 0X3a92
B 4 0X3b64
B 6 0X3c36
B 3 0X3ce0
B 8 0X3db2
B 2 0X3e70
B 9 0X3f60
B 1 0X3fec
B 7 0X40dc
B 5 0X41ae
B T 0X424e
H O 0X43de
H 4 0X44ce
H E 0X45aa
H 3 0X46a4
H 6 0X4780
H 2 0X485c
H 8 0X4938
H 1 0X49c4
H 9 0X4a6e
H 5 0X4b36
H 7 0X4c30
H T 0X4cd0
B 4 0X4d8e
B O 0X4e6a
B E 0X4f1e
B 6 0X505e
B 3 0X50e0
B 8 0X51ee
B 2 0X527a
B 9 0X5360
B 1 0X540a
B 7 0X54f0
B 5 0X55ae
B T 0X566c
H 4 0X5838
H E 0X58d8
H O 0X598c
H 3 0X5a7c
H 6 0X5b58
H 2 0X5c48
H 8 0X5cfc
H 1 0X5db0
H 9 0X5eaa
H 5 0X5f40
H 7 0X601c
H T 0X60d0
B E 0X61d4
B 4 0X629c
B O 0X6350
B 6 0X6454
B 3 0X64ea
B 8 0X65a8
B 2 0X6666
B 9 0X674c
B 1 0X6800
B 7 0X68fa
B 5 0X69cc
B T 0X6a6c
H 4 0X6c24
H E 0X6d00
H 6 0X6daa
H O 0X6ec2
H 8 0X6f58
H 3 0X7034
H 9 0X711a
H 2 0X71ba
H 7 0X72b4
H 1 0X7354
H 5 0X73f4
H T 0X74c6
B 4 0X75ca
B 6 0X7692
B E 0X7728
B 8 0X7836
B O 0X7912
B 9 0X79da
B 3 0X7a98
B 7 0X7b6a
B 2 0X7c32
B 5 0X7d18
B 1 0X7da4
B T 0X7e58
H 6 0X8042
H 4 0X80ec
H E 0X81aa
H O 0X82a4
H 8 0X8358
H 3 0X842a
H 9 0X84fc
H 2 0X85f6
H 7 0X86c8
H 1 0X875e
H 5 0X8812
H T 0X88da
B 6 0X89a2
B E 0X8a88
B 4 0X8b64
B 8 0X8c18
B O 0X8cfe
B 9 0X8da8
B 3 0X8e8e
B 7 0X8f60
B 2 0X901e
B 5 0X90fa
B 1 0X91ae
B T 0X9276
H E 0X944c
H 6 0X9528
H 4 0X95dc
H O 0X96a4
H 8 0X976c
H 3 0X9816
H 9 0X98f2
H 2 0X99d8
H 7 0X9aa0
H 1 0X9b5e
H 5 0X9c26
H T 0X9cda
B E 0X9de8
B 4 0X9eba
B 6 0X9f78
B 8 0Xa040
B O 0Xa112
B 9 0Xa1d0
B 3 0Xa298
B 7 0Xa360
B 2 0Xa432
B 5 0Xa504
B 1 0Xa5cc
B T 0Xa66c
H 4 0Xa856
H E 0Xa91e
H 8 0Xa9e6
H 6 0Xaaf4
H 9 0Xab94
H O 0Xac48
H 7 0Xad10
H 3 0Xade2
H 5 0Xae82
H 2 0Xaf54
H 1 0Xb04e
H T 0Xb0c6
B E 0Xb206
B 4 0Xb292
B 8 0Xb35a
B 9 0Xb44a
B 6 0Xb508
B 7 0Xb5da
B O 0Xb6a2
B 5 0Xb788
B 3 0Xb83c
B 1 0Xb8fa
B 2 0Xb972
B T 0Xba4e
H E 0Xbbf2
H 8 0Xbcec
H 4 0Xbda0
H 6 0Xbeae
H 9 0Xbf6c
H O 0Xc020
H 7 0Xc106
H 3 0Xc192
H 5 0Xc264
H 2 0Xc336
H 1 0Xc426
H T 0Xc4d0
B 8 0Xc58e
B E 0Xc66a
B 4 0Xc728
B 9 0Xc836
B 6 0Xc8ea
B 7 0Xc99e
B O 0Xca7a
B 5 0Xcb4c
B 3 0Xcbe2
B 1 0Xccaa
B 2 0Xcd4a
B T 0Xce3a
H 8 0Xd038
H 4 0Xd0c4
H E 0Xd196
H 6 0Xd25e
H 9 0Xd358
H O 0Xd420
H 7 0Xd4d4
H 3 0Xd57e
H 5 0Xd63c
H 2 0Xd722
H 1 0Xd7fe
H T 0Xd894
B 4 0Xd9a2
B 8 0Xda4c
B E 0Xdb50
B 9 0Xdc04
B 6 0Xdcc2
B 7 0Xddb2
B O 0Xde84
B 5 0Xdf38
B 3 0Xdfce
B 1 0Xe0b4
B 2 0Xe136
B T 0Xe1f4
H 8 0Xe3de
H 4 0Xe4c4
H 9 0Xe58c
H E 0Xe67c
H 7 0Xe744
H 6 0Xe816
H 5 0Xe8c0
H O 0Xe9b0
H 1 0Xea8c
H 3 0Xeb18
H 2 0Xebb8
H T 0Xec58
B 8 0Xed2a
B 9 0Xee2e
B 4 0Xef14
B 7 0Xefdc
B E 0Xf086
B 5 0Xf180
B 6 0Xf25c
B 1 0Xf324
B O 0Xf3ec
B 2 0Xf48c
B 3 0Xf554
B T 0Xf5f4
H 9 0Xf7ca
H 8 0Xf89c
H 4 0Xf95a
H E 0Xfa4a
H 7 0Xfb08
H 6 0Xfbda
H 5 0Xfcb6
H O 0Xfd92
H 1 0Xfe46
H 3 0Xfefa
H 2 0Xffae
H T 0X0058
B 9 0X0148
B 4 0X022e
B 8 0X02e2
B 7 0X03be
B E 0X0472
B 5 0X056c
B 6 0X065c
B 1 0X071a
B O 0X07d8
B 2 0X0864
B 3 0X0918
B T 0X09ea
H 4 0X0bac
H 9 0X0ca6
H 8 0X0d6e
H E 0X0e4a
H 7 0X0ee0
H 6 0X0fa8
H 5 0X1084
H O 0X1160
H 1 0X1214
H 3 0X12dc
H 2 0X13ae
H T 0X144e
B 4 0X1548
B 8 0X1606
B 9 0X170a
B 7 0X17b4
B E 0X187c
B 5 0X1958
B 6 0X1a2a
B 1 0X1ade
B O 0X1bb0
B 2 0X1c5a
B 3 0X1d22
B T 0X1db8
H 8 0X1fc0
H 4 0X2060
H 7 0X2150
H 9 0X2218
H 5 0X22c2
H E 0X2394
H 1 0X2484
H 6 0X2542
H 2 0X2628
H O 0X26c8
H 3 0X2772
H T 0X2812
B 4 0X28ee
B 8 0X29c0
B 7 0X2aa6
B 5 0X2baa
B 9 0X2c7c
B 1 0X2d44
B E 0X2dda
B 2 0X2eac
B 6 0X2f7e
B 3 0X3032
B O 0X3118
B T 0X31ea
H 4 0X3366
H 7 0X344c
H 8 0X34ec
H 9 0X35e6
H 5 0X36e0
H E 0X379e
H 1 0X387a
H 6 0X3942
H 2 0X3a00
H O 0X3aaa
H 3 0X3b4a
H T 0X3c44
B 7 0X3cd0
B 4 0X3d98
B 8 0X3e4c
B 5 0X3faa
B 9 0X4068
B 1 0X414e
B E 0X41e4
B 2 0X42b6
B 6 0X4388
B 3 0X4428
B O 0X4504
B T 0X45d6
H 7 0X4798
H 8 0X482e
H 4 0X48e2
H 9 0X49e6
H 5 0X4acc
H E 0X4bbc
H 1 0X4c70
H 6 0X4d38
H 2 0X4df6
H O 0X4eaa
H 3 0X4f54
H T 0X5030
B 8 0X50f8
B 7 0X51de
B 4 0X52ba
B 5 0X538c
B 9 0X545e
B 1 0X553a
B E 0X55e4
B 2 0X5698
B 6 0X5774
B 3 0X583c
B O 0X5936
B T 0X59b8
H 7 0X5b70
H 8 0X5c06
H 5 0X5cd8
H 4 0X5ddc
H 1 0X5eea
H 9 0X5f94
H 2 0X6070
H E 0X611a
H 6 0X61e2
H O 0X62b4
H 3 0X632c
H T 0X6426
B 7 0X64d0
B 5 0X65b6
B 8 0X6688
B 1 0X6778
B 4 0X6818
B 2 0X6908
B 9 0X69ee
B 6 0X6a8e
B E 0X6b6a
B 3 0X6c1e
B O 0X6ce6
B T 0X6db8
H 5 0X6f7a
H 7 0X7074
H 8 0X7114
H 4 0X71c8
H 1 0X72ae
H 9 0X739e
H 2 0X7416
H E 0X7538
H 6 0X75ec
H O 0X7682
H 3 0X7722
H T 0X7808
B 5 0X790c
B 8 0X79ca
B 7 0X7ac4
B 1 0X7b6e
B 4 0X7c04
B 2 0X7ce0
B 9 0X7db2
B 6 0X7eac
B E 0X7f74
B 3 0X8000
B O 0X80e6
B T 0X81a4
H 8 0X837a
H 5 0X8460
H 7 0X8546
H 4 0X85dc
H 1 0X86c2
H 9 0X8780
H 2 0X8802
H E 0X88f2
H 6 0X89b0
H O 0X8a6e
H 3 0X8b36
H T 0X8bfe
B 8 0X8cee
B 7 0X8dd4
B 5 0X8ec4
B 1 0X8f78
B 4 0X904a
B 2 0X90ea
B 9 0X91bc
B 6 0X927a
B E 0X9324
B 3 0X93f6
B O 0X94f0
B T 0X95ae
H 7 0X9748
H 8 0X97de
H 1 0X98f6
H 5 0X99c8
H 2 0X9af4
H 4 0X9b76
H 6 0X9c52
H 9 0X9d1a
H 3 0X9dba
H E 0X9e46
H O 0X9f40
H T 0Xa01c
B 8 0Xa0c6
B 7 0Xa18e
B 1 0Xa256
B 2 0Xa350
B 5 0Xa422
B 6 0Xa508
B 4 0Xa5bc
B 3 0Xa65c
B 9 0Xa760
B O 0Xa814
B E 0Xa8e6
B T 0Xa9ae
H 8 0Xab98
H 1 0Xac74
H 7 0Xad1e
H 5 0Xadaa
H 2 0Xae68
H 4 0Xaf26
H 6 0Xb016
H 9 0Xb0d4
H 3 0Xb192
H E 0Xb26e
H O 0Xb35e
H T 0Xb3ea
B 1 0Xb4e4
B 8 0Xb5c0
B 7 0Xb69c
B 2 0Xb71e
B 5 0Xb7e6
B 6 0Xb8cc
B 4 0Xb994
B 3 0Xba34
B 9 0Xbb56
B O 0Xbc14
B E 0Xbcd2
B T 0Xbd90
H 1 0Xbf48
H 7 0Xc04c
H 8 0Xc0f6
H 5 0Xc1b4
H 2 0Xc268
H 4 0Xc312
H 6 0Xc3ee
H 9 0Xc4de
H 3 0Xc57e
H E 0Xc646
H O 0Xc736
H T 0Xc7d6
B 7 0Xc8ee
B 1 0Xc9ac
B 8 0Xca88
B 2 0Xcb64
B 5 0Xcc04
B 6 0Xcce0
B 4 0Xcd62
B 3 0Xce48
B 9 0Xcf2e
B O 0Xcfe2
B E 0Xd0be
B T 0Xd190
H 1 0Xd348
H 7 0Xd456
H 2 0Xd500
H 8 0Xd5aa
H 6 0Xd6a4
H 5 0Xd76c
H 3 0Xd816
H 4 0Xd8b6
H O 0Xd974
H 9 0Xda50
H E 0Xdb0e
H T 0Xdbf4
B 1 0Xdcb2
B 2 0Xdd70
B 7 0Xde74
B 6 0Xdf28
B 8 0Xdffa
B 3 0Xe0d6
B 5 0Xe1a8
B O 0Xe266
B 4 0Xe310
B E 0Xe3c4
B 9 0Xe4b4
B T 0Xe57c
H 2 0Xe770
H 1 0Xe842
H 7 0Xe91e
H 8 0Xe9b4
H 6 0Xea86
H 5 0Xeb62
H 3 0Xec16
H 4 0Xec98
H O 0Xed92
H 9 0Xee32
H E 0Xef0e
H T 0Xefd6
B 2 0Xf0c6
B 7 0Xf1c0
B 1 0Xf260
B 6 0Xf314
B 8 0Xf3e6
B 3 0Xf4ae
B 5 0Xf59e
B O 0Xf648
B 4 0Xf710
B E 0Xf7c4
B 9 0Xf8b4
B T 0Xf972
H 7 0Xfb5c
H 2 0Xfc24
H 1 0Xfd0a
H 8 0Xfdaa
H 6 0Xfe68
H 5 0Xff58
H 3 0Xfff8
H 4 0X008e
H O 0X0192
H 9 0X026e
H E 0X0318
H T 0X03d6
B 7 0X04c6
B 1 0X0584
B 2 0X061a
B 6 0X0700
B 8 0X07c8
B 3 0X087c
B 5 0X0994
B O 0X0a52
B 4 0X0b10
B E 0X0bc4
B 9 0X0cdc
B T 0X0d72
H 1 0X0f3e
H 7 0X1038
H 6 0X1100
H 2 0X11c8
H 3 0X1222
H 8 0X12fe
H O 0X1416
H 5 0X14ac
H 4 0X1574
H E 0X160a
H 9 0X1718
H T 0X17c2
B 7 0X189e
B 1 0X1948
B 6 0X1a2e
B 3 0X1b14
B 2 0X1bdc
B O 0X1ca4
B 8 0X1d58
B 4 0X1e48
B 5 0X1f06
B 9 0X1fc4
B E 0X2064
B T 0X2140
H 7 0X2320
H 6 0X23de
H 1 0X24c4
H 2 0X25aa
H 3 0X2640
H 8 0X2712
H O 0X27d0
H 5 0X28b6
H 4 0X2960
H E 0X2a28
H 9 0X2b36
H T 0X2ba4
B 6 0X2c8a
B 7 0X2d70
B 1 0X2e10
B 3 0X2ec4
B 2 0X2fa0
B O 0X307c
B 8 0X3126
B 4 0X3234
B 5 0X32d4
B 9 0X33ce
B E 0X3496
B T 0X3540
H 6 0X3720
H 1 0X37f2
H 7 0X38d8
H 2 0X39a0
H 3 0X3a36
H 8 0X3af4
H O 0X3ba8
H 5 0X3c70
H 4 0X3d2e
H E 0X3e14
H 9 0X3efa
H T 0X3f9a
B 1 0X406c
B 6 0X417a
B 7 0X424c
B 3 0X4314
B 2 0X43aa
B O 0X4454
B 8 0X44ea
B 4 0X45f8
B 5 0X46ca
B 9 0X47ba
B E 0X4878
B T 0X4936
H 6 0X4af8
H 1 0X4be8
H 3 0X4cb0
H 7 0X4d6e
H O 0X4e22
H 2 0X4ee0
H 4 0X4f80
H 8 0X5048
H 9 0X5142
H 5 0X520a
H E 0X52dc
H T 0X5390
B 6 0X5476
B 3 0X5548
B 1 0X561a
B O 0X56ce
B 7 0X57b4
B 4 0X5868
B 2 0X5912
B 9 0X5a0c
B 8 0X5a98
B E 0X5b88
B 5 0X5c82
B T 0X5d2c
H 3 0X5f16
H 6 0X5fe8
H 1 0X60c4
H 7 0X6182
H O 0X620e
H 2 0X62e0
H 4 0X6376
H 8 0X6452
H 9 0X6524
H 5 0X6614
H E 0X66b4
H T 0X677c
B 3 0X6876
B 1 0X693e
B 6 0X6a2e
B O 0X6ae2
B 7 0X6baa
B 4 0X6c7c
B 2 0X6d26
B 9 0X6dee
B 8 0X6eac
B E 0X6f88
B 5 0X708c
B T 0X7122
H 1 0X72da
H 3 0X73a2
H 6 0X7474
H 7 0X756e
H O 0X7618
H 2 0X76d6
H 4 0X776c
H 8 0X7848
H 9 0X7942
H 5 0X7a0a
H E 0X7abe
H T 0X7b86
B 1 0X7c4e
B 6 0X7d52
B 3 0X7e06
B O 0X7eb0
B 7 0X7f64
B 4 0X8068
B 2 0X80fe
B 9 0X8216
B 8 0X82c0
B E 0X8374
B 5 0X8482
B T 0X852c
H 6 0X86ee
H 1 0X87e8
H O 0X8892
H 3 0X8932
H 4 0X89f0
H 7 0X8a54
H 9 0X8bc6
H 2 0X8c66
H 8 0X8cfc
H E 0X8dce
H 5 0X8ebe
H T 0X8fae
B 1 0X9076
B 6 0X915c
B O 0X9206
B 4 0X92d8
B 3 0X936e
B 9 0X944a
B 7 0X953a
B 8 0X95ee
B 2 0X9698
B 5 0X979c
B E 0X9828
B T 0X992c
H 1 0X9af8
H O 0X9bd4
H 6 0X9c92
H 3 0X9d3c
H 4 0X9de6
H 7 0X9eea
H 9 0X9f9e
H 2 0Xa070
H 8 0Xa12e
H E 0Xa1ec
H 5 0Xa2a0
H T 0Xa390
B O 0Xa494
B 1 0Xa53e
B 6 0Xa61a
B 4 0Xa6f6
B 3 0Xa796
B 9 0Xa87c
B 7 0Xa93a
B 8 0Xa9ee
B 2 0Xaa84
B 5 0Xab88
B E 0Xac14
B T 0Xad0e
H O 0Xaec6
H 6 0Xaf70
H 1 0Xb06a
H 3 0Xb13c
H 4 0Xb1fa
H 7 0Xb308
H 9 0Xb3a8
H 2 0Xb45c
H 8 0Xb538
H E 0Xb60a
H 5 0Xb6b4
H T 0Xb768
B 6 0Xb844
B O 0Xb916
B 1 0Xb9c0
B 4 0Xba92
B 3 0Xbb78
B 9 0Xbc5e
B 7 0Xbd30
B 8 0Xbe0c
B 2 0Xbe7a
B 5 0Xbf7e
B E 0Xc050
B T 0Xc118
H O 0Xc2d0
H 6 0Xc38e
H 4 0Xc442
H 1 0Xc528
H 9 0Xc5f0
H 3 0Xc6cc
H 8 0Xc794
H 7 0Xc87a
H 5 0Xc910
H 2 0Xc9f6
H E 0Xcaa0
H T 0Xcb5e
B O 0Xcc58
B 4 0Xcd5c
B 6 0Xce10
B 9 0Xcef6
B 1 0Xcf82
B 8 0Xd068
B 3 0Xd11c
B 5 0Xd1ee
B 7 0Xd2c0
B E 0Xd374
B 2 0Xd400
B T 0Xd4fa
H 4 0Xd6d0
H O 0Xd7c0
H 6 0Xd888
H 1 0Xd93c
H 9 0Xda22
H 3 0Xdae0
H 8 0Xdba8
H 7 0Xdc84
H 5 0Xdd2e
H 2 0Xde00
H E 0Xde3c
H T 0Xdf36
B 4 0Xe058
B 6 0Xe13e
B O 0Xe210
B 9 0Xe300
B 1 0Xe396
B 8 0Xe472
B 3 0Xe508
B 5 0Xe602
B 7 0Xe706
B E 0Xe77e
B 2 0Xe7ec
B T 0Xe8c8
H 6 0Xeac6
H 4 0Xeb84
H O 0Xec60
H 1 0Xed3c
H 9 0Xee40
H 3 0Xeecc
H 8 0Xef9e
H 7 0Xf052
H 5 0Xf124
H 2 0Xf1ec
H E 0Xf296
H T 0Xf34a
B 6 0Xf46c
B O 0Xf534
B 4 0Xf5d4
B 9 0Xf700
B 1 0Xf782
B 8 0Xf84a
B 3 0Xf912
B 5 0Xf9e4
B 7 0Xfaca
B E 0Xfb74
B 2 0Xfbe2
B T 0Xfcc8
H O 0Xfec6
H 6 0Xffac
H 9 0X0074
H 4 0X0100
H 8 0X01dc
H 1 0X02ae
H 5 0X0358
H 3 0X042a
H E 0X04fc
H 7 0X060a
H 2 0X06b4
H T 0X0722
B 6 0X083a
B O 0X0902
B 9 0X09f2
B 8 0X0af6
B 4 0X0b82
B 5 0X0c40
B 1 0X0cfe
B E 0X0db2
B 3 0X0e70
B 2 0X0f42
B 7 0X1028
B T 0X10d2
H 6 0X12a8
H 9 0X135c
H O 0X1442
H 4 0X14e2
H 8 0X15dc
H 1 0X169a
H 5 0X1744
H 3 0X1816
H E 0X18b6
H 7 0X199c
H 2 0X1a64
H T 0X1b22
B 9 0X1c1c
B 6 0X1d34
B O 0X1dd4
B 8 0X1e9c
B 4 0X1f50
B 5 0X1ffa
B 1 0X20cc
B E 0X21a8
B 3 0X2234
B 2 0X2310
B 7 0X23ec
B T 0X24a0
H 9 0X268a
H O 0X273e
H 6 0X281a
H 4 0X28d8
H 8 0X29b4
H 1 0X2a86
H 5 0X2b30
H 3 0X2bee
H E 0X2ca2
H 7 0X2d74
H 2 0X2e28
H T 0X2efa
B O 0X2fea
B 9 0X30f8
B 6 0X31f2
B 8 0X329c
B 4 0X3328
B 5 0X3404
B 1 0X34ea
B E 0X358a
B 3 0X362a
B 2 0X3706
B 7 0X37d8
B T 0X3882
H 9 0X3a9e
H O 0X3b3e
H 8 0X3bfc
H 6 0X3d14
H 5 0X3daa
H 4 0X3e7c
H E 0X3f3a
H 1 0X4016
H 2 0X40a2
H 3 0X4160
H 7 0X4264
H T 0X42e6
B 9 0X43f4
B 8 0X44a8
B O 0X458e
B 5 0X467e
B 6 0X473c
B E 0X47d2
B 4 0X48f4
B 2 0X4962
B 1 0X4a52
B 7 0X4b2e
B 3 0X4bce
B T 0X4c82
H 8 0X4e6c
H 9 0X4f3e
H O 0X4fe8
H 6 0X5100
H 5 0X51b4
H 4 0X525e
H E 0X52fe
H 1 0X53c6
H 2 0X54ac
H 3 0X5574
H 7 0X565a
H T 0X56fa
B 8 0X57b8
B O 0X5894
B 9 0X5998
B 5 0X5a74
B 6 0X5b46
B E 0X5bc8
B 4 0X5cc2
B 2 0X5d6c
B 1 0X5e5c
B 7 0X5f24
B 3 0X5fc4
B T 0X6082
H O 0X623a
H 8 0X62f8
H 9 0X63d4
H 6 0X64a6
H 5 0X6596
H 4 0X665e
H E 0X6726
H 1 0X67ee
H 2 0X688e
H 3 0X696a
H 7 0X6a3c
H T 0X6af0
B O 0X6bb8
B 9 0X6c76
B 8 0X6d3e
B 5 0X6e4c
B 6 0X6f1e
B E 0X6fd2
B 4 0X7090
B 2 0X714e
B 1 0X722a
B 7 0X731a
B 3 0X73a6
B T 0X746e
H 9 0X761c
H O 0X76e4
H 5 0X77d4
H 8 0X78a6
H E 0X7982
H 6 0X7a7c
H 2 0X7b26
H 4 0X7bda
H 7 0X7cd4
H 1 0X7d92
H 3 0X7e32
H T 0X7eb4
B O 0X7fb8
B 9 0X80a8
B 5 0X815c
B E 0X81fc
B 8 0X830a
B 2 0X83dc
B 6 0X8486
B 7 0X8576
B 4 0X8652
B 3 0X8724
B 1 0X87d8
B T 0X8850
H O 0X8a30
H 5 0X8b16
H 9 0X8bf2
H 8 0X8ca6
H E 0X8d5a
H 6 0X8e40
H 2 0X8f08
H 4 0X8fa8
H 7 0X90b6
H 1 0X9188
H 3 0X921e
H T 0X92d2
B 5 0X93d6
B O 0X946c
B 9 0X9552
B E 0X962e
B 8 0X971e
B 2 0X97b4
B 6 0X9872
B 7 0X9980
B 4 0X9a48
B 3 0X9ad4
B 1 0X9ba6
B T 0X9c6e
H 5 0X9e58
H 9 0X9f02
H O 0X9fca
H 8 0Xa0a6
H E 0Xa15a
H 6 0Xa22c
H 2 0Xa2e0
H 4 0Xa3b2
H 7 0Xa4a2
H 1 0Xa57e
H 3 0Xa61e
H T 0Xa6be
B 9 0Xa7cc
B 5 0Xa8a8
B O 0Xa948
B E 0Xaa10
B 8 0Xaae2
B 2 0Xabaa
B 6 0Xac40
B 7 0Xad3a
B 4 0Xae0c
B 3 0Xaeca
B 1 0Xafb0
B T 0Xb06e
H 5 0Xb230
H 9 0Xb320
H E 0Xb3de
H O 0Xb4ce
H 2 0Xb578
H 8 0Xb618
H 7 0Xb6fe
H 6 0Xb79e
H 3 0Xb85c
H 4 0Xb8fc
H 1 0Xba32
H T 0Xbab4
B 5 0Xbbcc
B E 0Xbc6c
B 9 0Xbd7a
B 2 0Xbe24
B O 0Xbeec
B 7 0Xbf82
B 8 0Xc040
B 3 0Xc112
B 6 0Xc1e4
B 1 0Xc2de
B 4 0Xc36a
B T 0Xc43c
H E 0Xc5d6
H 5 0Xc702
H 9 0Xc7a2
H O 0Xc87e
H 2 0Xc95a
H 8 0Xca18
H 7 0Xcad6
H 6 0Xcb94
H 3 0Xcc34
H 4 0Xccd4
H 1 0Xcdce
H T 0Xceb4
B E 0Xcf9a
B 9 0Xd058
B 5 0Xd13e
B 2 0Xd1fc
B O 0Xd2b0
B 7 0Xd36e
B 8 0Xd436
B 3 0Xd51c
B 6 0Xd5f8
B 1 0Xd698
B 4 0Xd724
B T 0Xd81e
H 9 0Xd9fe
H E 0Xdac6
H 5 0Xdb7a
H O 0Xdc6a
H 2 0Xdd00
H 8 0Xddb4
H 7 0Xde90
H 6 0Xdf62
H 3 0Xe020
H 4 0Xe0c0
H 1 0Xe1ba
H T 0Xe250
B 9 0Xe368
B 5 0Xe44e
B E 0Xe502
B 2 0Xe5fc
B O 0Xe69c
B 7 0Xe75a
B 8 0Xe80e
B 3 0Xe8e0
B 6 0Xe980
B 1 0Xea70
B 4 0Xeb2e
B T 0Xebce
H 5 0Xede0
H 9 0Xeec6
H 2 0Xef66
H E 0Xf006
H 7 0Xf0ec
H O 0Xf1d2
H 3 0Xf272
H 8 0Xf344
H 1 0Xf43e
H 6 0Xf4d4
H 4 0Xf5a6
H T 0Xf632
B 9 0Xf768
B 5 0Xf84e
B 2 0Xf902
B 7 0Xf9ac
B E 0Xfa2e
B 3 0Xfb28
B O 0Xfbfa
B 1 0Xfce0
B 8 0Xfdb2
B 4 0Xfe84
B 6 0Xff38
B T 0Xffce
H 9 0X019a
H 2 0X0280
H 5 0X0348
H E 0X03f2
H 7 0X04ce
H O 0X05b4
H 3 0X0640
H 8 0X071c
H 1 0X080c
H 6 0X08ca
H 4 0X097e
H T 0X0a50
B 2 0X0b22
B 9 0X0bea
B 5 0X0cc6
B 7 0X0d98
B E 0X0e56
B 3 0X0f14
B O 0X0fdc
B 1 0X10a4
B 8 0X118a
B 4 0X1266
B 6 0X131a
B T 0X13e2
H 2 0X157c
H 5 0X163a
H 9 0X1734
H E 0X17fc
H 7 0X18ba
H O 0X19aa
H 3 0X1a54
H 8 0X1af4
H 1 0X1bd0
H 6 0X1cac
H 4 0X1d92
H T 0X1e50
B 5 0X1f40
B 2 0X2008
B 9 0X209e
B 7 0X2184
B E 0X2224
B 3 0X2314
B O 0X23c8
B 1 0X247c
B 8 0X2558
B 4 0X2652
B 6 0X2706
B T 0X27e2
H 2 0X29a4
H 5 0X2a6c
H 7 0X2b3e
H 9 0X2be8
H 3 0X2cce
H E 0X2d5a
H 1 0X2e40
H O 0X2efe
H 4 0X3002
H 8 0X30ac
H 6 0X3192
H T 0X3246
B 2 0X3318
B 7 0X33e0
B 5 0X34bc
B 3 0X3598
B 9 0X3656
B 1 0X370a
B E 0X378c
B 4 0X38d6
B O 0X396c
B 6 0X3a52
B 8 0X3b1a
B T 0X3bc4
H 7 0X3d86
H 2 0X3e58
H 5 0X3f02
H 9 0X4006
H 3 0X40d8
H E 0X416e
H 1 0X4240
H O 0X4326
H 4 0X43c6
H 8 0X44a2
H 6 0X4592
H T 0X4646
B 7 0X4704
B 5 0X47f4
B 2 0X48c6
B 3 0X497a
B 9 0X4a74
B 1 0X4b32
B E 0X4baa
B 4 0X4cc2
B O 0X4d6c
B 6 0X4e52
B 8 0X4f10
B T 0X4fe2
H 5 0X51ae
H 7 0X528a
H 2 0X533e
H 9 0X542e
H 3 0X54ec
H E 0X558c
H 1 0X5654
H O 0X5726
H 4 0X57da
H 8 0X5870
H 6 0X5960
H T 0X5a46
B 5 0X5b4a
B 2 0X5c12
B 7 0X5cbc
B 3 0X5d8e
B 9 0X5e74
B 1 0X5f28
B E 0X5fbe
B 4 0X60ea
B O 0X6176
B 6 0X6220
B 8 0X62e8
B T 0X63c4
H 2 0X659a
H 5 0X6662
H 3 0X6734
H 7 0X6810
H 1 0X68d8
H 9 0X69aa
H 4 0X6a86
H E 0X6b08
H 6 0X6bee
H O 0X6cb6
H 8 0X6d88
H T 0X6e50
B 5 0X6f40
B 2 0X6fea
B 3 0X708a
B 1 0X7170
B 7 0X7238
B 4 0X7328
B 9 0X7404
B 6 0X74a4
B E 0X7544
B 8 0X7652
B O 0X772e
B T 0X77f6
H 5 0X79b8
H 3 0X7a62
H 2 0X7b2a
H 7 0X7bfc
H 1 0X7cd8
H 9 0X7db4
H 4 0X7e54
H E 0X7f26
H 6 0X7fe4
H O 0X80a2
H 8 0X81a6
H T 0X8264
B 3 0X8340
B 5 0X841c
B 2 0X84c6
B 1 0X85a2
B 7 0X8656
B 4 0X8728
B 9 0X87fa
B 6 0X88cc
B E 0X8976
B 8 0X8a3e
B O 0X8b24
B T 0X8c00
H 3 0X8dd6
H 2 0X8e76
H 5 0X8f16
H 7 0X8ffc
H 1 0X90e2
H 9 0X91b4
H 4 0X9240
H E 0X9326
H 6 0X93e4
H O 0X94ac
H 8 0X959c
H T 0X9664
B 2 0X972c
B 3 0X97d6
B 5 0X98d0
B 1 0X998e
B 7 0X9a56
B 4 0X9b14
B 9 0X9bf0
B 6 0X9cc2
B E 0X9d76
B 8 0X9e52
B O 0X9f1a
B T 0Xa000
H 3 0Xa1c2
H 2 0Xa258
H 1 0Xa334
H 5 0Xa3fc
H 4 0Xa4ba
H 7 0Xa5a0
H 6 0Xa654
H 9 0Xa712
H 8 0Xa80c
H E 0Xa8ac
H O 0Xa97e
H T 0Xaa46
B 3 0Xab22
B 1 0Xabc2
B 2 0Xac94
B 4 0Xad70
B 5 0Xae4c
B 6 0Xaeec
B 7 0Xafdc
B 8 0Xb0ae
B 9 0Xb162
B O 0Xb252
B E 0Xb310
B T 0Xb3e2
H 1 0Xb586
H 3 0Xb63a
H 2 0Xb70c
H 5 0Xb7d4
H 4 0Xb87e
H 7 0Xb95a
H 6 0Xba04
H 9 0Xbb08
H 8 0Xbbb2
H E 0Xbc84
H O 0Xbd74
H T 0Xbe3c
B 1 0Xbec8
B 2 0Xbfa4
B 3 0Xc058
B 4 0Xc10c
B 5 0Xc210
B 6 0Xc2b0
B 7 0Xc378
B 8 0Xc45e
B 9 0Xc558
B O 0Xc620
B E 0Xc6fc
B T 0Xc7b0
H 1 0Xc954
H 2 0Xca12
H 3 0Xcae4
H 4 0Xcb84
H 5 0Xcc2e
H 6 0Xccec
H 7 0Xcdbe
H 8 0Xce86
H 9 0Xcf6c
H O 0Xd03e
H E 0Xd0e8
H T 0Xd1c4
B 1 0Xd282
B 2 0Xd354
B 3 0Xd412
B 4 0Xd4c6
B 5 0Xd5ac
B 6 0Xd67e
B 7 0Xd750
B 8 0Xd7fa
B 9 0Xd8cc
B O 0Xd98a
B E 0Xda5c
B T 0Xdb2e
H 1 0Xdd04
H 2 0Xddb8
H 3 0Xde58
H 4 0Xdf0c
H 5 0Xdfc0
H 6 0Xe07e
H 7 0Xe15a
H 8 0Xe22c
H 9 0Xe2fe
H O 0Xe3da
H E 0Xe4a2
H T 0Xe54c
B 1 0Xe632
B 2 0Xe6dc
B 3 0Xe7ae
B 4 0Xe862
B 5 0Xe93e
B 6 0Xe9e8
B 7 0Xead8
B 8 0Xebaa
B 9 0Xec54
B O 0Xed30
B E 0Xee16
B T 0Xeeca
H 1 0Xf096
H 2 0Xf122
H 3 0Xf1d6
H 4 0Xf29e
H 5 0Xf366
H 6 0Xf41a
H 7 0Xf500
H 8 0Xf5dc
H 9 0Xf672
H O 0Xf744
H E 0Xf820
H T 0Xf8e8
B 1 0Xf9c4
B 2 0Xfa6e
B 3 0Xfb36
B 4 0Xfbea
B 5 0Xfcda
B 6 0Xfd8e
B 7 0Xfe92
B 8 0Xff46
B 9 0Xfffa
B O 0X00c2
B E 0X019e
B T 0X02c0
