   1     1  1234567890ET                                                                                                                                                  
   2    13  1234567890ET                                                                                                                                                  =
   3    25  1234567890ET                                                                                                                                                  =
   4    37  1234567890ET                                                                                                                                                  =
   5    49  1234567890ET                                                                                                                                                  =
   6    61  1234567890ET                                                                                                                                                  =
   7    73  1234567890ET                                                                                                                                                  =
   8    85  1234567890ET                                                                                                                                                  =
   9    97  1234567890ET                                                                                                                                                  =
  10   109  1234567890ET                                                                                                                                                  =
  11   121  1234567890ET                                                                                                                                                  =
  12   133  1234567890ET                                                                                                                                                  =
  13   145  1234567890ET                                                                                                                                                  =
  14   157  1234567890ET                                                                                                                                                  =
  15   169  1234567890ET                                                                                                                                                  =
  16   181  1234567890ET                                                                                                                                                  =
  17   193  1234567890ET                                                                                                                                                  =
  18   205  1234567890ET                                                                                                                                                  =
  19   217  1234567890ET                                                                                                                                                  =
  20   229  1234567890ET                                                                                                                                                  =
  21   241  1234567890ET                                                                                                                                                  =
  22   253  1234567890ET                                                                                                                                                  =
  23   265  213547698E0T                                                                                                                                                  3
  24   277  2314567890ET                                                                                                                                                  1
  25   289  324165879E0T                                                                                                                                                  9
  26   301  2346185970ET                                                                                                                                                  3
  27   313  243165879E0T                                                                                                                                                  1
  28   325  4236185970ET                                                                                                                                                  3
  29   337  432165879E0T                                                                                                                                                  1
  30   349  3426185970ET                                                                                                                                                  3
  31   361  4362819507ET                                                                                                                                                  E
  32   373  463829105E7T                                                                                                                                                  1
  33   385  6432819507ET                                                                                                                                                  3
  34   397  634829105E7T                                                                                                                                                  1
  35   409  3642819507ET                                                                                                                                                  3
  36   421  346829105E7T                                                                                                                                                  1
  37   433  4386920157ET                                                                                                                                                  9
  38   445  348960251E7T                                                                                                                                                  3
  39   457  3846920157ET                                                                                                                                                  1
  40   469  834960251E7T                                                                                                                                                  3
  41   481  8436920157ET                                                                                                                                                  1
  42   493  483960251E7T                                                                                                                                                  3
  43   505  84930652E17T                                                                                                                                                  E
  44   517  8940356E271T                                                                                                                                                  1
  45   529  98430652E17T                                                                                                                                                  3
  46   541  9480356E271T                                                                                                                                                  1
  47   553  49830652E17T                                                                                                                                                  3
  48   565  4890356E271T                                                                                                                                                  1
  49   577  840953E6721T                                                                                                                                                  E
  50   589  48059E37612T                                                                                                                                                  3
  51   601  408953E6721T                                                                                                                                                  1
  52   613  04859E37612T                                                                                                                                                  3
  53   625  084953E6721T                                                                                                                                                  1
  54   637  80459E37612T                                                                                                                                                  3
  55   649  0854E973162T                                                                                                                                                  E
  56   661  058E4791326T                                                                                                                                                  1
  57   673  5084E973162T                                                                                                                                                  3
  58   685  580E4791326T                                                                                                                                                  1
  59   697  8504E973162T                                                                                                                                                  3
  60   709  805E4791326T                                                                                                                                                  1
  61   721  08E57419236T                                                                                                                                                  E
  62   733  80E75142963T                                                                                                                                                  3
  63   745  8E057419236T                                                                                                                                                  1
  64   757  E8075142963T                                                                                                                                                  3
  65   769  E0857419236T                                                                                                                                                  1
  66   781  0E875142963T                                                                                                                                                  3
  67   793  E0781524693T                                                                                                                                                  E
  68   805  E7018256439T                                                                                                                                                  1
  69   817  7E081524693T                                                                                                                                                  3
  70   829  70E18256439T                                                                                                                                                  1
  71   841  07E81524693T                                                                                                                                                  3
  72   853  0E718256439T                                                                                                                                                  1
  73   865  E0172865349T                                                                                                                                                  E
  74   877  0E127683594T                                                                                                                                                  3
  75   889  01E72865349T                                                                                                                                                  1
  76   901  10E27683594T                                                                                                                                                  3
  77   913  1E072865349T                                                                                                                                                  1
  78   925  E1027683594T                                                                                                                                                  3
  79   937  1E206738954T                                                                                                                                                  E
  80   949  12E60379845T                                                                                                                                                  1
  81   961  21E06738954T                                                                                                                                                  3
  82   973  2E160379845T                                                                                                                                                  1
  83   985  E2106738954T                                                                                                                                                  3
  84   997  E1260379845T                                                                                                                                                  1
  85  1009  1E623097485T                                                                                                                                                  E
  86  1021  E1632904758T                                                                                                                                                  3
  87  1033  E6123097485T                                                                                                                                                  1
  88  1045  6E132904758T                                                                                                                                                  3
  89  1057  61E23097485T                                                                                                                                                  1
  90  1069  16E32904758T                                                                                                                                                  3
  91  1081  613E9240578T                                                                                                                                                  E
  92  1093  6319E425087T                                                                                                                                                  1
  93  1105  361E9240578T                                                                                                                                                  3
  94  1117  3169E425087T                                                                                                                                                  1
  95  1129  136E9240578T                                                                                                                                                  3
  96  1141  1639E425087T                                                                                                                                                  1
  97  1153  61934E52807T                                                                                                                                                  E
  98  1165  169435E8270T                                                                                                                                                  3
  99  1177  19634E52807T                                                                                                                                                  1
 100  1189  916435E8270T                                                                                                                                                  3
 101  1201  96134E52807T                                                                                                                                                  1
 102  1213  691435E8270T                                                                                                                                                  3
 103  1225  9641538E207T                                                                                                                                                  9
 104  1237  94651832E70T                                                                                                                                                  1
 105  1249  4961538E207T                                                                                                                                                  3
 106  1261  46951832E70T                                                                                                                                                  1
 107  1273  6491538E207T                                                                                                                                                  3
 108  1285  69451832E70T                                                                                                                                                  1
 109  1297  965481237E0T                                                                                                                                                  E
 110  1309  6958421730ET                                                                                                                                                  3
 111  1321  659481237E0T                                                                                                                                                  1
 112  1333  5698421730ET                                                                                                                                                  3
 113  1345  596481237E0T                                                                                                                                                  1
 114  1357  9568421730ET                                                                                                                                                  3
 115  1369  5986247103ET                                                                                                                                                  E
 116  1381  589267401E3T                                                                                                                                                  1
 117  1393  8596247103ET                                                                                                                                                  3
 118  1405  895267401E3T                                                                                                                                                  1
 119  1417  9856247103ET                                                                                                                                                  3
 120  1429  958267401E3T                                                                                                                                                  1
 121  1441  5928760413ET                                                                                                                                                  9
 122  1453  952780614E3T                                                                                                                                                  3
 123  1465  9258760413ET                                                                                                                                                  1
 124  1477  295780614E3T                                                                                                                                                  3
 125  1489  2598760413ET                                                                                                                                                  1
 126  1501  529780614E3T                                                                                                                                                  3
 127  1513  25790816E43T                                                                                                                                                  E
 128  1525  2750918E634T                                                                                                                                                  1
 129  1537  72590816E43T                                                                                                                                                  3
 130  1549  7520918E634T                                                                                                                                                  1
 131  1561  57290816E43T                                                                                                                                                  3
 132  1573  5270918E634T                                                                                                                                                  1
 133  1585  250719E8364T                                                                                                                                                  E
 134  1597  52017E93846T                                                                                                                                                  3
 135  1609  502719E8364T                                                                                                                                                  1
 136  1621  05217E93846T                                                                                                                                                  3
 137  1633  025719E8364T                                                                                                                                                  1
 138  1645  20517E93846T                                                                                                                                                  3
 139  1657  0215E739486T                                                                                                                                                  E
 140  1669  012E5374968T                                                                                                                                                  1
 141  1681  1025E739486T                                                                                                                                                  3
 142  1693  120E5374968T                                                                                                                                                  1
 143  1705  2105E739486T                                                                                                                                                  3
 144  1717  201E5374968T                                                                                                                                                  1
 145  1729  02E13547698T                                                                                                                                                  E
 146  1741  20E31456789T                                                                                                                                                  3
 147  1753  2E013547698T                                                                                                                                                  1
 148  1765  E2031456789T                                                                                                                                                  3
 149  1777  E0213547698T                                                                                                                                                  1
 150  1789  0E231456789T                                                                                                                                                  3
 151  1801  E0324165879T                                                                                                                                                  E
 152  1813  E3042681597T                                                                                                                                                  ?
 153  1825  3E024165879T                                                                                                                                                  ?
 154  1837  30E42618597T                                                                                                                                                  1
 155  1849  03E24165879T                                                                                                                                                  3
 156  1861  0E342618597T                                                                                                                                                  1
 157  1873  E0436281957T                                                                                                                                                  E
 158  1885  0E463829175T                                                                                                                                                  3
 159  1897  04E36281957T                                                                                                                                                  1
 160  1909  40E63829175T                                                                                                                                                  3
 161  1921  4E036281957T                                                                                                                                                  1
 162  1933  E4063829175T                                                                                                                                                  3
 163  1945  4E608392715T                                                                                                                                                  E
 164  1957  46E80937251T                                                                                                                                                  1
 165  1969  64E08392715T                                                                                                                                                  3
 166  1981  6E480937251T                                                                                                                                                  1
 167  1993  E6408392715T                                                                                                                                                  3
 168  2005  E4680937251T                                                                                                                                                  1
 169  2017  4E869073521T                                                                                                                                                  E
 170  2029  E4896705312T                                                                                                                                                  3
 171  2041  E8469073521T                                                                                                                                                  1
 172  2053  8E496705312T                                                                                                                                                  3
 173  2065  84E69073521T                                                                                                                                                  1
 174  2077  48E96705312T                                                                                                                                                  3
 175  2089  849E7650132T                                                                                                                                                  E
 176  2101  8947E561023T                                                                                                                                                  1
 177  2113  984E7650132T                                                                                                                                                  3
 178  2125  9487E561023T                                                                                                                                                  1
 179  2137  498E7650132T                                                                                                                                                  3
 180  2149  4897E561023T                                                                                                                                                  1
 181  2161  84795E16203T                                                                                                                                                  E
 182  2173  487591E2630T                                                                                                                                                  3
 183  2185  47895E16203T                                                                                                                                                  1
 184  2197  748591E2630T                                                                                                                                                  3
 185  2209  78495E16203T                                                                                                                                                  1
 186  2221  874591E2630T                                                                                                                                                  3
 187  2233  7854192E603T                                                                                                                                                  9
 188  2245  75814296E30T                                                                                                                                                  1
 189  2257  5784192E603T                                                                                                                                                  3
 190  2269  58714296E30T                                                                                                                                                  1
 191  2281  8574192E603T                                                                                                                                                  3
 192  2293  87514296E30T                                                                                                                                                  1
 193  2305  781524693E0T                                                                                                                                                  E
 194  2317  8712564390ET                                                                                                                                                  3
 195  2329  817524693E0T                                                                                                                                                  1
 196  2341  1872564390ET                                                                                                                                                  3
 197  2353  178524693E0T                                                                                                                                                  1
 198  2365  7182564390ET                                                                                                                                                  3
 199  2377  1728653409ET                                                                                                                                                  E
 200  2389  127683504E9T                                                                                                                                                  1
 201  2401  2178653409ET                                                                                                                                                  3
 202  2413  271683504E9T                                                                                                                                                  1
 203  2425  7218653409ET                                                                                                                                                  3
 204  2437  712683504E9T                                                                                                                                                  1
 205  2449  176238054E9T                                                                                                                                                  90E
 206  2461  7163208459ET                                                                                                                                                  3
 207  2473  761238054E9T                                                                                                                                                  1
 208  2485  6713208459ET                                                                                                                                                  3
 209  2497  617238054E9T                                                                                                                                                  1
 210  2509  1673208459ET                                                                                                                                                  3
 211  2521  6137024895ET                                                                                                                                                  E
 212  2533  631074298E5T                                                                                                                                                  1
 213  2545  3617024895ET                                                                                                                                                  3
 214  2557  316074298E5T                                                                                                                                                  1
 215  2569  1367024895ET                                                                                                                                                  3
 216  2581  163074298E5T                                                                                                                                                  1
 217  2593  610347928E5T                                                                                                                                                  90E
 218  2605  1604397825ET                                                                                                                                                  3
 219  2617  106347928E5T                                                                                                                                                  1
 220  2629  0164397825ET                                                                                                                                                  3
 221  2641  061347928E5T                                                                                                                                                  1
 222  2653  6014397825ET                                                                                                                                                  3
 223  2665  0641938752ET                                                                                                                                                  E
 224  2677  046918357E2T                                                                                                                                                  1
 225  2689  4061938752ET                                                                                                                                                  3
 226  2701  460918357E2T                                                                                                                                                  1
 227  2713  6401938752ET                                                                                                                                                  3
 228  2725  604918357E2T                                                                                                                                                  1
 229  2737  06948153E72T                                                                                                                                                  E
 230  2749  6098451E327T                                                                                                                                                  3
 231  2761  69048153E72T                                                                                                                                                  1
 232  2773  9608451E327T                                                                                                                                                  3
 233  2785  90648153E72T                                                                                                                                                  1
 234  2797  0968451E327T                                                                                                                                                  3
 235  2809  908654E1237T                                                                                                                                                  E
 236  2821  98056E42173T                                                                                                                                                  1
 237  2833  890654E1237T                                                                                                                                                  3
 238  2845  80956E42173T                                                                                                                                                  1
 239  2857  089654E1237T                                                                                                                                                  3
 240  2869  09856E42173T                                                                                                                                                  1
 241  2881  9058E624713T                                                                                                                                                  E
 242  2893  095E8267431T                                                                                                                                                  3
 243  2905  0598E624713T                                                                                                                                                  1
 244  2917  509E8267431T                                                                                                                                                  3
 245  2929  5908E624713T                                                                                                                                                  1
 246  2941  950E8267431T                                                                                                                                                  3
 247  2953  59E02876341T                                                                                                                                                  E
 248  2965  5E920783614T                                                                                                                                                  1
 249  2977  E5902876341T                                                                                                                                                  3
 250  2989  E9520783614T                                                                                                                                                  1
 251  3001  9E502876341T                                                                                                                                                  3
 252  3013  95E20783614T                                                                                                                                                  1
 253  3025  592E7038164T                                                                                                                                                  E
 254  3037  9527E301846T                                                                                                                                                  3
 255  3049  925E7038164T                                                                                                                                                  1
 256  3061  2957E301846T                                                                                                                                                  3
 257  3073  259E7038164T                                                                                                                                                  1
 258  3085  5297E301846T                                                                                                                                                  3
 259  3097  25793E10486T                                                                                                                                                  E
 260  3109  275391E4068T                                                                                                                                                  1
 261  3121  72593E10486T                                                                                                                                                  3
 262  3133  752391E4068T                                                                                                                                                  1
 263  3145  57293E10486T                                                                                                                                                  3
 264  3157  527391E4068T                                                                                                                                                  1
 265  3169  2537194E608T                                                                                                                                                  E
 266  3181  52317496E80T                                                                                                                                                  3
 267  3193  5327194E608T                                                                                                                                                  1
 268  3205  35217496E80T                                                                                                                                                  3
 269  3217  3257194E608T                                                                                                                                                  1
 270  3229  23517496E80T                                                                                                                                                  3
 271  3241  321547698E0T                                                                                                                                                  E
 272  3253  3124567890ET                                                                                                                                                  1
 273  3265  132547698E0T                                                                                                                                                  3
 274  3277  1234567890ET                                                                                                                                                  1
 275  3289  1234567890ET                                                                                                                                                  =
 276  3301  1234567890ET                                                                                                                                                  =
 277  3313  1234567890ET                                                                                                                                                  =
 278  3325  1234567890ET                                                                                                                                                  =
 279  3337  1234567890ET                                                                                                                                                  =
 280  3349  1234567890ET                                                                                                                                                  =
