#. Lowndes: Version 2
#. SourceFilename: C:\Users\Guildford Ringers\Documents\guildfordcathedralbells.bitbucket.io\Recordings\Guildford\Guildford.20220529-1721.s0t0.6.wav
#. Tower: Guildford Cathedral
#. RingingName: Touch 6
#. RingingDateTime: 20220529-1721
#. Rungon: 
#. Tenor: 12
#. NumBellsRinging: 12
#. Creator: HawkEar Team Edition V1 for Guildford Cathedral
#. CreatorVersion: 1.1.0.3
#. TranscribedFor: Guildford band
#. TranscriptionDateTime: 20220529-1806
#. FirstBlowMs: 2580
#. Touchdb: -8.54344
#. TraindB: -9.73, -8.5, -6.1, -3.11, -3.16, -3.1, -3.98, -4.12, -5.95, -5.43, -4.92, -3
#. TrainedOn: 20220102-1438
#. TrainDataRecordedOn: 20210813-1741
#. TrainParams: -ft:y -ws:0.05 -hs:0.01 -co:0.9 -sw:40 -ts:
#. GainParams: -fh:6000 -fl:200
#. OnsetParams: -mb:80 -mf:10 -ng:0.3 -oo:0
#. WriteParams: -hb:y
#. AnalParams: -au:y -xp:n -sg:n -hsg:-1
#. ExpString: 
#. Association: 
#. Calling: 
#. Compositionname: 
#. Method: 
#. Footnotes: 
#. Ringers: 
#. Stage: 
H 1 0X0a14
H 2 0X0b0e
H 3 0X0bb8
H 4 0X0c4e
H 5 0X0d3e
H 6 0X0e06
H 7 0X0ee2
H 8 0X0f8c
H 9 0X1072
H O 0X1144
H E 0X1284
H T 0X136a
B 1 0X1428
B 2 0X14f0
B 3 0X15ae
B 4 0X1680
B 5 0X173e
B 6 0X17f2
B 7 0X18ce
B 8 0X19a0
B 9 0X1a7c
B O 0X1b44
B E 0X1c2a
B T 0X1d38
H 1 0X1eaa
H 2 0X1f86
H 3 0X2026
H 4 0X20e4
H 5 0X21a2
H 6 0X2274
H 7 0X2350
H 8 0X23fa
H 9 0X24d6
H O 0X25e4
H E 0X268e
H T 0X2742
B 1 0X280a
B 2 0X28a0
B 3 0X297c
B 4 0X2a44
B 5 0X2af8
B 6 0X2bc0
B 7 0X2cba
B 8 0X2d82
B 9 0X2e40
B O 0X2efe
B E 0X2fe4
B T 0X30c0
H 1 0X325a
H 2 0X3318
H 3 0X33d6
H 4 0X3480
H 5 0X3548
H 6 0X3610
H 7 0X36e2
H 8 0X37b4
H 9 0X3886
H O 0X391c
H E 0X3a02
H T 0X3ac0
B 1 0X3b88
B 2 0X3c3c
B 3 0X3cfa
B 4 0X3de0
B 5 0X3e6c
B 6 0X3f20
B 7 0X401a
B 8 0X4100
B 9 0X41b4
B O 0X4290
B E 0X434e
B T 0X4416
H 1 0X45b0
H 2 0X4664
H 3 0X472c
H 4 0X47cc
H 5 0X4880
H 6 0X4948
H 7 0X4a24
H 8 0X4ad8
H 9 0X4bd2
H O 0X4c9a
H E 0X4d58
H T 0X4e16
B 1 0X4eca
B 2 0X4f74
B 3 0X5028
B 4 0X5118
B 5 0X51d6
B 6 0X52a8
B 7 0X5370
B 8 0X544c
B 9 0X5500
B O 0X55c8
B E 0X5690
B T 0X576c
H 1 0X58f2
H 2 0X597e
H 3 0X5a5a
H 4 0X5afa
H 5 0X5bb8
H 6 0X5c8a
H 7 0X5d5c
H 8 0X5e10
H 9 0X5f00
H O 0X5fdc
H E 0X609a
H T 0X6158
B 1 0X6202
B 2 0X62a2
B 3 0X637e
B 4 0X641e
B 5 0X64dc
B 6 0X65ae
B 7 0X6680
B 8 0X6766
B 9 0X6806
B O 0X68f6
B E 0X69be
B T 0X6a9a
H 1 0X6c34
H 2 0X6cd4
H 3 0X6d9c
H 4 0X6e32
H 5 0X6ef0
H 6 0X6fb8
H 7 0X708a
H 8 0X713e
H 9 0X71f2
H O 0X72f6
H E 0X738c
H T 0X7468
B 1 0X7526
B 2 0X75ee
B 3 0X76ac
B 4 0X7756
B 5 0X7832
B 6 0X7904
B 7 0X79d6
B 8 0X7a9e
B 9 0X7b48
B O 0X7c1a
B E 0X7cd8
B T 0X7daa
H 1 0X7f4e
H 2 0X7ff8
H 3 0X80b6
H 4 0X8142
H 5 0X8200
H 6 0X82d2
H 7 0X83a4
H 8 0X848a
H 9 0X855c
H O 0X8638
H E 0X86e2
H T 0X8796
B 1 0X885e
B 2 0X891c
B 3 0X89b2
B 4 0X8a70
B 5 0X8b2e
B 6 0X8c00
B 7 0X8cc8
B 8 0X8d9a
B 9 0X8e8a
B O 0X8f34
B E 0X901a
B T 0X90d8
H 1 0X9268
H 2 0X92f4
H 3 0X93d0
H 4 0X948e
H 5 0X9542
H 6 0X960a
H 7 0X96d2
H 8 0X97a4
H 9 0X986c
H O 0X997a
H E 0X9a10
H T 0X9ad8
B 1 0X9b6e
B 2 0X9c36
B 3 0X9cea
B 4 0X9da8
B 5 0X9e70
B 6 0X9f38
B 7 0Xa01e
B 8 0Xa0f0
B 9 0Xa19a
B O 0Xa276
B E 0Xa320
B T 0Xa3f2
H 1 0Xa5a0
H 2 0Xa64a
H 3 0Xa708
H 4 0Xa7a8
H 5 0Xa884
H 6 0Xa960
H 7 0Xaa28
H 8 0Xaafa
H 9 0Xab7c
H O 0Xac6c
H E 0Xad2a
H T 0Xade8
B 1 0Xae92
B 2 0Xaf50
B 3 0Xb00e
B 4 0Xb0cc
B 5 0Xb19e
B 6 0Xb284
B 7 0Xb36a
B 8 0Xb428
B 9 0Xb4c8
B O 0Xb59a
B E 0Xb662
B T 0Xb72a
H 1 0Xb8ce
H 2 0Xb982
H 3 0Xba40
H 4 0Xbae0
H 5 0Xbb8a
H 6 0Xbc5c
H 7 0Xbd38
H 8 0Xbdd8
H 9 0Xbea0
H O 0Xbf90
H E 0Xc062
H T 0Xc120
B 1 0Xc1b6
B 2 0Xc29c
B 3 0Xc33c
B 4 0Xc40e
B 5 0Xc4d6
B 6 0Xc5bc
B 7 0Xc67a
B 8 0Xc738
B 9 0Xc7ec
B O 0Xc8b4
B E 0Xc972
B T 0Xca4e
H 1 0Xcbe8
H 2 0Xcc92
H 3 0Xcd3c
H 4 0Xcdf0
H 5 0Xceb8
H 6 0Xcf76
H 7 0Xd05c
H 8 0Xd124
H 9 0Xd20a
H O 0Xd2e6
H E 0Xd39a
H T 0Xd41c
B 1 0Xd4c6
B 2 0Xd598
B 3 0Xd64c
B 4 0Xd714
B 5 0Xd7e6
B 6 0Xd8b8
B 7 0Xd994
B 8 0Xda5c
B 9 0Xdb2e
B O 0Xdbf6
B E 0Xdcc8
B T 0Xdd90
H 1 0Xdf16
H 2 0Xdfac
H 3 0Xe074
H 4 0Xe10a
H 5 0Xe1c8
H 6 0Xe290
H 7 0Xe376
H 8 0Xe448
H 9 0Xe524
H O 0Xe5f6
H E 0Xe6b4
H T 0Xe790
B 1 0Xe812
B 2 0Xe8c6
B 3 0Xe97a
B 4 0Xea56
B 5 0Xeb0a
B 6 0Xebf0
B 7 0Xecae
B 8 0Xed76
B 9 0Xee52
B O 0Xef2e
B E 0Xf014
B T 0Xf0d2
H 2 0Xf26c
H 1 0Xf334
H 3 0Xf3ca
H 5 0Xf4b0
H 4 0Xf564
H 7 0Xf618
H 6 0Xf6ea
H 9 0Xf79e
H 8 0Xf852
H E 0Xf942
H O 0Xfa28
H T 0Xfad2
B 2 0Xfbb8
B 3 0Xfc58
B 1 0Xfd20
B 4 0Xfdca
B 5 0Xfe92
B 6 0Xff64
B 7 0X002c
B 8 0X00f4
B 9 0X01b2
B O 0X0298
B E 0X0356
B T 0X0414
H 3 0X05f4
H 2 0X068a
H 4 0X0720
H 1 0X0810
H 6 0X08ce
H 5 0X09c8
H 8 0X0a9a
H 7 0X0b44
H 9 0X0bda
H E 0X0cac
H O 0X0d6a
H T 0X0e28
B 2 0X0f04
B 3 0X0fea
B 4 0X108a
B 6 0X113e
B 1 0X121a
B 8 0X12f6
B 5 0X13b4
B 9 0X1468
B 7 0X1530
B O 0X15d0
B E 0X16b6
B T 0X1774
H 2 0X192c
H 4 0X19cc
H 3 0X1a9e
H 1 0X1b7a
H 6 0X1c42
H 5 0X1d0a
H 8 0X1ddc
H 7 0X1eb8
H 9 0X1f4e
H E 0X1ff8
H O 0X20d4
H T 0X217e
B 4 0X225a
B 2 0X2318
B 3 0X23e0
B 6 0X24b2
B 1 0X257a
B 8 0X2674
B 5 0X271e
B 9 0X27c8
B 7 0X28a4
B O 0X2944
B E 0X2a20
B T 0X2ade
H 4 0X2c5a
H 3 0X2d4a
H 2 0X2df4
H 1 0X2f02
H 6 0X2fc0
H 5 0X307e
H 8 0X3150
H 7 0X320e
H 9 0X32b8
H E 0X339e
H O 0X345c
H T 0X3506
B 3 0X360a
B 4 0X3696
B 2 0X374a
B 6 0X381c
B 1 0X38f8
B 8 0X39de
B 5 0X3a88
B 9 0X3b46
B 7 0X3c04
B O 0X3ce0
B E 0X3dda
B T 0X3e84
H 4 0X400a
H 3 0X4104
H 6 0X41b8
H 2 0X4276
H 8 0X4334
H 1 0X4410
H 9 0X44a6
H 5 0X456e
H O 0X4622
H 7 0X46f4
H E 0X47b2
H T 0X487a
B 4 0X4974
B 6 0X4a28
B 3 0X4b0e
B 8 0X4bd6
B 2 0X4c76
B 9 0X4d20
B 1 0X4dd4
B O 0X4ed8
B 5 0X4f6e
B E 0X5054
B 7 0X5130
B T 0X51e4
H 6 0X53c4
H 4 0X5478
H 3 0X5536
H 2 0X5612
H 8 0X56e4
H 1 0X578e
H 9 0X584c
H 5 0X5914
H O 0X59dc
H 7 0X5a9a
H E 0X5b3a
H T 0X5c02
B 6 0X5d10
B 3 0X5db0
B 4 0X5e78
B 8 0X5f5e
B 2 0X6008
B 9 0X60f8
B 1 0X618e
B O 0X6288
B 5 0X6346
B E 0X63fa
B 7 0X64d6
B T 0X6580
H 3 0X676a
H 6 0X6832
H 4 0X68dc
H 2 0X69b8
H 8 0X6a8a
H 1 0X6b34
H 9 0X6bca
H 5 0X6cba
H O 0X6d96
H 7 0X6e54
H E 0X6f08
H T 0X6fc6
B 3 0X70c0
B 4 0X7156
B 6 0X7232
B 8 0X7304
B 2 0X73c2
B 9 0X749e
B 1 0X7534
B O 0X764c
B 5 0X76c4
B E 0X77aa
B 7 0X7886
B T 0X7930
H 4 0X7af2
H 3 0X7bba
H 8 0X7c96
H 6 0X7d72
H 9 0X7e26
H 2 0X7ea8
H O 0X7fb6
H 1 0X807e
H 5 0X810a
H 7 0X820e
H E 0X82ae
H T 0X8362
B 3 0X8452
B 4 0X851a
B 8 0X85e2
B 9 0X86a0
B 6 0X874a
B O 0X8830
B 2 0X88e4
B 5 0X89ca
B 1 0X8a88
B E 0X8b32
B 7 0X8c2c
B T 0X8ccc
H 3 0X8e98
H 8 0X8f2e
H 4 0X900a
H 6 0X90dc
H 9 0X9190
H 2 0X924e
H O 0X933e
H 1 0X9406
H 5 0X94ba
H 7 0X9596
H E 0X964a
H T 0X96fe
B 8 0X97e4
B 3 0X98ca
B 4 0X997e
B 9 0X9a46
B 6 0X9af0
B O 0X9bcc
B 2 0X9c4e
B 5 0X9d48
B 1 0X9e24
B E 0X9ed8
B 7 0X9faa
B T 0Xa054
H 8 0Xa25c
H 4 0Xa32e
H 3 0Xa3d8
H 6 0Xa4dc
H 9 0Xa57c
H 2 0Xa608
H O 0Xa6ee
H 1 0Xa7ac
H 5 0Xa856
H 7 0Xa93c
H E 0Xa9e6
H T 0Xaa90
B 4 0Xaba8
B 8 0Xac52
B 3 0Xad2e
B 9 0Xae0a
B 6 0Xaedc
B O 0Xaf86
B 2 0Xb058
B 5 0Xb116
B 1 0Xb1de
B E 0Xb27e
B 7 0Xb346
B T 0Xb3fa
H 8 0Xb5da
H 4 0Xb6b6
H 9 0Xb76a
H 3 0Xb83c
H O 0Xb918
H 6 0Xb9ea
H 5 0Xbaa8
H 2 0Xbb8e
H E 0Xbc2e
H 1 0Xbce2
H 7 0Xbda0
H T 0Xbe36
B 8 0Xbefe
B 9 0Xc020
B 4 0Xc0ca
B O 0Xc192
B 3 0Xc26e
B 5 0Xc318
B 6 0Xc3ea
B E 0Xc4c6
B 2 0Xc58e
B 7 0Xc660
B 1 0Xc700
B T 0Xc7b4
H 9 0Xc9bc
H 8 0Xca52
H 4 0Xcb24
H 3 0Xcc00
H O 0Xccd2
H 6 0Xcd90
H 5 0Xce3a
H 2 0Xcf2a
H E 0Xcfca
H 1 0Xd088
H 7 0Xd182
H T 0Xd204
B 9 0Xd2d6
B 4 0Xd3a8
B 8 0Xd470
B O 0Xd54c
B 3 0Xd628
B 5 0Xd6c8
B 6 0Xd7b8
B E 0Xd880
B 2 0Xd92a
B 7 0Xda2e
B 1 0Xdaba
B T 0Xdb78
H 4 0Xdd3a
H 9 0Xddf8
H 8 0Xded4
H 3 0Xdf9c
H O 0Xe078
H 6 0Xe136
H 5 0Xe1ea
H 2 0Xe2c6
H E 0Xe370
H 1 0Xe438
H 7 0Xe532
H T 0Xe5c8
B 4 0Xe6cc
B 8 0Xe780
B 9 0Xe83e
B O 0Xe8fc
B 3 0Xe9ec
B 5 0Xea8c
B 6 0Xeb68
B E 0Xec12
B 2 0Xecc6
B 7 0Xedca
B 1 0Xee6a
B T 0Xef32
H 8 0Xf11c
H 4 0Xf1ee
H O 0Xf2a2
H 9 0Xf34c
H 5 0Xf428
H 3 0Xf4e6
H E 0Xf5cc
H 6 0Xf68a
H 7 0Xf766
H 2 0Xf810
H 1 0Xf8ec
H T 0Xf95a
B 4 0Xfa9a
B 8 0Xfb4e
B O 0Xfc02
B 5 0Xfcca
B 9 0Xfd92
B E 0Xfe5a
B 3 0Xff40
B 7 0Xffe0
B 6 0X00da
B 1 0X0166
B 2 0X0238
B T 0X02e2
H 4 0X04ae
H O 0X0594
H 8 0X0648
H 9 0X0710
H 5 0X07d8
H 3 0X08be
H E 0X0954
H 6 0X0a44
H 7 0X0b16
H 2 0X0bc0
H 1 0X0c9c
H T 0X0d3c
B O 0X0e0e
B 4 0X0ed6
B 8 0X0f94
B 5 0X1070
B 9 0X116a
B E 0X1200
B 3 0X12d2
B 7 0X13ae
B 6 0X148a
B 1 0X1516
B 2 0X15fc
B T 0X16a6
H O 0X1872
H 8 0X196c
H 4 0X19d0
H 9 0X1ae8
H 5 0X1b9c
H 3 0X1c64
H E 0X1ce6
H 6 0X1de0
H 7 0X1ebc
H 2 0X1f7a
H 1 0X204c
H T 0X210a
B 8 0X21dc
B O 0X22a4
B 4 0X2358
B 5 0X2434
B 9 0X2510
B E 0X25b0
B 3 0X2678
B 7 0X275e
B 6 0X2844
B 1 0X28b2
B 2 0X2998
B T 0X2a60
H O 0X2c22
H 8 0X2d12
H 5 0X2dbc
H 4 0X2e84
H E 0X2f4c
H 9 0X2fec
H 7 0X310e
H 3 0X31ae
H 1 0X3276
H 6 0X3348
H 2 0X33fc
H T 0X34b0
B O 0X356e
B 5 0X365e
B 8 0X3726
B E 0X37f8
B 4 0X38ca
B 7 0X3992
B 9 0X3a50
B 1 0X3af0
B 3 0X3ba4
B 2 0X3ca8
B 6 0X3d7a
B T 0X3e06
H 5 0X4004
H O 0X40b8
H 8 0X4162
H 4 0X422a
H E 0X42de
H 9 0X4400
H 7 0X44c8
H 3 0X4554
H 1 0X4630
H 6 0X46ee
H 2 0X4798
H T 0X4838
B 5 0X493c
B 8 0X4a22
B O 0X4aea
B E 0X4b94
B 4 0X4c98
B 7 0X4d56
B 9 0X4e00
B 1 0X4ed2
B 3 0X4f5e
B 2 0X5030
B 6 0X510c
B T 0X51b6
H 8 0X53a0
H 5 0X547c
H O 0X554e
H 4 0X560c
H E 0X5684
H 9 0X5774
H 7 0X5832
H 3 0X58e6
H 1 0X59cc
H 6 0X5a80
H 2 0X5b3e
H T 0X5c06
B 8 0X5cce
B O 0X5dd2
B 5 0X5eae
B E 0X5f62
B 4 0X6052
B 7 0X6124
B 9 0X6192
B 1 0X6264
B 3 0X6304
B 2 0X63e0
B 6 0X64bc
B T 0X6584
H O 0X6746
H 8 0X67fa
H E 0X68e0
H 5 0X69a8
H 7 0X6ac0
H 4 0X6b42
H 1 0X6c14
H 9 0X6cc8
H 2 0X6d7c
H 3 0X6e30
H 6 0X6eee
H T 0X6fca
B 8 0X709c
B O 0X7164
B E 0X725e
B 7 0X734e
B 5 0X73f8
B 1 0X7498
B 4 0X7560
B 2 0X761e
B 9 0X770e
B 6 0X779a
B 3 0X7876
B T 0X7934
H 8 0X7ace
H E 0X7bbe
H O 0X7ca4
H 5 0X7d76
H 7 0X7e66
H 4 0X7ef2
H 1 0X7fba
H 9 0X80c8
H 2 0X814a
H 3 0X8212
H 6 0X82da
H T 0X8370
B E 0X849c
B 8 0X8546
B O 0X85e6
B 7 0X86ea
B 5 0X87a8
B 1 0X885c
B 4 0X88f2
B 2 0X89ce
B 9 0X8aa0
B 6 0X8b86
B 3 0X8c44
B T 0X8cd0
H E 0X8e92
H O 0X8f78
H 8 0X905e
H 5 0X911c
H 7 0X9202
H 4 0X9284
H 1 0X937e
H 9 0X9450
H 2 0X94e6
H 3 0X95b8
H 6 0X968a
H T 0X975c
B O 0X9806
B E 0X98e2
B 8 0X99aa
B 7 0X9aa4
B 5 0X9b62
B 1 0X9c02
B 4 0X9cb6
B 2 0X9d92
B 9 0X9e6e
B 6 0X9f68
B 3 0Xa01c
B T 0Xa0c6
H E 0Xa256
H O 0Xa328
H 7 0Xa3f0
H 8 0Xa4ae
H 1 0Xa5c6
H 5 0Xa670
H 2 0Xa742
H 4 0Xa7ec
H 6 0Xa8d2
H 9 0Xa99a
H 3 0Xaa58
H T 0Xab20
B E 0Xac24
B 7 0Xacd8
B O 0Xad78
B 1 0Xae40
B 8 0Xaefe
B 2 0Xafee
B 5 0Xb08e
B 6 0Xb17e
B 4 0Xb250
B 3 0Xb2fa
B 9 0Xb3c2
B T 0Xb494
H 7 0Xb638
H E 0Xb700
H O 0Xb7d2
H 8 0Xb8a4
H 1 0Xb976
H 5 0Xba2a
H 2 0Xbb06
H 4 0Xbb7e
H 6 0Xbc6e
H 9 0Xbd5e
H 3 0Xbdfe
H T 0Xbed0
B 7 0Xbf98
B O 0Xc07e
B E 0Xc150
B 1 0Xc218
B 8 0Xc2e0
B 2 0Xc394
B 5 0Xc452
B 6 0Xc524
B 4 0Xc5d8
B 3 0Xc6a0
B 9 0Xc772
B T 0Xc844
H O 0Xca10
H 7 0Xcad8
H E 0Xcbaa
H 8 0Xcc9a
H 1 0Xcd4e
H 5 0Xce0c
H 2 0Xceca
H 4 0Xcf2e
H 6 0Xd01e
H 9 0Xd0fa
H 3 0Xd1ae
H T 0Xd294
B O 0Xd370
B E 0Xd442
B 7 0Xd500
B 1 0Xd5a0
B 8 0Xd690
B 2 0Xd758
B 5 0Xd834
B 6 0Xd91a
B 4 0Xd9a6
B 3 0Xda6e
B 9 0Xdb4a
B T 0Xdbfe
H E 0Xddd4
H O 0Xde9c
H 1 0Xdf50
H 7 0Xe054
H 2 0Xe0e0
H 8 0Xe1c6
H 6 0Xe2ac
H 5 0Xe360
H 3 0Xe414
H 4 0Xe496
H 9 0Xe5c2
H T 0Xe662
B O 0Xe73e
B E 0Xe81a
B 1 0Xe89c
B 2 0Xe96e
B 7 0Xea90
B 6 0Xeb44
B 8 0Xec0c
B 3 0Xeca2
B 5 0Xed4c
B 9 0Xee5a
B 4 0Xef04
B T 0Xefe0
H O 0Xf1ac
H 1 0Xf26a
H E 0Xf2e2
H 7 0Xf3f0
H 2 0Xf49a
H 8 0Xf580
H 6 0Xf666
H 5 0Xf738
H 3 0Xf7c4
H 4 0Xf86e
H 9 0Xf954
H T 0Xfa26
B 1 0Xfab2
B O 0Xfbc0
B E 0Xfc92
B 2 0Xfd46
B 7 0Xfe4a
B 6 0Xff26
B 8 0Xffee
B 3 0X0066
B 5 0X011a
B 9 0X01e2
B 4 0X02be
B T 0X0390
H 1 0X0534
H E 0X05e8
H O 0X0700
H 7 0X07c8
H 2 0X0854
H 8 0X0926
H 6 0X09f8
H 5 0X0ad4
H 3 0X0b9c
H 4 0X0c1e
H 9 0X0d18
H T 0X0dd6
B E 0X0eda
B 1 0X0f70
B O 0X1056
B 2 0X10f6
B 7 0X11d2
B 6 0X12c2
B 8 0X136c
B 3 0X1434
B 5 0X14de
B 9 0X15c4
B 4 0X168c
B T 0X1736
H 1 0X192a
H E 0X19ca
H 2 0X1a92
H O 0X1b78
H 6 0X1c54
H 7 0X1d26
H 3 0X1dc6
H 8 0X1ea2
H 9 0X1f56
H 5 0X2032
H 4 0X20dc
H T 0X2154
B 1 0X221c
B 2 0X2320
B E 0X23e8
B 6 0X24f6
B O 0X25aa
B 3 0X267c
B 7 0X2744
B 9 0X2802
B 8 0X28d4
B 4 0X299c
B 5 0X2a32
B T 0X2ae6
H 2 0X2ce4
H 1 0X2dc0
H E 0X2e60
H O 0X2f28
H 6 0X3004
H 7 0X30d6
H 3 0X3180
H 8 0X3252
H 9 0X32fc
H 5 0X33ba
H 4 0X348c
H T 0X3572
B 2 0X3630
B E 0X3716
B 1 0X37ca
B 6 0X38c4
B O 0X3978
B 3 0X3a4a
B 7 0X3afe
B 9 0X3bc6
B 8 0X3c7a
B 4 0X3d60
B 5 0X3dec
B T 0X3ed2
H E 0X40b2
H 2 0X417a
H 1 0X427e
H O 0X4328
H 6 0X43f0
H 7 0X44ae
H 3 0X4558
H 8 0X4634
H 9 0X46ca
H 5 0X477e
H 4 0X4896
H T 0X4940
B E 0X4a58
B 1 0X4ae4
B 2 0X4b8e
B 6 0X4cb0
B O 0X4d6e
B 3 0X4e40
B 7 0X4ee0
B 9 0X4fbc
B 8 0X507a
B 4 0X514c
B 5 0X51f6
B T 0X52aa
H 1 0X548a
H E 0X553e
H 6 0X5638
H 2 0X56ec
H 3 0X57c8
H O 0X58ae
H 9 0X5962
H 7 0X5a0c
H 4 0X5ad4
H 8 0X5b9c
H 5 0X5c46
H T 0X5d2c
B E 0X5e30
B 1 0X5ebc
B 6 0X5f84
B 3 0X6060
B 2 0X610a
B 9 0X61fa
B O 0X62d6
B 4 0X6394
B 7 0X6452
B 5 0X6524
B 8 0X65ec
B T 0X66aa
H E 0X6880
H 6 0X6966
H 1 0X6a24
H 2 0X6a9c
H 3 0X6b78
H O 0X6c68
H 9 0X6d12
H 7 0X6dda
H 4 0X6e66
H 8 0X6f4c
H 5 0X705a
H T 0X7118
B 6 0X71fe
B E 0X72d0
B 1 0X7348
B 3 0X7410
B 2 0X74ce
B 9 0X75be
B O 0X76a4
B 4 0X776c
B 7 0X7820
B 5 0X7910
B 8 0X79d8
B T 0X7a82
H 6 0X7c44
H 1 0X7d3e
H E 0X7dc0
H 2 0X7e92
H 3 0X7f50
H O 0X802c
H 9 0X80e0
H 7 0X81a8
H 4 0X8248
H 8 0X8306
H 5 0X840a
H T 0X84f0
B 1 0X8572
B 6 0X8694
B E 0X8752
B 3 0X8806
B 2 0X889c
B 9 0X898c
B O 0X8a54
B 4 0X8b4e
B 7 0X8c0c
B 5 0X8cb6
B 8 0X8d7e
B T 0X8e5a
H 6 0X9008
H 1 0X90f8
H 3 0X91a2
H E 0X9256
H 9 0X933c
H 2 0X93e6
H 4 0X94ae
H O 0X958a
H 5 0X963e
H 7 0X9742
H 8 0X97ec
H T 0X98c8
B 6 0X9972
B 3 0X9a4e
B 1 0X9b02
B 9 0X9bde
B E 0X9c74
B 4 0X9d5a
B 2 0X9de6
B 5 0X9efe
B O 0X9fb2
B 8 0Xa0ac
B 7 0Xa160
B T 0Xa23c
H 3 0Xa3f4
H 6 0Xa4d0
H 1 0Xa5c0
H E 0Xa642
H 9 0Xa70a
H 2 0Xa7a0
H 4 0Xa854
H O 0Xa944
H 5 0Xa9f8
H 7 0Xaafc
H 8 0Xaba6
H T 0Xac8c
B 3 0Xad5e
B 1 0Xae26
B 6 0Xaeda
B 9 0Xafa2
B E 0Xb074
B 4 0Xb11e
B 2 0Xb1dc
B 5 0Xb2c2
B O 0Xb394
B 8 0Xb484
B 7 0Xb542
B T 0Xb5f6
H 1 0Xb7cc
H 3 0Xb894
H 6 0Xb948
H E 0Xba1a
H 9 0Xbb00
H 2 0Xbb8c
H 4 0Xbc04
H O 0Xbd26
H 5 0Xbdc6
H 7 0Xbeb6
H 8 0Xbfc4
H T 0Xc05a
B 1 0Xc104
B 6 0Xc1ea
B 3 0Xc2bc
B 9 0Xc38e
B E 0Xc46a
B 4 0Xc50a
B 2 0Xc5aa
B 5 0Xc6a4
B O 0Xc76c
B 8 0Xc87a
B 7 0Xc92e
B T 0Xc9c4
H 6 0Xcb68
H 1 0Xcc4e
H 9 0Xcd34
H 3 0Xcdc0
H 4 0Xce92
H E 0Xcf78
H 5 0Xd018
H 2 0Xd112
H 8 0Xd1c6
H O 0Xd27a
H 7 0Xd374
H T 0Xd41e
B 1 0Xd4c8
B 6 0Xd5a4
B 9 0Xd694
B 4 0Xd73e
B 3 0Xd806
B 5 0Xd8d8
B E 0Xd996
B 8 0Xda86
B 2 0Xdb3a
B 7 0Xdc34
B O 0Xdce8
B T 0Xdda6
H 1 0Xdf54
H 9 0Xdffe
H 6 0Xe0c6
H 3 0Xe1a2
H 4 0Xe24c
H E 0Xe314
H 5 0Xe3e6
H 2 0Xe4d6
H 8 0Xe5a8
H O 0Xe684
H 7 0Xe738
H T 0Xe7d8
B 9 0Xe8dc
B 1 0Xe9a4
B 6 0Xea62
B 4 0Xeb2a
B 3 0Xec06
B 5 0Xecba
B E 0Xed5a
B 8 0Xee5e
B 2 0Xef08
B 7 0Xeff8
B O 0Xf0d4
B T 0Xf156
H 9 0Xf354
H 6 0Xf41c
H 1 0Xf50c
H 3 0Xf598
H 4 0Xf660
H E 0Xf728
H 5 0Xf7d2
H 2 0Xf8ae
H 8 0Xf98a
H O 0Xfa70
H 7 0Xfb24
H T 0Xfbba
B 6 0Xfcaa
B 9 0Xfdae
B 1 0Xfe4e
B 4 0Xfeee
B 3 0Xffca
B 5 0X00b0
B E 0X0164
B 8 0X0240
B 2 0X02cc
B 7 0X03da
B O 0X04b6
B T 0X056a
H 9 0X074a
H 6 0X083a
H 4 0X08d0
H 1 0X09ca
H 5 0X0a38
H 3 0X0b0a
H 8 0X0bc8
H E 0X0c9a
H 2 0X0d4e
H O 0X0e3e
H 7 0X0efc
H T 0X0fb0
B 9 0X10be
B 4 0X119a
B 6 0X123a
B 5 0X132a
B 1 0X13d4
B 8 0X14a6
B 3 0X1582
B 2 0X15e6
B E 0X16b8
B 7 0X1780
B O 0X1870
B T 0X1942
H 4 0X1b0e
H 9 0X1bcc
H 6 0X1c80
H 1 0X1d70
H 5 0X1e24
H 3 0X1ee2
H 8 0X1fc8
H E 0X2072
H 2 0X20f4
H O 0X2202
H 7 0X22c0
H T 0X2374
B 4 0X2482
B 6 0X254a
B 9 0X25fe
B 5 0X26e4
B 1 0X2770
B 8 0X2874
B 3 0X2914
B 2 0X29dc
B E 0X2a7c
B 7 0X2b6c
B O 0X2c48
B T 0X2d10
H 6 0X2ec8
H 4 0X2f68
H 9 0X3044
H 1 0X3116
H 5 0X31f2
H 3 0X32ce
H 8 0X33a0
H E 0X344a
H 2 0X34c2
H O 0X35c6
H 7 0X367a
H T 0X3738
B 6 0X383c
B 9 0X38fa
B 4 0X3990
B 5 0X3a94
B 1 0X3b48
B 8 0X3c42
B 3 0X3ce2
B 2 0X3d8c
B E 0X3e5e
B 7 0X3f26
B O 0X400c
B T 0X40ca
H 9 0X426e
H 6 0X434a
H 5 0X441c
H 4 0X44ee
H 8 0X45b6
H 1 0X4692
H 2 0X4750
H 3 0X480e
H 7 0X48fe
H E 0X4976
H O 0X4a70
H T 0X4b10
B 6 0X4bc4
B 9 0X4cb4
B 5 0X4da4
B 8 0X4e4e
B 4 0X4f52
B 2 0X4ffc
B 1 0X50ce
B 7 0X51aa
B 3 0X524a
B O 0X531c
B E 0X53d0
B T 0X54b6
H 6 0X5646
H 5 0X5722
H 9 0X57c2
H 4 0X58bc
H 8 0X5984
H 1 0X5a60
H 2 0X5b00
H 3 0X5bdc
H 7 0X5cc2
H E 0X5d80
H O 0X5e3e
H T 0X5efc
B 5 0X5fec
B 6 0X60c8
B 9 0X6172
B 8 0X6226
B 4 0X632a
B 2 0X63c0
B 1 0X6492
B 7 0X6546
B 3 0X660e
B O 0X66c2
B E 0X679e
B T 0X687a
H 5 0X6a46
H 9 0X6af0
H 6 0X6be0
H 4 0X6cb2
H 8 0X6d84
H 1 0X6e38
H 2 0X6f0a
H 3 0X6fbe
H 7 0X7090
H E 0X7112
H O 0X720c
H T 0X7298
B 9 0X739c
B 5 0X7496
B 6 0X7572
B 8 0X7630
B 4 0X770c
B 2 0X77d4
B 1 0X787e
B 7 0X7950
B 3 0X7a22
B O 0X7aae
B E 0X7b4e
B T 0X7c0c
H 5 0X7e00
H 9 0X7ed2
H 8 0X7f90
H 6 0X8094
H 2 0X818e
H 4 0X8210
H 7 0X830a
H 1 0X83c8
H O 0X8490
H 3 0X8526
H E 0X85ee
H T 0X8698
B 5 0X8792
B 8 0X8846
B 9 0X892c
B 2 0X8a12
B 6 0X8ad0
B 7 0X8bb6
B 4 0X8c6a
B O 0X8d46
B 1 0X8df0
B E 0X8eae
B 3 0X8f80
B T 0X902a
H 8 0X9200
H 5 0X92c8
H 9 0X93ae
H 6 0X948a
H 2 0X9548
H 4 0X95ca
H 7 0X96c4
H 1 0X978c
H O 0X9854
H 3 0X9926
H E 0X99d0
H T 0X9a70
B 8 0X9b74
B 9 0X9c5a
B 5 0X9d0e
B 2 0X9dd6
B 6 0X9ea8
B 7 0X9f70
B 4 0Xa056
B O 0Xa11e
B 1 0Xa1c8
B E 0Xa29a
B 3 0Xa376
B T 0Xa402
H 9 0Xa60a
H 8 0Xa6be
H 5 0Xa77c
H 6 0Xa862
H 2 0Xa948
H 4 0Xa9c0
H 7 0Xaa9c
H 1 0Xab8c
H O 0Xac36
H 3 0Xacea
H E 0Xada8
H T 0Xae5c
B 9 0Xaf60
B 5 0Xb050
B 8 0Xb0f0
B 2 0Xb1fe
B 6 0Xb2bc
B 7 0Xb398
B 4 0Xb424
B O 0Xb4d8
B 1 0Xb5be
B E 0Xb65e
B 3 0Xb6f4
B T 0Xb7da
H 5 0Xb9ce
H 9 0Xba96
H 2 0Xbb5e
H 8 0Xbc44
H 7 0Xbd20
H 6 0Xbde8
H O 0Xbe9c
H 4 0Xbf14
H 1 0Xc04a
H 3 0Xc0d6
H E 0Xc176
H T 0Xc248
B 9 0Xc342
B 5 0Xc428
B 2 0Xc4e6
B 7 0Xc5c2
B 8 0Xc676
B O 0Xc748
B 6 0Xc810
B 1 0Xc8c4
B 4 0Xc946
B E 0Xca18
B 3 0Xcb08
B T 0Xcbc6
H 9 0Xcd92
H 2 0Xce64
H 5 0Xcf18
H 8 0Xcfea
H 7 0Xd0d0
H 6 0Xd18e
H O 0Xd288
H 4 0Xd2d8
H 1 0Xd3d2
H 3 0Xd49a
H E 0Xd53a
H T 0Xd602
B 2 0Xd706
B 9 0Xd7ba
B 5 0Xd88c
B 7 0Xd954
B 8 0Xda1c
B O 0Xdb2a
B 6 0Xdc24
B 1 0Xdc92
B 4 0Xdd1e
B E 0Xde04
B 3 0Xdecc
B T 0Xdf76
H 2 0Xe142
H 5 0Xe20a
H 9 0Xe2f0
H 8 0Xe3a4
H 7 0Xe476
H 6 0Xe552
H O 0Xe642
H 4 0Xe692
H 1 0Xe782
H 3 0Xe85e
H E 0Xe912
H T 0Xe9b2
B 5 0Xeaf2
B 2 0Xeb9c
B 9 0Xec5a
B 7 0Xed2c
B 8 0Xedcc
B O 0Xeed0
B 6 0Xefac
B 1 0Xf038
B 4 0Xf0f6
B E 0Xf1c8
B 3 0Xf27c
B T 0Xf330
H 2 0Xf538
H 5 0Xf5e2
H 7 0Xf6c8
H 9 0Xf75e
H O 0Xf84e
H 8 0Xf92a
H 1 0Xf9fc
H 6 0Xfaba
H E 0Xfb78
H 4 0Xfc0e
H 3 0Xfccc
H T 0Xfd9e
B 2 0Xfe70
B 7 0Xff74
B 5 0X0032
B O 0X00e6
B 9 0X01d6
B 1 0X0276
B 8 0X0334
B E 0X041a
B 6 0X050a
B 3 0X05aa
B 4 0X062c
B T 0X06fe
H 7 0X08fc
H 2 0X09ba
H 5 0X0a6e
H 9 0X0b72
H O 0X0c26
H 8 0X0cc6
H 1 0X0dac
H 6 0X0e6a
H E 0X0f28
H 4 0X0f78
H 3 0X1072
H T 0X1162
B 7 0X1216
B 5 0X132e
B 2 0X1400
B O 0X14c8
B 9 0X159a
B 1 0X1630
B 8 0X170c
B E 0X17d4
B 6 0X1888
B 3 0X1950
B 4 0X19e6
B T 0X1ab8
H 5 0X1cb6
H 7 0X1d92
H 2 0X1e5a
H 9 0X1f18
H O 0X1fcc
H 8 0X2094
H 1 0X2148
H 6 0X2224
H E 0X22d8
H 4 0X2364
H 3 0X2440
H T 0X2508
B 5 0X262a
B 2 0X2706
B 7 0X27c4
B O 0X2878
B 9 0X2918
B 1 0X29c2
B 8 0X2a94
B E 0X2b8e
B 6 0X2c56
B 3 0X2d0a
B 4 0X2de6
B T 0X2e90
H 2 0X3070
H 5 0X311a
H O 0X3214
H 7 0X32dc
H 1 0X33a4
H 9 0X3444
H E 0X3516
H 8 0X35e8
H 3 0X36b0
H 6 0X3782
H 4 0X3804
H T 0X3908
B 5 0X39b2
B 2 0X3aa2
B O 0X3b74
B 1 0X3bf6
B 7 0X3d18
B E 0X3dc2
B 9 0X3e8a
B 3 0X3f5c
B 8 0X4010
B 4 0X40d8
B 6 0X41a0
B T 0X427c
H 5 0X4420
H O 0X44fc
H 2 0X45b0
H 7 0X4696
H 1 0X475e
H 9 0X481c
H E 0X48da
H 8 0X49a2
H 3 0X4a60
H 6 0X4b28
H 4 0X4be6
H T 0X4ccc
B O 0X4dd0
B 5 0X4e7a
B 2 0X4f4c
B 1 0X500a
B 7 0X50fa
B E 0X519a
B 9 0X5244
B 3 0X530c
B 8 0X53de
B 4 0X54ba
B 6 0X5582
B T 0X5640
H O 0X580c
H 2 0X58b6
H 5 0X597e
H 7 0X5a5a
H 1 0X5b22
H 9 0X5bc2
H E 0X5c94
H 8 0X5d84
H 3 0X5e2e
H 6 0X5ef6
H 4 0X5fb4
H T 0X6086
B 2 0X6176
B O 0X6220
B 5 0X6310
B 1 0X63ec
B 7 0X64aa
B E 0X6554
B 9 0X6612
B 3 0X6702
B 8 0X67ac
B 4 0X6888
B 6 0X695a
B T 0X6a04
H O 0X6bd0
H 2 0X6ca2
H 1 0X6da6
H 5 0X6e32
H E 0X6f0e
H 7 0X6fc2
H 3 0X7080
H 9 0X7148
H 4 0X7256
H 8 0X730a
H 6 0X73dc
H T 0X747c
B O 0X7544
B 1 0X7602
B 2 0X76fc
B E 0X779c
B 5 0X7882
B 3 0X7940
B 7 0X79e0
B 4 0X7af8
B 9 0X7bc0
B 6 0X7c88
B 8 0X7d3c
B T 0X7e18
H 1 0X7fee
H O 0X808e
H 2 0X814c
H 5 0X8214
H E 0X82a0
H 7 0X8390
H 3 0X843a
H 9 0X852a
H 4 0X8606
H 8 0X86c4
H 6 0X87a0
H T 0X8872
B 1 0X8930
B 2 0X8a0c
B O 0X8aca
B E 0X8bba
B 5 0X8c6e
B 3 0X8d18
B 7 0X8dcc
B 4 0X8ec6
B 9 0X8fac
B 6 0X9038
B 8 0X911e
B T 0X91c8
H 2 0X93da
H 1 0X94ca
H O 0X9538
H 5 0X9600
H E 0X96be
H 7 0X979a
H 3 0X9844
H 9 0X9934
H 4 0X99f2
H 8 0X9ab0
H 6 0X9b8c
H T 0X9c54
B 2 0X9d44
B O 0X9e16
B 1 0X9e98
B E 0X9f60
B 5 0Xa046
B 3 0Xa118
B 7 0Xa1e0
B 4 0Xa2a8
B 9 0Xa38e
B 6 0Xa46a
B 8 0Xa528
B T 0Xa5f0
H O 0Xa7a8
H 2 0Xa870
H E 0Xa942
H 1 0Xaa1e
H 3 0Xaad2
H 5 0Xab72
H 4 0Xac30
H 7 0Xad16
H 6 0Xadd4
H 9 0Xae9c
H 8 0Xaf78
H T 0Xb054
B 2 0Xb130
B O 0Xb1e4
B E 0Xb298
B 3 0Xb36a
B 1 0Xb432
B 4 0Xb4c8
B 5 0Xb5a4
B 6 0Xb64e
B 7 0Xb734
B 8 0Xb810
B 9 0Xb8e2
B T 0Xb9be
H 2 0Xbb76
H E 0Xbc66
H O 0Xbd24
H 1 0Xbdd8
H 3 0Xbe96
H 5 0Xbf4a
H 4 0Xbffe
H 7 0Xc0c6
H 6 0Xc166
H 9 0Xc274
H 8 0Xc332
H T 0Xc3e6
B E 0Xc4f4
B 2 0Xc5b2
B O 0Xc684
B 3 0Xc724
B 1 0Xc7e2
B 4 0Xc8aa
B 5 0Xc968
B 6 0Xca08
B 7 0Xcb02
B 8 0Xcbde
B 9 0Xcc9c
B T 0Xcd50
H E 0Xcefe
H O 0Xd002
H 2 0Xd08e
H 1 0Xd17e
H 3 0Xd250
H 5 0Xd2e6
H 4 0Xd39a
H 7 0Xd49e
H 6 0Xd548
H 9 0Xd606
H 8 0Xd6c4
H T 0Xd796
B O 0Xd87c
B E 0Xd962
B 2 0Xda20
B 3 0Xdad4
B 1 0Xdb7e
B 4 0Xdc46
B 5 0Xdcfa
B 6 0Xddc2
B 7 0Xdebc
B 8 0Xdf7a
B 9 0Xe056
B T 0Xe100
H E 0Xe2ea
H O 0Xe3da
H 3 0Xe470
H 2 0Xe54c
H 4 0Xe5d8
H 1 0Xe6c8
H 6 0Xe77c
H 5 0Xe826
H 8 0Xe902
H 7 0Xe9ca
H 9 0Xea92
H T 0Xeb32
B E 0Xec54
B 3 0Xed30
B O 0Xede4
B 4 0Xee8e
B 2 0Xef6a
B 6 0Xf01e
B 1 0Xf0f0
B 8 0Xf1cc
B 5 0Xf280
B 9 0Xf334
B 7 0Xf410
B T 0Xf4ce
H 3 0Xf6b8
H E 0Xf7b2
H O 0Xf87a
H 2 0Xf94c
H 4 0Xf9c4
H 1 0Xfaaa
H 6 0Xfb72
H 5 0Xfc3a
H 8 0Xfd20
H 7 0Xfdd4
H 9 0Xfe74
H T 0Xff3c
B 3 0X0040
B O 0X0108
B E 0X01b2
B 4 0X02ca
B 2 0X0338
B 6 0X040a
B 1 0X04dc
B 8 0X05ae
B 5 0X066c
B 9 0X073e
B 7 0X0810
B T 0X08ba
H O 0X0aae
H 3 0X0b44
H E 0X0bee
H 2 0X0cfc
H 4 0X0dba
H 1 0X0ea0
H 6 0X0f68
H 5 0X1012
H 8 0X1102
H 7 0X11ca
H 9 0X126a
H T 0X1332
B O 0X13f0
B E 0X14c2
B 3 0X1562
B 4 0X163e
B 2 0X1710
B 6 0X17d8
B 1 0X18d2
B 8 0X19a4
B 5 0X1a4e
B 9 0X1b20
B 7 0X1c06
B T 0X1cce
H E 0X1e4a
H O 0X1f30
H 4 0X1fda
H 3 0X2084
H 6 0X2192
H 2 0X2278
H 8 0X22fa
H 1 0X23f4
H 9 0X24da
H 5 0X2584
H 7 0X2674
H T 0X2700
B O 0X27f0
B E 0X28cc
B 4 0X298a
B 6 0X2a2a
B 3 0X2af2
B 8 0X2bb0
B 2 0X2c8c
B 9 0X2d7c
B 1 0X2e30
B 7 0X2f20
B 5 0X2ff2
B T 0X30a6
H O 0X3254
H 4 0X333a
H E 0X33c6
H 3 0X34ac
H 6 0X357e
H 2 0X3678
H 8 0X3722
H 1 0X3808
H 9 0X388a
H 5 0X3966
H 7 0X3a6a
H T 0X3af6
B 4 0X3bd2
B O 0X3ca4
B E 0X3d62
B 6 0X3e52
B 3 0X3efc
B 8 0X3fd8
B 2 0X4096
B 9 0X415e
B 1 0X41fe
B 7 0X42ee
B 5 0X43ca
B T 0X4488
H 4 0X4636
H E 0X4708
H O 0X47ee
H 3 0X48ac
H 6 0X49a6
H 2 0X4aa0
H 8 0X4b4a
H 1 0X4c12
H 9 0X4c94
H 5 0X4d52
H 7 0X4e2e
H T 0X4eba
B E 0X4fc8
B 4 0X50ae
B O 0X5176
B 6 0X5270
B 3 0X5306
B 8 0X53f6
B 2 0X54b4
B 9 0X5590
B 1 0X5612
B 7 0X56ee
B 5 0X57b6
B T 0X5856
H 4 0X5a04
H E 0X5ad6
H 6 0X5bb2
H O 0X5cd4
H 8 0X5d6a
H 3 0X5e46
H 9 0X5f22
H 2 0X5fe0
H 7 0X60bc
H 1 0X6166
H 5 0X6210
H T 0X62e2
B 4 0X6378
B 6 0X6454
B E 0X6530
B 8 0X6616
B O 0X66d4
B 9 0X67ba
B 3 0X6864
B 7 0X695e
B 2 0X69fe
B 5 0X6ad0
B 1 0X6b84
B T 0X6c74
H 6 0X6e18
H 4 0X6eb8
H E 0X6f8a
H O 0X705c
H 8 0X712e
H 3 0X7228
H 9 0X72b4
H 2 0X73a4
H 7 0X748a
H 1 0X7548
H 5 0X75de
H T 0X76ba
B 6 0X7778
B E 0X7854
B 4 0X7912
B 8 0X79f8
B O 0X7aa2
B 9 0X7b60
B 3 0X7c50
B 7 0X7d0e
B 2 0X7dcc
B 5 0X7ec6
B 1 0X7f7a
B T 0X8024
H E 0X81dc
H 6 0X82cc
H 4 0X8380
H O 0X845c
H 8 0X851a
H 3 0X85ec
H 9 0X868c
H 2 0X8768
H 7 0X8844
H 1 0X890c
H 5 0X89c0
H T 0X8a7e
B E 0X8b82
B 4 0X8c4a
B 6 0X8ce0
B 8 0X8dc6
B O 0X8e8e
B 9 0X8f74
B 3 0X901e
B 7 0X90e6
B 2 0X9190
B 5 0X929e
B 1 0X935c
B T 0X93fc
H 4 0X9596
H E 0X9686
H 8 0X9744
H 6 0X982a
H 9 0X9906
H O 0X99c4
H 7 0X9aa0
H 3 0X9b4a
H 5 0X9bfe
H 2 0X9cc6
H 1 0X9dac
H T 0X9e38
B E 0X9f50
B 4 0X9fd2
B 8 0Xa0ae
B 9 0Xa1b2
B 6 0Xa25c
B 7 0Xa310
B O 0Xa3ec
B 5 0Xa4b4
B 3 0Xa586
B 1 0Xa644
B 2 0Xa6ee
B T 0Xa798
H E 0Xa982
H 8 0Xaa5e
H 4 0Xaaf4
H 6 0Xabc6
H 9 0Xacca
H O 0Xad74
H 7 0Xae3c
H 3 0Xaefa
H 5 0Xafb8
H 2 0Xb094
H 1 0Xb184
H T 0Xb210
B 8 0Xb2f6
B E 0Xb396
B 4 0Xb490
B 9 0Xb562
B 6 0Xb634
B 7 0Xb6de
B O 0Xb7ba
B 5 0Xb896
B 3 0Xb922
B 1 0Xb9fe
B 2 0Xbabc
B T 0Xbb66
H 8 0Xbd50
H 4 0Xbe18
H E 0Xbec2
H 6 0Xbfbc
H 9 0Xc05c
H O 0Xc142
H 7 0Xc20a
H 3 0Xc2be
H 5 0Xc390
H 2 0Xc46c
H 1 0Xc53e
H T 0Xc5ca
B 4 0Xc6b0
B 8 0Xc75a
B E 0Xc84a
B 9 0Xc8fe
B 6 0Xc9e4
B 7 0Xcaac
B O 0Xcb92
B 5 0Xcc3c
B 3 0Xcce6
B 1 0Xcdb8
B 2 0Xce76
B T 0Xcf16
H 8 0Xd100
H 4 0Xd1be
H 9 0Xd27c
H E 0Xd33a
H 7 0Xd420
H 6 0Xd4fc
H 5 0Xd5ce
H O 0Xd6d2
H 1 0Xd790
H 3 0Xd826
H 2 0Xd8ee
H T 0Xd97a
B 8 0Xda24
B 9 0Xdb3c
B 4 0Xdbfa
B 7 0Xdcae
B E 0Xdd4e
B 5 0Xde5c
B 6 0Xdf4c
B 1 0Xe01e
B O 0Xe0c8
B 2 0Xe17c
B 3 0Xe23a
B T 0Xe2ee
H 9 0Xe4ec
H 8 0Xe58c
H 4 0Xe668
H E 0Xe730
H 7 0Xe7ee
H 6 0Xe8de
H 5 0Xe99c
H O 0Xea8c
H 1 0Xeb22
H 3 0Xebea
H 2 0Xeca8
H T 0Xed5c
B 9 0Xee24
B 4 0Xef14
B 8 0Xefc8
B 7 0Xf09a
B E 0Xf162
B 5 0Xf248
B 6 0Xf342
B 1 0Xf3ce
B O 0Xf48c
B 2 0Xf536
B 3 0Xf5fe
B T 0Xf6c6
H 4 0Xf87e
H 9 0Xf93c
H 8 0Xfa0e
H E 0Xfb30
H 7 0Xfbd0
H 6 0Xfca2
H 5 0Xfd74
H O 0Xfe46
H 1 0Xfedc
H 3 0Xff86
H 2 0X0058
H T 0X010c
B 4 0X0206
B 8 0X02ba
B 9 0X03aa
B 7 0X0486
B E 0X056c
B 5 0X0616
B 6 0X06fc
B 1 0X07a6
B O 0X0864
B 2 0X08fa
B 3 0X099a
B T 0X0a6c
H 8 0X0c60
H 4 0X0d1e
H 7 0X0e2c
H 9 0X0ec2
H 5 0X0f8a
H E 0X1052
H 1 0X1160
H 6 0X1228
H 2 0X1304
H O 0X1386
H 3 0X13fe
H T 0X14da
B 4 0X15a2
B 8 0X167e
B 7 0X1764
B 5 0X1840
B 9 0X18ea
B 1 0X19e4
B E 0X1aac
B 2 0X1b74
B 6 0X1c5a
B 3 0X1ce6
B O 0X1dc2
B T 0X1e80
H 4 0X1ffc
H 7 0X20e2
H 8 0X21a0
H 9 0X2272
H 5 0X236c
H E 0X2466
H 1 0X2506
H 6 0X25e2
H 2 0X2664
H O 0X274a
H 3 0X27f4
H T 0X28c6
B 7 0X298e
B 4 0X2a38
B 8 0X2af6
B 5 0X2c18
B 9 0X2cea
B 1 0X2da8
B E 0X2e5c
B 2 0X2f06
B 6 0X2fec
B 3 0X3082
B O 0X3186
B T 0X3262
H 7 0X3424
H 8 0X34c4
H 4 0X356e
H 9 0X3640
H 5 0X3726
H E 0X3834
H 1 0X38f2
H 6 0X399c
H 2 0X3a14
H O 0X3b22
H 3 0X3bcc
H T 0X3cb2
B 8 0X3d7a
B 7 0X3e42
B 4 0X3f14
B 5 0X3ff0
B 9 0X40c2
B 1 0X416c
B E 0X4220
B 2 0X42ca
B 6 0X43a6
B 3 0X446e
B O 0X4540
B T 0X4626
H 7 0X4784
H 8 0X4838
H 5 0X4946
H 4 0X4a2c
H 1 0X4b26
H 9 0X4bda
H 2 0X4c98
H E 0X4d38
H 6 0X4ebe
H O 0X4ed2
H 3 0X4f2c
H T 0X504e
B 7 0X5116
B 5 0X522e
B 8 0X52ec
B 1 0X53b4
B 4 0X544a
B 2 0X5512
B 9 0X560c
B E 0X5792
B 6 0X57a6
B 3 0X585a
B O 0X58fa
B T 0X59e0
H 5 0X5bca
H 7 0X5cba
H 8 0X5d3c
H 4 0X5dfa
H 1 0X5ef4
H 9 0X5f8a
H 2 0X600c
H E 0X60f2
H 6 0X620a
H O 0X628c
H 3 0X635e
H T 0X6412
B 5 0X6552
B 8 0X65fc
B 7 0X66d8
B 1 0X6782
B 4 0X680e
B 2 0X68e0
B 9 0X699e
B 6 0X6a8e
B E 0X6b2e
B 3 0X6c5a
B O 0X6cf0
B T 0X6d90
H 8 0X6f70
H 5 0X7056
H 7 0X7114
H 4 0X71d2
H 1 0X72ae
H 9 0X7376
H 2 0X73da
H E 0X74c0
H 6 0X759c
H O 0X763c
H 3 0X7740
H T 0X77ea
B 8 0X78e4
B 7 0X79ca
B 5 0X7a92
B 1 0X7b50
B 4 0X7bfa
B 2 0X7c9a
B 9 0X7d80
B 6 0X7e98
B E 0X7ef2
B 3 0X7fc4
B O 0X8096
B T 0X8172
H 7 0X833e
H 8 0X83f2
H 1 0X84ce
H 5 0X85a0
H 2 0X8672
H 4 0X873a
H 6 0X8802
H 9 0X88ca
H 3 0X8988
H E 0X8a14
H O 0X8ac8
H T 0X8bb8
B 8 0X8c9e
B 7 0X8d5c
B 1 0X8e38
B 2 0X8f00
B 5 0X8fc8
B 6 0X90c2
B 4 0X9180
B 3 0X920c
B 9 0X92e8
B O 0X9392
B E 0X945a
B T 0X9540
H 8 0X9720
H 1 0X97e8
H 7 0X98c4
H 5 0X9978
H 2 0X9a22
H 4 0X9aea
H 6 0X9bc6
H 9 0X9c7a
H 3 0X9d38
H E 0X9df6
H O 0X9ebe
H T 0X9f90
B 1 0Xa03a
B 8 0Xa134
B 7 0Xa210
B 2 0Xa2d8
B 5 0Xa396
B 6 0Xa490
B 4 0Xa53a
B 3 0Xa5ee
B 9 0Xa6a2
B O 0Xa77e
B E 0Xa850
B T 0Xa90e
H 1 0Xaabc
H 7 0Xab8e
H 8 0Xac60
H 5 0Xad1e
H 2 0Xade6
H 4 0Xae90
H 6 0Xaf76
H 9 0Xb03e
H 3 0Xb106
H E 0Xb1d8
H O 0Xb2aa
H T 0Xb372
B 7 0Xb412
B 1 0Xb4da
B 8 0Xb5ca
B 2 0Xb6a6
B 5 0Xb750
B 6 0Xb840
B 4 0Xb912
B 3 0Xb9b2
B 9 0Xba8e
B O 0Xbb4c
B E 0Xbc14
B T 0Xbcdc
H 1 0Xbea8
H 7 0Xbf7a
H 2 0Xc02e
H 8 0Xc0f6
H 6 0Xc1be
H 5 0Xc29a
H 3 0Xc358
H 4 0Xc40c
H O 0Xc506
H 9 0Xc574
H E 0Xc650
H T 0Xc72c
B 1 0Xc7ea
B 2 0Xc8c6
B 7 0Xc998
B 6 0Xca7e
B 8 0Xcb32
B 3 0Xcbf0
B 5 0Xccc2
B O 0Xcd76
B 4 0Xce5c
B E 0Xcf10
B 9 0Xcfce
B T 0Xd0a0
H 2 0Xd262
H 1 0Xd348
H 7 0Xd410
H 8 0Xd4a6
H 6 0Xd58c
H 5 0Xd65e
H 3 0Xd726
H 4 0Xd7bc
H O 0Xd8ac
H 9 0Xd974
H E 0Xda28
H T 0Xdae6
B 2 0Xdbb8
B 7 0Xdca8
B 1 0Xdd52
B 6 0Xde38
B 8 0Xdf0a
B 3 0Xdfbe
B 5 0Xe090
B O 0Xe180
B 4 0Xe22a
B E 0Xe2d4
B 9 0Xe3ba
B T 0Xe46e
H 7 0Xe63a
H 2 0Xe6f8
H 1 0Xe7ca
H 8 0Xe892
H 6 0Xe964
H 5 0Xea4a
H 3 0Xeaf4
H 4 0Xeba8
H O 0Xec84
H 9 0Xed42
H E 0Xede2
H T 0Xeedc
B 7 0Xefae
B 1 0Xf04e
B 2 0Xf116
B 6 0Xf22e
B 8 0Xf2ec
B 3 0Xf3be
B 5 0Xf472
B O 0Xf530
B 4 0Xf60c
B E 0Xf6ac
B 9 0Xf788
B T 0Xf846
H 1 0Xfa26
H 7 0Xfb2a
H 6 0Xfbf2
H 2 0Xfc6a
H 3 0Xfd50
H 8 0Xfe0e
H O 0Xfeea
H 5 0Xffb2
H 4 0X0066
H E 0X011a
H 9 0X0228
H T 0X02be
B 7 0X0390
B 1 0X0458
B 6 0X0534
B 3 0X05fc
B 2 0X06c4
B O 0X076e
B 8 0X0836
B 4 0X0930
B 5 0X09e4
B 9 0X0ac0
B E 0X0b7e
B T 0X0c46
H 7 0X0dfe
H 6 0X0ec6
H 1 0X0fc0
H 2 0X1038
H 3 0X110a
H 8 0X11dc
H O 0X12ae
H 5 0X1394
H 4 0X142a
H E 0X151a
H 9 0X160a
H T 0X166e
B 6 0X1754
B 7 0X1830
B 1 0X18d0
B 3 0X1998
B 2 0X1a7e
B O 0X1b50
B 8 0X1c22
B 4 0X1d12
B 5 0X1db2
B 9 0X1e98
B E 0X1f56
B T 0X200a
H 6 0X21c2
H 1 0X22bc
H 7 0X237a
H 2 0X242e
H 3 0X24e2
H 8 0X25aa
H O 0X2672
H 5 0X274e
H 4 0X27f8
H E 0X2906
H 9 0X29d8
H T 0X2a64
B 1 0X2b18
B 6 0X2c26
B 7 0X2ce4
B 3 0X2d84
B 2 0X2e56
B O 0X2f14
B 8 0X2fd2
B 4 0X30b8
B 5 0X3176
B 9 0X3248
B E 0X334c
B T 0X33f6
H 6 0X3590
H 1 0X3676
H 3 0X3734
H 7 0X37f2
H O 0X38ba
H 2 0X396e
H 4 0X3a22
H 8 0X3afe
H 9 0X3be4
H 5 0X3cb6
H E 0X3d7e
H T 0X3e46
B 6 0X3f2c
B 3 0X3fd6
B 1 0X4080
B O 0X4152
B 7 0X4210
B 4 0X42d8
B 2 0X4396
B 9 0X4486
B 8 0X453a
B E 0X4602
B 5 0X4706
B T 0X47ce
H 3 0X49ae
H 6 0X4a76
H 1 0X4b52
H 7 0X4bf2
H O 0X4c92
H 2 0X4d5a
H 4 0X4dfa
H 8 0X4ecc
H 9 0X4f80
H 5 0X507a
H E 0X512e
H T 0X5200
B 3 0X52d2
B 1 0X53a4
B 6 0X5494
B O 0X5552
B 7 0X561a
B 4 0X56ce
B 2 0X5796
B 9 0X5854
B 8 0X5912
B E 0X59da
B 5 0X5ae8
B T 0X5b7e
H 1 0X5d54
H 3 0X5e12
H 6 0X5ee4
H 7 0X5fc0
H O 0X6088
H 2 0X611e
H 4 0X61be
H 8 0X62b8
H 9 0X6394
H 5 0X647a
H E 0X64d4
H T 0X65b0
B 1 0X6682
B 6 0X6772
B 3 0X684e
B O 0X692a
B 7 0X69e8
B 4 0X6aa6
B 2 0X6b50
B 9 0X6c5e
B 8 0X6d26
B E 0X6dbc
B 5 0X6ec0
B T 0X6f2e
H 6 0X7104
H 1 0X71cc
H O 0X72bc
H 3 0X737a
H 4 0X742e
H 7 0X750a
H 9 0X75fa
H 2 0X76ae
H 8 0X774e
H E 0X782a
H 5 0X78f2
H T 0X79b0
B 1 0X7a82
B 6 0X7b36
B O 0X7c26
B 4 0X7cee
B 3 0X7db6
B 9 0X7e6a
B 7 0X7f32
B 8 0X800e
B 2 0X80b8
B 5 0X81a8
B E 0X8266
B T 0X8342
H 1 0X84f0
H O 0X85c2
H 6 0X868a
H 3 0X8748
H 4 0X8806
H 7 0X88f6
H 9 0X8996
H 2 0X8a4a
H 8 0X8b26
H E 0X8c16
H 5 0X8c98
H T 0X8d9c
B O 0X8e5a
B 1 0X8efa
B 6 0X8fcc
B 4 0X90b2
B 3 0X9198
B 9 0X924c
B 7 0X930a
B 8 0X93d2
B 2 0X947c
B 5 0X9558
B E 0X963e
B T 0X9710
H O 0X98d2
H 6 0X9986
H 1 0X9a62
H 3 0X9b2a
H 4 0X9bf2
H 7 0X9cce
H 9 0X9d64
H 2 0X9e18
H 8 0X9ef4
H E 0X9fbc
H 5 0Xa052
H T 0Xa14c
B 6 0Xa232
B O 0Xa304
B 1 0Xa3a4
B 4 0Xa49e
B 3 0Xa57a
B 9 0Xa61a
B 7 0Xa700
B 8 0Xa7aa
B 2 0Xa84a
B 5 0Xa944
B E 0Xa9da
B T 0Xaac0
H O 0Xaca0
H 6 0Xad5e
H 4 0Xadf4
H 1 0Xaef8
H 9 0Xafd4
H 3 0Xb088
H 8 0Xb132
H 7 0Xb20e
H 5 0Xb2d6
H 2 0Xb39e
H E 0Xb45c
H T 0Xb524
B O 0Xb5f6
B 4 0Xb6c8
B 6 0Xb7a4
B 9 0Xb876
B 1 0Xb90c
B 8 0Xb9d4
B 3 0Xbace
B 5 0Xbb82
B 7 0Xbc68
B E 0Xbd30
B 2 0Xbd94
B T 0Xbec0
H 4 0Xc05a
H O 0Xc122
H 6 0Xc1f4
H 1 0Xc2bc
H 9 0Xc384
H 3 0Xc442
H 8 0Xc528
H 7 0Xc5f0
H 5 0Xc6a4
H 2 0Xc74e
H E 0Xc7f8
H T 0Xc8e8
B 4 0Xc9d8
B 6 0Xcad2
B O 0Xcb7c
B 9 0Xcc26
B 1 0Xccd0
B 8 0Xcdca
B 3 0Xce92
B 5 0Xcf64
B 7 0Xd022
B E 0Xd0cc
B 2 0Xd16c
B T 0Xd248
H 6 0Xd414
H 4 0Xd4dc
H O 0Xd5cc
H 1 0Xd66c
H 9 0Xd73e
H 3 0Xd810
H 8 0Xd900
H 7 0Xd9be
H 5 0Xda86
H 2 0Xdb3a
H E 0Xdbc6
H T 0Xdca2
B 6 0Xdd74
B O 0Xde5a
B 4 0Xdef0
B 9 0Xdffe
B 1 0Xe0b2
B 8 0Xe184
B 3 0Xe238
B 5 0Xe332
B 7 0Xe3e6
B E 0Xe4b8
B 2 0Xe544
B T 0Xe62a
H O 0Xe7d8
H 6 0Xe8be
H 9 0Xe986
H 4 0Xea3a
H 8 0Xeaf8
H 1 0Xebd4
H 5 0Xeca6
H 3 0Xed64
H E 0Xee22
H 7 0Xeeea
H 2 0Xefd0
H T 0Xf084
B 6 0Xf174
B O 0Xf21e
B 9 0Xf25a
B 8 0Xf3ae
B 4 0Xf48a
B 5 0Xf552
B 1 0Xf624
B E 0Xf6f6
B 3 0Xf7a0
B 2 0Xf85e
B 7 0Xf930
B T 0Xf9f8
H 6 0Xfb60
H 9 0Xfc64
H O 0Xfd22
H 4 0Xfdea
H 8 0Xfeb2
H 1 0Xff8e
H 5 0X0060
H 3 0X0128
H E 0X01d2
H 7 0X0290
H 2 0X0344
H T 0X0416
B 9 0X0510
B 6 0X060a
B O 0X06c8
B 8 0X077c
B 4 0X0844
B 5 0X0920
B 1 0X09ca
B E 0X0a6a
B 3 0X0b50
B 2 0X0bfa
B 7 0X0cd6
B T 0X0d9e
H 9 0X0f38
H O 0X1028
H 6 0X10e6
H 4 0X11cc
H 8 0X12b2
H 1 0X137a
H 5 0X1438
H 3 0X14f6
H E 0X1596
H 7 0X1668
H 2 0X171c
H T 0X17da
B O 0X18d4
B 9 0X199c
B 6 0X1aa0
B 8 0X1b5e
B 4 0X1c3a
B 5 0X1cf8
B 1 0X1dca
B E 0X1e60
B 3 0X1f0a
B 2 0X1ff0
B 7 0X20cc
B T 0X218a
H 9 0X236a
H O 0X2432
H 8 0X24f0
H 6 0X25ea
H 5 0X26a8
H 4 0X278e
H E 0X281a
H 1 0X28ec
H 2 0X29be
H 3 0X2a54
H 7 0X2b4e
H T 0X2bf8
B 9 0X2cc0
B 8 0X2d92
B O 0X2e6e
B 5 0X2f5e
B 6 0X301c
B E 0X30e4
B 4 0X31e8
B 2 0X3274
B 1 0X3346
B 7 0X3404
B 3 0X349a
B T 0X358a
H 8 0X3738
H 9 0X37ec
H O 0X38c8
H 6 0X39b8
H 5 0X3a9e
H 4 0X3b70
H E 0X3c24
H 1 0X3ce2
H 2 0X3d82
H 3 0X3e4a
H 7 0X3f30
H T 0X3fe4
B 8 0X408e
B O 0X416a
B 9 0X426e
B 5 0X4340
B 6 0X4412
B E 0X44bc
B 4 0X45a2
B 2 0X462e
B 1 0X4728
B 7 0X480e
B 3 0X4872
B T 0X4958
H O 0X4b10
H 8 0X4bba
H 9 0X4ca0
H 6 0X4d72
H 5 0X4e44
H 4 0X4f2a
H E 0X4fd4
H 1 0X50b0
H 2 0X5132
H 3 0X5222
H 7 0X52fe
H T 0X53a8
B O 0X545c
B 9 0X5556
B 8 0X561e
B 5 0X570e
B 6 0X57d6
B E 0X589e
B 4 0X5948
B 2 0X59fc
B 1 0X5aec
B 7 0X5bc8
B 3 0X5c5e
B T 0X5d1c
H 9 0X5ede
H O 0X5f9c
H 5 0X608c
H 8 0X6172
H E 0X624e
H 6 0X6334
H 2 0X63e8
H 4 0X646a
H 7 0X6564
H 1 0X664a
H 3 0X66d6
H T 0X6762
B O 0X6870
B 9 0X696a
B 5 0X6a1e
B E 0X6adc
B 8 0X6bc2
B 2 0X6c80
B 6 0X6d3e
B 7 0X6e2e
B 4 0X6ed8
B 3 0X6f8c
B 1 0X7090
B T 0X70fe
H O 0X72c0
H 5 0X739c
H 9 0X74a0
H 8 0X7536
H E 0X75ea
H 6 0X76e4
H 2 0X77a2
H 4 0X7838
H 7 0X791e
H 1 0X7a0e
H 3 0X7a9a
H T 0X7b6c
B 5 0X7c52
B O 0X7d10
B 9 0X7dd8
B E 0X7ebe
B 8 0X7fae
B 2 0X8062
B 6 0X812a
B 7 0X81fc
B 4 0X82ba
B 3 0X835a
B 1 0X844a
B T 0X84ea
H 5 0X86ac
H 9 0X8760
H O 0X881e
H 8 0X8922
H E 0X89ea
H 6 0X8ada
H 2 0X8b84
H 4 0X8c42
H 7 0X8d14
H 1 0X8ddc
H 3 0X8e90
H T 0X8f44
B 9 0X902a
B 5 0X90fc
B O 0X91ba
B E 0X9296
B 8 0X9390
B 2 0X9430
B 6 0X94f8
B 7 0X95e8
B 4 0X96b0
B 3 0X9750
B 1 0X982c
B T 0X98cc
H 5 0X9a98
H 9 0X9b6a
H E 0X9c3c
H O 0X9d0e
H 2 0X9df4
H 8 0X9e9e
H 7 0X9f84
H 6 0Xa02e
H 3 0Xa0e2
H 4 0Xa16e
H 1 0Xa27c
H T 0Xa31c
B 5 0Xa42a
B E 0Xa4e8
B 9 0Xa600
B 2 0Xa68c
B O 0Xa740
B 7 0Xa808
B 8 0Xa8da
B 3 0Xa98e
B 6 0Xaa4c
B 1 0Xab32
B 4 0Xabc8
B T 0Xac90
H E 0Xae48
H 5 0Xaf38
H 9 0Xb01e
H O 0Xb10e
H 2 0Xb1a4
H 8 0Xb24e
H 7 0Xb32a
H 6 0Xb3e8
H 3 0Xb492
H 4 0Xb528
H 1 0Xb636
H T 0Xb6ea
B E 0Xb7c6
B 9 0Xb898
B 5 0Xb99c
B 2 0Xba5a
B O 0Xbb2c
B 7 0Xbbd6
B 8 0Xbc8a
B 3 0Xbd2a
B 6 0Xbdf2
B 1 0Xbece
B 4 0Xbf6e
B T 0Xc04a
H 9 0Xc216
H E 0Xc298
H 5 0Xc392
H O 0Xc4dc
H 2 0Xc554
H 8 0Xc608
H 7 0Xc702
H 6 0Xc7c0
H 3 0Xc84c
H 4 0Xc8e2
H 1 0Xc9f0
H T 0Xca7c
B 9 0Xcb58
B 5 0Xcc66
B E 0Xcd10
B 2 0Xce0a
B O 0Xcebe
B 7 0Xcf86
B 8 0Xd058
B 3 0Xd0ee
B 6 0Xd1b6
B 1 0Xd29c
B 4 0Xd346
B T 0Xd404
H 5 0Xd5e4
H 9 0Xd6c0
H 2 0Xd77e
H E 0Xd832
H 7 0Xd90e
H O 0Xd9b8
H 3 0Xdaa8
H 8 0Xdb5c
H 1 0Xdc42
H 6 0Xdcf6
H 4 0Xdda0
H T 0Xde54
B 9 0Xdf4e
B 5 0Xe048
B 2 0Xe0e8
B 7 0Xe1ba
B E 0Xe23c
B 3 0Xe32c
B O 0Xe408
B 1 0Xe4d0
B 8 0Xe5b6
B 4 0Xe660
B 6 0Xe714
B T 0Xe7c8
H 9 0Xe994
H 2 0Xea48
H 5 0Xeb2e
H E 0Xec0a
H 7 0Xecc8
H O 0Xed7c
H 3 0Xee12
H 8 0Xef02
H 1 0Xefe8
H 6 0Xf0ba
H 4 0Xf15a
H T 0Xf240
B 2 0Xf2ea
B 9 0Xf3e4
B 5 0Xf498
B 7 0Xf56a
B E 0Xf614
B 3 0Xf6d2
B O 0Xf7b8
B 1 0Xf876
B 8 0Xf93e
B 4 0Xf9fc
B 6 0Xface
B T 0Xfba0
H 2 0Xfd4e
H 5 0Xfe16
H 9 0Xff06
H E 0Xffc4
H 7 0X006e
H O 0X0140
H 3 0X01e0
H 8 0X02bc
H 1 0X0398
H 6 0X046a
H 4 0X0514
H T 0X05dc
B 5 0X06f4
B 2 0X07d0
B 9 0X0884
B 7 0X092e
B E 0X09e2
B 3 0X0aa0
B O 0X0b68
B 1 0X0c30
B 8 0X0cf8
B 4 0X0dc0
B 6 0X0e9c
B T 0X0f46
H 2 0X113a
H 5 0X11f8
H 7 0X12d4
H 9 0X13b0
H 3 0X1464
H E 0X1504
H 1 0X15e0
H O 0X16bc
H 4 0X175c
H 8 0X181a
H 6 0X18f6
H T 0X19b4
B 2 0X1a90
B 7 0X1b9e
B 5 0X1c3e
B 3 0X1d1a
B 9 0X1de2
B 1 0X1e78
B E 0X1f5e
B 4 0X2044
B O 0X20e4
B 6 0X21c0
B 8 0X2288
B T 0X2332
H 7 0X2512
H 2 0X25da
H 5 0X2684
H 9 0X2788
H 3 0X2828
H E 0X2904
H 1 0X29cc
H O 0X2a80
H 4 0X2b34
H 8 0X2bde
H 6 0X2cce
H T 0X2d96
B 7 0X2e54
B 5 0X2f30
B 2 0X3016
B 3 0X30a2
B 9 0X31ba
B 1 0X3264
B E 0X332c
B 4 0X33f4
B O 0X34b2
B 6 0X358e
B 8 0X364c
B T 0X371e
H 5 0X38d6
H 7 0X39b2
H 2 0X3a66
H 9 0X3b42
H 3 0X3c0a
H E 0X3cf0
H 1 0X3d9a
H O 0X3e62
H 4 0X3f02
H 8 0X3f98
H 6 0X4088
H T 0X416e
B 5 0X425e
B 2 0X433a
B 7 0X43da
B 3 0X44a2
B 9 0X456a
B 1 0X460a
B E 0X4704
B 4 0X47cc
B O 0X4876
B 6 0X4934
B 8 0X4a06
B T 0X4ad8
H 2 0X4cae
H 5 0X4d62
H 3 0X4e3e
H 7 0X4f2e
H 1 0X4fe2
H 9 0X50b4
H 4 0X5168
H E 0X51fe
H 6 0X52ee
H O 0X537a
H 8 0X5442
H T 0X553c
B 5 0X5622
B 2 0X56fe
B 3 0X5794
B 1 0X5870
B 7 0X594c
B 4 0X5a14
B 9 0X5adc
B 6 0X5b72
B E 0X5c44
B 8 0X5d2a
B O 0X5df2
B T 0X5ea6
H 5 0X6054
H 3 0X6130
H 2 0X6202
H 7 0X62f2
H 1 0X63c4
H 9 0X6478
H 4 0X6522
H E 0X6626
H 6 0X66b2
H O 0X6752
H 8 0X6842
H T 0X691e
B 3 0X69fa
B 5 0X6ae0
B 2 0X6b94
B 1 0X6c66
B 7 0X6cfc
B 4 0X6dd8
B 9 0X6eb4
B 6 0X6f86
B E 0X7062
B 8 0X7102
B O 0X71d4
B T 0X7292
H 3 0X7472
H 2 0X751c
H 5 0X75c6
H 7 0X7684
H 1 0X7792
H 9 0X786e
H 4 0X78e6
H E 0X79f4
H 6 0X7abc
H O 0X7b48
H 8 0X7c4c
H T 0X7d14
B 2 0X7daa
B 3 0X7e72
B 5 0X7f62
B 1 0X8034
B 7 0X8110
B 4 0X81b0
B 9 0X828c
B 6 0X8354
B E 0X83fe
B 8 0X84e4
B O 0X8598
B T 0X866a
H 3 0X8818
H 2 0X88e0
H 1 0X89d0
H 5 0X8a7a
H 4 0X8b4c
H 7 0X8c0a
H 6 0X8cc8
H 9 0X8d86
H 8 0X8e76
H E 0X8f2a
H O 0X901a
H T 0X90c4
B 3 0X9196
B 1 0X9240
B 2 0X931c
B 4 0X93c6
B 5 0X94a2
B 6 0X9542
B 7 0X961e
B 8 0X96f0
B 9 0X97ae
B O 0X98b2
B E 0X997a
B T 0X9a42
H 1 0X9c18
H 3 0X9cae
H 2 0X9d62
H 5 0X9e2a
H 4 0X9ef2
H 7 0X9fa6
H 6 0Xa050
H 9 0Xa122
H 8 0Xa208
H E 0Xa2c6
H O 0Xa3c0
H T 0Xa46a
B 1 0Xa550
B 2 0Xa618
B 3 0Xa6b8
B 4 0Xa794
B 5 0Xa852
B 6 0Xa8de
B 7 0Xa9b0
B 8 0Xaaa0
B 9 0Xab86
B O 0Xac4e
B E 0Xad02
B T 0Xadd4
H 1 0Xafbe
H 2 0Xb054
H 3 0Xb0fe
H 4 0Xb1c6
H 5 0Xb298
H 6 0Xb356
H 7 0Xb414
H 8 0Xb4f0
H 9 0Xb59a
H O 0Xb662
H E 0Xb72a
H T 0Xb7f2
B 1 0Xb8d8
B 2 0Xb9aa
B 3 0Xba54
B 4 0Xbb12
B 5 0Xbbee
B 6 0Xbcac
B 7 0Xbd9c
B 8 0Xbe64
B 9 0Xbf0e
B O 0Xbfd6
B E 0Xc09e
B T 0Xc170
H 1 0Xc35a
H 2 0Xc3fa
H 3 0Xc486
H 4 0Xc558
H 5 0Xc616
H 6 0Xc6e8
H 7 0Xc7ba
H 8 0Xc8b4
H 9 0Xc94a
H O 0Xc9fe
H E 0Xcac6
H T 0Xcbb6
B 1 0Xcc7e
B 2 0Xcd5a
B 3 0Xcdf0
B 4 0Xcea4
B 5 0Xcf76
B 6 0Xd048
B 7 0Xd12e
B 8 0Xd200
B 9 0Xd2aa
B O 0Xd39a
B E 0Xd44e
B T 0Xd50c
H 1 0Xd6e2
H 2 0Xd7aa
H 3 0Xd854
H 4 0Xd908
H 5 0Xd9d0
H 6 0Xda98
H 7 0Xdb6a
H 8 0Xdc32
H 9 0Xdd04
H O 0Xddd6
H E 0Xde76
H T 0Xdf34
B 1 0Xe01a
B 2 0Xe0e2
B 3 0Xe182
B 4 0Xe25e
B 5 0Xe344
B 6 0Xe40c
B 7 0Xe4e8
B 8 0Xe5b0
B 9 0Xe6a0
B O 0Xe75e
B E 0Xe81c
B T 0Xe8da
