   *** Text-formatted Bell Statistics
       ------------------------------------------------------------------------------
         Bell Number:       1    2    3    4    5    6    7    8    9    0    E    T  
       ------------------------------------------------------------------------------
         Mean Error: All    -8    8   15    6   -4    5    6   -7  -10   18   -4  -18 
                      Hs   -14    5    8    5  -11    7    0   -9  -13   22  -12  -25 
                      Bs    -2   11   22    8    3    2   12   -5   -6   15    3  -12 
        
         Std  Error: All    29   28   28   30   29   27   26   27   26   26   29   24 
                      Hs    33   32   27   31   30   26   26   29   28   28   30   24 
                      Bs    23   23   27   28   26   28   25   25   24   23   26   22 
        
         Rms  Error: All    30   29   32   30   29   28   27   28   28   31   29   30 
                      Hs    35   33   28   31   32   27   26   30   31   35   32   35 
                      Bs    23   26   35   29   26   28   28   25   24   27   26   25 
       ------------------------------------------------------------------------------
