#. Lowndes: Version 2
#. SourceFilename: C:\Users\Guildford Ringers\Documents\guildfordcathedralbells.bitbucket.io\Recordings\Guildford\Guildford.20220511-2045.s0t0.3.wav
#. Tower: Guildford Cathedral
#. RingingName: Touch 3
#. RingingDateTime: 20220511-2045
#. Rungon: 
#. Tenor: 12
#. NumBellsRinging: 12
#. Creator: HawkEar Team Edition V1 for Guildford Cathedral
#. CreatorVersion: 1.1.0.3
#. TranscribedFor: Guildford band
#. TranscriptionDateTime: 20220511-2247
#. FirstBlowMs: 5530
#. Touchdb: -21.9729
#. TraindB: -9.73, -8.5, -6.1, -3.11, -3.16, -3.1, -3.98, -4.12, -5.95, -5.43, -4.92, -3
#. TrainedOn: 20220102-1438
#. TrainDataRecordedOn: 20210813-1741
#. TrainParams: -ft:y -ws:0.05 -hs:0.01 -co:0.9 -sw:40 -ts:
#. GainParams: -fh:6000 -fl:200
#. OnsetParams: -mb:80 -mf:10 -ng:0.3 -oo:0
#. WriteParams: -hb:y
#. AnalParams: -au:y -xp:n -sg:n -hsg:-1
#. ExpString: 
#. Association: 
#. Calling: 
#. Compositionname: 
#. Method: 
#. Footnotes: 
#. Ringers: 
#. Stage: 
H 1 0X159a
H 2 0X166c
H 3 0X172a
H 4 0X17fc
H 5 0X1914
H 6 0X19be
H 7 0X1aae
H 8 0X1b6c
H 9 0X1c5c
H O 0X1d6a
H E 0X1e1e
H T 0X1f22
B 1 0X1fcc
B 2 0X20b2
B 3 0X2170
B 4 0X2260
B 5 0X231e
B 6 0X2404
B 7 0X24d6
B 8 0X258a
B 9 0X2666
B O 0X274c
B E 0X2832
B T 0X28fa
H 1 0X2a94
H 2 0X2b66
H 3 0X2c1a
H 4 0X2ce2
H 5 0X2dbe
H 6 0X2e9a
H 7 0X2f6c
H 8 0X3002
H 9 0X3106
H O 0X3200
H E 0X32c8
H T 0X33a4
B 1 0X344e
B 2 0X352a
B 3 0X35d4
B 4 0X36a6
B 5 0X3750
B 6 0X382c
B 7 0X391c
B 8 0X39e4
B 9 0X3aca
B O 0X3ba6
B E 0X3c78
B T 0X3d40
H 1 0X3ebc
H 2 0X3f7a
H 3 0X4038
H 4 0X410a
H 5 0X41f0
H 6 0X42b8
H 7 0X4394
H 8 0X443e
H 9 0X4524
H O 0X4628
H E 0X46d2
H T 0X47ae
B 1 0X483a
B 2 0X492a
B 3 0X49ca
B 4 0X4a9c
B 5 0X4b6e
B 6 0X4c4a
B 7 0X4d26
B 8 0X4e02
B 9 0X4eca
B O 0X4fb0
B E 0X5032
B T 0X5140
H 1 0X52c6
H 2 0X5384
H 3 0X5438
H 4 0X5500
H 5 0X55dc
H 6 0X5686
H 7 0X5780
H 8 0X583e
H 9 0X5938
H O 0X5a3c
H E 0X5adc
H T 0X5b90
B 1 0X5c62
B 2 0X5d34
B 3 0X5dde
B 4 0X5e7e
B 5 0X5f5a
B 6 0X602c
B 7 0X60fe
B 8 0X61d0
B 9 0X62ac
B O 0X6388
B E 0X6464
B T 0X6536
H 1 0X66bc
H 2 0X678e
H 3 0X682e
H 4 0X6900
H 5 0X69d2
H 6 0X6a90
H 7 0X6b80
H 8 0X6c2a
H 9 0X6ce8
H O 0X6de2
H E 0X6eaa
H T 0X6f86
B 1 0X7044
B 2 0X7116
B 3 0X71b6
B 4 0X7274
B 5 0X735a
B 6 0X7422
B 7 0X7512
B 8 0X75d0
B 9 0X7698
B O 0X7788
B E 0X7846
B T 0X7918
H 1 0X7ab2
H 2 0X7b70
H 3 0X7c2e
H 4 0X7cec
H 5 0X7dc8
H 6 0X7e5e
H 7 0X7f44
H 8 0X7ff8
H 9 0X80fc
H O 0X8200
H E 0X8296
H T 0X8386
B 1 0X8430
B 2 0X8502
B 3 0X85a2
B 4 0X8688
B 5 0X875a
B 6 0X8804
B 7 0X891c
B 8 0X89da
B 9 0X8a7a
B O 0X8b60
B E 0X8c3c
B T 0X8d0e
H 1 0X8eb2
H 2 0X8f70
H 3 0X9024
H 4 0X9100
H 5 0X91c8
H 6 0X9272
H 7 0X9362
H 8 0X9402
H 9 0X94ca
H O 0X95c4
H E 0X9696
H T 0X9772
B 1 0X9826
B 2 0X98e4
B 3 0X998e
B 4 0X9a4c
B 5 0X9b3c
B 6 0X9bf0
B 7 0X9cfe
B 8 0X9dc6
B 9 0X9e7a
B O 0X9f74
B E 0Xa032
B T 0Xa10e
H 1 0Xa294
H 2 0Xa352
H 3 0Xa406
H 4 0Xa4e2
H 5 0Xa5aa
H 6 0Xa654
H 7 0Xa744
H 8 0Xa7f8
H 9 0Xa8b6
H O 0Xa99c
H E 0Xaa82
H T 0Xab68
B 1 0Xac30
B 2 0Xace4
B 3 0Xad8e
B 4 0Xae38
B 5 0Xaf14
B 6 0Xafdc
B 7 0Xb0cc
B 8 0Xb194
B 9 0Xb248
B O 0Xb342
B E 0Xb400
B T 0Xb4e6
H 1 0Xb6a8
H 2 0Xb75c
H 3 0Xb81a
H 4 0Xb8d8
H 5 0Xb9aa
H 6 0Xba5e
H 7 0Xbb44
H 8 0Xbc16
H 9 0Xbca2
H O 0Xbdc4
H E 0Xbe6e
H T 0Xbf4a
B 1 0Xc008
B 2 0Xc0da
B 3 0Xc17a
B 4 0Xc256
B 5 0Xc328
B 6 0Xc40e
B 7 0Xc4f4
B 8 0Xc5bc
B 9 0Xc652
B O 0Xc74c
B E 0Xc800
B T 0Xc8dc
H 1 0Xca6c
H 2 0Xcb34
H 3 0Xcbde
H 4 0Xcca6
H 5 0Xcd8c
H 6 0Xce40
H 7 0Xcf3a
H 8 0Xcff8
H 9 0Xd0ac
H O 0Xd1b0
H E 0Xd25a
H T 0Xd336
B 1 0Xd412
B 2 0Xd4d0
B 3 0Xd57a
B 4 0Xd624
B 5 0Xd6f6
B 6 0Xd7aa
B 7 0Xd8b8
B 8 0Xd976
B 9 0Xda66
B O 0Xdb24
B E 0Xdc00
B T 0Xdcc8
H 1 0Xde62
H 2 0Xdf2a
H 3 0Xdfd4
H 4 0Xe0c4
H 5 0Xe182
H 6 0Xe240
H 7 0Xe31c
H 8 0Xe3da
H 9 0Xe48e
H O 0Xe588
H E 0Xe664
H T 0Xe740
B 1 0Xe7fe
B 2 0Xe89e
B 3 0Xe952
B 4 0Xea1a
B 5 0Xeae2
B 6 0Xebbe
B 7 0Xec9a
B 8 0Xed62
B 9 0Xee2a
B O 0Xef1a
B E 0Xeff6
B T 0Xf0c8
H 1 0Xf244
H 2 0Xf2e4
H 3 0Xf3b6
H 4 0Xf4a6
H 5 0Xf550
H 6 0Xf60e
H 7 0Xf6d6
H 8 0Xf794
H 9 0Xf870
H O 0Xf992
H E 0Xfa3c
H T 0Xfb18
B 1 0Xfbea
B 2 0Xfc9e
B 3 0Xfd52
B 4 0Xfe1a
B 5 0Xfee2
B 6 0Xff8c
B 7 0X0086
B 8 0X014e
B 9 0X022a
B O 0X0306
B E 0X03f6
B T 0X04be
H 2 0X0680
H 1 0X0766
H 3 0X0806
H 5 0X08ec
H 4 0X09be
H 7 0X0a5e
H 6 0X0b12
H 9 0X0bf8
H 8 0X0c98
H E 0X0d92
H O 0X0e8c
H T 0X0f36
B 2 0X103a
B 3 0X10da
B 1 0X11b6
B 4 0X127e
B 5 0X1332
B 6 0X1404
B 7 0X14d6
B 8 0X159e
B 9 0X1652
B O 0X1738
B E 0X1800
B T 0X18d2
H 3 0X1ae4
H 2 0X1b84
H 4 0X1c38
H 1 0X1d14
H 6 0X1db4
H 5 0X1e86
H 8 0X1f3a
H 7 0X2016
H 9 0X20f2
H E 0X21e2
H O 0X22c8
H T 0X2368
B 2 0X2476
B 3 0X250c
B 4 0X25ca
B 6 0X26d8
B 1 0X2778
B 8 0X2840
B 5 0X28f4
B 9 0X29bc
B 7 0X2a84
B O 0X2b60
B E 0X2c46
B T 0X2d18
H 2 0X2e9e
H 4 0X2fac
H 3 0X3056
H 1 0X310a
H 6 0X31dc
H 5 0X32cc
H 8 0X338a
H 7 0X3448
H 9 0X34fc
H E 0X35ec
H O 0X36be
H T 0X3790
B 4 0X3880
B 2 0X3934
B 3 0X3a06
B 6 0X3aec
B 1 0X3baa
B 8 0X3c7c
B 5 0X3d44
B 9 0X3df8
B 7 0X3eca
B O 0X3f92
B E 0X406e
B T 0X412c
H 4 0X4302
H 3 0X43ca
H 2 0X4474
H 1 0X451e
H 6 0X45f0
H 5 0X46f4
H 8 0X47e4
H 7 0X48b6
H 9 0X4960
H E 0X4a0a
H O 0X4afa
H T 0X4bc2
B 3 0X4cc6
B 4 0X4d84
B 2 0X4e4c
B 6 0X4f14
B 1 0X4fe6
B 8 0X50cc
B 5 0X518a
B 9 0X522a
B 7 0X5338
B O 0X5400
B E 0X54a0
B T 0X557c
H 4 0X5770
H 3 0X5824
H 6 0X590a
H 2 0X59fa
H 8 0X5a9a
H 1 0X5b4e
H 9 0X5c0c
H 5 0X5cde
H O 0X5dce
H 7 0X5e96
H E 0X5f04
H T 0X6008
B 4 0X613e
B 6 0X61e8
B 3 0X62ba
B 8 0X6378
B 2 0X645e
B 9 0X651c
B 1 0X65d0
B O 0X66ca
B 5 0X677e
B E 0X680a
B 7 0X6918
B T 0X69ea
H 6 0X6bd4
H 4 0X6ca6
H 3 0X6d50
H 2 0X6e40
H 8 0X6f08
H 1 0X6fa8
H 9 0X705c
H 5 0X7156
H O 0X7214
H 7 0X72c8
H E 0X73a4
H T 0X7462
B 6 0X757a
B 3 0X762e
B 4 0X7714
B 8 0X77fa
B 2 0X78cc
B 9 0X798a
B 1 0X7a34
B O 0X7b06
B 5 0X7bba
B E 0X7cb4
B 7 0X7d9a
B T 0X7e44
H 3 0X802e
H 6 0X8100
H 4 0X81c8
H 2 0X82c2
H 8 0X8376
H 1 0X8416
H 9 0X84e8
H 5 0X85b0
H O 0X865a
H 7 0X8740
H E 0X8826
H T 0X88da
B 3 0X89f2
B 4 0X8ab0
B 6 0X8bb4
B 8 0X8c7c
B 2 0X8d62
B 9 0X8e02
B 1 0X8eca
B O 0X8f7e
B 5 0X9032
B E 0X910e
B 7 0X91f4
B T 0X92bc
H 4 0X949c
H 3 0X955a
H 8 0X9622
H 6 0X96ea
H 9 0X97e4
H 2 0X98b6
H O 0X9992
H 1 0X9a28
H 5 0X9af0
H 7 0X9bf4
H E 0X9c80
H T 0X9d48
B 3 0X9e4c
B 4 0X9f32
B 8 0X9ff0
B 9 0Xa0c2
B 6 0Xa18a
B O 0Xa270
B 2 0Xa356
B 5 0Xa3f6
B 1 0Xa4c8
B E 0Xa568
B 7 0Xa658
B T 0Xa72a
H 3 0Xa8ec
H 8 0Xa9aa
H 4 0Xaaa4
H 6 0Xab44
H 9 0Xac52
H 2 0Xad24
H O 0Xadce
H 1 0Xae82
H 5 0Xaf4a
H 7 0Xb044
H E 0Xb0da
H T 0Xb1b6
B 8 0Xb2c4
B 3 0Xb382
B 4 0Xb42c
B 9 0Xb53a
B 6 0Xb634
B O 0Xb6de
B 2 0Xb79c
B 5 0Xb850
B 1 0Xb918
B E 0Xb9d6
B 7 0Xbabc
B T 0Xbb8e
H 8 0Xbd50
H 4 0Xbe22
H 3 0Xbeea
H 6 0Xbfd0
H 9 0Xc0b6
H 2 0Xc192
H O 0Xc246
H 1 0Xc2f0
H 5 0Xc3b8
H 7 0Xc494
H E 0Xc566
H T 0Xc638
B 4 0Xc732
B 8 0Xc804
B 3 0Xc8e0
B 9 0Xc9a8
B 6 0Xca48
B O 0Xcb60
B 2 0Xcc00
B 5 0Xccd2
B 1 0Xcda4
B E 0Xce62
B 7 0Xcf2a
B T 0Xcff2
H 8 0Xd1c8
H 4 0Xd2b8
H 9 0Xd376
H 3 0Xd42a
H O 0Xd54c
H 6 0Xd5f6
H 5 0Xd6dc
H 2 0Xd7b8
H E 0Xd862
H 1 0Xd8e4
H 7 0Xd9d4
H T 0Xdaa6
B 8 0Xdb78
B 9 0Xdc90
B 4 0Xdd58
B O 0Xde52
B 3 0Xdf2e
B 5 0Xdfd8
B 6 0Xe06e
B E 0Xe15e
B 2 0Xe230
B 7 0Xe302
B 1 0Xe3c0
B T 0Xe492
H 9 0Xe65e
H 8 0Xe73a
H 4 0Xe80c
H 3 0Xe8e8
H O 0Xe9ba
H 6 0Xea8c
H 5 0Xeb54
H 2 0Xec62
H E 0Xecee
H 1 0Xedac
H 7 0Xee88
H T 0Xef3c
B 9 0Xf018
B 4 0Xf11c
B 8 0Xf1d0
B O 0Xf2c0
B 3 0Xf39c
B 5 0Xf45a
B 6 0Xf540
B E 0Xf5fe
B 2 0Xf6d0
B 7 0Xf7ca
B 1 0Xf86a
B T 0Xf914
H 4 0Xfaea
H 9 0Xfbb2
H 8 0Xfc66
H 3 0Xfd74
H O 0Xfe6e
H 6 0Xff04
H 5 0Xffe0
H 2 0X00d0
H E 0X017a
H 1 0X0206
H 7 0X033c
H T 0X03fa
B 4 0X0490
B 8 0X054e
B 9 0X0634
B O 0X0738
B 3 0X0832
B 5 0X08d2
B 6 0X09e0
B E 0X0ab2
B 2 0X0b48
B 7 0X0c56
B 1 0X0cf6
B T 0X0ddc
H 8 0X0f8a
H 4 0X105c
H O 0X111a
H 9 0X11e2
H 5 0X12be
H 3 0X1390
H E 0X1476
H 6 0X1552
H 7 0X1656
H 2 0X16f6
H 1 0X17c8
H T 0X1886
B 4 0X19bc
B 8 0X1a3e
B O 0X1af2
B 5 0X1bc4
B 9 0X1c82
B E 0X1d86
B 3 0X1e6c
B 7 0X1f34
B 6 0X2042
B 1 0X20d8
B 2 0X21a0
B T 0X225e
H 4 0X2484
H O 0X251a
H 8 0X25ba
H 9 0X2696
H 5 0X275e
H 3 0X284e
H E 0X2916
H 6 0X2a24
H 7 0X2af6
H 2 0X2ba0
H 1 0X2c7c
H T 0X2d4e
B O 0X2e52
B 4 0X2efc
B 8 0X2f7e
B 5 0X3064
B 9 0X3168
B E 0X3208
B 3 0X32f8
B 7 0X33d4
B 6 0X3492
B 1 0X355a
B 2 0X362c
B T 0X3708
H O 0X38e8
H 8 0X3992
H 4 0X3a6e
H 9 0X3b5e
H 5 0X3c1c
H 3 0X3d02
H E 0X3db6
H 6 0X3e88
H 7 0X3f64
H 2 0X402c
H 1 0X4108
H T 0X41a8
B 8 0X42a2
B O 0X436a
B 4 0X4446
B 5 0X4536
B 9 0X45f4
B E 0X46c6
B 3 0X47ac
B 7 0X48a6
B 6 0X491e
B 1 0X4a0e
B 2 0X4aea
B T 0X4b8a
H O 0X4d6a
H 8 0X4e28
H 5 0X4f22
H 4 0X501c
H E 0X50b2
H 9 0X513e
H 7 0X5274
H 3 0X531e
H 1 0X53f0
H 6 0X54f4
H 2 0X55a8
H T 0X5684
B O 0X5742
B 5 0X583c
B 8 0X58e6
B E 0X599a
B 4 0X5a9e
B 7 0X5b70
B 9 0X5c1a
B 1 0X5cf6
B 3 0X5dbe
B 2 0X5e9a
B 6 0X5f6c
B T 0X6052
H 5 0X6228
H O 0X62d2
H 8 0X6390
H 4 0X648a
H E 0X6552
H 9 0X664c
H 7 0X670a
H 3 0X67be
H 1 0X6890
H 6 0X699e
H 2 0X6a16
H T 0X6afc
B 5 0X6be2
B 8 0X6ca0
B O 0X6d90
B E 0X6e76
B 4 0X6f34
B 7 0X7010
B 9 0X70ba
B 1 0X7182
B 3 0X7272
B 2 0X7330
B 6 0X7420
B T 0X74de
H 8 0X76a0
H 5 0X775e
H O 0X7844
H 4 0X7920
H E 0X7a10
H 9 0X7ab0
H 7 0X7b82
H 3 0X7c7c
H 1 0X7d58
H 6 0X7e52
H 2 0X7eac
H T 0X7f92
B 8 0X8064
B O 0X814a
B 5 0X8212
B E 0X830c
B 4 0X83d4
B 7 0X84ba
B 9 0X8564
B 1 0X8640
B 3 0X8712
B 2 0X87ee
B 6 0X88b6
B T 0X8988
H O 0X8b54
H 8 0X8c26
H E 0X8d0c
H 5 0X8dc0
H 7 0X8ec4
H 4 0X8f6e
H 1 0X902c
H 9 0X911c
H 2 0X91f8
H 3 0X92a2
H 6 0X937e
H T 0X9482
B 8 0X9504
B O 0X95d6
B E 0X96da
B 7 0X97ac
B 5 0X9892
B 1 0X9978
B 4 0X9a5e
B 2 0X9aea
B 9 0X9bf8
B 6 0X9ca2
B 3 0X9d60
B T 0X9e32
H 8 0Xa008
H E 0Xa0d0
H O 0Xa1ca
H 5 0Xa27e
H 7 0Xa364
H 4 0Xa440
H 1 0Xa4f4
H 9 0Xa5da
H 2 0Xa666
H 3 0Xa738
H 6 0Xa814
H T 0Xa918
B E 0Xa9e0
B 8 0Xaac6
B O 0Xab8e
B 7 0Xac74
B 5 0Xad1e
B 1 0Xae04
B 4 0Xaefe
B 2 0Xafbc
B 9 0Xb084
B 6 0Xb14c
B 3 0Xb228
B T 0Xb2dc
H E 0Xb4b2
H O 0Xb598
H 8 0Xb67e
H 5 0Xb73c
H 7 0Xb80e
H 4 0Xb8e0
H 1 0Xb994
H 9 0Xbaac
H 2 0Xbb42
H 3 0Xbc28
H 6 0Xbcdc
H T 0Xbdb8
B O 0Xbebc
B E 0Xbf8e
B 8 0Xc074
B 7 0Xc146
B 5 0Xc1d2
B 1 0Xc2a4
B 4 0Xc36c
B 2 0Xc448
B 9 0Xc542
B 6 0Xc60a
B 3 0Xc6aa
B T 0Xc768
H E 0Xc95c
H O 0Xca4c
H 7 0Xcb00
H 8 0Xcbbe
H 1 0Xcc86
H 5 0Xcd76
H 2 0Xce66
H 4 0Xcf38
H 6 0Xcfe2
H 9 0Xd0be
H 3 0Xd172
H T 0Xd262
B E 0Xd316
B 7 0Xd41a
B O 0Xd4ce
B 1 0Xd5be
B 8 0Xd67c
B 2 0Xd762
B 5 0Xd82a
B 6 0Xd8f2
B 4 0Xd9ec
B 3 0Xdaa0
B 9 0Xdb72
B T 0Xdc44
H 7 0Xde1a
H E 0Xdeec
H O 0Xdfbe
H 8 0Xe072
H 1 0Xe126
H 5 0Xe22a
H 2 0Xe2d4
H 4 0Xe3ce
H 6 0Xe4aa
H 9 0Xe572
H 3 0Xe630
H T 0Xe6ee
B 7 0Xe806
B O 0Xe8ce
B E 0Xe9aa
B 1 0Xea5e
B 8 0Xeb3a
B 2 0Xec0c
B 5 0Xecac
B 6 0Xedce
B 4 0Xee96
B 3 0Xef7c
B 9 0Xefea
B T 0Xf0d0
H O 0Xf2ba
H 7 0Xf364
H E 0Xf440
H 8 0Xf526
H 1 0Xf5e4
H 5 0Xf6c0
H 2 0Xf77e
H 4 0Xf86e
H 6 0Xf936
H 9 0Xfa08
H 3 0Xfae4
H T 0Xfba2
B O 0Xfca6
B E 0Xfd78
B 7 0Xfe2c
B 1 0Xfeb8
B 8 0Xffbc
B 2 0X00a2
B 5 0X0138
B 6 0X0278
B 4 0X0336
B 3 0X041c
B 9 0X04b2
B T 0X0584
H E 0X0764
H O 0X0840
H 1 0X08ae
H 7 0X09d0
H 2 0X0a98
H 8 0X0b6a
H 6 0X0c46
H 5 0X0d04
H 3 0X0e1c
H 4 0X0f02
H 9 0X0fa2
H T 0X1056
B O 0X1150
B E 0X1222
B 1 0X12d6
B 2 0X13c6
B 7 0X14c0
B 6 0X1574
B 8 0X1632
B 3 0X1736
B 5 0X17b8
B 9 0X18da
B 4 0X198e
B T 0X1a38
H O 0X1bfa
H 1 0X1ca4
H E 0X1d9e
H 7 0X1e84
H 2 0X1f42
H 8 0X2028
H 6 0X2104
H 5 0X2212
H 3 0X22c6
H 4 0X2366
H 9 0X2460
H T 0X24f6
B 1 0X25dc
B O 0X267c
B E 0X279e
B 2 0X2848
B 7 0X294c
B 6 0X2a0a
B 8 0X2af0
B 3 0X2be0
B 5 0X2ca8
B 9 0X2d84
B 4 0X2e38
B T 0X2ec4
H 1 0X3086
H E 0X3180
H O 0X3266
H 7 0X331a
H 2 0X33ec
H 8 0X34d2
H 6 0X3590
H 5 0X36a8
H 3 0X3766
H 4 0X381a
H 9 0X38f6
H T 0X39b4
B E 0X3a9a
B 1 0X3b58
B O 0X3c20
B 2 0X3d06
B 7 0X3dd8
B 6 0X3ebe
B 8 0X3f90
B 3 0X4062
B 5 0X4134
B 9 0X4238
B 4 0X4300
B T 0X4396
H 1 0X454e
H E 0X463e
H 2 0X46e8
H O 0X47ba
H 6 0X48be
H 7 0X4990
H 3 0X4a4e
H 8 0X4b20
H 9 0X4be8
H 5 0X4cba
H 4 0X4dc8
H T 0X4e5e
B 1 0X4f76
B 2 0X500c
B E 0X5124
B 6 0X51ec
B O 0X5296
B 3 0X5372
B 7 0X5426
B 9 0X5502
B 8 0X55c0
B 4 0X56ba
B 5 0X5778
B T 0X5822
H 2 0X5a0c
H 1 0X5afc
H E 0X5bd8
H O 0X5cc8
H 6 0X5d54
H 7 0X5e30
H 3 0X5f02
H 8 0X5fd4
H 9 0X607e
H 5 0X6178
H 4 0X6268
H T 0X6308
B 2 0X6402
B E 0X64f2
B 1 0X6588
B 6 0X663c
B O 0X672c
B 3 0X6858
B 7 0X6920
B 9 0X69c0
B 8 0X6a7e
B 4 0X6b78
B 5 0X6c4a
B T 0X6cea
H E 0X6f10
H 2 0X6fba
H 1 0X7082
H O 0X7136
H 6 0X7230
H 7 0X7302
H 3 0X73de
H 8 0X7488
H 9 0X755a
H 5 0X7654
H 4 0X771c
H T 0X77d0
B E 0X78de
B 1 0X794c
B 2 0X7a50
B 6 0X7b40
B O 0X7c1c
B 3 0X7cee
B 7 0X7dca
B 9 0X7e88
B 8 0X7f46
B 4 0X804a
B 5 0X8108
B T 0X81d0
H 1 0X832e
H E 0X8446
H 6 0X84f0
H 2 0X85e0
H 3 0X86bc
H O 0X87c0
H 9 0X887e
H 7 0X895a
H 4 0X8a2c
H 8 0X8af4
H 5 0X8bb2
H T 0X8cb6
B E 0X8d7e
B 1 0X8e32
B 6 0X8efa
B 3 0X8fcc
B 2 0X90a8
B 9 0X9166
B O 0X924c
B 4 0X931e
B 7 0X93fa
B 5 0X94f4
B 8 0X95b2
B T 0X968e
H E 0X9864
H 6 0X98d2
H 1 0X99cc
H 2 0X9ada
H 3 0X9b8e
H O 0X9c60
H 9 0X9d14
H 7 0X9de6
H 4 0X9ed6
H 8 0X9f9e
H 5 0Xa084
H T 0Xa160
B 6 0Xa21e
B E 0Xa322
B 1 0Xa3b8
B 3 0Xa494
B 2 0Xa57a
B 9 0Xa642
B O 0Xa73c
B 4 0Xa7dc
B 7 0Xa8a4
B 5 0Xa9a8
B 8 0Xaa70
B T 0Xab42
H 6 0Xacfa
H 1 0Xadcc
H E 0Xaebc
H 2 0Xaf84
H 3 0Xb060
H O 0Xb13c
H 9 0Xb1f0
H 7 0Xb290
H 4 0Xb38a
H 8 0Xb420
H 5 0Xb51a
H T 0Xb60a
B 1 0Xb6fa
B 6 0Xb7d6
B E 0Xb8a8
B 3 0Xb966
B 2 0Xba42
B 9 0Xbaf6
B O 0Xbc04
B 4 0Xbcea
B 7 0Xbd94
B 5 0Xbe5c
B 8 0Xbf1a
B T 0Xbff6
H 6 0Xc212
H 1 0Xc30c
H 3 0Xc3b6
H E 0Xc442
H 9 0Xc53c
H 2 0Xc5f0
H 4 0Xc6d6
H O 0Xc79e
H 5 0Xc87a
H 7 0Xc956
H 8 0Xca28
H T 0Xcaf0
B 6 0Xcbb8
B 3 0Xccb2
B 1 0Xcd8e
B 9 0Xce4c
B E 0Xcf14
B 4 0Xcfe6
B 2 0Xd0b8
B 5 0Xd180
B O 0Xd27a
B 8 0Xd338
B 7 0Xd432
B T 0Xd504
H 3 0Xd6b2
H 6 0Xd766
H 1 0Xd874
H E 0Xd946
H 9 0Xda18
H 2 0Xdac2
H 4 0Xdb94
H O 0Xdc98
H 5 0Xdd24
H 7 0Xde28
H 8 0Xdf18
H T 0Xdfc2
B 3 0Xe0b2
B 1 0Xe198
B 6 0Xe21a
B 9 0Xe328
B E 0Xe404
B 4 0Xe49a
B 2 0Xe576
B 5 0Xe666
B O 0Xe74c
B 8 0Xe832
B 7 0Xe90e
B T 0Xe9d6
H 1 0Xeba2
H 3 0Xec4c
H 6 0Xed1e
H E 0Xee18
H 9 0Xeef4
H 2 0Xef9e
H 4 0Xf0a2
H O 0Xf16a
H 5 0Xf200
H 7 0Xf2fa
H 8 0Xf3f4
H T 0Xf4da
B 1 0Xf598
B 6 0Xf64c
B 3 0Xf732
B 9 0Xf80e
B E 0Xf8ea
B 4 0Xf9da
B 2 0Xfa7a
B 5 0Xfb6a
B O 0Xfc28
B 8 0Xfd0e
B 7 0Xfdfe
B T 0Xfed0
H 6 0X00b0
H 1 0X0196
H 9 0X020e
H 3 0X02d6
H 4 0X03bc
H E 0X04ac
H 5 0X057e
H 2 0X0664
H 8 0X072c
H O 0X0808
H 7 0X08d0
H T 0X0998
B 1 0X0ab0
B 6 0X0b5a
B 9 0X0c40
B 4 0X0d08
B 3 0X0dbc
B 5 0X0e98
B E 0X0f7e
B 8 0X1050
B 2 0X10fa
B 7 0X1208
B O 0X12da
B T 0X1398
H 1 0X156e
H 9 0X1654
H 6 0X16fe
H 3 0X17e4
H 4 0X1884
H E 0X1988
H 5 0X1a50
H 2 0X1b36
H 8 0X1bfe
H O 0X1d20
H 7 0X1dca
H T 0X1e74
B 9 0X1f6e
B 1 0X205e
B 6 0X20e0
B 4 0X21f8
B 3 0X2298
B 5 0X239c
B E 0X2450
B 8 0X252c
B 2 0X25d6
B 7 0X2702
B O 0X27ca
B T 0X28a6
H 9 0X2a68
H 6 0X2b12
H 1 0X2c02
H 3 0X2cac
H 4 0X2d88
H E 0X2e50
H 5 0X2f40
H 2 0X301c
H 8 0X30e4
H O 0X31f2
H 7 0X32ba
H T 0X335a
B 6 0X342c
B 9 0X3544
B 1 0X3634
B 4 0X3710
B 3 0X37ec
B 5 0X3896
B E 0X394a
B 8 0X3a3a
B 2 0X3ae4
B 7 0X3bd4
B O 0X3cb0
B T 0X3d78
H 9 0X3f62
H 6 0X402a
H 4 0X40f2
H 1 0X41ec
H 5 0X42aa
H 3 0X4368
H 8 0X444e
H E 0X4516
H 2 0X45f2
H O 0X46e2
H 7 0X4782
H T 0X4840
B 9 0X4930
B 4 0X49e4
B 6 0X4ad4
B 5 0X4bd8
B 1 0X4cbe
B 8 0X4dae
B 3 0X4e44
B 2 0X4f0c
B E 0X4ff2
B 7 0X50ba
B O 0X51aa
B T 0X5290
H 4 0X5434
H 9 0X54de
H 6 0X55e2
H 1 0X56c8
H 5 0X575e
H 3 0X5830
H 8 0X593e
H E 0X5a1a
H 2 0X5a88
H O 0X5ba0
H 7 0X5c4a
H T 0X5d58
B 4 0X5e34
B 6 0X5f38
B 9 0X5fec
B 5 0X60b4
B 1 0X6190
B 8 0X6276
B 3 0X6352
B 2 0X63fc
B E 0X64e2
B 7 0X65aa
B O 0X6672
B T 0X676c
H 6 0X6942
H 4 0X6a14
H 9 0X6ad2
H 1 0X6bcc
H 5 0X6c76
H 3 0X6d3e
H 8 0X6e42
H E 0X6ef6
H 2 0X6f64
H O 0X7068
H 7 0X7144
H T 0X7252
B 6 0X72e8
B 9 0X73ec
B 4 0X74dc
B 5 0X759a
B 1 0X76a8
B 8 0X7766
B 3 0X7842
B 2 0X78ec
B E 0X79a0
B 7 0X7a72
B O 0X7b58
B T 0X7c52
H 9 0X7e32
H 6 0X7efa
H 5 0X7fe0
H 4 0X80da
H 8 0X818e
H 1 0X8260
H 2 0X8314
H 3 0X83f0
H 7 0X84e0
H E 0X8576
H O 0X863e
H T 0X8724
B 6 0X87f6
B 9 0X88dc
B 5 0X89a4
B 8 0X8a80
B 4 0X8b84
B 2 0X8c38
B 1 0X8cd8
B 7 0X8dfa
B 3 0X8eea
B O 0X8f8a
B E 0X9048
B T 0X911a
H 6 0X9318
H 5 0X93e0
H 9 0X9476
H 4 0X9570
H 8 0X962e
H 1 0X9700
H 2 0X9796
H 3 0X9886
H 7 0X998a
H E 0X9a2a
H O 0X9afc
H T 0X9bec
B 5 0X9ce6
B 6 0X9dae
B 9 0X9e9e
B 8 0X9f5c
B 4 0Xa060
B 2 0Xa0ce
B 1 0Xa1aa
B 7 0Xa29a
B 3 0Xa362
B O 0Xa420
B E 0Xa4e8
B T 0Xa5d8
H 5 0Xa7b8
H 9 0Xa88a
H 6 0Xa952
H 4 0Xaa60
H 8 0Xab28
H 1 0Xabfa
H 2 0Xac68
H 3 0Xad4e
H 7 0Xae20
H E 0Xaefc
H O 0Xafc4
H T 0Xb096
B 9 0Xb15e
B 5 0Xb280
B 6 0Xb320
B 8 0Xb406
B 4 0Xb532
B 2 0Xb5be
B 1 0Xb6b8
B 7 0Xb776
B 3 0Xb82a
B O 0Xb8fc
B E 0Xb9ba
B T 0Xba8c
H 5 0Xbc94
H 9 0Xbd34
H 8 0Xbdf2
H 6 0Xbece
H 2 0Xbfc8
H 4 0Xc0ae
H 7 0Xc180
H 1 0Xc1bc
H O 0Xc324
H 3 0Xc3a6
H E 0Xc482
H T 0Xc55e
B 5 0Xc676
B 8 0Xc70c
B 9 0Xc806
B 2 0Xc900
B 6 0Xc98c
B 7 0Xcaa4
B 4 0Xcb80
B O 0Xcc48
B 1 0Xcd2e
B E 0Xcd9c
B 3 0Xced2
B T 0Xcf4a
H 8 0Xd148
H 5 0Xd21a
H 9 0Xd2ec
H 6 0Xd3a0
H 2 0Xd486
H 4 0Xd56c
H 7 0Xd65c
H 1 0Xd706
H O 0Xd7c4
H 3 0Xd8d2
H E 0Xd99a
H T 0Xda3a
B 8 0Xdaf8
B 9 0Xdbde
B 5 0Xdcce
B 2 0Xddc8
B 6 0Xde86
B 7 0Xdf8a
B 4 0Xe048
B O 0Xe11a
B 1 0Xe1e2
B E 0Xe2a0
B 3 0Xe39a
B T 0Xe430
H 9 0Xe5fc
H 8 0Xe6e2
H 5 0Xe7b4
H 6 0Xe886
H 2 0Xe962
H 4 0Xea5c
H 7 0Xeb38
H 1 0Xec0a
H O 0Xecb4
H 3 0Xeda4
H E 0Xee4e
H T 0Xef2a
B 9 0Xf006
B 5 0Xf0d8
B 8 0Xf1a0
B 2 0Xf2a4
B 6 0Xf33a
B 7 0Xf42a
B 4 0Xf506
B O 0Xf5d8
B 1 0Xf6c8
B E 0Xf786
B 3 0Xf876
B T 0Xf920
H 5 0Xfb00
H 9 0Xfbdc
H 2 0Xfcae
H 8 0Xfd80
H 7 0Xfe66
H 6 0Xfefc
H O 0Xfff6
H 4 0X00fa
H 1 0X01ea
H 3 0X02a8
H E 0X032a
H T 0X03f2
B 9 0X04f6
B 5 0X05e6
B 2 0X06d6
B 7 0X0794
B 8 0X083e
B O 0X094c
B 6 0X09d8
B 1 0X0ae6
B 4 0X0bc2
B E 0X0c58
B 3 0X0d70
B T 0X0dde
H 9 0X0ffa
H 2 0X10d6
H 5 0X1194
H 8 0X1252
H 7 0X132e
H 6 0X13ec
H O 0X14d2
H 4 0X15ae
H 1 0X168a
H 3 0X1766
H E 0X17f2
H T 0X18c4
B 2 0X19dc
B 9 0X1ad6
B 5 0X1b62
B 7 0X1c5c
B 8 0X1d24
B O 0X1e00
B 6 0X1ebe
B 1 0X1fae
B 4 0X2062
B E 0X2120
B 3 0X21fc
B T 0X22ce
H 2 0X249a
H 5 0X2576
H 9 0X2670
H 8 0X2738
H 7 0X2814
H 6 0X28d2
H O 0X29e0
H 4 0X2a6c
H 1 0X2b52
H 3 0X2c1a
H E 0X2cba
H T 0X2daa
B 5 0X2e90
B 2 0X2f6c
B 9 0X3052
B 7 0X3124
B 8 0X31ce
B O 0X32f0
B 6 0X33b8
B 1 0X34b2
B 4 0X357a
B E 0X3624
B 3 0X3700
B T 0X37a0
H 2 0X3962
H 5 0X3a20
H 7 0X3b38
H 9 0X3c28
H O 0X3d04
H 8 0X3db8
H 1 0X3e9e
H 6 0X3f48
H E 0X401a
H 4 0X40ec
H 3 0X41be
H T 0X42ae
B 2 0X434e
B 7 0X443e
B 5 0X44fc
B O 0X4600
B 9 0X46d2
B 1 0X47c2
B 8 0X4862
B E 0X493e
B 6 0X4a06
B 3 0X4af6
B 4 0X4bc8
B T 0X4c9a
H 7 0X4e48
H 2 0X4f24
H 5 0X4fd8
H 9 0X50d2
H O 0X51cc
H 8 0X5280
H 1 0X5348
H 6 0X5438
H E 0X54ec
H 4 0X55aa
H 3 0X5672
H T 0X5762
B 7 0X587a
B 5 0X5956
B 2 0X5a32
B O 0X5abe
B 9 0X5b72
B 1 0X5c6c
B 8 0X5d0c
B E 0X5e06
B 6 0X5ef6
B 3 0X5ff0
B 4 0X60a4
B T 0X614e
H 5 0X6374
H 7 0X643c
H 2 0X650e
H 9 0X6590
H O 0X666c
H 8 0X672a
H 1 0X67fc
H 6 0X6900
H E 0X69dc
H 4 0X6aa4
H 3 0X6b62
H T 0X6c52
B 5 0X6d38
B 2 0X6e46
B 7 0X6f04
B O 0X6fb8
B 9 0X706c
B 1 0X7166
B 8 0X71de
B E 0X72e2
B 6 0X73e6
B 3 0X74cc
B 4 0X7580
B T 0X7634
H 2 0X783c
H 5 0X78f0
H O 0X79c2
H 7 0X7a62
H 1 0X7b48
H 9 0X7c24
H E 0X7d00
H 8 0X7dfa
H 3 0X7ee0
H 6 0X7f94
H 4 0X8066
H T 0X8142
B 5 0X821e
B 2 0X8318
B O 0X83c2
B 1 0X84d0
B 7 0X857a
B E 0X861a
B 9 0X870a
B 3 0X880e
B 8 0X88c2
B 4 0X899e
B 6 0X8a7a
B T 0X8b42
H 5 0X8d04
H O 0X8dcc
H 2 0X8ebc
H 7 0X8f8e
H 1 0X9074
H 9 0X9128
H E 0X91b4
H 8 0X92a4
H 3 0X938a
H 6 0X948e
H 4 0X9542
H T 0X9628
B O 0X974a
B 5 0X9812
B 2 0X98ee
B 1 0X99d4
B 7 0X9ab0
B E 0X9b28
B 9 0X9c04
B 3 0X9ccc
B 8 0X9d80
B 4 0X9e84
B 6 0X9f2e
B T 0Xa028
H O 0Xa208
H 2 0Xa2c6
H 5 0Xa3ac
H 7 0Xa49c
H 1 0Xa582
H 9 0Xa604
H E 0Xa6cc
H 8 0Xa7ee
H 3 0Xa8a2
H 6 0Xa960
H 4 0Xaa1e
H T 0Xab0e
B 2 0Xac08
B O 0Xacbc
B 5 0Xada2
B 1 0Xaea6
B 7 0Xaf82
B E 0Xb036
B 9 0Xb0e0
B 3 0Xb1b2
B 8 0Xb28e
B 4 0Xb356
B 6 0Xb428
B T 0Xb504
H O 0Xb6e4
H 2 0Xb7b6
H 1 0Xb888
H 5 0Xb964
H E 0Xba18
H 7 0Xbafe
H 3 0Xbbd0
H 9 0Xbca2
H 4 0Xbd88
H 8 0Xbe5a
H 6 0Xbf22
H T 0Xbffe
B O 0Xc102
B 1 0Xc1d4
B 2 0Xc274
B E 0Xc346
B 5 0Xc422
B 3 0Xc4f4
B 7 0Xc5da
B 4 0Xc6d4
B 9 0Xc77e
B 6 0Xc828
B 8 0Xc904
B T 0Xca08
H 1 0Xcbf2
H O 0Xcc92
H 2 0Xcd46
H 5 0Xce2c
H E 0Xcefe
H 7 0Xcfda
H 3 0Xd0c0
H 9 0Xd17e
H 4 0Xd23c
H 8 0Xd322
H 6 0Xd3a4
H T 0Xd4d0
B 1 0Xd5ca
B 2 0Xd692
B O 0Xd764
B E 0Xd85e
B 5 0Xd908
B 3 0Xd9da
B 7 0Xdab6
B 4 0Xdb60
B 9 0Xdc3c
B 6 0Xdd04
B 8 0Xddd6
B T 0Xdec6
H 2 0Xe0a6
H 1 0Xe1a0
H O 0Xe254
H 5 0Xe326
H E 0Xe3ee
H 7 0Xe4de
H 3 0Xe588
H 9 0Xe65a
H 4 0Xe768
H 8 0Xe81c
H 6 0Xe8da
H T 0Xe9b6
B 2 0Xead8
B O 0Xeb6e
B 1 0Xec40
B E 0Xed26
B 5 0Xee0c
B 3 0Xeed4
B 7 0Xefa6
B 4 0Xf078
B 9 0Xf140
B 6 0Xf1f4
B 8 0Xf2da
B T 0Xf3d4
H O 0Xf596
H 2 0Xf686
H E 0Xf708
H 1 0Xf7f8
H 3 0Xf8de
H 5 0Xf9a6
H 4 0Xfab4
H 7 0Xfb5e
H 6 0Xfc12
H 9 0Xfcee
H 8 0Xfdb6
H T 0Xfeba
B 2 0Xffbe
B O 0X004a
B E 0X0144
B 3 0X0220
B 1 0X02e8
B 4 0X03c4
B 5 0X0482
B 6 0X0568
B 7 0X0630
B 8 0X06e4
B 9 0X07ca
B T 0X089c
H 2 0X0a9a
H E 0X0b44
H O 0X0c2a
H 1 0X0cfc
H 3 0X0dd8
H 5 0X0e6e
H 4 0X0f40
H 7 0X1026
H 6 0X10e4
H 9 0X11d4
H 8 0X1292
H T 0X138c
B E 0X1486
B 2 0X154e
B O 0X1620
B 3 0X1710
B 1 0X17d8
B 4 0X1896
B 5 0X1940
B 6 0X19d6
B 7 0X1b02
B 8 0X1bd4
B 9 0X1c74
B T 0X1d82
H E 0X1f44
H O 0X2016
H 2 0X20c0
H 1 0X21d8
H 3 0X22be
H 5 0X2354
H 4 0X2458
H 7 0X252a
H 6 0X25c0
H 9 0X269c
H 8 0X2764
H T 0X2854
B O 0X2958
B E 0X2a16
B 2 0X2ad4
B 3 0X2bc4
B 1 0X2ca0
B 4 0X2dae
B 5 0X2e4e
B 6 0X2f02
B 7 0X2ff2
B 8 0X309c
B 9 0X315a
B T 0X3254
H E 0X340c
H O 0X34fc
H 3 0X35e2
H 2 0X3696
H 4 0X375e
H 1 0X384e
H 6 0X3902
H 5 0X39ca
H 8 0X3a88
H 7 0X3b96
H 9 0X3c5e
H T 0X3d26
B E 0X3df8
B 3 0X3f1a
B O 0X3fce
B 4 0X40a0
B 2 0X4168
B 6 0X4212
B 1 0X42ee
B 8 0X43de
B 5 0X4492
B 9 0X4582
B 7 0X4686
B T 0X4758
H 3 0X48fc
H E 0X49c4
H O 0X4a96
H 2 0X4b9a
H 4 0X4c44
H 1 0X4d20
H 6 0X4dd4
H 5 0X4ec4
H 8 0X4f8c
H 7 0X5054
H 9 0X511c
H T 0X5216
B 3 0X5324
B O 0X53d8
B E 0X5496
B 4 0X5586
B 2 0X5644
B 6 0X56e4
B 1 0X57ca
B 8 0X58ba
B 5 0X5978
B 9 0X5a5e
B 7 0X5b3a
B T 0X5c0c
H O 0X5de2
H 3 0X5ec8
H E 0X5f7c
H 2 0X608a
H 4 0X615c
H 1 0X6210
H 6 0X62ba
H 5 0X63be
H 8 0X6486
H 7 0X6558
H 9 0X6616
H T 0X66fc
B O 0X680a
B E 0X68dc
B 3 0X69b8
B 4 0X6a76
B 2 0X6b52
B 6 0X6bfc
B 1 0X6cf6
B 8 0X6daa
B 5 0X6e7c
B 9 0X6f58
B 7 0X7052
B T 0X712e
H E 0X72f0
H O 0X73cc
H 4 0X74c6
H 3 0X7570
H 6 0X7642
H 2 0X773c
H 8 0X77b4
H 1 0X78ae
H 9 0X7976
H 5 0X7a3e
H 7 0X7b24
H T 0X7c00
B O 0X7ce6
B E 0X7db8
B 4 0X7ed0
B 6 0X7f7a
B 3 0X8074
B 8 0X8114
B 2 0X81d2
B 9 0X8290
B 1 0X8376
B 7 0X8470
B 5 0X852e
B T 0X8614
H O 0X87c2
H 4 0X889e
H E 0X8970
H 3 0X8a92
H 6 0X8b46
H 2 0X8c4a
H 8 0X8ce0
H 1 0X8da8
H 9 0X8e7a
H 5 0X8f42
H 7 0X9032
H T 0X9104
B 4 0X919a
B O 0X9280
B E 0X937a
B 6 0X9442
B 3 0X9582
B 8 0X9604
B 2 0X96ea
B 9 0X97e4
B 1 0X9848
B 7 0X996a
B 5 0X9a28
B T 0X9b04
H 4 0X9cbc
H E 0X9d84
H O 0X9e4c
H 3 0X9f78
H 6 0Xa02c
H 2 0Xa126
H 8 0Xa1e4
H 1 0Xa27a
H 9 0Xa338
H 5 0Xa446
H 7 0Xa536
H T 0Xa5e0
B E 0Xa6c6
B 4 0Xa7ac
B O 0Xa856
B 6 0Xa946
B 3 0Xaa22
B 8 0Xab12
B 2 0Xabf8
B 9 0Xac70
B 1 0Xad60
B 7 0Xae6e
B 5 0Xaf40
B T 0Xb008
H 4 0Xb1b6
H E 0Xb288
H 6 0Xb35a
H O 0Xb422
H 8 0Xb530
H 3 0Xb602
H 9 0Xb6a2
H 2 0Xb788
H 7 0Xb878
H 1 0Xb922
H 5 0Xb9f4
H T 0Xbaf8
B 4 0Xbbc0
B 6 0Xbc7e
B E 0Xbd8c
B 8 0Xbdfa
B O 0Xbefe
B 9 0Xbff8
B 3 0Xc0f2
B 7 0Xc1d8
B 2 0Xc282
B 5 0Xc35e
B 1 0Xc41c
B T 0Xc4e4
H 6 0Xc6c4
H 4 0Xc7be
H E 0Xc854
H O 0Xc94e
H 8 0Xca20
H 3 0Xcad4
H 9 0Xcb9c
H 2 0Xcca0
H 7 0Xcd90
H 1 0Xce44
H 5 0Xcef8
H T 0Xcfca
B 6 0Xd0a6
B E 0Xd1be
B 4 0Xd272
B 8 0Xd344
B O 0Xd416
B 9 0Xd4fc
B 3 0Xd5b0
B 7 0Xd6aa
B 2 0Xd786
B 5 0Xd83a
B 1 0Xd902
B T 0Xd9d4
H E 0Xdbaa
H 6 0Xdca4
H 4 0Xdd58
H O 0Xde52
H 8 0Xdf2e
H 3 0Xdfd8
H 9 0Xe0aa
H 2 0Xe1a4
H 7 0Xe262
H 1 0Xe316
H 5 0Xe3e8
H T 0Xe4ce
B E 0Xe5a0
B 4 0Xe686
B 6 0Xe73a
B 8 0Xe834
B O 0Xe942
B 9 0Xe9c4
B 3 0Xeadc
B 7 0Xebb8
B 2 0Xec62
B 5 0Xed52
B 1 0Xee1a
B T 0Xeeb0
H 4 0Xf09a
H E 0Xf14e
H 8 0Xf22a
H 6 0Xf36a
H 9 0Xf3ec
H O 0Xf4fa
H 7 0Xf5cc
H 3 0Xf680
H 5 0Xf766
H 2 0Xf82e
H 1 0Xf914
H T 0Xf9be
B E 0Xfaae
B 4 0Xfb44
B 8 0Xfc20
B 9 0Xfd10
B 6 0Xfde2
B 7 0Xfec8
B O 0Xffd6
B 5 0X00a8
B 3 0X0184
B 1 0X021a
B 2 0X02f6
B T 0X0396
H E 0X0558
H 8 0X0652
H 4 0X071a
H 6 0X07f6
H 9 0X08aa
H O 0X09a4
H 7 0X0a58
H 3 0X0b5c
H 5 0X0c38
H 2 0X0d1e
H 1 0X0de6
H T 0X0eae
B 8 0X0f80
B E 0X1048
B 4 0X111a
B 9 0X11f6
B 6 0X12a0
B 7 0X137c
B O 0X1494
B 5 0X1566
B 3 0X1660
B 1 0X170a
B 2 0X17b4
B T 0X1872
H 8 0X1a3e
H 4 0X1b10
H E 0X1c00
H 6 0X1cf0
H 9 0X1dae
H O 0X1ec6
H 7 0X1f48
H 3 0X2038
H 5 0X2100
H 2 0X21e6
H 1 0X22c2
H T 0X238a
B 4 0X2448
B 8 0X2506
B E 0X261e
B 9 0X26aa
B 6 0X27a4
B 7 0X2880
B O 0X298e
B 5 0X2a42
B 3 0X2b1e
B 1 0X2be6
B 2 0X2cd6
B T 0X2d62
H 8 0X2f10
H 4 0X2ff6
H 9 0X30aa
H E 0X319a
H 7 0X329e
H 6 0X335c
H 5 0X344c
H O 0X3546
H 1 0X3604
H 3 0X36c2
H 2 0X379e
H T 0X385c
B 8 0X3910
B 9 0X39d8
B 4 0X3ac8
B 7 0X3ba4
B E 0X3c8a
B 5 0X3d52
B 6 0X3e1a
B 1 0X3f00
B O 0X3fd2
B 2 0X40b8
B 3 0X41a8
B T 0X4234
H 9 0X443c
H 8 0X44e6
H 4 0X45c2
H E 0X4676
H 7 0X473e
H 6 0X4838
H 5 0X491e
H O 0X4a22
H 1 0X4aa4
H 3 0X4b94
H 2 0X4c52
H T 0X4cfc
B 9 0X4dec
B 4 0X4ee6
B 8 0X4f9a
B 7 0X5094
B E 0X5166
B 5 0X5238
B 6 0X530a
B 1 0X53c8
B O 0X54a4
B 2 0X558a
B 3 0X565c
B T 0X56e8
H 4 0X592c
H 9 0X59b8
H 8 0X5a80
H E 0X5b70
H 7 0X5c38
H 6 0X5d14
H 5 0X5de6
H O 0X5ee0
H 1 0X5f94
H 3 0X6066
H 2 0X6106
H T 0X61ec
B 4 0X62dc
B 8 0X6390
B 9 0X649e
B 7 0X658e
B E 0X6656
B 5 0X6700
B 6 0X67c8
B 1 0X68ae
B O 0X6958
B 2 0X6a34
B 3 0X6b10
B T 0X6bb0
H 8 0X6d7c
H 4 0X6e8a
H 7 0X6f84
H 9 0X7042
H 5 0X7114
H E 0X71f0
H 1 0X727c
H 6 0X7376
H 2 0X745c
H O 0X7510
H 3 0X75e2
H T 0X7696
B 4 0X7772
B 8 0X783a
B 7 0X7920
B 5 0X7a2e
B 9 0X7af6
B 1 0X7bc8
B E 0X7cb8
B 2 0X7d76
B 6 0X7e52
B 3 0X7f38
B O 0X7fe2
B T 0X808c
H 4 0X8258
H 7 0X8334
H 8 0X83de
H 9 0X84ce
H 5 0X85dc
H E 0X86b8
H 1 0X8762
H 6 0X8834
H 2 0X891a
H O 0X89e2
H 3 0X8abe
H T 0X8b9a
B 7 0X8c6c
B 4 0X8d34
B 8 0X8dc0
B 5 0X8ee2
B 9 0X8faa
B 1 0X9072
B E 0X9162
B 2 0X9216
B 6 0X92fc
B 3 0X93e2
B O 0X94a0
B T 0X9590
H 7 0X975c
H 8 0X97f2
H 4 0X98ec
H 9 0X99a0
H 5 0X9a7c
H E 0X9b62
H 1 0X9c0c
H 6 0X9cf2
H 2 0X9dce
H O 0X9e96
H 3 0X9f7c
H T 0Xa06c
B 8 0Xa120
B 7 0Xa1fc
B 4 0Xa30a
B 5 0Xa3dc
B 9 0Xa486
B 1 0Xa562
B E 0Xa616
B 2 0Xa6e8
B 6 0Xa7b0
B 3 0Xa8b4
B O 0Xa95e
B T 0Xaa4e
H 7 0Xabf2
H 8 0Xacba
H 5 0Xadbe
H 4 0Xaeb8
H 1 0Xaf8a
H 9 0Xb048
H 2 0Xb110
H E 0Xb1ce
H 6 0Xb2c8
H O 0Xb354
H 3 0Xb430
H T 0Xb516
B 7 0Xb610
B 5 0Xb6ec
B 8 0Xb7aa
B 1 0Xb886
B 4 0Xb96c
B 2 0Xba48
B 9 0Xbb06
B 6 0Xbbd8
B E 0Xbcbe
B 3 0Xbd68
B O 0Xbe3a
B T 0Xbef8
H 5 0Xc10a
H 7 0Xc1fa
H 8 0Xc2b8
H 4 0Xc36c
H 1 0Xc42a
H 9 0Xc510
H 2 0Xc5d8
H E 0Xc6a0
H 6 0Xc790
H O 0Xc876
H 3 0Xc920
H T 0Xc9d4
B 5 0Xcae2
B 8 0Xcbb4
B 7 0Xccae
B 1 0Xcd4e
B 4 0Xce2a
B 2 0Xcf24
B 9 0Xcff6
B 6 0Xd0aa
B E 0Xd186
B 3 0Xd262
B O 0Xd348
B T 0Xd3fc
H 8 0Xd5b4
H 5 0Xd6b8
H 7 0Xd78a
H 4 0Xd83e
H 1 0Xd906
H 9 0Xd9ec
H 2 0Xda8c
H E 0Xdb86
H 6 0Xdc62
H O 0Xdd5c
H 3 0Xde24
H T 0Xdee2
B 8 0Xdfdc
B 7 0Xe0a4
B 5 0Xe18a
B 1 0Xe266
B 4 0Xe342
B 2 0Xe3ce
B 9 0Xe496
B 6 0Xe57c
B E 0Xe680
B 3 0Xe752
B O 0Xe838
B T 0Xe900
H 7 0Xea68
H 8 0Xeb30
H 1 0Xec0c
H 5 0Xed1a
H 2 0Xede2
H 4 0Xeea0
H 6 0Xefc2
H 9 0Xf058
H 3 0Xf170
H E 0Xf21a
H O 0Xf2ec
H T 0Xf3dc
B 8 0Xf490
B 7 0Xf56c
B 1 0Xf63e
B 2 0Xf6fc
B 5 0Xf7ba
B 6 0Xf8d2
B 4 0Xf9a4
B 3 0Xfa94
B 9 0Xfb16
B O 0Xfc10
B E 0Xfce2
B T 0Xfdb4
H 8 0Xff8a
H 1 0X005c
H 7 0X0138
H 5 0X01ec
H 2 0X02be
H 4 0X0368
H 6 0X046c
H 9 0X052a
H 3 0X05f2
H E 0X06c4
H O 0X07b4
H T 0X089a
B 1 0X0962
B 8 0X0a48
B 7 0X0b24
B 2 0X0c14
B 5 0X0cd2
B 6 0X0d90
B 4 0X0e6c
B 3 0X0f2a
B 9 0X1010
B O 0X10ec
B E 0X11a0
B T 0X127c
H 1 0X142a
H 7 0X1556
H 8 0X15ec
H 5 0X16fa
H 2 0X179a
H 4 0X1876
H 6 0X1948
H 9 0X1a10
H 3 0X1aba
H E 0X1b82
H O 0X1c7c
H T 0X1d58
B 7 0X1e70
B 1 0X1f10
B 8 0X1fe2
B 2 0X20dc
B 5 0X217c
B 6 0X2276
B 4 0X2348
B 3 0X2438
B 9 0X2514
B O 0X25dc
B E 0X2672
B T 0X2762
H 1 0X2910
H 7 0X2a1e
H 2 0X2adc
H 8 0X2ba4
H 6 0X2c80
H 5 0X2d70
H 3 0X2e4c
H 4 0X2ef6
H O 0X2fb4
H 9 0X304a
H E 0X3130
H T 0X3234
B 1 0X3306
B 2 0X33f6
B 7 0X34c8
B 6 0X3586
B 8 0X3658
B 3 0X375c
B 5 0X382e
B O 0X38d8
B 4 0X39b4
B E 0X3a68
B 9 0X3b1c
B T 0X3c20
H 2 0X3e0a
H 1 0X3efa
H 7 0X3fae
H 8 0X4058
H 6 0X4148
H 5 0X4242
H 3 0X4300
H 4 0X43b4
H O 0X4472
H 9 0X453a
H E 0X45ee
H T 0X46de
B 2 0X47f6
B 7 0X48e6
B 1 0X4986
B 6 0X4a62
B 8 0X4b52
B 3 0X4c24
B 5 0X4d00
B O 0X4db4
B 4 0X4e72
B E 0X4f3a
B 9 0X4ff8
B T 0X50d4
H 7 0X52dc
H 2 0X5390
H 1 0X5458
H 8 0X5552
H 6 0X5642
H 5 0X5728
H 3 0X57dc
H 4 0X5890
H O 0X5980
H 9 0X5a20
H E 0X5aca
H T 0X5bb0
B 7 0X5cd2
B 1 0X5d5e
B 2 0X5e4e
B 6 0X5f34
B 8 0X6010
B 3 0X60ec
B 5 0X61c8
B O 0X629a
B 4 0X6380
B E 0X6434
B 9 0X64fc
B T 0X65c4
H 1 0X675e
H 7 0X6876
H 6 0X6948
H 2 0X6a24
H 3 0X6ae2
H 8 0X6ba0
H O 0X6c90
H 5 0X6d76
H 4 0X6e2a
H E 0X6ee8
H 9 0X6fd8
H T 0X70be
B 7 0X71b8
B 1 0X7244
B 6 0X733e
B 3 0X742e
B 2 0X74f6
B O 0X75d2
B 8 0X7672
B 4 0X773a
B 5 0X7820
B 9 0X78fc
B E 0X79c4
B T 0X7aaa
H 7 0X7c80
H 6 0X7d16
H 1 0X7e06
H 2 0X7ef6
H 3 0X7fdc
H 8 0X80a4
H O 0X81b2
H 5 0X823e
H 4 0X831a
H E 0X83ba
H 9 0X8478
H T 0X8590
B 6 0X8626
B 7 0X8716
B 1 0X87d4
B 3 0X88f6
B 2 0X89d2
B O 0X8ac2
B 8 0X8b6c
B 4 0X8c52
B 5 0X8d10
B 9 0X8dce
B E 0X8e82
B T 0X8f72
H 6 0X918e
H 1 0X9256
H 7 0X930a
H 2 0X93d2
H 3 0X94a4
H 8 0X9544
H O 0X963e
H 5 0X9710
H 4 0X9832
H E 0X98be
H 9 0X9990
H T 0X9a62
B 1 0X9b3e
B 6 0X9c24
B 7 0X9d1e
B 3 0X9de6
B 2 0X9eb8
B O 0X9f4e
B 8 0Xa016
B 4 0Xa124
B 5 0Xa1ec
B 9 0Xa2d2
B E 0Xa39a
B T 0Xa458
H 6 0Xa660
H 1 0Xa73c
H 3 0Xa80e
H 7 0Xa8cc
H O 0Xa9bc
H 2 0Xaa52
H 4 0Xab38
H 8 0Xac14
H 9 0Xacaa
H 5 0Xad86
H E 0Xae6c
H T 0Xaf66
B 6 0Xb038
B 3 0Xb128
B 1 0Xb1d2
B O 0Xb2e0
B 7 0Xb39e
B 4 0Xb452
B 2 0Xb510
B 9 0Xb60a
B 8 0Xb6c8
B E 0Xb79a
B 5 0Xb876
B T 0Xb95c
H 3 0Xbb5a
H 6 0Xbc04
H 1 0Xbce0
H 7 0Xbdb2
H O 0Xbe8e
H 2 0Xbf38
H 4 0Xbfec
H 8 0Xc0b4
H 9 0Xc186
H 5 0Xc280
H E 0Xc348
H T 0Xc41a
B 3 0Xc528
B 1 0Xc60e
B 6 0Xc69a
B O 0Xc794
B 7 0Xc884
B 4 0Xc938
B 2 0Xc9f6
B 9 0Xcad2
B 8 0Xcb90
B E 0Xcc80
B 5 0Xcd70
B T 0Xce38
H 1 0Xcfe6
H 3 0Xd0cc
H 6 0Xd19e
H 7 0Xd298
H O 0Xd39c
H 2 0Xd428
H 4 0Xd4dc
H 8 0Xd59a
H 9 0Xd66c
H 5 0Xd766
H E 0Xd82e
H T 0Xd8ec
B 1 0Xd996
B 6 0Xda9a
B 3 0Xdbbc
B O 0Xdca2
B 7 0Xdd6a
B 4 0Xde50
B 2 0Xdefa
B 9 0Xdfcc
B 8 0Xe094
B E 0Xe17a
B 5 0Xe260
B T 0Xe300
H 6 0Xe4f4
H 1 0Xe5c6
H O 0Xe6a2
H 3 0Xe76a
H 4 0Xe83c
H 7 0Xe904
H 9 0Xea12
H 2 0Xeada
H 8 0Xeb66
H E 0Xec1a
H 5 0Xed1e
H T 0Xee22
B 1 0Xeea4
B 6 0Xefbc
B O 0Xf098
B 4 0Xf16a
B 3 0Xf250
B 9 0Xf30e
B 7 0Xf3ea
B 8 0Xf494
B 2 0Xf570
B 5 0Xf656
B E 0Xf70a
B T 0Xf7fa
H 1 0Xf9b2
H O 0Xfa70
H 6 0Xfb4c
H 3 0Xfc50
H 4 0Xfd0e
H 7 0Xfe08
H 9 0Xfeb2
H 2 0Xff7a
H 8 0X0042
H E 0X0114
H 5 0X01f0
H T 0X02f4
B O 0X03e4
B 1 0X04b6
B 6 0X056a
B 4 0X0646
B 3 0X0736
B 9 0X07ea
B 7 0X08bc
B 8 0X0970
B 2 0X0a38
B 5 0X0b3c
B E 0X0c0e
B T 0X0ccc
H O 0X0eac
H 6 0X0f6a
H 1 0X103c
H 3 0X10fa
H 4 0X11e0
H 7 0X12da
H 9 0X13ac
H 2 0X1460
H 8 0X153c
H E 0X15f0
H 5 0X16a4
H T 0X17b2
B 6 0X188e
B O 0X1974
B 1 0X1a50
B 4 0X1b0e
B 3 0X1bfe
B 9 0X1ce4
B 7 0X1da2
B 8 0X1e60
B 2 0X1f3c
B 5 0X2018
B E 0X20cc
B T 0X218a
H O 0X2374
H 6 0X2450
H 4 0X2540
H 1 0X2626
H 9 0X2716
H 3 0X27d4
H 8 0X28ba
H 7 0X29a0
H 5 0X2a36
H 2 0X2b08
H E 0X2bb2
H T 0X2c84
B O 0X2da6
B 4 0X2e50
B 6 0X2f40
B 9 0X3008
B 1 0X30ee
B 8 0X31e8
B 3 0X32d8
B 5 0X3378
B 7 0X345e
B E 0X34f4
B 2 0X35d0
B T 0X3666
H 4 0X38a0
H O 0X394a
H 6 0X3a26
H 1 0X3ae4
H 9 0X3bd4
H 3 0X3cce
H 8 0X3d8c
H 7 0X3e5e
H 5 0X3f12
H 2 0X3fee
H E 0X40a2
H T 0X416a
B 4 0X4296
B 6 0X4368
B O 0X4426
B 9 0X44e4
B 1 0X45ac
B 8 0X46b0
B 3 0X47a0
B 5 0X4840
B 7 0X4958
B E 0X49f8
B 2 0X4ac0
B T 0X4b74
H 6 0X4d72
H 4 0X4e58
H O 0X4f2a
H 1 0X4fe8
H 9 0X50c4
H 3 0X51b4
H 8 0X527c
H 7 0X5344
H 5 0X53ee
H 2 0X54e8
H E 0X55a6
H T 0X566e
B 6 0X5768
B O 0X584e
B 4 0X58f8
B 9 0X59d4
B 1 0X5a9c
B 8 0X5b78
B 3 0X5c9a
B 5 0X5d58
B 7 0X5e20
B E 0X5ef2
B 2 0X5f9c
B T 0X606e
H O 0X6262
H 6 0X633e
H 9 0X63f2
H 4 0X64ce
H 8 0X656e
H 1 0X6654
H 5 0X673a
H 3 0X6820
H E 0X68fc
H 7 0X69ce
H 2 0X6a96
H T 0X6b72
B 6 0X6c62
B O 0X6d3e
B 9 0X6e10
B 8 0X6e9c
B 4 0X6f82
B 5 0X7068
B 1 0X7130
B E 0X7216
B 3 0X7306
B 2 0X73b0
B 7 0X7496
B T 0X757c
H 6 0X7720
H 9 0X77ca
H O 0X78e2
H 4 0X7996
H 8 0X7a4a
H 1 0X7b08
H 5 0X7bda
H 3 0X7ce8
H E 0X7dc4
H 7 0X7ea0
H 2 0X7f54
H T 0X804e
B 9 0X8102
B 6 0X81fc
B O 0X82c4
B 8 0X8382
B 4 0X845e
B 5 0X854e
B 1 0X8616
B E 0X86f2
B 3 0X87ce
B 2 0X888c
B 7 0X8986
B T 0X8a44
H 9 0X8c1a
H O 0X8ce2
H 6 0X8daa
H 4 0X8e40
H 8 0X8f30
H 1 0X900c
H 5 0X90de
H 3 0X91ce
H E 0X92a0
H 7 0X9354
H 2 0X9412
H T 0X9516
B O 0X9610
B 9 0X96e2
B 6 0X97c8
B 8 0X987c
B 4 0X994e
B 5 0X9a02
B 1 0X9b1a
B E 0X9bc4
B 3 0X9cb4
B 2 0X9d68
B 7 0X9e4e
B T 0X9f20
H 9 0Xa0d8
H O 0Xa1b4
H 8 0Xa27c
H 6 0Xa358
H 5 0Xa448
H 4 0Xa538
H E 0Xa5e2
H 1 0Xa6aa
H 2 0Xa74a
H 3 0Xa83a
H 7 0Xa920
H T 0Xa9fc
B 9 0Xab00
B 8 0Xabaa
B O 0Xac90
B 5 0Xad76
B 6 0Xae48
B E 0Xaf24
B 4 0Xafec
B 2 0Xb0aa
B 1 0Xb172
B 7 0Xb24e
B 3 0Xb30c
B T 0Xb410
H 8 0Xb58c
H 9 0Xb686
H O 0Xb762
H 6 0Xb852
H 5 0Xb924
H 4 0Xba0a
H E 0Xbac8
H 1 0Xbb72
H 2 0Xbc26
H 3 0Xbd20
H 7 0Xbdde
H T 0Xbeba
B 8 0Xbf8c
B O 0Xc09a
B 9 0Xc18a
B 5 0Xc248
B 6 0Xc310
B E 0Xc414
B 4 0Xc4a0
B 2 0Xc572
B 1 0Xc626
B 7 0Xc748
B 3 0Xc81a
B T 0Xc8ce
H O 0Xcac2
H 8 0Xcb58
H 9 0Xcc20
H 6 0Xcd4c
H 5 0Xce0a
H 4 0Xcee6
H E 0Xcfae
H 1 0Xd01c
H 2 0Xd0e4
H 3 0Xd1d4
H 7 0Xd2c4
H T 0Xd3aa
B O 0Xd4ae
B 9 0Xd562
B 8 0Xd62a
B 5 0Xd738
B 6 0Xd80a
B E 0Xd8fa
B 4 0Xd99a
B 2 0Xda58
B 1 0Xdb2a
B 7 0Xdc06
B 3 0Xdcd8
B T 0Xdda0
H 9 0Xdf62
H O 0Xe048
H 5 0Xe142
H 8 0Xe1f6
H E 0Xe304
H 6 0Xe3ae
H 2 0Xe48a
H 4 0Xe570
H 7 0Xe642
H 1 0Xe67e
H 3 0Xe7be
H T 0Xe886
B O 0Xe98a
B 9 0Xea98
B 5 0Xeb56
B E 0Xec46
B 8 0Xed04
B 2 0Xedd6
B 6 0Xee94
B 7 0Xef84
B 4 0Xf04c
B 3 0Xf114
B 1 0Xf1dc
B T 0Xf286
H O 0Xf47a
H 5 0Xf556
H 9 0Xf628
H 8 0Xf704
H E 0Xf7e0
H 6 0Xf8a8
H 2 0Xf966
H 4 0Xfa56
H 7 0Xfb28
H 1 0Xfb6e
H 3 0Xfcb8
H T 0Xfdbc
B 5 0Xfe7a
B O 0Xff38
B 9 0X0000
B E 0X0104
B 8 0X01f4
B 2 0X02d0
B 6 0X0366
B 7 0X044c
B 4 0X0514
B 3 0X05e6
B 1 0X06ae
B T 0X0794
H 5 0X0960
H 9 0X0a1e
H O 0X0af0
H 8 0X0bea
H E 0X0cd0
H 6 0X0d84
H 2 0X0e4c
H 4 0X0f14
H 7 0X0fe6
H 1 0X109a
H 3 0X1162
H T 0X1266
B 9 0X1342
B 5 0X1428
B O 0X14fa
B E 0X15f4
B 8 0X16ee
B 2 0X17a2
B 6 0X184c
B 7 0X1950
B 4 0X19fa
B 3 0X1acc
B 1 0X1b94
B T 0X1c48
H 5 0X1e3c
H 9 0X1f04
H E 0X1fcc
H O 0X20c6
H 2 0X2198
H 8 0X224c
H 7 0X2332
H 6 0X23f0
H 3 0X24ea
H 4 0X258a
H 1 0X2684
H T 0X2710
B 5 0X2832
B E 0X28fa
B 9 0X29c2
B 2 0X2abc
B O 0X2b52
B 7 0X2c42
B 8 0X2d0a
B 3 0X2dfa
B 6 0X2ed6
B 1 0X2fbc
B 4 0X305c
B T 0X312e
H E 0X3336
H 5 0X33f4
H 9 0X34c6
H O 0X3566
H 2 0X3660
H 8 0X370a
H 7 0X37dc
H 6 0X38c2
H 3 0X398a
H 4 0X3a7a
H 1 0X3b4c
H T 0X3c3c
B E 0X3d04
B 9 0X3dcc
B 5 0X3ea8
B 2 0X3fa2
B O 0X4060
B 7 0X4100
B 8 0X41be
B 3 0X42e0
B 6 0X43a8
B 1 0X4470
B 4 0X4542
B T 0X4614
H 9 0X47e0
H E 0X48b2
H 5 0X4966
H O 0X4a92
H 2 0X4b50
H 8 0X4bf0
H 7 0X4cc2
H 6 0X4d9e
H 3 0X4e8e
H 4 0X4f56
H 1 0X501e
H T 0X5104
B 9 0X51cc
B 5 0X52bc
B E 0X538e
B 2 0X549c
B O 0X555a
B 7 0X55fa
B 8 0X56b8
B 3 0X57bc
B 6 0X588e
B 1 0X597e
B 4 0X5a1e
B T 0X5ae6
H 5 0X5cc6
H 9 0X5d8e
H 2 0X5e60
H E 0X5f6e
H 7 0X6036
H O 0X6108
H 3 0X61ee
H 8 0X62a2
H 1 0X6356
H 6 0X6450
H 4 0X650e
H T 0X65cc
B 9 0X66d0
B 5 0X67ca
B 2 0X689c
B 7 0X6964
B E 0X6a2c
B 3 0X6b26
B O 0X6bee
B 1 0X6c98
B 8 0X6d74
B 4 0X6e3c
B 6 0X6f18
B T 0X6fe0
H 9 0X71ca
H 2 0X729c
H 5 0X736e
H E 0X744a
H 7 0X7508
H O 0X7602
H 3 0X76e8
H 8 0X7792
H 1 0X7850
H 6 0X795e
H 4 0X79e0
H T 0X7ad0
B 2 0X7bca
B 9 0X7c88
B 5 0X7d32
B 7 0X7e2c
B E 0X7f12
B 3 0X8002
B O 0X80de
B 1 0X8188
B 8 0X8264
B 4 0X8354
B 6 0X8408
B T 0X84f8
H 2 0X8688
H 5 0X8750
H 9 0X8840
H E 0X8944
H 7 0X89ee
H O 0X8ad4
H 3 0X8bc4
H 8 0X8c78
H 1 0X8d18
H 6 0X8e30
H 4 0X8f16
H T 0X8ffc
B 5 0X9092
B 2 0X9182
B 9 0X927c
B 7 0X9330
B E 0X9416
B 3 0X951a
B O 0X95c4
B 1 0X9678
B 8 0X9736
B 4 0X9812
B 6 0X98e4
B T 0X99e8
H 2 0X9bb4
H 5 0X9c72
H 7 0X9d4e
H 9 0X9e20
H 3 0X9f24
H E 0X9fd8
H 1 0Xa06e
H O 0Xa14a
H 4 0Xa23a
H 8 0Xa2f8
H 6 0Xa3fc
H T 0Xa4e2
B 2 0Xa5a0
B 7 0Xa6ae
B 5 0Xa74e
B 3 0Xa83e
B 9 0Xa91a
B 1 0Xa9ba
B E 0Xaa82
B 4 0Xab2c
B O 0Xac3a
B 6 0Xad2a
B 8 0Xae06
B T 0Xaec4
H 7 0Xb07c
H 2 0Xb144
H 5 0Xb216
H 9 0Xb342
H 3 0Xb41e
H E 0Xb4b4
H 1 0Xb55e
H O 0Xb64e
H 4 0Xb716
H 8 0Xb7f2
H 6 0Xb8ba
H T 0Xb9aa
B 7 0Xba9a
B 5 0Xbb62
B 2 0Xbc52
B 3 0Xbd1a
B 9 0Xbe0a
B 1 0Xbeb4
B E 0Xbf68
B 4 0Xc076
B O 0Xc116
B 6 0Xc21a
B 8 0Xc2ec
B T 0Xc3a0
H 5 0Xc5b2
H 7 0Xc68e
H 2 0Xc760
H 9 0Xc800
H 3 0Xc8e6
H E 0Xc99a
H 1 0Xca4e
H O 0Xcb20
H 4 0Xcbe8
H 8 0Xcce2
H 6 0Xcdbe
H T 0Xce9a
B 5 0Xcf9e
B 2 0Xd08e
B 7 0Xd156
B 3 0Xd21e
B 9 0Xd2e6
B 1 0Xd39a
B E 0Xd44e
B 4 0Xd52a
B O 0Xd624
B 6 0Xd6ce
B 8 0Xd7be
B T 0Xd89a
H 2 0Xda98
H 5 0Xdb56
H 3 0Xdc1e
H 7 0Xdcdc
H 1 0Xdd86
H 9 0Xde94
H 4 0Xdf84
H E 0Xe010
H 6 0Xe11e
H O 0Xe1c8
H 8 0Xe29a
H T 0Xe38a
B 5 0Xe484
B 2 0Xe54c
B 3 0Xe5f6
B 1 0Xe6c8
B 7 0Xe786
B 4 0Xe858
B 9 0Xe948
B 6 0Xea2e
B E 0Xeb00
B 8 0Xebf0
B O 0Xece0
B T 0Xeda8
H 5 0Xef60
H 3 0Xf014
H 2 0Xf0f0
H 7 0Xf1ae
H 1 0Xf294
H 9 0Xf370
H 4 0Xf424
H E 0Xf4f6
H 6 0Xf5be
H O 0Xf6f4
H 8 0Xf7d0
H T 0Xf898
B 3 0Xf974
B 5 0Xfa46
B 2 0Xfb22
B 1 0Xfbd6
B 7 0Xfcbc
B 4 0Xfd5c
B 9 0Xfe24
B 6 0Xfee2
B E 0Xffdc
B 8 0X00c2
B O 0X01c6
B T 0X02a2
H 3 0X045a
H 2 0X050e
H 5 0X05d6
H 7 0X0694
H 1 0X077a
H 9 0X0842
H 4 0X08f6
H E 0X09dc
H 6 0X0ac2
H O 0X0bbc
H 8 0X0c84
H T 0X0d2e
B 2 0X0e46
B 3 0X0f0e
B 5 0X0ff4
B 1 0X10d0
B 7 0X1184
B 4 0X124c
B 9 0X131e
B 6 0X13d2
B E 0X14c2
B 8 0X1580
B O 0X1684
B T 0X1756
H 3 0X1918
H 2 0X19d6
H 1 0X1ab2
H 5 0X1b84
H 4 0X1cb0
H 7 0X1d46
H 6 0X1e04
H 9 0X1ecc
H 8 0X1f94
H E 0X2066
H O 0X2138
H T 0X2232
B 3 0X232c
B 1 0X23e0
B 2 0X2462
B 4 0X2552
B 5 0X262e
B 6 0X2728
B 7 0X27fa
B 8 0X28cc
B 9 0X2980
B O 0X2a5c
B E 0X2b2e
B T 0X2c0a
H 1 0X2dd6
H 3 0X2e9e
H 2 0X2f66
H 5 0X302e
H 4 0X3114
H 7 0X31c8
H 6 0X32a4
H 9 0X3394
H 8 0X3466
H E 0X354c
H O 0X3628
H T 0X36fa
B 1 0X37e0
B 2 0X3880
B 3 0X393e
B 4 0X39e8
B 5 0X3ae2
B 6 0X3b82
B 7 0X3c7c
B 8 0X3d58
B 9 0X3e3e
B O 0X3f1a
B E 0X3fe2
B T 0X40b4
H 1 0X426c
H 2 0X4316
H 3 0X4406
H 4 0X44ba
H 5 0X458c
H 6 0X464a
H 7 0X4726
H 8 0X47ee
H 9 0X48c0
H O 0X499c
H E 0X4a82
H T 0X4b54
B 1 0X4c3a
B 2 0X4cee
B 3 0X4dca
B 4 0X4e74
B 5 0X4f50
B 6 0X500e
B 7 0X5108
B 8 0X51e4
B 9 0X52ac
B O 0X5388
B E 0X5450
B T 0X550e
H 1 0X56ee
H 2 0X578e
H 3 0X586a
H 4 0X5932
H 5 0X59e6
H 6 0X5acc
H 7 0X5ba8
H 8 0X5c66
H 9 0X5d38
H O 0X5e00
H E 0X5ed2
H T 0X5fb8
B 1 0X6094
B 2 0X6152
B 3 0X6224
B 4 0X62d8
B 5 0X63d2
B 6 0X64a4
B 7 0X659e
B 8 0X6666
B 9 0X672e
B O 0X680a
B E 0X690e
B T 0X69ea
