   *** Text-formatted Bell Statistics
       ------------------------------------------------------------------------------
         Bell Number:       1    2    3    4    5    6    7    8    9    0    E    T  
       ------------------------------------------------------------------------------
         Mean Error: All     6    5    0    7    1    4   20    2   14  -16  -28   -8 
                      Hs    12    7   -3    4   -1    0   23   -7    3   -4  -35  -16 
                      Bs     0    4    3   10    2    8   16   11   25  -28  -22   -1 
        
         Std  Error: All    27   28   27   29   28   26   34   28   32   37   33   27 
                      Hs    26   27   30   30   28   26   41   25   31   40   30   27 
                      Bs    27   28   24   29   27   25   26   29   28   30   34   26 
        
         Rms  Error: All    28   28   27   30   28   26   39   28   35   40   43   29 
                      Hs    29   28   30   30   28   26   47   26   31   40   46   31 
                      Bs    26   28   24   30   27   26   31   30   38   41   40   26 
       ------------------------------------------------------------------------------
