   1     1  1234567890ET                                                                                                                                                  
   2    13  1234567890ET                                                                                                                                                  =
   3    25  1234567890ET                                                                                                                                                  =
   4    37  1234567890ET                                                                                                                                                  =
   5    49  1234567890ET                                                                                                                                                  =
   6    61  1234567890ET                                                                                                                                                  =
   7    73  1234567890ET                                                                                                                                                  =
   8    85  1234567890ET                                                                                                                                                  =
   9    97  1234567890ET                                                                                                                                                  =
  10   109  1234567890ET                                                                                                                                                  =
  11   121  1234567890ET                                                                                                                                                  =
  12   133  1234567890ET                                                                                                                                                  =
  13   145  1234567890ET                                                                                                                                                  =
  14   157  1234567890ET                                                                                                                                                  =
  15   169  1234567890ET                                                                                                                                                  =
  16   181  1234567890ET                                                                                                                                                  =
  17   193  1234567890ET                                                                                                                                                  =
  18   205  1234567890ET                                                                                                                                                  =
  19   217  1234567890ET                                                                                                                                                  =
  20   229  1234567890ET                                                                                                                                                  =
  21   241  1234567890ET                                                                                                                                                  =
  22   253  1234567890ET                                                                                                                                                  =
  23   265  1234567890ET                                                                                                                                                  =
  24   277  1234567890ET                                                                                                                                                  =
  25   289  1234567890ET                                                                                                                                                  =
  26   301  1234567890ET                                                                                                                                                  =
  27   313  1234567890ET                                                                                                                                                  =
  28   325  1234567890ET                                                                                                                                                  =
  29   337  213547698E0T                                                                                                                                                  3
  30   349  2314567890ET                                                                                                                                                  1
  31   361  324165879E0T                                                                                                                                                  9
  32   373  2346185970ET                                                                                                                                                  3
  33   385  243165879E0T                                                                                                                                                  1
  34   397  4236185970ET                                                                                                                                                  3
  35   409  432165879E0T                                                                                                                                                  1
  36   421  3426185970ET                                                                                                                                                  3
  37   433  4362819507ET                                                                                                                                                  E
  38   445  463829105E7T                                                                                                                                                  1
  39   457  6432819507ET                                                                                                                                                  3
  40   469  634829105E7T                                                                                                                                                  1
  41   481  3642819507ET                                                                                                                                                  3
  42   493  346829105E7T                                                                                                                                                  1
  43   505  4386920157ET                                                                                                                                                  9
  44   517  348960251E7T                                                                                                                                                  3
  45   529  3846920157ET                                                                                                                                                  1
  46   541  834960251E7T                                                                                                                                                  3
  47   553  8436920157ET                                                                                                                                                  1
  48   565  483960251E7T                                                                                                                                                  3
  49   577  84930652E17T                                                                                                                                                  E
  50   589  8940356E271T                                                                                                                                                  1
  51   601  98430652E17T                                                                                                                                                  3
  52   613  9480356E271T                                                                                                                                                  1
  53   625  49830652E17T                                                                                                                                                  3
  54   637  4890356E271T                                                                                                                                                  1
  55   649  840953E6721T                                                                                                                                                  E
  56   661  48059E37612T                                                                                                                                                  3
  57   673  408953E6721T                                                                                                                                                  1
  58   685  04859E37612T                                                                                                                                                  3
  59   697  084953E6721T                                                                                                                                                  1
  60   709  80459E37612T                                                                                                                                                  3
  61   721  0854E973162T                                                                                                                                                  E
  62   733  058E4791326T                                                                                                                                                  1
  63   745  5084E973162T                                                                                                                                                  3
  64   757  580E4791326T                                                                                                                                                  1
  65   769  8504E973162T                                                                                                                                                  3
  66   781  805E4791326T                                                                                                                                                  1
  67   793  08E57419236T                                                                                                                                                  E
  68   805  80E75142963T                                                                                                                                                  3
  69   817  8E057419236T                                                                                                                                                  1
  70   829  E8075142963T                                                                                                                                                  3
  71   841  E0857419236T                                                                                                                                                  1
  72   853  0E875142963T                                                                                                                                                  3
  73   865  E0781524693T                                                                                                                                                  E
  74   877  E7018256439T                                                                                                                                                  1
  75   889  7E081524693T                                                                                                                                                  3
  76   901  70E18256439T                                                                                                                                                  1
  77   913  07E81524693T                                                                                                                                                  3
  78   925  0E718256439T                                                                                                                                                  1
  79   937  E0172865349T                                                                                                                                                  E
  80   949  0E127683594T                                                                                                                                                  3
  81   961  01E72865349T                                                                                                                                                  1
  82   973  10E27683594T                                                                                                                                                  3
  83   985  1E072865349T                                                                                                                                                  1
  84   997  E1027683594T                                                                                                                                                  3
  85  1009  1E206738954T                                                                                                                                                  E
  86  1021  12E60379845T                                                                                                                                                  1
  87  1033  21E06738954T                                                                                                                                                  3
  88  1045  2E160379845T                                                                                                                                                  1
  89  1057  E2106738954T                                                                                                                                                  3
  90  1069  E1260379845T                                                                                                                                                  1
  91  1081  1E623097485T                                                                                                                                                  E
  92  1093  E1632904758T                                                                                                                                                  3
  93  1105  E6123097485T                                                                                                                                                  1
  94  1117  6E132904758T                                                                                                                                                  3
  95  1129  61E23097485T                                                                                                                                                  1
  96  1141  16E32904758T                                                                                                                                                  3
  97  1153  613E9240578T                                                                                                                                                  E
  98  1165  6319E425087T                                                                                                                                                  1
  99  1177  361E9240578T                                                                                                                                                  3
 100  1189  3169E425087T                                                                                                                                                  1
 101  1201  136E9240578T                                                                                                                                                  3
 102  1213  1639E425087T                                                                                                                                                  1
 103  1225  61934E52807T                                                                                                                                                  E
 104  1237  169435E8270T                                                                                                                                                  3
 105  1249  19634E52807T                                                                                                                                                  1
 106  1261  916435E8270T                                                                                                                                                  3
 107  1273  96134E52807T                                                                                                                                                  1
 108  1285  691435E8270T                                                                                                                                                  3
 109  1297  9641538E207T                                                                                                                                                  9
 110  1309  94651832E70T                                                                                                                                                  1
 111  1321  4961538E207T                                                                                                                                                  3
 112  1333  46951832E70T                                                                                                                                                  1
 113  1345  6491538E207T                                                                                                                                                  3
 114  1357  69451832E70T                                                                                                                                                  1
 115  1369  965481237E0T                                                                                                                                                  E
 116  1381  6958421730ET                                                                                                                                                  3
 117  1393  659481237E0T                                                                                                                                                  1
 118  1405  5698421730ET                                                                                                                                                  3
 119  1417  596481237E0T                                                                                                                                                  1
 120  1429  9568421730ET                                                                                                                                                  3
 121  1441  5986247103ET                                                                                                                                                  E
 122  1453  589267401E3T                                                                                                                                                  1
 123  1465  8596247103ET                                                                                                                                                  3
 124  1477  895267401E3T                                                                                                                                                  1
 125  1489  9856247103ET                                                                                                                                                  3
 126  1501  958267401E3T                                                                                                                                                  1
 127  1513  5928760413ET                                                                                                                                                  9
 128  1525  952780614E3T                                                                                                                                                  3
 129  1537  9258760413ET                                                                                                                                                  1
 130  1549  295780614E3T                                                                                                                                                  3
 131  1561  2598760413ET                                                                                                                                                  1
 132  1573  529780614E3T                                                                                                                                                  3
 133  1585  25790816E43T                                                                                                                                                  E
 134  1597  2750918E634T                                                                                                                                                  1
 135  1609  72590816E43T                                                                                                                                                  3
 136  1621  7520918E634T                                                                                                                                                  1
 137  1633  57290816E43T                                                                                                                                                  3
 138  1645  5270918E634T                                                                                                                                                  1
 139  1657  250719E8364T                                                                                                                                                  E
 140  1669  52017E93846T                                                                                                                                                  3
 141  1681  502719E8364T                                                                                                                                                  1
 142  1693  05217E93846T                                                                                                                                                  3
 143  1705  025719E8364T                                                                                                                                                  1
 144  1717  20517E93846T                                                                                                                                                  3
 145  1729  0215E739486T                                                                                                                                                  E
 146  1741  012E5374968T                                                                                                                                                  1
 147  1753  1025E739486T                                                                                                                                                  3
 148  1765  120E5374968T                                                                                                                                                  1
 149  1777  2105E739486T                                                                                                                                                  3
 150  1789  201E5374968T                                                                                                                                                  1
 151  1801  02E13547698T                                                                                                                                                  E
 152  1813  20E31456789T                                                                                                                                                  3
 153  1825  2E013547698T                                                                                                                                                  1
 154  1837  E2031456789T                                                                                                                                                  3
 155  1849  E0213547698T                                                                                                                                                  1
 156  1861  0E231456789T                                                                                                                                                  3
 157  1873  E0324165879T                                                                                                                                                  E
 158  1885  E3042618597T                                                                                                                                                  1
 159  1897  3E024165879T                                                                                                                                                  3
 160  1909  30E42618597T                                                                                                                                                  1
 161  1921  03E24165879T                                                                                                                                                  3
 162  1933  0E342618597T                                                                                                                                                  1
 163  1945  E0436281957T                                                                                                                                                  E
 164  1957  0E463829175T                                                                                                                                                  3
 165  1969  04E36281957T                                                                                                                                                  1
 166  1981  40E63829175T                                                                                                                                                  3
 167  1993  4E036281957T                                                                                                                                                  1
 168  2005  E4063829175T                                                                                                                                                  3
 169  2017  4E608392715T                                                                                                                                                  E
 170  2029  46E80937251T                                                                                                                                                  1
 171  2041  64E08392715T                                                                                                                                                  3
 172  2053  6E480937251T                                                                                                                                                  1
 173  2065  E6408392715T                                                                                                                                                  3
 174  2077  E4680937251T                                                                                                                                                  1
 175  2089  4E869073521T                                                                                                                                                  E
 176  2101  E4896705312T                                                                                                                                                  3
 177  2113  E8469073521T                                                                                                                                                  1
 178  2125  8E496705312T                                                                                                                                                  3
 179  2137  84E69073521T                                                                                                                                                  1
 180  2149  48E96705312T                                                                                                                                                  3
 181  2161  849E7650132T                                                                                                                                                  E
 182  2173  8947E561023T                                                                                                                                                  1
 183  2185  984E7650132T                                                                                                                                                  3
 184  2197  9487E561023T                                                                                                                                                  1
 185  2209  498E7650132T                                                                                                                                                  3
 186  2221  4897E561023T                                                                                                                                                  1
 187  2233  84795E16203T                                                                                                                                                  E
 188  2245  487591E2630T                                                                                                                                                  3
 189  2257  47895E16203T                                                                                                                                                  1
 190  2269  748591E2630T                                                                                                                                                  3
 191  2281  78495E16203T                                                                                                                                                  1
 192  2293  874591E2630T                                                                                                                                                  3
 193  2305  8754192E603T                                                                                                                                                  29
 194  2317  75814296E30T                                                                                                                                                  ?
 195  2329  5784192E603T                                                                                                                                                  3
 196  2341  58714296E30T                                                                                                                                                  1
 197  2353  8574192E603T                                                                                                                                                  3
 198  2365  87514296E30T                                                                                                                                                  1
 199  2377  781524693E0T                                                                                                                                                  E
 200  2389  8712564390ET                                                                                                                                                  3
 201  2401  817524693E0T                                                                                                                                                  1
 202  2413  1872564390ET                                                                                                                                                  3
 203  2425  178524693E0T                                                                                                                                                  1
 204  2437  7182564390ET                                                                                                                                                  3
 205  2449  1728653409ET                                                                                                                                                  E
 206  2461  127683504E9T                                                                                                                                                  1
 207  2473  2178653409ET                                                                                                                                                  3
 208  2485  271683504E9T                                                                                                                                                  1
 209  2497  7218653409ET                                                                                                                                                  3
 210  2509  712683504E9T                                                                                                                                                  1
 211  2521  176238054E9T                                                                                                                                                  90E
 212  2533  7163208459ET                                                                                                                                                  3
 213  2545  761238054E9T                                                                                                                                                  1
 214  2557  6713208459ET                                                                                                                                                  3
 215  2569  617238054E9T                                                                                                                                                  1
 216  2581  1673208459ET                                                                                                                                                  3
 217  2593  6137024895ET                                                                                                                                                  E
 218  2605  631074298E5T                                                                                                                                                  1
 219  2617  3617024895ET                                                                                                                                                  3
 220  2629  316074298E5T                                                                                                                                                  1
 221  2641  1367024895ET                                                                                                                                                  3
 222  2653  163074298E5T                                                                                                                                                  1
 223  2665  610347928E5T                                                                                                                                                  90E
 224  2677  1604397825ET                                                                                                                                                  3
 225  2689  106347928E5T                                                                                                                                                  1
 226  2701  0164397825ET                                                                                                                                                  3
 227  2713  061347928E5T                                                                                                                                                  1
 228  2725  6014397825ET                                                                                                                                                  3
 229  2737  0641938752ET                                                                                                                                                  E
 230  2749  046918357E2T                                                                                                                                                  1
 231  2761  4061938752ET                                                                                                                                                  3
 232  2773  460918357E2T                                                                                                                                                  1
 233  2785  6401938752ET                                                                                                                                                  3
 234  2797  604918357E2T                                                                                                                                                  1
 235  2809  06948153E72T                                                                                                                                                  E
 236  2821  6098451E327T                                                                                                                                                  3
 237  2833  69048153E72T                                                                                                                                                  1
 238  2845  9608451E327T                                                                                                                                                  3
 239  2857  90648153E72T                                                                                                                                                  1
 240  2869  0968451E327T                                                                                                                                                  3
 241  2881  908654E1237T                                                                                                                                                  E
 242  2893  98056E42173T                                                                                                                                                  1
 243  2905  890654E1237T                                                                                                                                                  3
 244  2917  80956E42173T                                                                                                                                                  1
 245  2929  089654E1237T                                                                                                                                                  3
 246  2941  09856E42173T                                                                                                                                                  1
 247  2953  9058E624713T                                                                                                                                                  E
 248  2965  095E8267431T                                                                                                                                                  3
 249  2977  0598E624713T                                                                                                                                                  1
 250  2989  509E8267431T                                                                                                                                                  3
 251  3001  5908E624713T                                                                                                                                                  1
 252  3013  950E8267431T                                                                                                                                                  3
 253  3025  59E02876341T                                                                                                                                                  E
 254  3037  5E920783614T                                                                                                                                                  1
 255  3049  E5902876341T                                                                                                                                                  3
 256  3061  E9520783614T                                                                                                                                                  1
 257  3073  9E502876341T                                                                                                                                                  3
 258  3085  95E20783614T                                                                                                                                                  1
 259  3097  592E7038164T                                                                                                                                                  E
 260  3109  9527E301846T                                                                                                                                                  3
 261  3121  92570E38164T                                                                                                                                                  ?
 262  3133  2957E301846T                                                                                                                                                  ?
 263  3145  259E7038164T                                                                                                                                                  1
 264  3157  5297E301846T                                                                                                                                                  3
 265  3169  25793E10486T                                                                                                                                                  E
 266  3181  275391E4068T                                                                                                                                                  1
 267  3193  72593E10486T                                                                                                                                                  3
 268  3205  752391E4068T                                                                                                                                                  1
 269  3217  57293E10486T                                                                                                                                                  3
 270  3229  527391E4068T                                                                                                                                                  1
 271  3241  2537194E608T                                                                                                                                                  E
 272  3253  52317496E80T                                                                                                                                                  3
 273  3265  5327194E608T                                                                                                                                                  1
 274  3277  35217496E80T                                                                                                                                                  3
 275  3289  3257194E608T                                                                                                                                                  1
 276  3301  23517496E80T                                                                                                                                                  3
 277  3313  321547698E0T                                                                                                                                                  E
 278  3325  3124567890ET                                                                                                                                                  1
 279  3337  132547698E0T                                                                                                                                                  3
 280  3349  1234567890ET                                                                                                                                                  1
 281  3361  1234567890ET                                                                                                                                                  =
 282  3373  1234567890ET                                                                                                                                                  =
 283  3385  1234567890ET                                                                                                                                                  =
 284  3397  1234567890ET                                                                                                                                                  =
 285  3409  1234567890ET                                                                                                                                                  =
 286  3421  1234567890ET                                                                                                                                                  =
 287  3433  1234567890ET                                                                                                                                                  =
 288  3445  1234567890ET                                                                                                                                                  =
