#. Lowndes: Version 2
#. SourceFilename: W:\Recordings\Guildford\Guildford.20220621-2005.s12t12.1.wav
#. Tower: Guildford Cathedral
#. RingingName: Touch 1
#. RingingDateTime: 20220621-2005
#. Rungon: 
#. Tenor: 12
#. NumBellsRinging: 12
#. Creator: HawkEar Team Edition V1 for Guildford Cathedral
#. CreatorVersion: 1.1.0.3
#. TranscribedFor: Guildford band
#. TranscriptionDateTime: 20220622-1646
#. FirstBlowMs: 7380
#. Touchdb: -15.5128
#. TraindB: -9.73, -8.5, -6.1, -3.11, -3.16, -3.1, -3.98, -4.12, -5.95, -5.43, -4.92, -3
#. TrainedOn: 20220102-1438
#. TrainDataRecordedOn: 20210813-1741
#. TrainParams: -ft:y -ws:0.05 -hs:0.01 -co:0.9 -sw:40 -ts:
#. GainParams: -fh:6000 -fl:200
#. OnsetParams: -mb:80 -mf:10 -ng:0.3 -oo:0
#. WriteParams: -hb:y
#. AnalParams: -au:y -xp:n -sg:n -hsg:-1
#. ExpString: 
#. Association: 
#. Calling: 
#. Compositionname: 
#. Method: 
#. Footnotes: 
#. Ringers: 
#. Stage: 
H 1 0X1cd4
H 2 0X1dc4
H 3 0X1eb4
H 4 0X1f4a
H 5 0X2058
H 6 0X20ee
H 7 0X2206
H 8 0X22c4
H 9 0X23b4
H O 0X2490
H E 0X2558
H T 0X260c
B 1 0X2742
B 2 0X2800
B 3 0X28be
B 4 0X2972
B 5 0X2a3a
B 6 0X2b0c
B 7 0X2c2e
B 8 0X2d0a
B 9 0X2e0e
B O 0X2eb8
B E 0X2f9e
B T 0X3070
H 1 0X3232
H 2 0X3304
H 3 0X33cc
H 4 0X3494
H 5 0X3548
H 6 0X3610
H 7 0X3714
H 8 0X37dc
H 9 0X38ae
H O 0X39a8
H E 0X3a66
H T 0X3b2e
B 1 0X3bec
B 2 0X3cbe
B 3 0X3d86
B 4 0X3e3a
B 5 0X3f02
B 6 0X3ffc
B 7 0X40f6
B 8 0X41aa
B 9 0X42a4
B O 0X4376
B E 0X4466
B T 0X451a
H 1 0X46d2
H 2 0X4786
H 3 0X483a
H 4 0X48f8
H 5 0X49c0
H 6 0X4a92
H 7 0X4b8c
H 8 0X4c40
H 9 0X4d12
H O 0X4e34
H E 0X4eac
H T 0X4f7e
B 1 0X5050
B 2 0X5122
B 3 0X51ea
B 4 0X529e
B 5 0X535c
B 6 0X5456
B 7 0X5546
B 8 0X5622
B 9 0X56fe
B O 0X57bc
B E 0X588e
B T 0X5942
H 1 0X5b18
H 2 0X5bc2
H 3 0X5c8a
H 4 0X5d34
H 5 0X5e06
H 6 0X5ece
H 7 0X5fc8
H 8 0X607c
H 9 0X6162
H O 0X6270
H E 0X6310
H T 0X63ce
B 1 0X6496
B 2 0X6554
B 3 0X661c
B 4 0X66d0
B 5 0X678e
B 6 0X6856
B 7 0X6950
B 8 0X6a18
B 9 0X6b08
B O 0X6bda
B E 0X6cac
B T 0X6d6a
H 1 0X6f36
H 2 0X6fe0
H 3 0X709e
H 4 0X7166
H 5 0X7210
H 6 0X72f6
H 7 0X73fa
H 8 0X7490
H 9 0X7576
H O 0X7684
H E 0X7738
H T 0X77f6
B 1 0X78c8
B 2 0X797c
B 3 0X7a58
B 4 0X7ae4
B 5 0X7bac
B 6 0X7ca6
B 7 0X7d8c
B 8 0X7e54
B 9 0X7f30
B O 0X800c
B E 0X80c0
B T 0X81a6
H 1 0X8368
H 2 0X83fe
H 3 0X84c6
H 4 0X8570
H 5 0X8624
H 6 0X8732
H 7 0X880e
H 8 0X88b8
H 9 0X898a
H O 0X8a98
H E 0X8b2e
H T 0X8c1e
B 1 0X8cd2
B 2 0X8d86
B 3 0X8e44
B 4 0X8f02
B 5 0X8fac
B 6 0X90ba
B 7 0X91aa
B 8 0X9254
B 9 0X9362
B O 0X940c
B E 0X94de
B T 0X95ce
H 1 0X9772
H 2 0X9812
H 3 0X98d0
H 4 0X995c
H 5 0X9a2e
H 6 0X9b1e
H 7 0X9c18
H 8 0X9ccc
H 9 0X9da8
H O 0X9eb6
H E 0X9f60
H T 0Xa03c
B 1 0Xa0e6
B 2 0Xa1c2
B 3 0Xa276
B 4 0Xa320
B 5 0Xa3d4
B 6 0Xa4ba
B 7 0Xa5aa
B 8 0Xa668
B 9 0Xa744
B O 0Xa820
B E 0Xa910
B T 0Xa9d8
H 1 0Xaba4
H 2 0Xac58
H 3 0Xad20
H 4 0Xadb6
H 5 0Xae7e
H 6 0Xaf5a
H 7 0Xb05e
H 8 0Xb112
H 9 0Xb1da
H O 0Xb2de
H E 0Xb3b0
H T 0Xb464
B 1 0Xb504
B 2 0Xb5b8
B 3 0Xb680
B 4 0Xb73e
B 5 0Xb81a
B 6 0Xb91e
B 7 0Xba04
B 8 0Xbac2
B 9 0Xbbbc
B O 0Xbc66
B E 0Xbd2e
B T 0Xbdec
H 1 0Xbf9a
H 2 0Xc044
H 3 0Xc10c
H 4 0Xc1b6
H 5 0Xc2a6
H 6 0Xc36e
H 7 0Xc45e
H 8 0Xc508
H 9 0Xc602
H O 0Xc6f2
H E 0Xc7c4
H T 0Xc86e
B 1 0Xc90e
B 2 0Xc9cc
B 3 0Xca9e
B 4 0Xcb2a
B 5 0Xcc1a
B 6 0Xcd0a
B 7 0Xcdf0
B 8 0Xceb8
B 9 0Xcf76
B O 0Xd05c
B E 0Xd142
B T 0Xd20a
H 1 0Xd3d6
H 2 0Xd46c
H 3 0Xd534
H 4 0Xd5b6
H 5 0Xd6a6
H 6 0Xd76e
H 7 0Xd868
H 8 0Xd930
H 9 0Xd9ee
H O 0Xdaf2
H E 0Xdbce
H T 0Xdc82
B 1 0Xdd36
B 2 0Xddf4
B 3 0Xdeb2
B 4 0Xdf34
B 5 0Xe010
B 6 0Xe0f6
B 7 0Xe1e6
B 8 0Xe29a
B 9 0Xe3a8
B O 0Xe470
B E 0Xe56a
B T 0Xe614
H 1 0Xe7ea
H 2 0Xe89e
H 3 0Xe952
H 4 0Xe9e8
H 5 0Xeace
H 6 0Xeb78
H 7 0Xec86
H 8 0Xed26
H 9 0Xedee
H O 0Xeefc
H E 0Xefc4
H T 0Xf082
B 1 0Xf12c
B 2 0Xf1fe
B 3 0Xf2bc
B 4 0Xf35c
B 5 0Xf438
B 6 0Xf514
B 7 0Xf5fa
B 8 0Xf6c2
B 9 0Xf794
B O 0Xf87a
B E 0Xf960
B T 0Xfa32
H 1 0Xfbea
H 2 0Xfc94
H 3 0Xfd3e
H 4 0Xfdde
H 5 0Xfeb0
H 6 0Xffa0
H 7 0X0086
H 8 0X013a
H 9 0X0216
H O 0X031a
H E 0X03e2
H T 0X0496
B 1 0X0554
B 2 0X0608
B 3 0X06d0
B 4 0X0752
B 5 0X082e
B 6 0X093c
B 7 0X0a0e
B 8 0X0ad6
B 9 0X0bb2
B O 0X0c8e
B E 0X0d6a
B T 0X0e28
H 1 0X0fea
H 2 0X1080
H 3 0X113e
H 4 0X11f2
H 5 0X12ba
H 6 0X13a0
H 7 0X1486
H 8 0X1530
H 9 0X160c
H O 0X171a
H E 0X17e2
H T 0X18a0
B 1 0X1954
B 2 0X1a08
B 3 0X1ad0
B 4 0X1b66
B 5 0X1c24
B 6 0X1d32
B 7 0X1e04
B 8 0X1ed6
B 9 0X1f8a
B O 0X205c
B E 0X214c
B T 0X2232
H 1 0X23fe
H 2 0X24a8
H 3 0X2552
H 4 0X25f2
H 5 0X26c4
H 6 0X278c
H 7 0X2886
H 8 0X293a
H 9 0X2a02
H O 0X2b06
H E 0X2bec
H T 0X2ca0
B 1 0X2d4a
B 2 0X2e12
B 3 0X2ec6
B 4 0X2f70
B 5 0X304c
B 6 0X3164
B 7 0X322c
B 8 0X32d6
B 9 0X33a8
B O 0X3466
B E 0X354c
B T 0X3632
H 2 0X37fe
H 1 0X38da
H 3 0X3984
H 5 0X3a4c
H 4 0X3b28
H 7 0X3bdc
H 6 0X3ca4
H 9 0X3d4e
H 8 0X3e0c
H E 0X3f06
H O 0X401e
H T 0X40aa
B 2 0X41b8
B 3 0X4258
B 1 0X4320
B 4 0X43ca
B 5 0X449c
B 6 0X4596
B 7 0X4654
B 8 0X471c
B 9 0X47e4
B O 0X488e
B E 0X497e
B T 0X4a46
H 3 0X4bf4
H 2 0X4cbc
H 4 0X4db6
H 1 0X4e9c
H 6 0X4f3c
H 5 0X5022
H 8 0X50ea
H 7 0X51c6
H 9 0X5270
H E 0X5338
H O 0X543c
H T 0X54d2
B 2 0X55a4
B 3 0X563a
B 4 0X570c
B 6 0X5810
B 1 0X5900
B 8 0X59c8
B 5 0X5a68
B 9 0X5b58
B 7 0X5c16
B O 0X5cd4
B E 0X5dba
B T 0X5e8c
H 2 0X6026
H 4 0X6102
H 3 0X61ca
H 1 0X62b0
H 6 0X636e
H 5 0X6440
H 8 0X6512
H 7 0X65e4
H 9 0X6684
H E 0X674c
H O 0X6846
H T 0X68f0
B 4 0X69d6
B 2 0X6aa8
B 3 0X6b66
B 6 0X6c74
B 1 0X6d28
B 8 0X6df0
B 5 0X6e90
B 9 0X6f8a
B 7 0X705c
B O 0X70f2
B E 0X71ec
B T 0X72aa
H 4 0X7458
H 3 0X753e
H 2 0X75f2
H 1 0X76e2
H 6 0X77be
H 5 0X789a
H 8 0X794e
H 7 0X7a20
H 9 0X7ae8
H E 0X7bba
H O 0X7c82
H T 0X7d2c
B 3 0X7e30
B 4 0X7eee
B 2 0X7fc0
B 6 0X80ce
B 1 0X8182
B 8 0X8222
B 5 0X82ea
B 9 0X83b2
B 7 0X8484
B O 0X8538
B E 0X8628
B T 0X86d2
H 4 0X88b2
H 3 0X8970
H 6 0X8a6a
H 2 0X8b46
H 8 0X8bf0
H 1 0X8cd6
H 9 0X8da8
H 5 0X8e66
H O 0X8f24
H 7 0X9000
H E 0X9096
H T 0X919a
B 4 0X9276
B 6 0X933e
B 3 0X9410
B 8 0X94ce
B 2 0X9596
B 9 0X9690
B 1 0X9762
B O 0X97da
B 5 0X98ca
B E 0X999c
B 7 0X9a82
B T 0X9b40
H 6 0X9cee
H 4 0X9df2
H 3 0X9ec4
H 2 0X9f82
H 8 0Xa036
H 1 0Xa126
H 9 0Xa1da
H 5 0Xa2b6
H O 0Xa342
H 7 0Xa40a
H E 0Xa4dc
H T 0Xa5b8
B 6 0Xa6bc
B 3 0Xa78e
B 4 0Xa856
B 8 0Xa946
B 2 0Xa9d2
B 9 0Xaad6
B 1 0Xab80
B O 0Xac20
B 5 0Xacf2
B E 0Xadf6
B 7 0Xaec8
B T 0Xaf5e
H 3 0Xb12a
H 6 0Xb1fc
H 4 0Xb2f6
H 2 0Xb3d2
H 8 0Xb472
H 1 0Xb558
H 9 0Xb634
H 5 0Xb6fc
H O 0Xb7a6
H 7 0Xb86e
H E 0Xb936
H T 0Xb9ea
B 3 0Xbb02
B 4 0Xbb98
B 6 0Xbc7e
B 8 0Xbd50
B 2 0Xbe04
B 9 0Xbf1c
B 1 0Xbfbc
B O 0Xc066
B 5 0Xc12e
B E 0Xc21e
B 7 0Xc2e6
B T 0Xc3cc
H 4 0Xc552
H 3 0Xc62e
H 8 0Xc6f6
H 6 0Xc818
H 9 0Xc8ae
H 2 0Xc98a
H O 0Xca5c
H 1 0Xcb24
H 5 0Xcbe2
H 7 0Xccbe
H E 0Xcd7c
H T 0Xce44
B 3 0Xcf0c
B 4 0Xcfd4
B 8 0Xd0ce
B 9 0Xd178
B 6 0Xd24a
B O 0Xd308
B 2 0Xd402
B 5 0Xd4b6
B 1 0Xd592
B E 0Xd650
B 7 0Xd74a
B T 0Xd7fe
H 3 0Xd9b6
H 8 0Xda56
H 4 0Xdb46
H 6 0Xdbfa
H 9 0Xdcd6
H 2 0Xddc6
H O 0Xde66
H 1 0Xdf2e
H 5 0Xdfd8
H 7 0Xe0f0
H E 0Xe190
H T 0Xe262
B 8 0Xe37a
B 3 0Xe442
B 4 0Xe4f6
B 9 0Xe5c8
B 6 0Xe67c
B O 0Xe758
B 2 0Xe7ee
B 5 0Xe8b6
B 1 0Xe99c
B E 0Xea82
B 7 0Xeb40
B T 0Xec1c
H 8 0Xede8
H 4 0Xeeba
H 3 0Xef8c
H 6 0Xf072
H 9 0Xf158
H 2 0Xf202
H O 0Xf2ac
H 1 0Xf36a
H 5 0Xf400
H 7 0Xf4fa
H E 0Xf5b8
H T 0Xf694
B 4 0Xf7ac
B 8 0Xf86a
B 3 0Xf90a
B 9 0Xfa36
B 6 0Xfaf4
B O 0Xfba8
B 2 0Xfc52
B 5 0Xfd06
B 1 0Xfde2
B E 0Xfe78
B 7 0Xff72
B T 0X004e
H 8 0X021a
H 4 0X02f6
H 9 0X03f0
H 3 0X04ae
H O 0X05b2
H 6 0X063e
H 5 0X0706
H 2 0X07e2
H E 0X08aa
H 1 0X0986
H 7 0X0a4e
H T 0X0af8
B 8 0X0bb6
B 9 0X0cb0
B 4 0X0d82
B O 0X0e36
B 3 0X0f4e
B 5 0X1002
B 6 0X10ac
B E 0X117e
B 2 0X125a
B 7 0X1322
B 1 0X13d6
B T 0X14b2
H 9 0X16a6
H 8 0X175a
H 4 0X1836
H 3 0X18f4
H O 0X19c6
H 6 0X1a70
H 5 0X1b60
H 2 0X1c32
H E 0X1cd2
H 1 0X1dae
H 7 0X1ea8
H T 0X1f48
B 9 0X2024
B 4 0X2128
B 8 0X2204
B O 0X22a4
B 3 0X2380
B 5 0X2466
B 6 0X251a
B E 0X25b0
B 2 0X268c
B 7 0X2768
B 1 0X2812
B T 0X28e4
H 4 0X2ad8
H 9 0X2bbe
H 8 0X2c86
H 3 0X2d58
H O 0X2e48
H 6 0X2ee8
H 5 0X2fb0
H 2 0X30a0
H E 0X315e
H 1 0X3212
H 7 0X330c
H T 0X338e
B 4 0X346a
B 8 0X3550
B 9 0X3636
B O 0X3708
B 3 0X37e4
B 5 0X388e
B 6 0X3992
B E 0X3a6e
B 2 0X3b0e
B 7 0X3bea
B 1 0X3ca8
B T 0X3d66
H 8 0X3f28
H 4 0X3fd2
H O 0X40d6
H 9 0X41c6
H 5 0X4266
H 3 0X432e
H E 0X4400
H 6 0X4504
H 7 0X45c2
H 2 0X468a
H 1 0X4766
H T 0X4824
B 4 0X48ec
B 8 0X49be
B O 0X4a54
B 5 0X4b6c
B 9 0X4c2a
B E 0X4cde
B 3 0X4dce
B 7 0X4e96
B 6 0X4fa4
B 1 0X5012
B 2 0X50e4
B T 0X51b6
H 4 0X5332
H O 0X5422
H 8 0X54e0
H 9 0X55d0
H 5 0X56b6
H 3 0X5792
H E 0X585a
H 6 0X592c
H 7 0X5a30
H 2 0X5ad0
H 1 0X5b8e
H T 0X5c42
B O 0X5d1e
B 4 0X5ddc
B 8 0X5e7c
B 5 0X5f80
B 9 0X6070
B E 0X614c
B 3 0X623c
B 7 0X6304
B 6 0X6390
B 1 0X641c
B 2 0X6520
B T 0X65e8
H O 0X67dc
H 8 0X689a
H 4 0X6958
H 9 0X6a3e
H 5 0X6b06
H 3 0X6bba
H E 0X6c6e
H 6 0X6d54
H 7 0X6e58
H 2 0X6eee
H 1 0X6fb6
H T 0X7088
B 8 0X716e
B O 0X7222
B 4 0X7330
B 5 0X73da
B 9 0X74d4
B E 0X759c
B 3 0X7614
B 7 0X7704
B 6 0X77c2
B 1 0X7880
B 2 0X795c
B T 0X7a24
H O 0X7c0e
H 8 0X7cc2
H 5 0X7d62
H 4 0X7e7a
H E 0X7f42
H 9 0X8032
H 7 0X8122
H 3 0X81d6
H 1 0X828a
H 6 0X8352
H 2 0X8410
H T 0X84d8
B O 0X85be
B 5 0X867c
B 8 0X873a
B E 0X8834
B 4 0X88ca
B 7 0X89a6
B 9 0X8aaa
B 1 0X8b54
B 3 0X8c12
B 2 0X8cda
B 6 0X8df2
B T 0X8eb0
H 5 0X9022
H O 0X911c
H 8 0X91ee
H 4 0X92d4
H E 0X9374
H 9 0X9482
H 7 0X9554
H 3 0X9612
H 1 0X96ee
H 6 0X9798
H 2 0X984c
H T 0X9928
B 5 0X99f0
B 8 0X9aea
B O 0X9b9e
B E 0X9c84
B 4 0X9d60
B 7 0X9e28
B 9 0X9ee6
B 1 0X9f9a
B 3 0Xa058
B 2 0Xa120
B 6 0Xa1fc
B T 0Xa2e2
H 8 0Xa4a4
H 5 0Xa58a
H O 0Xa62a
H 4 0Xa756
H E 0Xa7ba
H 9 0Xa8dc
H 7 0Xa9a4
H 3 0Xaa44
H 1 0Xab20
H 6 0Xac10
H 2 0Xacc4
H T 0Xad78
B 8 0Xae5e
B O 0Xaee0
B 5 0Xafe4
B E 0Xb08e
B 4 0Xb188
B 7 0Xb278
B 9 0Xb34a
B 1 0Xb3fe
B 3 0Xb49e
B 2 0Xb584
B 6 0Xb656
B T 0Xb71e
H O 0Xb89a
H 8 0Xb994
H E 0Xba84
H 5 0Xbb56
H 7 0Xbc64
H 4 0Xbd36
H 1 0Xbe12
H 9 0Xbed0
H 2 0Xbf70
H 3 0Xc038
H 6 0Xc0e2
H T 0Xc1c8
B 8 0Xc24a
B O 0Xc326
B E 0Xc42a
B 7 0Xc524
B 5 0Xc5d8
B 1 0Xc682
B 4 0Xc754
B 2 0Xc83a
B 9 0Xc966
B 6 0Xc9de
B 3 0Xcaa6
B T 0Xcb78
H 8 0Xcd12
H E 0Xcde4
H O 0Xceca
H 5 0Xcf92
H 7 0Xd08c
H 4 0Xd154
H 1 0Xd212
H 9 0Xd302
H 2 0Xd398
H 3 0Xd46a
H 6 0Xd500
H T 0Xd618
B E 0Xd712
B 8 0Xd7e4
B O 0Xd87a
B 7 0Xd956
B 5 0Xda0a
B 1 0Xdaaa
B 4 0Xdbb8
B 2 0Xdc80
B 9 0Xdd48
B 6 0Xde24
B 3 0Xdef6
B T 0Xdfa0
H E 0Xe16c
H O 0Xe25c
H 8 0Xe324
H 5 0Xe3d8
H 7 0Xe4be
H 4 0Xe5cc
H 1 0Xe66c
H 9 0Xe734
H 2 0Xe7b6
H 3 0Xe87e
H 6 0Xe964
H T 0Xea5e
B O 0Xeb4e
B E 0Xec16
B 8 0Xecfc
B 7 0Xed9c
B 5 0Xee5a
B 1 0Xef18
B 4 0Xf030
B 2 0Xf0bc
B 9 0Xf1c0
B 6 0Xf274
B 3 0Xf332
B T 0Xf3e6
H E 0Xf576
H O 0Xf68e
H 7 0Xf760
H 8 0Xf814
H 1 0Xf8e6
H 5 0Xf9ae
H 2 0Xfa80
H 4 0Xfb84
H 6 0Xfc24
H 9 0Xfd14
H 3 0Xfdb4
H T 0Xfeae
B E 0Xff76
B 7 0X005c
B O 0X00fc
B 1 0X01ce
B 8 0X02a0
B 2 0X035e
B 5 0X03fe
B 6 0X0502
B 4 0X05fc
B 3 0X06ba
B 9 0X07a0
B T 0X0868
H 7 0X0a16
H E 0X0ac0
H O 0X0bba
H 8 0X0c96
H 1 0X0d68
H 5 0X0e12
H 2 0X0ee4
H 4 0X0fc0
H 6 0X1024
H 9 0X1128
H 3 0X11fa
H T 0X12d6
B 7 0X13c6
B O 0X1466
B E 0X152e
B 1 0X161e
B 8 0X1736
B 2 0X17f4
B 5 0X186c
B 6 0X195c
B 4 0X1a2e
B 3 0X1b0a
B 9 0X1bb4
B T 0X1c72
H O 0X1e34
H 7 0X1f38
H E 0X1fc4
H 8 0X20aa
H 1 0X217c
H 5 0X2262
H 2 0X2348
H 4 0X242e
H 6 0X24b0
H 9 0X25a0
H 3 0X2654
H T 0X2726
B O 0X27bc
B E 0X28a2
B 7 0X297e
B 1 0X2a28
B 8 0X2b18
B 2 0X2bfe
B 5 0X2cd0
B 6 0X2dac
B 4 0X2eb0
B 3 0X2f46
B 9 0X304a
B T 0X30ea
H E 0X3266
H O 0X334c
H 1 0X340a
H 7 0X3504
H 2 0X3590
H 8 0X366c
H 6 0X3770
H 5 0X3838
H 3 0X390a
H 4 0X39dc
H 9 0X3a9a
H T 0X3b8a
B O 0X3c16
B E 0X3d10
B 1 0X3dce
B 2 0X3eaa
B 7 0X3f86
B 6 0X401c
B 8 0X4102
B 3 0X41e8
B 5 0X4292
B 9 0X438c
B 4 0X447c
B T 0X4526
H O 0X46de
H 1 0X47b0
H E 0X4850
H 7 0X4918
H 2 0X49fe
H 8 0X4ac6
H 6 0X4b8e
H 5 0X4ca6
H 3 0X4d5a
H 4 0X4e18
H 9 0X4ee0
H T 0X4f9e
B 1 0X5070
B O 0X5110
B E 0X520a
B 2 0X5304
B 7 0X53cc
B 6 0X546c
B 8 0X5548
B 3 0X5624
B 5 0X56e2
B 9 0X57d2
B 4 0X58a4
B T 0X593a
H 1 0X5b1a
H E 0X5bba
H O 0X5cb4
H 7 0X5d90
H 2 0X5e44
H 8 0X5ef8
H 6 0X5fde
H 5 0X60d8
H 3 0X6182
H 4 0X6240
H 9 0X6326
H T 0X63f8
B E 0X64fc
B 1 0X65a6
B O 0X6628
B 2 0X672c
B 7 0X6812
B 6 0X68c6
B 8 0X6984
B 3 0X6a4c
B 5 0X6b28
B 9 0X6c18
B 4 0X6cea
B T 0X6db2
H 1 0X6f74
H E 0X705a
H 2 0X70dc
H O 0X71ae
H 6 0X72a8
H 7 0X73ac
H 3 0X7460
H 8 0X7500
H 9 0X75dc
H 5 0X76b8
H 4 0X7776
H T 0X782a
B 1 0X791a
B 2 0X79d8
B E 0X7a8c
B 6 0X7b7c
B O 0X7c1c
B 3 0X7d20
B 7 0X7e06
B 9 0X7ed8
B 8 0X7f78
B 4 0X8068
B 5 0X8112
B T 0X81ee
H 2 0X83ec
H 1 0X84b4
H E 0X8504
H O 0X8608
H 6 0X86d0
H 7 0X87de
H 3 0X887e
H 8 0X8946
H 9 0X8a22
H 5 0X8aea
H 4 0X8bda
H T 0X8c8e
B 2 0X8d74
B E 0X8e46
B 1 0X8edc
B 6 0X8fa4
B O 0X9044
B 3 0X915c
B 7 0X924c
B 9 0X930a
B 8 0X93dc
B 4 0X94c2
B 5 0X954e
B T 0X9652
H E 0X9800
H 2 0X98dc
H 1 0X999a
H O 0X9a62
H 6 0X9b2a
H 7 0X9c38
H 3 0X9cd8
H 8 0X9da0
H 9 0X9e54
H 5 0X9f08
H 4 0Xa002
H T 0Xa0e8
B E 0Xa1d8
B 1 0Xa25a
B 2 0Xa340
B 6 0Xa444
B O 0Xa4da
B 3 0Xa5c0
B 7 0Xa6d8
B 9 0Xa782
B 8 0Xa836
B 4 0Xa8fe
B 5 0Xa9d0
B T 0Xaa98
H 1 0Xac50
H E 0Xad18
H 6 0Xae12
H 2 0Xaed0
H 3 0Xaf8e
H O 0Xb056
H 9 0Xb146
H 7 0Xb236
H 4 0Xb2f4
H 8 0Xb39e
H 5 0Xb47a
H T 0Xb54c
B E 0Xb61e
B 1 0Xb6b4
B 6 0Xb79a
B 3 0Xb88a
B 2 0Xb920
B 9 0Xb9fc
B O 0Xbad8
B 4 0Xbbb4
B 7 0Xbcae
B 5 0Xbd62
B 8 0Xbe52
B T 0Xbf1a
H E 0Xc0c8
H 6 0Xc15e
H 1 0Xc244
H 2 0Xc334
H 3 0Xc3fc
H O 0Xc488
H 9 0Xc578
H 7 0Xc686
H 4 0Xc726
H 8 0Xc7d0
H 5 0Xc8c0
H T 0Xc99c
B 6 0Xca64
B E 0Xcb40
B 1 0Xcbea
B 3 0Xccb2
B 2 0Xcd8e
B 9 0Xce7e
B O 0Xcf28
B 4 0Xcfe6
B 7 0Xd0ea
B 5 0Xd1b2
B 8 0Xd284
B T 0Xd36a
H 6 0Xd4be
H 1 0Xd5c2
H E 0Xd680
H 2 0Xd748
H 3 0Xd824
H O 0Xd91e
H 9 0Xd9be
H 7 0Xdac2
H 4 0Xdb62
H 8 0Xdc2a
H 5 0Xdcf2
H T 0Xddd8
B 1 0Xdeaa
B 6 0Xdf86
B E 0Xe03a
B 3 0Xe0f8
B 2 0Xe1ac
B 9 0Xe292
B O 0Xe364
B 4 0Xe418
B 7 0Xe51c
B 5 0Xe5e4
B 8 0Xe6b6
B T 0Xe7ba
H 6 0Xe968
H 1 0Xea58
H 3 0Xeb0c
H E 0Xebc0
H 9 0Xec9c
H 2 0Xed3c
H 4 0Xede6
H O 0Xeea4
H 5 0Xefd0
H 7 0Xf0e8
H 8 0Xf174
H T 0Xf250
B 6 0Xf30e
B 3 0Xf3ea
B 1 0Xf49e
B 9 0Xf584
B E 0Xf62e
B 4 0Xf6ec
B 2 0Xf796
B 5 0Xf886
B O 0Xf944
B 8 0Xfa20
B 7 0Xfb10
B T 0Xfc00
H 3 0Xfdb8
H 6 0Xfe6c
H 1 0Xff5c
H E 0Xffe8
H 9 0X00e2
H 2 0X0196
H 4 0X0268
H O 0X031c
H 5 0X03d0
H 7 0X04e8
H 8 0X057e
H T 0X065a
B 3 0X074a
B 1 0X0808
B 6 0X08b2
B 9 0X09ac
B E 0X0a74
B 4 0X0b28
B 2 0X0bfa
B 5 0X0cc2
B O 0X0d80
B 8 0X0e52
B 7 0X0f38
B T 0X100a
H 1 0X11cc
H 3 0X12bc
H 6 0X1398
H E 0X144c
H 9 0X1532
H 2 0X15aa
H 4 0X1686
H O 0X1758
H 5 0X1802
H 7 0X191a
H 8 0X19c4
H T 0X1a96
B 1 0X1b68
B 6 0X1c4e
B 3 0X1d16
B 9 0X1dfc
B E 0X1eb0
B 4 0X1f96
B 2 0X2018
B 5 0X20f4
B O 0X219e
B 8 0X2284
B 7 0X237e
B T 0X2446
H 6 0X2630
H 1 0X2720
H 9 0X27de
H 3 0X2874
H 4 0X295a
H E 0X2a04
H 5 0X2acc
H 2 0X2bd0
H 8 0X2c66
H O 0X2d56
H 7 0X2e14
H T 0X2ee6
B 1 0X2f9a
B 6 0X3076
B 9 0X317a
B 4 0X3224
B 3 0X330a
B 5 0X33be
B E 0X3490
B 8 0X356c
B 2 0X3652
B 7 0X371a
B O 0X37e2
B T 0X38b4
H 1 0X3a80
H 9 0X3b3e
H 6 0X3be8
H 3 0X3cd8
H 4 0X3d6e
H E 0X3e68
H 5 0X3f1c
H 2 0X4016
H 8 0X40c0
H O 0X41c4
H 7 0X428c
H T 0X4340
B 9 0X441c
B 1 0X44da
B 6 0X45ca
B 4 0X4688
B 3 0X475a
B 5 0X482c
B E 0X48e0
B 8 0X49ee
B 2 0X4a84
B 7 0X4b92
B O 0X4c32
B T 0X4d22
H 9 0X4eee
H 6 0X4fac
H 1 0X5074
H 3 0X5128
H 4 0X51fa
H E 0X52a4
H 5 0X538a
H 2 0X5484
H 8 0X5542
H O 0X5650
H 7 0X56fa
H T 0X5790
B 6 0X5880
B 9 0X5984
B 1 0X5a24
B 4 0X5b14
B 3 0X5bbe
B 5 0X5c90
B E 0X5d44
B 8 0X5e3e
B 2 0X5ede
B 7 0X5fce
B O 0X60a0
B T 0X6186
H 9 0X6348
H 6 0X63f2
H 4 0X64e2
H 1 0X65be
H 5 0X667c
H 3 0X6758
H 8 0X6816
H E 0X68e8
H 2 0X69b0
H O 0X6a78
H 7 0X6b54
H T 0X6c1c
B 9 0X6cf8
B 4 0X6db6
B 6 0X6e7e
B 5 0X6f8c
B 1 0X7040
B 8 0X70f4
B 3 0X71da
B 2 0X727a
B E 0X72fc
B 7 0X7414
B O 0X74e6
B T 0X75cc
H 4 0X77ac
H 9 0X784c
H 6 0X7964
H 1 0X7a18
H 5 0X7ab8
H 3 0X7b80
H 8 0X7c5c
H E 0X7cfc
H 2 0X7e00
H O 0X7e82
H 7 0X7f7c
H T 0X8058
B 4 0X813e
B 6 0X822e
B 9 0X8328
B 5 0X83c8
B 1 0X847c
B 8 0X8558
B 3 0X85f8
B 2 0X86ca
B E 0X876a
B 7 0X8850
B O 0X88e6
B T 0X89f4
H 6 0X8bde
H 4 0X8cc4
H 9 0X8d8c
H 1 0X8e72
H 5 0X8f12
H 3 0X8fe4
H 8 0X90ca
H E 0X9192
H 2 0X9246
H O 0X92d2
H 7 0X93cc
H T 0X946c
B 6 0X9584
B 9 0X9674
B 4 0X9728
B 5 0X97f0
B 1 0X98cc
B 8 0X99a8
B 3 0X9a7a
B 2 0X9b38
B E 0X9bba
B 7 0X9c96
B O 0X9d72
B T 0X9e3a
H 9 0Xa038
H 6 0Xa11e
H 5 0Xa1f0
H 4 0Xa29a
H 8 0Xa36c
H 1 0Xa434
H 2 0Xa524
H 3 0Xa5d8
H 7 0Xa6c8
H E 0Xa754
H O 0Xa84e
H T 0Xa8ee
B 6 0Xa9d4
B 9 0Xaad8
B 5 0Xabaa
B 8 0Xac72
B 4 0Xad44
B 2 0Xadee
B 1 0Xaede
B 7 0Xaf9c
B 3 0Xb050
B O 0Xb10e
B E 0Xb1cc
B T 0Xb2c6
H 6 0Xb47e
H 5 0Xb564
H 9 0Xb62c
H 4 0Xb71c
H 8 0Xb7e4
H 1 0Xb8ac
H 2 0Xb96a
H 3 0Xba32
H 7 0Xbb18
H E 0Xbbb8
H O 0Xbc80
H T 0Xbd5c
B 5 0Xbe42
B 6 0Xbf00
B 9 0Xbff0
B 8 0Xc0a4
B 4 0Xc180
B 2 0Xc23e
B 1 0Xc324
B 7 0Xc3e2
B 3 0Xc464
B O 0Xc540
B E 0Xc608
B T 0Xc6ee
H 5 0Xc8ce
H 9 0Xc9aa
H 6 0Xca72
H 4 0Xcb62
H 8 0Xcc16
H 1 0Xccf2
H 2 0Xcda6
H 3 0Xce64
H 7 0Xcf72
H E 0Xcfea
H O 0Xd0d0
H T 0Xd17a
B 9 0Xd288
B 5 0Xd35a
B 6 0Xd404
B 8 0Xd4ea
B 4 0Xd5d0
B 2 0Xd6a2
B 1 0Xd774
B 7 0Xd832
B 3 0Xd90e
B O 0Xd9b8
B E 0Xda6c
B T 0Xdb3e
H 5 0Xdd3c
H 9 0Xde0e
H 8 0Xdecc
H 6 0Xdfb2
H 2 0Xe070
H 4 0Xe160
H 7 0Xe250
H 1 0Xe2fa
H O 0Xe3ae
H 3 0Xe458
H E 0Xe4da
H T 0Xe5b6
B 5 0Xe700
B 8 0Xe7be
B 9 0Xe890
B 2 0Xe976
B 6 0Xea0c
B 7 0Xeb10
B 4 0Xebba
B O 0Xec82
B 1 0Xed36
B E 0Xedea
B 3 0Xeed0
B T 0Xef84
H 8 0Xf1a0
H 5 0Xf27c
H 9 0Xf344
H 6 0Xf3d0
H 2 0Xf4d4
H 4 0Xf5b0
H 7 0Xf696
H 1 0Xf740
H O 0Xf7d6
H 3 0Xf8c6
H E 0Xf952
H T 0Xfa38
B 8 0Xfb14
B 9 0Xfc2c
B 5 0Xfcd6
B 2 0Xfdda
B 6 0Xfe70
B 7 0Xff56
B 4 0X0014
B O 0X00a0
B 1 0X017c
B E 0X023a
B 3 0X0334
B T 0X03d4
H 9 0X05f0
H 8 0X06ae
H 5 0X078a
H 6 0X0834
H 2 0X0938
H 4 0X0a0a
H 7 0X0ae6
H 1 0X0ba4
H O 0X0c6c
H 3 0X0d16
H E 0X0db6
H T 0X0e92
B 9 0X0f82
B 5 0X1086
B 8 0X114e
B 2 0X122a
B 6 0X12b6
B 7 0X13ba
B 4 0X145a
B O 0X152c
B 1 0X1612
B E 0X16bc
B 3 0X177a
B T 0X182e
H 5 0X1a18
H 9 0X1b1c
H 2 0X1bb2
H 8 0X1c8e
H 7 0X1db0
H 6 0X1e3c
H O 0X1efa
H 4 0X1fc2
H 1 0X20bc
H 3 0X218e
H E 0X2206
H T 0X22e2
B 9 0X2404
B 5 0X24cc
B 2 0X2562
B 7 0X2652
B 8 0X272e
B O 0X27ce
B 6 0X28aa
B 1 0X2972
B 4 0X2a26
B E 0X2ada
B 3 0X2bca
B T 0X2c88
H 9 0X2eb8
H 2 0X2f4e
H 5 0X3002
H 8 0X30d4
H 7 0X31ce
H 6 0X3278
H O 0X3336
H 4 0X33d6
H 1 0X34d0
H 3 0X358e
H E 0X3624
H T 0X370a
B 2 0X3840
B 9 0X391c
B 5 0X39d0
B 7 0X3a8e
B 8 0X3b60
B O 0X3c28
B 6 0X3cdc
B 1 0X3da4
B 4 0X3e6c
B E 0X3f20
B 3 0X4006
B T 0X40ce
H 2 0X42b8
H 5 0X4380
H 9 0X4470
H 8 0X452e
H 7 0X4628
H 6 0X4696
H O 0X479a
H 4 0X483a
H 1 0X4920
H 3 0X49f2
H E 0X4a7e
H T 0X4b50
B 5 0X4c72
B 2 0X4d1c
B 9 0X4e20
B 7 0X4ef2
B 8 0X4fb0
B O 0X503c
B 6 0X514a
B 1 0X521c
B 4 0X52f8
B E 0X537a
B 3 0X5460
B T 0X54f6
H 2 0X56e0
H 5 0X57a8
H 7 0X58ac
H 9 0X5956
H O 0X5a46
H 8 0X5b18
H 1 0X5c12
H 6 0X5c94
H E 0X5d5c
H 4 0X5e24
H 3 0X5ee2
H T 0X5fc8
B 2 0X60a4
B 7 0X6162
B 5 0X6220
B O 0X62d4
B 9 0X63ba
B 1 0X64a0
B 8 0X6568
B E 0X6630
B 6 0X672a
B 3 0X67de
B 4 0X6892
B T 0X6950
H 7 0X6b08
H 2 0X6c16
H 5 0X6cc0
H 9 0X6d9c
H O 0X6e96
H 8 0X6f2c
H 1 0X6fea
H 6 0X70bc
H E 0X717a
H 4 0X722e
H 3 0X72ec
H T 0X73d2
B 7 0X74ae
B 5 0X75a8
B 2 0X768e
B O 0X7710
B 9 0X781e
B 1 0X78c8
B 8 0X7968
B E 0X7a30
B 6 0X7b34
B 3 0X7c06
B 4 0X7cc4
B T 0X7d96
H 5 0X7f6c
H 7 0X805c
H 2 0X816a
H 9 0X81ec
H O 0X82be
H 8 0X8368
H 1 0X841c
H 6 0X8520
H E 0X858e
H 4 0X8692
H 3 0X8750
H T 0X880e
B 5 0X88ea
B 2 0X89f8
B 7 0X8ac0
B O 0X8b56
B 9 0X8c8c
B 1 0X8d22
B 8 0X8dc2
B E 0X8e76
B 6 0X8f70
B 3 0X9038
B 4 0X9114
B T 0X91c8
H 2 0X93c6
H 5 0X9466
H O 0X956a
H 7 0X9600
H 1 0X96dc
H 9 0X979a
H E 0X983a
H 8 0X9934
H 3 0X9a1a
H 6 0X9ace
H 4 0X9ba0
H T 0X9c68
B 5 0X9d30
B 2 0X9e2a
B O 0X9eca
B 1 0X9fc4
B 7 0Xa064
B E 0Xa10e
B 9 0Xa226
B 3 0Xa2d0
B 8 0Xa3b6
B 4 0Xa46a
B 6 0Xa528
B T 0Xa622
H 5 0Xa7d0
H O 0Xa870
H 2 0Xa960
H 7 0Xaa50
H 1 0Xab0e
H 9 0Xabb8
H E 0Xac80
H 8 0Xad66
H 3 0Xae38
H 6 0Xaed8
H 4 0Xafb4
H T 0Xb0a4
B O 0Xb180
B 5 0Xb23e
B 2 0Xb310
B 1 0Xb3e2
B 7 0Xb4c8
B E 0Xb52c
B 9 0Xb658
B 3 0Xb70c
B 8 0Xb7de
B 4 0Xb888
B 6 0Xb95a
B T 0Xba54
H O 0Xbc02
H 2 0Xbcde
H 5 0Xbd88
H 7 0Xbe96
H 1 0Xbf5e
H 9 0Xc008
H E 0Xc0da
H 8 0Xc1a2
H 3 0Xc288
H 6 0Xc35a
H 4 0Xc404
H T 0Xc508
B 2 0Xc5ee
B O 0Xc648
B 5 0Xc742
B 1 0Xc83c
B 7 0Xc8e6
B E 0Xc986
B 9 0Xcab2
B 3 0Xcb5c
B 8 0Xcc1a
B 4 0Xccec
B 6 0Xcdb4
B T 0Xceae
H O 0Xd03e
H 2 0Xd124
H 1 0Xd20a
H 5 0Xd2b4
H E 0Xd368
H 7 0Xd43a
H 3 0Xd53e
H 9 0Xd5de
H 4 0Xd6d8
H 8 0Xd782
H 6 0Xd868
H T 0Xd944
B O 0Xd9f8
B 1 0Xdaca
B 2 0Xdb6a
B E 0Xdc28
B 5 0Xdd22
B 3 0Xde1c
B 7 0Xded0
B 4 0Xdf98
B 9 0Xe074
B 6 0Xe10a
B 8 0Xe1f0
B T 0Xe2cc
H 1 0Xe48e
H O 0Xe51a
H 2 0Xe628
H 5 0Xe6dc
H E 0Xe786
H 7 0Xe86c
H 3 0Xe952
H 9 0Xea1a
H 4 0Xeb00
H 8 0Xebbe
H 6 0Xec90
H T 0Xed58
B 1 0Xee0c
B 2 0Xef10
B O 0Xef9c
B E 0Xf05a
B 5 0Xf154
B 3 0Xf230
B 7 0Xf2ee
B 4 0Xf3ac
B 9 0Xf492
B 6 0Xf582
B 8 0Xf668
B T 0Xf730
H 2 0Xf8d4
H 1 0Xf99c
H O 0Xfa32
H 5 0Xfb04
H E 0Xfbb8
H 7 0Xfc9e
H 3 0Xfd84
H 9 0Xfe42
H 4 0Xff14
H 8 0Xfff0
H 6 0X00ea
H T 0X01bc
B 2 0X0284
B O 0X0306
B 1 0X03d8
B E 0X046e
B 5 0X055e
B 3 0X064e
B 7 0X0716
B 4 0X0806
B 9 0X08ba
B 6 0X09a0
B 8 0X0a86
B T 0X0b6c
H O 0X0cde
H 2 0X0dba
H E 0X0e78
H 1 0X0f4a
H 3 0X101c
H 5 0X10ee
H 4 0X11f2
H 7 0X12a6
H 6 0X133c
H 9 0X1404
H 8 0X14cc
H T 0X15e4
B 2 0X168e
B O 0X171a
B E 0X17f6
B 3 0X18f0
B 1 0X19c2
B 4 0X1a94
B 5 0X1b3e
B 6 0X1c1a
B 7 0X1cf6
B 8 0X1ddc
B 9 0X1e7c
B T 0X1f62
H 2 0X2142
H E 0X21c4
H O 0X22b4
H 1 0X237c
H 3 0X2430
H 5 0X252a
H 4 0X2606
H 7 0X26ce
H 6 0X2746
H 9 0X2840
H 8 0X291c
H T 0X29e4
B E 0X2aac
B 2 0X2b88
B O 0X2c0a
B 3 0X2cdc
B 1 0X2dcc
B 4 0X2ebc
B 5 0X2f70
B 6 0X3060
B 7 0X311e
B 8 0X31f0
B 9 0X32b8
B T 0X3394
H E 0X3538
H O 0X360a
H 2 0X36dc
H 1 0X37ae
H 3 0X3880
H 5 0X393e
H 4 0X3a2e
H 7 0X3ae2
H 6 0X3b96
H 9 0X3c40
H 8 0X3d30
H T 0X3e20
B O 0X3ede
B E 0X3fb0
B 2 0X408c
B 3 0X4136
B 1 0X4208
B 4 0X42da
B 5 0X4398
B 6 0X4474
B 7 0X4546
B 8 0X460e
B 9 0X46cc
B T 0X47c6
H E 0X4960
H O 0X4a3c
H 3 0X4b0e
H 2 0X4bfe
H 4 0X4c9e
H 1 0X4d7a
H 6 0X4e4c
H 5 0X4f3c
H 8 0X4fdc
H 7 0X50b8
H 9 0X518a
H T 0X5248
B E 0X5310
B 3 0X53d8
B O 0X5478
B 4 0X559a
B 2 0X5676
B 6 0X5716
B 1 0X57f2
B 8 0X58b0
B 5 0X5982
B 9 0X5a86
B 7 0X5b44
B T 0X5bf8
H 3 0X5dba
H E 0X5e8c
H O 0X5f5e
H 2 0X6062
H 4 0X6102
H 1 0X61de
H 6 0X6288
H 5 0X636e
H 8 0X6418
H 7 0X64e0
H 9 0X65bc
H T 0X6666
B 3 0X676a
B O 0X680a
B E 0X68c8
B 4 0X69c2
B 2 0X6ab2
B 6 0X6b5c
B 1 0X6c2e
B 8 0X6d0a
B 5 0X6dbe
B 9 0X6eae
B 7 0X6f80
B T 0X702a
H O 0X71f6
H 3 0X72d2
H E 0X7372
H 2 0X74bc
H 4 0X753e
H 1 0X761a
H 6 0X76c4
H 5 0X77be
H 8 0X7886
H 7 0X7926
H 9 0X79ee
H T 0X7aca
B O 0X7b74
B E 0X7c5a
B 3 0X7d18
B 4 0X7dd6
B 2 0X7eda
B 6 0X7fca
B 1 0X80a6
B 8 0X8146
B 5 0X8204
B 9 0X82e0
B 7 0X8394
B T 0X847a
H E 0X8632
H O 0X86f0
H 4 0X87c2
H 3 0X888a
H 6 0X8970
H 2 0X8a6a
H 8 0X8ad8
H 1 0X8bbe
H 9 0X8ca4
H 5 0X8d94
H 7 0X8e8e
H T 0X8f42
B O 0X8f42
B E 0X9032
B 4 0X917c
B 6 0X924e
B 3 0X9320
B 8 0X93de
B 2 0X94ce
B 9 0X9596
B 1 0X962c
B 7 0X971c
B 5 0X97ee
B T 0X98c0
H O 0X9a14
H 4 0X9b04
H E 0X9bcc
H 3 0X9cc6
H 6 0X9db6
H 2 0X9ec4
H 8 0X9f82
H 1 0Xa018
H 9 0Xa0f4
H 5 0Xa1bc
H 7 0Xa2b6
H T 0Xa34c
B 4 0Xa40a
B O 0Xa45a
B E 0Xa57c
B 6 0Xa694
B 3 0Xa748
B 8 0Xa82e
B 2 0Xa90a
B 9 0Xaa0e
B 1 0Xaaa4
B 7 0Xab6c
B 5 0Xac34
B T 0Xace8
H 4 0Xaea0
H E 0Xaf4a
H O 0Xb030
H 3 0Xb120
H 6 0Xb1f2
H 2 0Xb30a
H 8 0Xb3be
H 1 0Xb472
H 9 0Xb562
H 5 0Xb620
H 7 0Xb710
H T 0Xb79c
B E 0Xb8aa
B 4 0Xb95e
B O 0Xb9d6
B 6 0Xbb0c
B 3 0Xbbc0
B 8 0Xbca6
B 2 0Xbd46
B 9 0Xbe40
B 1 0Xbefe
B 7 0Xbfbc
B 5 0Xc084
B T 0Xc142
H 4 0Xc32c
H E 0Xc3b8
H 6 0Xc4a8
H O 0Xc58e
H 8 0Xc66a
H 3 0Xc732
H 9 0Xc7fa
H 2 0Xc8cc
H 7 0Xc9c6
H 1 0Xca66
H 5 0Xcb24
H T 0Xcbc4
B 4 0Xcd0e
B 6 0Xcd90
B E 0Xce1c
B 8 0Xcf34
B O 0Xcfe8
B 9 0Xd0ec
B 3 0Xd1a0
B 7 0Xd272
B 2 0Xd344
B 5 0Xd40c
B 1 0Xd4d4
B T 0Xd588
H 6 0Xd77c
H 4 0Xd876
H E 0Xd8f8
H O 0Xd9d4
H 8 0Xdac4
H 3 0Xdb82
H 9 0Xdc5e
H 2 0Xdd3a
H 7 0Xddda
H 1 0Xdeb6
H 5 0Xdf6a
H T 0Xe03c
B 6 0Xe136
B E 0Xe1d6
B 4 0Xe2d0
B 8 0Xe384
B O 0Xe42e
B 9 0Xe528
B 3 0Xe5fa
B 7 0Xe69a
B 2 0Xe776
B 5 0Xe866
B 1 0Xe938
B T 0Xe9ce
H E 0Xeb68
H 6 0Xec62
H 4 0Xed48
H O 0Xee06
H 8 0Xeec4
H 3 0Xefa0
H 9 0Xf07c
H 2 0Xf16c
H 7 0Xf220
H 1 0Xf2e8
H 5 0Xf3ba
H T 0Xf48c
B E 0Xf54a
B 4 0Xf626
B 6 0Xf6da
B 8 0Xf7b6
B O 0Xf86a
B 9 0Xf978
B 3 0Xfa2c
B 7 0Xfb12
B 2 0Xfbb2
B 5 0Xfca2
B 1 0Xfd74
B T 0Xfe0a
H 4 0Xfff4
H E 0X0094
H 8 0X0166
H 6 0X0256
H 9 0X030a
H O 0X0418
H 7 0X04e0
H 3 0X0594
H 5 0X065c
H 2 0X074c
H 1 0X0814
H T 0X08e6
B E 0X09cc
B 4 0X0a94
B 8 0X0b48
B 9 0X0c1a
B 6 0X0cb0
B 7 0X0da0
B O 0X0e68
B 5 0X0f62
B 3 0X1020
B 1 0X10c0
B 2 0X119c
B T 0X123c
H E 0X141c
H 8 0X150c
H 4 0X1606
H 6 0X16a6
H 9 0X17b4
H O 0X1868
H 7 0X191c
H 3 0X19e4
H 5 0X1a84
H 2 0X1b92
H 1 0X1c50
H T 0X1cfa
B 8 0X1dc2
B E 0X1ea8
B 4 0X1fa2
B 9 0X2060
B 6 0X210a
B 7 0X2204
B O 0X22ae
B 5 0X238a
B 3 0X2448
B 1 0X24f2
B 2 0X25d8
B T 0X2682
H 8 0X2876
H 4 0X2952
H E 0X29f2
H 6 0X2ac4
H 9 0X2b82
H O 0X2ca4
H 7 0X2d4e
H 3 0X2e0c
H 5 0X2ed4
H 2 0X2fb0
H 1 0X308c
H T 0X3140
B 4 0X31fe
B 8 0X32d0
B E 0X33b6
B 9 0X3460
B 6 0X3546
B 7 0X360e
B O 0X36ea
B 5 0X37b2
B 3 0X387a
B 1 0X394c
B 2 0X39f6
B T 0X3ab4
H 8 0X3c94
H 4 0X3d7a
H 9 0X3e1a
H E 0X3ef6
H 7 0X4004
H 6 0X40ae
H 5 0X4180
H O 0X4266
H 1 0X4360
H 3 0X43e2
H 2 0X4496
H T 0X4536
B 8 0X4612
B 9 0X4716
B 4 0X47d4
B 7 0X48ba
B E 0X4964
B 5 0X4a5e
B 6 0X4b1c
B 1 0X4bee
B O 0X4c98
B 2 0X4d6a
B 3 0X4e28
B T 0X4ef0
H 9 0X510c
H 8 0X51ac
H 4 0X5274
H E 0X530a
H 7 0X5422
H 6 0X54e0
H 5 0X55bc
H O 0X5670
H 1 0X572e
H 3 0X57ec
H 2 0X58aa
H T 0X5990
B 9 0X5a94
B 4 0X5b70
B 8 0X5c06
B 7 0X5d0a
B E 0X5d78
B 5 0X5e5e
B 6 0X5f44
B 1 0X6002
B O 0X6084
B 2 0X6188
B 3 0X621e
B T 0X630e
H 4 0X6516
H 9 0X65d4
H 8 0X667e
H E 0X6750
H 7 0X684a
H 6 0X6912
H 5 0X69ee
H O 0X6a7a
H 1 0X6b38
H 3 0X6bf6
H 2 0X6cdc
H T 0X6dae
B 4 0X6ea8
B 8 0X6f66
B 9 0X7038
B 7 0X7100
B E 0X71a0
B 5 0X7290
B 6 0X7376
B 1 0X7452
B O 0X74b6
B 2 0X75ba
B 3 0X765a
B T 0X772c
H 8 0X7902
H 4 0X7a10
H 7 0X7b00
H 9 0X7b78
H 5 0X7c54
H E 0X7d1c
H 1 0X7dee
H 6 0X7eac
H 2 0X7fb0
H O 0X8050
H 3 0X80fa
H T 0X81e0
B 4 0X828a
B 8 0X8366
B 7 0X8456
B 5 0X8550
B 9 0X85fa
B 1 0X86cc
B E 0X8758
B 2 0X8866
B 6 0X8924
B 3 0X89f6
B O 0X8aaa
B T 0X8b90
H 4 0X8d34
H 7 0X8e1a
H 8 0X8ec4
H 9 0X8f96
H 5 0X9086
H E 0X913a
H 1 0X91ee
H 6 0X92c0
H 2 0X93ba
H O 0X945a
H 3 0X9504
H T 0X9608
B 7 0X96bc
B 4 0X97d4
B 8 0X9856
B 5 0X9932
B 9 0X9a2c
B 1 0X9b12
B E 0X9b62
B 2 0X9c8e
B 6 0X9d38
B 3 0X9df6
B O 0X9ea0
B T 0X9fa4
H 7 0Xa166
H 8 0Xa21a
H 4 0Xa314
H 9 0Xa3d2
H 5 0Xa49a
H E 0Xa53a
H 1 0Xa62a
H 6 0Xa710
H 2 0Xa7f6
H O 0Xa878
H 3 0Xa954
H T 0Xaa26
B 8 0Xab20
B 7 0Xabfc
B 4 0Xacce
B 5 0Xad6e
B 9 0Xae54
B 1 0Xaef4
B E 0Xaf94
B 2 0Xb084
B 6 0Xb174
B 3 0Xb246
B O 0Xb2c8
B T 0Xb3d6
H 8 0Xb534
H 7 0Xb58e
H 5 0Xb73c
H 4 0Xb82c
H 1 0Xb8f4
H 9 0Xb99e
H 2 0Xba66
H E 0Xbb24
H 6 0Xbbd8
H O 0Xbc8c
H 3 0Xbd5e
H T 0Xbe4e
B 7 0Xbf3e
B 5 0Xbfd4
B 8 0Xc0c4
B 1 0Xc196
B 4 0Xc29a
B 2 0Xc308
B 9 0Xc402
B 6 0Xc4a2
B E 0Xc54c
B 3 0Xc650
B O 0Xc6fa
B T 0Xc7d6
H 5 0Xc9b6
H 7 0Xcac4
H 8 0Xcb64
H 4 0Xcc0e
H 1 0Xccf4
H 9 0Xcdd0
H 2 0Xce84
H E 0Xcf38
H 6 0Xcfe2
H O 0Xd096
H 3 0Xd17c
H T 0Xd258
B 5 0Xd30c
B 8 0Xd410
B 7 0Xd4f6
B 1 0Xd5b4
B 4 0Xd668
B 2 0Xd758
B 9 0Xd82a
B 6 0Xd8f2
B E 0Xd992
B 3 0Xda8c
B O 0Xdb0e
B T 0Xdbfe
H 8 0Xddb6
H 5 0Xde92
H 7 0Xdf78
H 4 0Xe040
H 1 0Xe130
H 9 0Xe1f8
H 2 0Xe2de
H E 0Xe36a
H 6 0Xe446
H O 0Xe52c
H 3 0Xe612
H T 0Xe6bc
B 8 0Xe7b6
B 7 0Xe84c
B 5 0Xe900
B 1 0Xe9d2
B 4 0Xeaa4
B 2 0Xeb80
B 9 0Xec5c
B 6 0Xed1a
B E 0Xedba
B 3 0Xeebe
B O 0Xef86
B T 0Xf080
H 7 0Xf238
H 8 0Xf2f6
H 1 0Xf3b4
H 5 0Xf44a
H 2 0Xf544
H 4 0Xf616
H 6 0Xf6fc
H 9 0Xf792
H 3 0Xf88c
H E 0Xf922
H O 0Xf9fe
H T 0Xfaf8
B 8 0Xfc06
B 7 0Xfcec
B 1 0Xfd6e
B 2 0Xfe2c
B 5 0Xfeb8
B 6 0Xff94
B 4 0X007a
B 3 0X0138
B 9 0X023c
B O 0X02e6
B E 0X03ae
B T 0X0494
H 8 0X0692
H 1 0X075a
H 7 0X0868
H 5 0X08e0
H 2 0X098a
H 4 0X0a66
H 6 0X0b38
H 9 0X0c00
H 3 0X0cb4
H E 0X0d4a
H O 0X0e76
H T 0X0f20
B 1 0X1006
B 8 0X10e2
B 7 0X11b4
B 2 0X125e
B 5 0X12f4
B 6 0X1420
B 4 0X14f2
B 3 0X15ba
B 9 0X1664
B O 0X1736
B E 0X17ea
B T 0X18d0
H 1 0X1a7e
H 7 0X1b78
H 8 0X1c2c
H 5 0X1d08
H 2 0X1dc6
H 4 0X1eb6
H 6 0X1f74
H 9 0X2032
H 3 0X20e6
H E 0X219a
H O 0X22bc
H T 0X235c
B 7 0X2410
B 1 0X24c4
B 8 0X25d2
B 2 0X26ae
B 5 0X2744
B 6 0X2848
B 4 0X2924
B 3 0X29ec
B 9 0X2ab4
B O 0X2b68
B E 0X2c26
B T 0X2d16
H 1 0X2ea6
H 7 0X2eec
H 2 0X3068
H 8 0X3130
H 6 0X3202
H 5 0X32de
H 3 0X33b0
H 4 0X3450
H O 0X352c
H 9 0X35d6
H E 0X3694
H T 0X3798
B 1 0X384c
B 2 0X390a
B 7 0X39f0
B 6 0X3acc
B 8 0X3b9e
B 3 0X3c3e
B 5 0X3cfc
B O 0X3dce
B 4 0X3edc
B E 0X3f40
B 9 0X4012
B T 0X4134
H 2 0X42f6
H 1 0X43be
H 7 0X44cc
H 8 0X4544
H 6 0X463e
H 5 0X471a
H 3 0X47ce
H 4 0X4882
H O 0X4918
H 9 0X49cc
H E 0X4a9e
H T 0X4b98
B 2 0X4c88
B 7 0X4d82
B 1 0X4e22
B 6 0X4efe
B 8 0X4fe4
B 3 0X507a
B 5 0X516a
B O 0X51e2
B 4 0X52fa
B E 0X5368
B 9 0X5444
B T 0X553e
H 7 0X5750
H 2 0X580e
H 1 0X58d6
H 8 0X598a
H 6 0X5a66
H 5 0X5b4c
H 3 0X5bec
H 4 0X5cdc
H O 0X5d86
H 9 0X5dfe
H E 0X5ebc
H T 0X5f98
B 7 0X60b0
B 1 0X616e
B 2 0X6268
B 6 0X6330
B 8 0X640c
B 3 0X64ac
B 5 0X6560
B O 0X6600
B 4 0X6722
B E 0X679a
B 9 0X68d0
B T 0X6966
H 1 0X6b50
H 7 0X6c40
H 6 0X6d08
H 2 0X6dc6
H 3 0X6e7a
H 8 0X6f4c
H O 0X700a
H 5 0X70dc
H 4 0X71ae
H E 0X7212
H 9 0X72a8
H T 0X73e8
B 7 0X751e
B 1 0X75b4
B 6 0X7686
B 3 0X773a
B 2 0X7802
B O 0X78ca
B 8 0X7988
B 4 0X7a6e
B 5 0X7b2c
B 9 0X7c3a
B E 0X7c9e
B T 0X7d70
H 7 0X7fb4
H 6 0X802c
H 1 0X8130
H 2 0X81d0
H 3 0X828e
H 8 0X8360
H O 0X846e
H 5 0X8518
H 4 0X85ea
H E 0X8658
H 9 0X8784
H T 0X8824
B 6 0X88f6
B 7 0X89dc
B 1 0X8a68
B 3 0X8b3a
B 2 0X8c20
B O 0X8cd4
B 8 0X8dc4
B 4 0X8eaa
B 5 0X8f5e
B 9 0X9062
B E 0X9120
B T 0X91f2
H 6 0X93aa
H 1 0X9472
H 7 0X9562
H 2 0X9620
H 3 0X96de
H 8 0X9788
H O 0X985a
H 5 0X9918
H 4 0X99e0
H E 0X9ab2
H 9 0X9b7a
H T 0X9c4c
B 1 0X9d28
B 6 0X9e22
B 7 0X9f08
B 3 0X9fa8
B 2 0Xa05c
B O 0Xa0e8
B 8 0Xa1ce
B 4 0Xa2b4
B 5 0Xa37c
B 9 0Xa462
B E 0Xa52a
B T 0Xa61a
H 6 0Xa7c8
H 1 0Xa8c2
H 3 0Xa96c
H 7 0Xaa3e
H O 0Xab1a
H 2 0Xabba
H 4 0Xaca0
H 8 0Xad68
H 9 0Xadea
H 5 0Xaeee
H E 0Xaf98
H T 0Xb06a
B 6 0Xb16e
B 3 0Xb236
B 1 0Xb2f4
B O 0Xb3bc
B 7 0Xb498
B 4 0Xb588
B 2 0Xb632
B 9 0Xb704
B 8 0Xb79a
B E 0Xb858
B 5 0Xb966
B T 0Xba2e
H 3 0Xbc04
H 6 0Xbd08
H 1 0Xbdda
H 7 0Xbeca
H O 0Xbf7e
H 2 0Xbff6
H 4 0Xc0b4
H 8 0Xc190
H 9 0Xc230
H 5 0Xc32a
H E 0Xc3b6
H T 0Xc4b0
B 3 0Xc5aa
B 1 0Xc668
B 6 0Xc762
B O 0Xc82a
B 7 0Xc906
B 4 0Xc9b0
B 2 0Xca6e
B 9 0Xcb5e
B 8 0Xcc12
B E 0Xcc9e
B 5 0Xcda2
B T 0Xce74
H 1 0Xd05e
H 3 0Xd126
H 6 0Xd1da
H 7 0Xd2d4
H O 0Xd3ce
H 2 0Xd43c
H 4 0Xd4e6
H 8 0Xd5e0
H 9 0Xd69e
H 5 0Xd78e
H E 0Xd806
H T 0Xd8ec
B 1 0Xd9c8
B 6 0Xda90
B 3 0Xdb80
B O 0Xdc5c
B 7 0Xdd1a
B 4 0Xde32
B 2 0Xde96
B 9 0Xdfae
B 8 0Xe080
B E 0Xe0ee
B 5 0Xe210
B T 0Xe2ce
H 6 0Xe4ae
H 1 0Xe58a
H O 0Xe620
H 3 0Xe6de
H 4 0Xe7ce
H 7 0Xe8be
H 9 0Xe940
H 2 0Xea30
H 8 0Xead0
H E 0Xeb70
H 5 0Xec9c
H T 0Xed82
B 1 0Xee04
B 6 0Xef26
B O 0Xefb2
B 4 0Xf0ac
B 3 0Xf160
B 9 0Xf21e
B 7 0Xf2e6
B 8 0Xf3b8
B 2 0Xf476
B 5 0Xf57a
B E 0Xf5de
B T 0Xf70a
H 1 0Xf8d6
H O 0Xf96c
H 6 0Xfa3e
H 3 0Xfafc
H 4 0Xfbec
H 7 0Xfcdc
H 9 0Xfd72
H 2 0Xfe62
H 8 0Xff2a
H E 0Xff98
H 5 0X00b0
H T 0X0178
B O 0X0254
B 1 0X0312
B 6 0X0420
B 4 0X04fc
B 3 0X059c
B 9 0X0682
B 7 0X072c
B 8 0X07ea
B 2 0X089e
B 5 0X0998
B E 0X0a2e
B T 0X0b14
H O 0X0ca4
H 6 0X0dbc
H 1 0X0eac
H 3 0X0f74
H 4 0X103c
H 7 0X1136
H 9 0X11e0
H 2 0X1294
H 8 0X135c
H E 0X13ca
H 5 0X14b0
H T 0X1582
B 6 0X16ae
B O 0X1730
B 1 0X182a
B 4 0X1906
B 3 0X19d8
B 9 0X1ae6
B 7 0X1ba4
B 8 0X1c44
B 2 0X1ce4
B 5 0X1dca
B E 0X1e10
B T 0X1f32
H O 0X20ea
H 6 0X21f8
H 4 0X22a2
H 1 0X23a6
H 9 0X2482
H 3 0X255e
H 8 0X25f4
H 7 0X26ee
H 5 0X27b6
H 2 0X2874
H E 0X28d8
H T 0X29b4
B O 0X2a90
B 4 0X2b62
B 6 0X2c48
B 9 0X2d56
B 1 0X2df6
B 8 0X2ebe
B 3 0X2fae
B 5 0X3062
B 7 0X3166
B E 0X31de
B 2 0X32b0
B T 0X3382
H 4 0X3558
H O 0X35e4
H 6 0X3706
H 1 0X37c4
H 9 0X3882
H 3 0X395e
H 8 0X3a30
H 7 0X3b0c
H 5 0X3ba2
H 2 0X3c6a
H E 0X3cec
H T 0X3df0
B 4 0X3ed6
B 6 0X3fd0
B O 0X4070
B 9 0X4188
B 1 0X421e
B 8 0X4318
B 3 0X43ae
B 5 0X4462
B 7 0X4548
B E 0X45fc
B 2 0X4688
B T 0X4796
H 6 0X4994
H 4 0X4a66
H O 0X4b10
H 1 0X4be2
H 9 0X4cd2
H 3 0X4d86
H 8 0X4e76
H 7 0X4f3e
H 5 0X4fd4
H 2 0X5092
H E 0X5100
H T 0X51fa
B 6 0X52fe
B O 0X53b2
B 4 0X54a2
B 9 0X55a6
B 1 0X565a
B 8 0X5718
B 3 0X57ea
B 5 0X58a8
B 7 0X59a2
B E 0X5a06
B 2 0X5b00
B T 0X5baa
H O 0X5d80
H 6 0X5e7a
H 9 0X5f2e
H 4 0X5fc4
H 8 0X60b4
H 1 0X617c
H 5 0X626c
H 3 0X632a
H E 0X63c0
H 7 0X6500
H 2 0X65aa
H T 0X664a
B 6 0X673a
B O 0X67bc
B 9 0X68b6
B 8 0X69e2
B 4 0X6a64
B 5 0X6b40
B 1 0X6c08
B E 0X6c80
B 3 0X6d7a
B 2 0X6e42
B 7 0X6f14
B T 0X700e
H 6 0X71c6
H 9 0X7298
H O 0X7374
H 4 0X743c
H 8 0X7518
H 1 0X75d6
H 5 0X769e
H 3 0X775c
H E 0X77e8
H 7 0X78d8
H 2 0X798c
H T 0X7a72
B 9 0X7b80
B 6 0X7c16
B O 0X7cd4
B 8 0X7dd8
B 4 0X7e78
B 5 0X7f40
B 1 0X8026
B E 0X80d0
B 3 0X81ac
B 2 0X826a
B 7 0X833c
B T 0X8418
H 9 0X85e4
H O 0X86ca
H 6 0X877e
H 4 0X8882
H 8 0X894a
H 1 0X8a1c
H 5 0X8ada
H 3 0X8b8e
H E 0X8c10
H 7 0X8d28
H 2 0X8dd2
H T 0X8ea4
B O 0X8f62
B 9 0X907a
B 6 0X911a
B 8 0X9214
B 4 0X92c8
B 5 0X9386
B 1 0X9480
B E 0X94ee
B 3 0X95d4
B 2 0X96b0
B 7 0X9796
B T 0X985e
H 9 0X9a16
H O 0X9ae8
H 8 0X9bba
H 6 0X9ca0
H 5 0X9d68
H 4 0X9e30
H E 0X9eb2
H 1 0X9fc0
H 2 0Xa088
H 3 0Xa13c
H 7 0Xa22c
H T 0Xa2ea
B 9 0Xa3e4
B 8 0Xa498
B O 0Xa54c
B 5 0Xa650
B 6 0Xa704
B E 0Xa7b8
B 4 0Xa876
B 2 0Xa952
B 1 0Xaa2e
B 7 0Xab00
B 3 0Xabaa
B T 0Xac7c
H 8 0Xae5c
H 9 0Xaf2e
H O 0Xb032
H 6 0Xb0fa
H 5 0Xb1c2
H 4 0Xb258
H E 0Xb2e4
H 1 0Xb3ca
H 2 0Xb4a6
H 3 0Xb56e
H 7 0Xb672
H T 0Xb712
B 8 0Xb802
B O 0Xb8b6
B 9 0Xb9d8
B 5 0Xba8c
B 6 0Xbb68
B E 0Xbbfe
B 4 0Xbca8
B 2 0Xbd66
B 1 0Xbe56
B 7 0Xbf32
B 3 0Xbfdc
B T 0Xc0b8
H O 0Xc27a
H 8 0Xc342
H 9 0Xc432
H 6 0Xc50e
H 5 0Xc608
H 4 0Xc6b2
H E 0Xc72a
H 1 0Xc82e
H 2 0Xc8f6
H 3 0Xc9be
H 7 0Xcaa4
H T 0Xcb44
B O 0Xcc16
B 9 0Xcce8
B 8 0Xcdd8
B 5 0Xcec8
B 6 0Xcf72
B E 0Xd012
B 4 0Xd10c
B 2 0Xd1d4
B 1 0Xd2a6
B 7 0Xd3aa
B 3 0Xd436
B T 0Xd4f4
H 9 0Xd6ca
H O 0Xd77e
H 5 0Xd896
H 8 0Xd968
H E 0Xd9d6
H 6 0Xdad0
H 2 0Xdbb6
H 4 0Xdc74
H 7 0Xdd78
H 1 0Xddfa
H 3 0Xde0e
H T 0Xdf8a
B O 0Xe070
B 9 0Xe16a
B 5 0Xe228
B E 0Xe2a0
B 8 0Xe3c2
B 2 0Xe4b2
B 6 0Xe548
B 7 0Xe656
B 4 0Xe700
B 3 0Xe7b4
B 1 0Xe872
B T 0Xe926
H O 0Xeb06
H 5 0Xebec
H 9 0Xecd2
H 8 0Xed5e
H E 0Xee08
H 6 0Xef20
H 2 0Xefde
H 4 0Xf0d8
H 7 0Xf1b4
H 1 0Xf268
H 3 0Xf312
H T 0Xf3bc
B 5 0Xf4ca
B O 0Xf556
B 9 0Xf650
B E 0Xf704
B 8 0Xf7fe
B 2 0Xf8d0
B 6 0Xf98e
B 7 0Xfa6a
B 4 0Xfb0a
B 3 0Xfc04
B 1 0Xfcb8
B T 0Xfd8a
H 5 0Xff7e
H 9 0X001e
H O 0X00fa
H 8 0X01d6
H E 0X0276
H 6 0X035c
H 2 0X0424
H 4 0X0514
H 7 0X05f0
H 1 0X06c2
H 3 0X076c
H T 0X0820
B 9 0X0906
B 5 0X09d8
B O 0X0a64
B E 0X0b36
B 8 0X0c6c
B 2 0X0d16
B 6 0X0dd4
B 7 0X0eba
B 4 0X0f64
B 3 0X104a
B 1 0X10e0
B T 0X11b2
H 5 0X13ba
H 9 0X1496
H E 0X1536
H O 0X1630
H 2 0X16da
H 8 0X17a2
H 7 0X1888
H 6 0X1950
H 3 0X19fa
H 4 0X1aa4
H 1 0X1b80
H T 0X1c48
B 5 0X1d60
B E 0X1e14
B 9 0X1f0e
B 2 0X1fa4
B O 0X2030
B 7 0X2148
B 8 0X2206
B 3 0X22ce
B 6 0X238c
B 1 0X2454
B 4 0X2526
B T 0X25f8
H E 0X27b0
H 5 0X28d2
H 9 0X29ae
H O 0X2a80
H 2 0X2b16
H 8 0X2bca
H 7 0X2cb0
H 6 0X2d6e
H 3 0X2e40
H 4 0X2f12
H 1 0X2fd0
H T 0X307a
B E 0X3156
B 9 0X3282
B 5 0X3340
B 2 0X33fe
B O 0X349e
B 7 0X3570
B 8 0X3656
B 3 0X3732
B 6 0X37fa
B 1 0X389a
B 4 0X398a
B T 0X3a2a
H 9 0X3c32
H E 0X3cf0
H 5 0X3d9a
H O 0X3e8a
H 2 0X3f48
H 8 0X401a
H 7 0X40f6
H 6 0X41f0
H 3 0X42ae
H 4 0X4344
H 1 0X4434
H T 0X44ac
B 9 0X45c4
B 5 0X46a0
B E 0X474a
B 2 0X4830
B O 0X4894
B 7 0X49c0
B 8 0X4a7e
B 3 0X4b46
B 6 0X4c22
B 1 0X4cfe
B 4 0X4dda
B T 0X4e70
H 5 0X5064
H 9 0X5140
H 2 0X51cc
H E 0X52a8
H 7 0X5384
H O 0X542e
H 3 0X551e
H 8 0X55fa
H 1 0X56cc
H 6 0X578a
H 4 0X5852
H T 0X5906
B 9 0X5a28
B 5 0X5b04
B 2 0X5b68
B 7 0X5c58
B E 0X5ce4
B 3 0X5df2
B O 0X5e74
B 1 0X5f64
B 8 0X6068
B 4 0X6108
B 6 0X61f8
B T 0X62d4
H 9 0X64a0
H 2 0X6572
H 5 0X6630
H 7 0X6798
H O 0X6892
H E 0X68a6
H 3 0X696e
H 8 0X69fa
H 1 0X6ae0
H 6 0X6bd0
H 4 0X6c98
H T 0X6d6a
B 2 0X6e6e
B 9 0X6efa
B 5 0X6fae
B 7 0X7094
B E 0X718e
B 3 0X7274
B O 0X72ec
B 1 0X73c8
B 8 0X749a
B 4 0X754e
B 6 0X7616
B T 0X7706
H 2 0X78d2
H 5 0X797c
H 9 0X7a76
H E 0X7b16
H 7 0X7c10
H O 0X7cf6
H 3 0X7db4
H 8 0X7e5e
H 1 0X7f44
H 6 0X8016
H 4 0X80c0
H T 0X8192
B 5 0X82a0
B 2 0X835e
B 9 0X8426
B 7 0X84da
B E 0X8566
B 3 0X8660
B O 0X8714
B 1 0X87f0
B 8 0X88f4
B 4 0X8980
B 6 0X8a8e
B T 0X8b56
H 2 0X8d0e
H 5 0X8dcc
H 7 0X8ed0
H 9 0X8f84
H 3 0X907e
H E 0X910a
H 1 0X91d2
H O 0X9254
H 4 0X934e
H 8 0X942a
H 6 0X951a
H T 0X95ec
B 2 0X96b4
B 7 0X9790
B 5 0X984e
B 3 0X993e
B 9 0X99fc
B 1 0X9a92
B E 0X9b5a
B 4 0X9c54
B O 0X9ce0
B 6 0X9dda
B 8 0X9eac
B T 0X9fa6
H 7 0Xa172
H 2 0Xa230
H 5 0Xa2da
H 9 0Xa3c0
H 3 0Xa492
H E 0Xa532
H 1 0Xa618
H O 0Xa6e0
H 4 0Xa79e
H 8 0Xa852
H 6 0Xa938
H T 0Xa9f6
B 7 0Xab22
B 5 0Xabea
B 2 0Xacbc
B 3 0Xad52
B 9 0Xae60
B 1 0Xaeec
B E 0Xaf82
B 4 0Xb0c2
B O 0Xb126
B 6 0Xb20c
B 8 0Xb2f2
B T 0Xb3c4
H 5 0Xb5ae
H 7 0Xb69e
H 2 0Xb748
H 9 0Xb806
H 3 0Xb8f6
H E 0Xb98c
H 1 0Xba4a
H O 0Xbb1c
H 4 0Xbc16
H 8 0Xbcac
H 6 0Xbd9c
H T 0Xbe3c
B 5 0Xbf2c
B 2 0Xc030
B 7 0Xc0f8
B 3 0Xc1d4
B 9 0Xc29c
B 1 0Xc328
B E 0Xc3f0
B 4 0Xc4f4
B O 0Xc594
B 6 0Xc68e
B 8 0Xc756
B T 0Xc814
H 2 0Xc9ea
H 5 0Xca80
H 3 0Xcb66
H 7 0Xcc38
H 1 0Xcce2
H 9 0Xcdf0
H 4 0Xcecc
H E 0Xcf44
H 6 0Xd020
H O 0Xd0e8
H 8 0Xd1d8
H T 0Xd2aa
B 5 0Xd368
B 2 0Xd458
B 3 0Xd4f8
B 1 0Xd5c0
B 7 0Xd688
B 4 0Xd78c
B 9 0Xd854
B 6 0Xd8f4
B E 0Xd9d0
B 8 0Xdab6
B O 0Xdb6a
B T 0Xdc46
H 5 0Xddea
H 3 0Xdec6
H 2 0Xdfa2
H 7 0Xe07e
H 1 0Xe146
H 9 0Xe20e
H 4 0Xe2b8
H E 0Xe39e
H 6 0Xe45c
H O 0Xe4fc
H 8 0Xe5e2
H T 0Xe6dc
B 3 0Xe7ae
B 5 0Xe88a
B 2 0Xe95c
B 1 0Xea2e
B 7 0Xeae2
B 4 0Xeb96
B 9 0Xec72
B 6 0Xed12
B E 0Xedee
B 8 0Xeeb6
B O 0Xef6a
B T 0Xf078
H 3 0Xf23a
H 2 0Xf2f8
H 5 0Xf3b6
H 7 0Xf4b0
H 1 0Xf58c
H 9 0Xf654
H 4 0Xf6e0
H E 0Xf7b2
H 6 0Xf870
H O 0Xf92e
H 8 0Xf9ec
H T 0Xfad2
B 2 0Xfbea
B 3 0Xfc80
B 5 0Xfd5c
B 1 0Xfe38
B 7 0Xff0a
B 4 0Xffc8
B 9 0X009a
B 6 0X014e
B E 0X0202
B 8 0X02ca
B O 0X0392
B T 0X0482
H 3 0X066c
H 2 0X0720
H 1 0X07e8
H 5 0X08b0
H 4 0X09a0
H 7 0X0a5e
H 6 0X0b3a
H 9 0X0bda
H 8 0X0ca2
H E 0X0d60
H O 0X0e5a
H T 0X0f04
B 3 0X0ffe
B 1 0X10a8
B 2 0X115c
B 4 0X1238
B 5 0X12f6
B 6 0X13e6
B 7 0X14b8
B 8 0X156c
B 9 0X1620
B O 0X16fc
B E 0X17c4
B T 0X18be
H 1 0X1a6c
H 3 0X1b34
H 2 0X1bd4
H 5 0X1ca6
H 4 0X1da0
H 7 0X1e54
H 6 0X1f12
H 9 0X1fda
H 8 0X20ac
H E 0X216a
H O 0X2278
H T 0X2336
B 1 0X23f4
B 2 0X24b2
B 3 0X255c
B 4 0X262e
B 5 0X26f6
B 6 0X27b4
B 7 0X2886
B 8 0X2976
B 9 0X2a3e
B O 0X2b06
B E 0X2bc4
B T 0X2caa
H 1 0X2e94
H 2 0X2f2a
H 3 0X2fde
H 4 0X3092
H 5 0X3132
H 6 0X3236
H 7 0X3308
H 8 0X33ee
H 9 0X3498
H O 0X357e
H E 0X3628
H T 0X36fa
B 1 0X37ae
B 2 0X38c6
B 3 0X3966
B 4 0X3a10
B 5 0X3ac4
B 6 0X3ba0
B 7 0X3c7c
B 8 0X3d58
B 9 0X3e34
B O 0X3ec0
B E 0X3fb0
B T 0X408c
H 1 0X4262
H 2 0X432a
H 3 0X43de
H 4 0X4474
H 5 0X451e
H 6 0X4604
H 7 0X46f4
H 8 0X47c6
H 9 0X487a
H O 0X494c
H E 0X49f6
H T 0X4ad2
B 1 0X4b7c
B 2 0X4c8a
B 3 0X4d16
B 4 0X4dde
B 5 0X4ea6
B 6 0X4f8c
B 7 0X5090
B 8 0X5144
B 9 0X5202
B O 0X52c0
B E 0X53a6
B T 0X5482
H 1 0X5626
H 2 0X5716
H 3 0X57b6
H 4 0X5888
H 5 0X591e
H 6 0X59b4
H 7 0X5ae0
H 8 0X5b9e
H 9 0X5c5c
H O 0X5d60
H E 0X5e0a
H T 0X5ee6
B 1 0X5f7c
B 2 0X604e
B 3 0X610c
B 4 0X61de
B 5 0X6292
B 6 0X638c
B 7 0X6472
B 8 0X6530
B 9 0X65e4
B O 0X66a2
B E 0X6792
B T 0X6864
H 1 0X6a12
H 2 0X6ada
H 3 0X6ba2
H 4 0X6c42
H 5 0X6d0a
H 6 0X6dd2
H 7 0X6ee0
H 8 0X6f94
H 9 0X7034
H O 0X712e
H E 0X71e2
H T 0X72b4
B 1 0X737c
B 2 0X744e
B 3 0X750c
B 4 0X75c0
B 5 0X7688
B 6 0X77aa
B 7 0X7868
B 8 0X7930
B 9 0X79e4
B O 0X7aca
B E 0X7bb0
B T 0X7caa
