   1     1  1234567890ET                                                                                                                                                  
   2    13  1234567890ET                                                                                                                                                  =
   3    25  1234567890ET                                                                                                                                                  =
   4    37  1234567890ET                                                                                                                                                  =
   5    49  1234567890ET                                                                                                                                                  =
   6    61  1234567890ET                                                                                                                                                  =
   7    73  1234567890ET                                                                                                                                                  =
   8    85  1234567890ET                                                                                                                                                  =
   9    97  1234567890ET                                                                                                                                                  =
  10   109  1234567890ET                                                                                                                                                  =
  11   121  1234567890ET                                                                                                                                                  =
  12   133  1234567890ET                                                                                                                                                  =
  13   145  1234567890ET                                                                                                                                                  =
  14   157  1234567890ET                                                                                                                                                  =
  15   169  1234567890ET                                                                                                                                                  =
  16   181  1234567890ET                                                                                                                                                  =
  17   193  1234567890ET                                                                                                                                                  =
  18   205  1234567890ET                                                                                                                                                  =
  19   217  1234567890ET                                                                                                                                                  =
  20   229  1234567890ET                                                                                                                                                  =
  21   241  1234567890ET                                                                                                                                                  =
  22   253  1234567890ET                                                                                                                                                  =
  23   265  1234567890ET                                                                                                                                                  =
  24   277  1234567890ET                                                                                                                                                  =
  25   289  213547698E0T                                                                                                                                                  3
  26   301  2314567890ET                                                                                                                                                  1
  27   313  324165879E0T                                                                                                                                                  9
  28   325  2346185970ET                                                                                                                                                  3
  29   337  243165879E0T                                                                                                                                                  1
  30   349  4236185970ET                                                                                                                                                  3
  31   361  432165879E0T                                                                                                                                                  1
  32   373  3426185970ET                                                                                                                                                  3
  33   385  4362819507ET                                                                                                                                                  E
  34   397  463829105E7T                                                                                                                                                  1
  35   409  6432819507ET                                                                                                                                                  3
  36   421  634829105E7T                                                                                                                                                  1
  37   433  3642819507ET                                                                                                                                                  3
  38   445  346829105E7T                                                                                                                                                  1
  39   457  4386920157ET                                                                                                                                                  9
  40   469  348960251E7T                                                                                                                                                  3
  41   481  3846920157ET                                                                                                                                                  1
  42   493  834960251E7T                                                                                                                                                  3
  43   505  8436920157ET                                                                                                                                                  1
  44   517  483960251E7T                                                                                                                                                  3
  45   529  84930652E17T                                                                                                                                                  E
  46   541  8940356E271T                                                                                                                                                  1
  47   553  98430652E17T                                                                                                                                                  3
  48   565  9480356E271T                                                                                                                                                  1
  49   577  49830652E17T                                                                                                                                                  3
  50   589  4890356E271T                                                                                                                                                  1
  51   601  840953E6721T                                                                                                                                                  E
  52   613  48059E37612T                                                                                                                                                  3
  53   625  408953E6721T                                                                                                                                                  1
  54   637  04859E37612T                                                                                                                                                  3
  55   649  084953E6721T                                                                                                                                                  1
  56   661  80459E37612T                                                                                                                                                  3
  57   673  0854E973162T                                                                                                                                                  E
  58   685  058E4791326T                                                                                                                                                  1
  59   697  5084E973162T                                                                                                                                                  3
  60   709  580E4791326T                                                                                                                                                  1
  61   721  8504E973162T                                                                                                                                                  3
  62   733  805E4791326T                                                                                                                                                  1
  63   745  08E57419236T                                                                                                                                                  E
  64   757  80E75142963T                                                                                                                                                  3
  65   769  8E057419236T                                                                                                                                                  1
  66   781  E8075142963T                                                                                                                                                  3
  67   793  E0857419236T                                                                                                                                                  1
  68   805  0E875142963T                                                                                                                                                  3
  69   817  E0781524693T                                                                                                                                                  E
  70   829  E7018256439T                                                                                                                                                  1
  71   841  7E081524693T                                                                                                                                                  3
  72   853  70E18256439T                                                                                                                                                  1
  73   865  07E81524693T                                                                                                                                                  3
  74   877  0E718256439T                                                                                                                                                  1
  75   889  E0172865349T                                                                                                                                                  E
  76   901  0E127683594T                                                                                                                                                  3
  77   913  01E72865349T                                                                                                                                                  1
  78   925  10E27683594T                                                                                                                                                  3
  79   937  1E072865349T                                                                                                                                                  1
  80   949  E1027683594T                                                                                                                                                  3
  81   961  1E206738954T                                                                                                                                                  E
  82   973  12E60379845T                                                                                                                                                  1
  83   985  21E06738954T                                                                                                                                                  3
  84   997  2E160379845T                                                                                                                                                  1
  85  1009  E2106738954T                                                                                                                                                  3
  86  1021  E1260379845T                                                                                                                                                  1
  87  1033  1E623097485T                                                                                                                                                  E
  88  1045  E1632904758T                                                                                                                                                  3
  89  1057  E6123097485T                                                                                                                                                  1
  90  1069  6E132904758T                                                                                                                                                  3
  91  1081  61E2309748T5                                                                                                                                                  ?
  92  1093  16E32904758T                                                                                                                                                  ?
  93  1105  613E9240578T                                                                                                                                                  E
  94  1117  6319E425087T                                                                                                                                                  1
  95  1129  361E9240578T                                                                                                                                                  3
  96  1141  3169E425087T                                                                                                                                                  1
  97  1153  136E9240578T                                                                                                                                                  3
  98  1165  1639E425087T                                                                                                                                                  1
  99  1177  61934E52807T                                                                                                                                                  E
 100  1189  169435E8270T                                                                                                                                                  3
 101  1201  19634E52807T                                                                                                                                                  1
 102  1213  916435E8270T                                                                                                                                                  3
 103  1225  96134E52807T                                                                                                                                                  1
 104  1237  691435E8270T                                                                                                                                                  3
 105  1249  9641538E207T                                                                                                                                                  9
 106  1261  94651832E70T                                                                                                                                                  1
 107  1273  4961538E207T                                                                                                                                                  3
 108  1285  46951832E70T                                                                                                                                                  1
 109  1297  6491538E207T                                                                                                                                                  3
 110  1309  69451832E70T                                                                                                                                                  1
 111  1321  965481237E0T                                                                                                                                                  E
 112  1333  6958421730ET                                                                                                                                                  3
 113  1345  659481237E0T                                                                                                                                                  1
 114  1357  5698421730ET                                                                                                                                                  3
 115  1369  596481237E0T                                                                                                                                                  1
 116  1381  9568421730ET                                                                                                                                                  3
 117  1393  5986247103ET                                                                                                                                                  E
 118  1405  589267401E3T                                                                                                                                                  1
 119  1417  8596247103ET                                                                                                                                                  3
 120  1429  895267401E3T                                                                                                                                                  1
 121  1441  9856247103ET                                                                                                                                                  3
 122  1453  958267401E3T                                                                                                                                                  1
 123  1465  5928760413ET                                                                                                                                                  9
 124  1477  952780614E3T                                                                                                                                                  3
 125  1489  9258760413ET                                                                                                                                                  1
 126  1501  295780614E3T                                                                                                                                                  3
 127  1513  2598760413ET                                                                                                                                                  1
 128  1525  529780614E3T                                                                                                                                                  3
 129  1537  25790816E43T                                                                                                                                                  E
 130  1549  2750918E634T                                                                                                                                                  1
 131  1561  72590816E43T                                                                                                                                                  3
 132  1573  7520918E634T                                                                                                                                                  1
 133  1585  57290816E43T                                                                                                                                                  3
 134  1597  5270918E634T                                                                                                                                                  1
 135  1609  250719E8364T                                                                                                                                                  E
 136  1621  52017E93846T                                                                                                                                                  3
 137  1633  502719E8364T                                                                                                                                                  1
 138  1645  05217E93846T                                                                                                                                                  3
 139  1657  025719E8364T                                                                                                                                                  1
 140  1669  20517E93846T                                                                                                                                                  3
 141  1681  0215E739486T                                                                                                                                                  E
 142  1693  012E5374968T                                                                                                                                                  1
 143  1705  1025E739486T                                                                                                                                                  3
 144  1717  120E5374968T                                                                                                                                                  1
 145  1729  2105E739486T                                                                                                                                                  3
 146  1741  201E5374968T                                                                                                                                                  1
 147  1753  02E13547698T                                                                                                                                                  E
 148  1765  20E31456789T                                                                                                                                                  3
 149  1777  2E013547698T                                                                                                                                                  1
 150  1789  E2031456789T                                                                                                                                                  3
 151  1801  E0213547698T                                                                                                                                                  1
 152  1813  0E231456789T                                                                                                                                                  3
 153  1825  E0324165879T                                                                                                                                                  E
 154  1837  E3042618597T                                                                                                                                                  1
 155  1849  3E024165879T                                                                                                                                                  3
 156  1861  30E42618597T                                                                                                                                                  1
 157  1873  03E24165879T                                                                                                                                                  3
 158  1885  0E342618597T                                                                                                                                                  1
 159  1897  E0436281957T                                                                                                                                                  E
 160  1909  0E463829175T                                                                                                                                                  3
 161  1921  04E36281957T                                                                                                                                                  1
 162  1933  40E63829175T                                                                                                                                                  3
 163  1945  4E036281957T                                                                                                                                                  1
 164  1957  E4063829175T                                                                                                                                                  3
 165  1969  4E608392715T                                                                                                                                                  E
 166  1981  46E80937251T                                                                                                                                                  1
 167  1993  64E08392715T                                                                                                                                                  3
 168  2005  6E480937251T                                                                                                                                                  1
 169  2017  E6408392715T                                                                                                                                                  3
 170  2029  E4680937251T                                                                                                                                                  1
 171  2041  4E869073521T                                                                                                                                                  E
 172  2053  E4896705312T                                                                                                                                                  3
 173  2065  E8469073521T                                                                                                                                                  1
 174  2077  8E496705312T                                                                                                                                                  3
 175  2089  84E69073521T                                                                                                                                                  1
 176  2101  48E96705312T                                                                                                                                                  3
 177  2113  849E7650132T                                                                                                                                                  E
 178  2125  8947E561023T                                                                                                                                                  1
 179  2137  984E7650132T                                                                                                                                                  3
 180  2149  9487E561023T                                                                                                                                                  1
 181  2161  498E7650132T                                                                                                                                                  3
 182  2173  4897E561023T                                                                                                                                                  1
 183  2185  84795E16203T                                                                                                                                                  E
 184  2197  487591E2630T                                                                                                                                                  3
 185  2209  47895E16203T                                                                                                                                                  1
 186  2221  748591E2630T                                                                                                                                                  3
 187  2233  78495E16203T                                                                                                                                                  1
 188  2245  874591E2630T                                                                                                                                                  3
 189  2257  7854192E603T                                                                                                                                                  9
 190  2269  75814296E30T                                                                                                                                                  1
 191  2281  5784192E603T                                                                                                                                                  3
 192  2293  58714296E30T                                                                                                                                                  1
 193  2305  8574192E603T                                                                                                                                                  3
 194  2317  87514296E30T                                                                                                                                                  1
 195  2329  781524693E0T                                                                                                                                                  E
 196  2341  8712564390ET                                                                                                                                                  3
 197  2353  817524693E0T                                                                                                                                                  1
 198  2365  1872564390ET                                                                                                                                                  3
 199  2377  178524693E0T                                                                                                                                                  1
 200  2389  7182564390ET                                                                                                                                                  3
 201  2401  1728653409ET                                                                                                                                                  E
 202  2413  127683504E9T                                                                                                                                                  1
 203  2425  2178653409ET                                                                                                                                                  3
 204  2437  271683504E9T                                                                                                                                                  1
 205  2449  7218653409ET                                                                                                                                                  3
 206  2461  712683504E9T                                                                                                                                                  1
 207  2473  176238054E9T                                                                                                                                                  90E
 208  2485  7163208459ET                                                                                                                                                  3
 209  2497  761238054E9T                                                                                                                                                  1
 210  2509  6713208459ET                                                                                                                                                  3
 211  2521  617238054E9T                                                                                                                                                  1
 212  2533  1673208459ET                                                                                                                                                  3
 213  2545  6137024895ET                                                                                                                                                  E
 214  2557  631074298E5T                                                                                                                                                  1
 215  2569  3617024895ET                                                                                                                                                  3
 216  2581  316074298E5T                                                                                                                                                  1
 217  2593  1367024895ET                                                                                                                                                  3
 218  2605  163074298E5T                                                                                                                                                  1
 219  2617  610347928E5T                                                                                                                                                  90E
 220  2629  1604397825ET                                                                                                                                                  3
 221  2641  106347928E5T                                                                                                                                                  1
 222  2653  0164397825ET                                                                                                                                                  3
 223  2665  061347928E5T                                                                                                                                                  1
 224  2677  6014397825ET                                                                                                                                                  3
 225  2689  0641938752ET                                                                                                                                                  E
 226  2701  046918357E2T                                                                                                                                                  1
 227  2713  4061938752ET                                                                                                                                                  3
 228  2725  460918357E2T                                                                                                                                                  1
 229  2737  6401938752ET                                                                                                                                                  3
 230  2749  604918357E2T                                                                                                                                                  1
 231  2761  06948153E72T                                                                                                                                                  E
 232  2773  6098451E327T                                                                                                                                                  3
 233  2785  69048153E72T                                                                                                                                                  1
 234  2797  9608451E327T                                                                                                                                                  3
 235  2809  90648153E72T                                                                                                                                                  1
 236  2821  0968451E327T                                                                                                                                                  3
 237  2833  908654E1237T                                                                                                                                                  E
 238  2845  98056E42173T                                                                                                                                                  1
 239  2857  890654E1237T                                                                                                                                                  3
 240  2869  80956E42173T                                                                                                                                                  1
 241  2881  089654E1237T                                                                                                                                                  3
 242  2893  09856E42173T                                                                                                                                                  1
 243  2905  9058E624713T                                                                                                                                                  E
 244  2917  095E8267431T                                                                                                                                                  3
 245  2929  0598E624713T                                                                                                                                                  1
 246  2941  509E8267431T                                                                                                                                                  3
 247  2953  5908E624713T                                                                                                                                                  1
 248  2965  950E8267431T                                                                                                                                                  3
 249  2977  59E02876341T                                                                                                                                                  E
 250  2989  5E920783614T                                                                                                                                                  1
 251  3001  E5902876341T                                                                                                                                                  3
 252  3013  E9520783614T                                                                                                                                                  1
 253  3025  9E502876341T                                                                                                                                                  3
 254  3037  95E20783614T                                                                                                                                                  1
 255  3049  592E7038164T                                                                                                                                                  E
 256  3061  9527E301846T                                                                                                                                                  3
 257  3073  925E7038164T                                                                                                                                                  1
 258  3085  2957E301846T                                                                                                                                                  3
 259  3097  259E7038164T                                                                                                                                                  1
 260  3109  5297E301846T                                                                                                                                                  3
 261  3121  25793E10486T                                                                                                                                                  E
 262  3133  275391E4068T                                                                                                                                                  1
 263  3145  72593E10486T                                                                                                                                                  3
 264  3157  752391E4068T                                                                                                                                                  1
 265  3169  57293E10486T                                                                                                                                                  3
 266  3181  527391E4068T                                                                                                                                                  1
 267  3193  2537194E608T                                                                                                                                                  E
 268  3205  52317496E80T                                                                                                                                                  3
 269  3217  5327194E608T                                                                                                                                                  1
 270  3229  35217496E80T                                                                                                                                                  3
 271  3241  3257194E608T                                                                                                                                                  1
 272  3253  23517496E80T                                                                                                                                                  3
 273  3265  321547698E0T                                                                                                                                                  E
 274  3277  3124567890ET                                                                                                                                                  1
 275  3289  132547698E0T                                                                                                                                                  3
 276  3301  1234567890ET                                                                                                                                                  1
 277  3313  1234567890ET                                                                                                                                                  =
 278  3325  1234567890ET                                                                                                                                                  =
 279  3337  1234567890ET                                                                                                                                                  =
 280  3349  1234567890ET                                                                                                                                                  =
 281  3361  1234567890ET                                                                                                                                                  =
 282  3373  1234567890ET                                                                                                                                                  =
