   1     1  1234567890ET                                                                                                                                                  
   2    13  1234567890ET                                                                                                                                                  =
   3    25  1234567890ET                                                                                                                                                  =
   4    37  1234567890ET                                                                                                                                                  =
   5    49  1234567890ET                                                                                                                                                  =
   6    61  1234567890ET                                                                                                                                                  =
   7    73  1234567890ET                                                                                                                                                  =
   8    85  1234567890ET                                                                                                                                                  =
   9    97  1234567890ET                                                                                                                                                  =
  10   109  1234567890ET                                                                                                                                                  =
  11   121  1234567890ET                                                                                                                                                  =
  12   133  1234567890ET                                                                                                                                                  =
  13   145  1234567890ET                                                                                                                                                  =
  14   157  1234567890ET                                                                                                                                                  =
  15   169  1234567890ET                                                                                                                                                  =
  16   181  1234567890ET                                                                                                                                                  =
  17   193  1234567890ET                                                                                                                                                  =
  18   205  1234567890ET                                                                                                                                                  =
  19   217  213547698E0T                                                                                                                                                  3
  20   229  2314567890ET                                                                                                                                                  1
  21   241  324165879E0T                                                                                                                                                  9
  22   253  2346185970ET                                                                                                                                                  3
  23   265  243165879E0T                                                                                                                                                  1
  24   277  4236185970ET                                                                                                                                                  3
  25   289  432165879E0T                                                                                                                                                  1
  26   301  3426185970ET                                                                                                                                                  3
  27   313  4362819507ET                                                                                                                                                  E
  28   325  463829105E7T                                                                                                                                                  1
  29   337  6432819507ET                                                                                                                                                  3
  30   349  634829105E7T                                                                                                                                                  1
  31   361  3642819507ET                                                                                                                                                  3
  32   373  346829105E7T                                                                                                                                                  1
  33   385  4386920157ET                                                                                                                                                  9
  34   397  348960251E7T                                                                                                                                                  3
  35   409  3846920157ET                                                                                                                                                  1
  36   421  834960251E7T                                                                                                                                                  3
  37   433  8436920157ET                                                                                                                                                  1
  38   445  483960251E7T                                                                                                                                                  3
  39   457  84930652E17T                                                                                                                                                  E
  40   469  8940356E271T                                                                                                                                                  1
  41   481  98430652E17T                                                                                                                                                  3
  42   493  9480356E271T                                                                                                                                                  1
  43   505  49830652E17T                                                                                                                                                  3
  44   517  4890356E271T                                                                                                                                                  1
  45   529  840953E6721T                                                                                                                                                  E
  46   541  48059E37612T                                                                                                                                                  3
  47   553  408953E6721T                                                                                                                                                  1
  48   565  04859E37612T                                                                                                                                                  3
  49   577  084953E6721T                                                                                                                                                  1
  50   589  80459E37612T                                                                                                                                                  3
  51   601  0854E973162T                                                                                                                                                  E
  52   613  058E4791326T                                                                                                                                                  1
  53   625  5084E973162T                                                                                                                                                  3
  54   637  580E4791326T                                                                                                                                                  1
  55   649  8504E973162T                                                                                                                                                  3
  56   661  805E4791326T                                                                                                                                                  1
  57   673  08E57419236T                                                                                                                                                  E
  58   685  80E75142963T                                                                                                                                                  3
  59   697  8E057419236T                                                                                                                                                  1
  60   709  E8075142963T                                                                                                                                                  3
  61   721  E0857419236T                                                                                                                                                  1
  62   733  0E875142963T                                                                                                                                                  3
  63   745  E0781524693T                                                                                                                                                  E
  64   757  E7018256439T                                                                                                                                                  1
  65   769  7E081524693T                                                                                                                                                  3
  66   781  70E18256439T                                                                                                                                                  1
  67   793  07E81524693T                                                                                                                                                  3
  68   805  0E718256439T                                                                                                                                                  1
  69   817  E0172865349T                                                                                                                                                  E
  70   829  0E127683594T                                                                                                                                                  3
  71   841  01E72865349T                                                                                                                                                  1
  72   853  10E27683594T                                                                                                                                                  3
  73   865  1E072865349T                                                                                                                                                  1
  74   877  E1027683594T                                                                                                                                                  3
  75   889  1E206738954T                                                                                                                                                  E
  76   901  12E60379845T                                                                                                                                                  1
  77   913  21E06738954T                                                                                                                                                  3
  78   925  2E160379845T                                                                                                                                                  1
  79   937  E2106738954T                                                                                                                                                  3
  80   949  E1260379845T                                                                                                                                                  1
  81   961  1E623097485T                                                                                                                                                  E
  82   973  E1632904758T                                                                                                                                                  3
  83   985  E6123097485T                                                                                                                                                  1
  84   997  6E132904758T                                                                                                                                                  3
  85  1009  61E23097485T                                                                                                                                                  1
  86  1021  16E32904758T                                                                                                                                                  3
  87  1033  613E9240578T                                                                                                                                                  E
  88  1045  6319E425087T                                                                                                                                                  1
  89  1057  361E9240578T                                                                                                                                                  3
  90  1069  3169E425087T                                                                                                                                                  1
  91  1081  136E9240578T                                                                                                                                                  3
  92  1093  1639E425087T                                                                                                                                                  1
  93  1105  61934E52807T                                                                                                                                                  E
  94  1117  169435E8270T                                                                                                                                                  3
  95  1129  19634E52807T                                                                                                                                                  1
  96  1141  916435E8270T                                                                                                                                                  3
  97  1153  96134E52807T                                                                                                                                                  1
  98  1165  691435E8270T                                                                                                                                                  3
  99  1177  9641538E207T                                                                                                                                                  9
 100  1189  94651832E70T                                                                                                                                                  1
 101  1201  4961538E207T                                                                                                                                                  3
 102  1213  46951832E70T                                                                                                                                                  1
 103  1225  6491538E207T                                                                                                                                                  3
 104  1237  69451832E70T                                                                                                                                                  1
 105  1249  965481237E0T                                                                                                                                                  E
 106  1261  6958421730ET                                                                                                                                                  3
 107  1273  659481237E0T                                                                                                                                                  1
 108  1285  5698421730ET                                                                                                                                                  3
 109  1297  596481237E0T                                                                                                                                                  1
 110  1309  9568421730ET                                                                                                                                                  3
 111  1321  5986247103ET                                                                                                                                                  E
 112  1333  589267401E3T                                                                                                                                                  1
 113  1345  8596247103ET                                                                                                                                                  3
 114  1357  895267401E3T                                                                                                                                                  1
 115  1369  9856247103ET                                                                                                                                                  3
 116  1381  958267401E3T                                                                                                                                                  1
 117  1393  5928760413ET                                                                                                                                                  9
 118  1405  952780614E3T                                                                                                                                                  3
 119  1417  9258760413ET                                                                                                                                                  1
 120  1429  295780614E3T                                                                                                                                                  3
 121  1441  2598760413ET                                                                                                                                                  1
 122  1453  529780614E3T                                                                                                                                                  3
 123  1465  25790816E43T                                                                                                                                                  E
 124  1477  2750918E634T                                                                                                                                                  1
 125  1489  72590816E43T                                                                                                                                                  3
 126  1501  7520918E634T                                                                                                                                                  1
 127  1513  57290816E43T                                                                                                                                                  3
 128  1525  5270918E634T                                                                                                                                                  1
 129  1537  250719E8364T                                                                                                                                                  E
 130  1549  52017E93846T                                                                                                                                                  3
 131  1561  502719E8364T                                                                                                                                                  1
 132  1573  05217E93846T                                                                                                                                                  3
 133  1585  025719E8364T                                                                                                                                                  1
 134  1597  20517E93846T                                                                                                                                                  3
 135  1609  0215E739486T                                                                                                                                                  E
 136  1621  012E5374968T                                                                                                                                                  1
 137  1633  1025E739486T                                                                                                                                                  3
 138  1645  120E5374968T                                                                                                                                                  1
 139  1657  2105E739486T                                                                                                                                                  3
 140  1669  201E5374968T                                                                                                                                                  1
 141  1681  02E13547698T                                                                                                                                                  E
 142  1693  20E31456789T                                                                                                                                                  3
 143  1705  2E013547698T                                                                                                                                                  1
 144  1717  E2031456789T                                                                                                                                                  3
 145  1729  E0213547698T                                                                                                                                                  1
 146  1741  0E231456789T                                                                                                                                                  3
 147  1753  E0324165879T                                                                                                                                                  E
 148  1765  E3042618597T                                                                                                                                                  1
 149  1777  3E024165879T                                                                                                                                                  3
 150  1789  30E42618597T                                                                                                                                                  1
 151  1801  03E24165879T                                                                                                                                                  3
 152  1813  0E342618597T                                                                                                                                                  1
 153  1825  E0436281957T                                                                                                                                                  E
 154  1837  0E463829175T                                                                                                                                                  3
 155  1849  04E36281957T                                                                                                                                                  1
 156  1861  40E63829175T                                                                                                                                                  3
 157  1873  4E036281957T                                                                                                                                                  1
 158  1885  E4063829175T                                                                                                                                                  3
 159  1897  4E608392715T                                                                                                                                                  E
 160  1909  46E80937251T                                                                                                                                                  1
 161  1921  64E08392715T                                                                                                                                                  3
 162  1933  6E480937251T                                                                                                                                                  1
 163  1945  E6408392715T                                                                                                                                                  3
 164  1957  E4680937251T                                                                                                                                                  1
 165  1969  4E869073521T                                                                                                                                                  E
 166  1981  E4896705312T                                                                                                                                                  3
 167  1993  E8469073521T                                                                                                                                                  1
 168  2005  8E496705312T                                                                                                                                                  3
 169  2017  84E69073521T                                                                                                                                                  1
 170  2029  48E96705312T                                                                                                                                                  3
 171  2041  849E7650132T                                                                                                                                                  E
 172  2053  8947E561023T                                                                                                                                                  1
 173  2065  984E7650132T                                                                                                                                                  3
 174  2077  9487E561023T                                                                                                                                                  1
 175  2089  498E7650132T                                                                                                                                                  3
 176  2101  4897E561023T                                                                                                                                                  1
 177  2113  84795E16203T                                                                                                                                                  E
 178  2125  487591E2630T                                                                                                                                                  3
 179  2137  47895E16203T                                                                                                                                                  1
 180  2149  748591E2630T                                                                                                                                                  3
 181  2161  78495E16203T                                                                                                                                                  1
 182  2173  874591E2630T                                                                                                                                                  3
 183  2185  7854192E603T                                                                                                                                                  9
 184  2197  75814296E30T                                                                                                                                                  1
 185  2209  5784192E603T                                                                                                                                                  3
 186  2221  58714296E30T                                                                                                                                                  1
 187  2233  8574192E603T                                                                                                                                                  3
 188  2245  87514296E30T                                                                                                                                                  1
 189  2257  781524693E0T                                                                                                                                                  E
 190  2269  8712564390ET                                                                                                                                                  3
 191  2281  817524693E0T                                                                                                                                                  1
 192  2293  1872564390ET                                                                                                                                                  3
 193  2305  178524693E0T                                                                                                                                                  1
 194  2317  7182564390ET                                                                                                                                                  3
 195  2329  1728653409ET                                                                                                                                                  E
 196  2341  127683504E9T                                                                                                                                                  1
 197  2353  2178653409ET                                                                                                                                                  3
 198  2365  271683504E9T                                                                                                                                                  1
 199  2377  7218653409ET                                                                                                                                                  3
 200  2389  712683504E9T                                                                                                                                                  1
 201  2401  176238054E9T                                                                                                                                                  90E
 202  2413  7163208459ET                                                                                                                                                  3
 203  2425  761238054E9T                                                                                                                                                  1
 204  2437  6713208459ET                                                                                                                                                  3
 205  2449  617238054E9T                                                                                                                                                  1
 206  2461  1673208459ET                                                                                                                                                  3
 207  2473  6137024895ET                                                                                                                                                  E
 208  2485  631074298E5T                                                                                                                                                  1
 209  2497  3617024895ET                                                                                                                                                  3
 210  2509  316074298E5T                                                                                                                                                  1
 211  2521  1367024895ET                                                                                                                                                  3
 212  2533  163074298E5T                                                                                                                                                  1
 213  2545  610347928E5T                                                                                                                                                  90E
 214  2557  1604397825ET                                                                                                                                                  3
 215  2569  106347928E5T                                                                                                                                                  1
 216  2581  0164397825ET                                                                                                                                                  3
 217  2593  061347928E5T                                                                                                                                                  1
 218  2605  6014397825ET                                                                                                                                                  3
 219  2617  0641938752ET                                                                                                                                                  E
 220  2629  046918357E2T                                                                                                                                                  1
 221  2641  4061938752ET                                                                                                                                                  3
 222  2653  460918357E2T                                                                                                                                                  1
 223  2665  6401938752ET                                                                                                                                                  3
 224  2677  604918357E2T                                                                                                                                                  1
 225  2689  06948153E72T                                                                                                                                                  E
 226  2701  6098451E327T                                                                                                                                                  3
 227  2713  69048153E72T                                                                                                                                                  1
 228  2725  9608451E327T                                                                                                                                                  3
 229  2737  90648153E72T                                                                                                                                                  1
 230  2749  0968451E327T                                                                                                                                                  3
 231  2761  908654E1237T                                                                                                                                                  E
 232  2773  98056E42173T                                                                                                                                                  1
 233  2785  890654E1237T                                                                                                                                                  3
 234  2797  80956E42173T                                                                                                                                                  1
 235  2809  089654E1237T                                                                                                                                                  3
 236  2821  09856E42173T                                                                                                                                                  1
 237  2833  9058E624713T                                                                                                                                                  E
 238  2845  095E8267431T                                                                                                                                                  3
 239  2857  0598E624713T                                                                                                                                                  1
 240  2869  509E8264731T                                                                                                                                                  389
 241  2881  5908E624713T                                                                                                                                                  89
 242  2893  950E8267431T                                                                                                                                                  3
 243  2905  59E02876341T                                                                                                                                                  E
 244  2917  5E920783614T                                                                                                                                                  1
 245  2929  E5902876341T                                                                                                                                                  3
 246  2941  E9520783614T                                                                                                                                                  1
 247  2953  9E502876341T                                                                                                                                                  3
 248  2965  95E20783614T                                                                                                                                                  1
 249  2977  592E7038164T                                                                                                                                                  E
 250  2989  9527E301846T                                                                                                                                                  3
 251  3001  925E7038164T                                                                                                                                                  1
 252  3013  2957E301846T                                                                                                                                                  3
 253  3025  259E7038164T                                                                                                                                                  1
 254  3037  5297E301846T                                                                                                                                                  3
 255  3049  25793E10486T                                                                                                                                                  E
 256  3061  275391E4068T                                                                                                                                                  1
 257  3073  72593E10486T                                                                                                                                                  3
 258  3085  752391E4068T                                                                                                                                                  1
 259  3097  57293E10486T                                                                                                                                                  3
 260  3109  527391E4068T                                                                                                                                                  1
 261  3121  2537194E608T                                                                                                                                                  E
 262  3133  52317496E80T                                                                                                                                                  3
 263  3145  5327194E608T                                                                                                                                                  1
 264  3157  35217496E80T                                                                                                                                                  3
 265  3169  3257194E608T                                                                                                                                                  1
 266  3181  23517496E80T                                                                                                                                                  3
 267  3193  321547698E0T                                                                                                                                                  E
 268  3205  3124567890ET                                                                                                                                                  1
 269  3217  132547698E0T                                                                                                                                                  3
 270  3229  1234567890ET                                                                                                                                                  1
 271  3241  1234567890ET                                                                                                                                                  =
 272  3253  1234567890ET                                                                                                                                                  =
 273  3265  1234567890ET                                                                                                                                                  =
 274  3277  1234567890ET                                                                                                                                                  =
 275  3289  1234567890ET                                                                                                                                                  =
 276  3301  1234567890ET                                                                                                                                                  =
