   *** Text-formatted Bell Statistics
       ------------------------------------------------------------------------------
         Bell Number:       1    2    3    4    5    6    7    8    9    0    E    T  
       ------------------------------------------------------------------------------
         Mean Error: All     3   10    9    3    1    3    8   -4    0  -14  -14    0 
                      Hs    15   10    1    5   -4   -2    8    3   -9   -5  -22   -4 
                      Bs    -9   10   16    1    6    7    9  -12    8  -24   -6    3 
        
         Std  Error: All    26   28   28   32   25   27   28   27   26   29   33   24 
                      Hs    23   28   29   32   23   26   28   25   25   28   30   26 
                      Bs    24   28   25   32   27   27   28   26   25   27   34   22 
        
         Rms  Error: All    26   30   29   32   25   27   29   27   26   32   36   24 
                      Hs    27   30   29   32   23   26   29   26   27   28   37   27 
                      Bs    25   29   30   32   27   28   30   29   26   36   34   22 
       ------------------------------------------------------------------------------
