#. Lowndes: Version 2
#. SourceFilename: W:\Recordings\Guildford\Guildford.20220619-1700.s12t12.1.wav
#. Tower: Guildford Cathedral
#. RingingName: Touch 1
#. RingingDateTime: 20220619-1700
#. Rungon: 
#. Tenor: 12
#. NumBellsRinging: 12
#. Creator: HawkEar Team Edition V1 for Guildford Cathedral
#. CreatorVersion: 1.1.0.3
#. TranscribedFor: Guildford band
#. TranscriptionDateTime: 20220622-1624
#. FirstBlowMs: 24060
#. Touchdb: -17.8855
#. TraindB: -9.73, -8.5, -6.1, -3.11, -3.16, -3.1, -3.98, -4.12, -5.95, -5.43, -4.92, -3
#. TrainedOn: 20220102-1438
#. TrainDataRecordedOn: 20210813-1741
#. TrainParams: -ft:y -ws:0.05 -hs:0.01 -co:0.9 -sw:40 -ts:
#. GainParams: -fh:6000 -fl:200
#. OnsetParams: -mb:80 -mf:10 -ng:0.3 -oo:0
#. WriteParams: -hb:y
#. AnalParams: -au:y -xp:n -sg:n -hsg:-1
#. ExpString: 
#. Association: 
#. Calling: 
#. Compositionname: 
#. Method: 
#. Footnotes: 
#. Ringers: 
#. Stage: 
H 1 0X5dfc
H 2 0X5ee2
H 3 0X5fb4
H 4 0X60a4
H 5 0X6130
H 6 0X61ee
H 7 0X62de
H 8 0X63b0
H 9 0X6482
H O 0X652c
H E 0X663a
H T 0X673e
B 1 0X6806
B 2 0X68d8
B 3 0X69c8
B 4 0X6aa4
B 5 0X6b62
B 6 0X6c0c
B 7 0X6cfc
B 8 0X6dce
B 9 0X6eb4
B O 0X6f5e
B E 0X7058
B T 0X715c
H 1 0X72ce
H 2 0X73b4
H 3 0X7472
H 4 0X756c
H 5 0X7602
H 6 0X76d4
H 7 0X77ce
H 8 0X786e
H 9 0X795e
H O 0X7a30
H E 0X7b0c
H T 0X7bde
B 1 0X7c7e
B 2 0X7d46
B 3 0X7e04
B 4 0X7ec2
B 5 0X7f94
B 6 0X807a
B 7 0X816a
B 8 0X823c
B 9 0X82fa
B O 0X83e0
B E 0X84c6
B T 0X857a
H 1 0X873c
H 2 0X87e6
H 3 0X88a4
H 4 0X8980
H 5 0X8a2a
H 6 0X8af2
H 7 0X8bd8
H 8 0X8caa
H 9 0X8d9a
H O 0X8e4e
H E 0X8f2a
H T 0X8ff2
B 1 0X907e
B 2 0X9150
B 3 0X9218
B 4 0X92ea
B 5 0X93a8
B 6 0X9484
B 7 0X9560
B 8 0X961e
B 9 0X970e
B O 0X97d6
B E 0X989e
B T 0X9970
H 1 0X9b1e
H 2 0X9bd2
H 3 0X9c90
H 4 0X9d76
H 5 0X9e20
H 6 0X9ed4
H 7 0X9fce
H 8 0Xa082
H 9 0Xa12c
H O 0Xa226
H E 0Xa2e4
H T 0Xa3ca
B 1 0Xa460
B 2 0Xa532
B 3 0Xa5f0
B 4 0Xa6b8
B 5 0Xa780
B 6 0Xa83e
B 7 0Xa942
B 8 0Xa9f6
B 9 0Xaad2
B O 0Xaba4
B E 0Xac62
B T 0Xad34
H 1 0Xaed8
H 2 0Xafbe
H 3 0Xb072
H 4 0Xb158
H 5 0Xb1ee
H 6 0Xb2ac
H 7 0Xb388
H 8 0Xb43c
H 9 0Xb522
H O 0Xb5fe
H E 0Xb6f8
H T 0Xb7ac
B 1 0Xb82e
B 2 0Xb900
B 3 0Xb9c8
B 4 0Xba7c
B 5 0Xbb30
B 6 0Xbc20
B 7 0Xbcfc
B 8 0Xbdc4
B 9 0Xbeaa
B O 0Xbf40
B E 0Xc030
B T 0Xc120
H 1 0Xc2ba
H 2 0Xc382
H 3 0Xc436
H 4 0Xc508
H 5 0Xc59e
H 6 0Xc63e
H 7 0Xc738
H 8 0Xc80a
H 9 0Xc8dc
H O 0Xc9b8
H E 0Xca80
H T 0Xcb66
B 1 0Xcc10
B 2 0Xccce
B 3 0Xcd96
B 4 0Xce5e
B 5 0Xcf1c
B 6 0Xcfd0
B 7 0Xd0ca
B 8 0Xd192
B 9 0Xd26e
B O 0Xd322
B E 0Xd3f4
B T 0Xd4d0
H 1 0Xd660
H 2 0Xd700
H 3 0Xd7d2
H 4 0Xd8a4
H 5 0Xd94e
H 6 0Xda20
H 7 0Xdaf2
H 8 0Xdbec
H 9 0Xdc8c
H O 0Xdd7c
H E 0Xde4e
H T 0Xdf20
B 1 0Xdfc0
B 2 0Xe092
B 3 0Xe150
B 4 0Xe204
B 5 0Xe2c2
B 6 0Xe3b2
B 7 0Xe48e
B 8 0Xe54c
B 9 0Xe600
B O 0Xe6be
B E 0Xe7ae
B T 0Xe894
H 1 0Xea24
H 2 0Xead8
H 3 0Xeba0
H 4 0Xec72
H 5 0Xed08
H 6 0Xedbc
H 7 0Xeeb6
H 8 0Xef92
H 9 0Xf032
H O 0Xf12c
H E 0Xf212
H T 0Xf2c6
B 1 0Xf334
B 2 0Xf406
B 3 0Xf4e2
B 4 0Xf5a0
B 5 0Xf640
B 6 0Xf744
B 7 0Xf82a
B 8 0Xf8fc
B 9 0Xf9c4
B O 0Xfa78
B E 0Xfb5e
B T 0Xfc26
H 1 0Xfda2
H 2 0Xfe74
H 3 0Xff32
H 4 0X0004
H 5 0X00b8
H 6 0X0162
H 7 0X0252
H 8 0X0338
H 9 0X03f6
H O 0X050e
H E 0X05a4
H T 0X0662
B 1 0X0702
B 2 0X07c0
B 3 0X0888
B 4 0X0946
B 5 0X0a2c
B 6 0X0af4
B 7 0X0bd0
B 8 0X0c98
B 9 0X0d60
B O 0X0e3c
B E 0X0f36
B T 0X1008
H 2 0X117a
H 1 0X1242
H 3 0X130a
H 5 0X13f0
H 4 0X14cc
H 7 0X1562
H 6 0X1616
H 9 0X16d4
H 8 0X179c
H E 0X18aa
H O 0X199a
H T 0X1a44
B 2 0X1aee
B 3 0X1bde
B 1 0X1c92
B 4 0X1d46
B 5 0X1e18
B 6 0X1efe
B 7 0X1fc6
B 8 0X2070
B 9 0X2124
B O 0X21d8
B E 0X22b4
B T 0X23a4
H 3 0X2552
H 2 0X2610
H 4 0X271e
H 1 0X27d2
H 6 0X289a
H 5 0X2976
H 8 0X2a52
H 7 0X2b1a
H 9 0X2ba6
H E 0X2c82
H O 0X2d4a
H T 0X2e12
B 2 0X2eee
B 3 0X2fc0
B 4 0X3074
B 6 0X3146
B 1 0X3204
B 8 0X32d6
B 5 0X3380
B 9 0X345c
B 7 0X3538
B O 0X35e2
B E 0X36c8
B T 0X37ae
H 2 0X393e
H 4 0X3a2e
H 3 0X3b00
H 1 0X3bbe
H 6 0X3c90
H 5 0X3d30
H 8 0X3dee
H 7 0X3eb6
H 9 0X3f74
H E 0X403c
H O 0X4104
H T 0X41fe
B 4 0X42d0
B 2 0X4384
B 3 0X447e
B 6 0X44ec
B 1 0X45d2
B 8 0X46e0
B 5 0X4776
B 9 0X485c
B 7 0X492e
B O 0X49b0
B E 0X4aaa
B T 0X4b68
H 4 0X4d52
H 3 0X4e24
H 2 0X4ee2
H 1 0X4fbe
H 6 0X5068
H 5 0X511c
H 8 0X51e4
H 7 0X52a2
H 9 0X5360
H E 0X5446
H O 0X5504
H T 0X55c2
B 3 0X56c6
B 4 0X578e
B 2 0X5860
B 6 0X593c
B 1 0X59fa
B 8 0X5aa4
B 5 0X5b80
B 9 0X5c3e
B 7 0X5d10
B O 0X5dba
B E 0X5eb4
B T 0X5f86
H 4 0X613e
H 3 0X6206
H 6 0X62c4
H 2 0X63b4
H 8 0X645e
H 1 0X651c
H 9 0X65f8
H 5 0X66c0
H O 0X676a
H 7 0X6846
H E 0X6918
H T 0X69f4
B 4 0X6a94
B 6 0X6b8e
B 3 0X6c56
B 8 0X6d1e
B 2 0X6dfa
B 9 0X6ed6
B 1 0X6f62
B O 0X7020
B 5 0X70d4
B E 0X71e2
B 7 0X72c8
B T 0X7372
H 6 0X7520
H 4 0X7610
H 3 0X76ce
H 2 0X77be
H 8 0X787c
H 1 0X791c
H 9 0X79ee
H 5 0X7aa2
H O 0X7b56
H 7 0X7c14
H E 0X7d18
H T 0X7de0
B 6 0X7e9e
B 3 0X7fa2
B 4 0X8074
B 8 0X8132
B 2 0X81dc
B 9 0X82ae
B 1 0X833a
B O 0X83ee
B 5 0X84de
B E 0X85ec
B 7 0X86be
B T 0X877c
H 3 0X892a
H 6 0X89fc
H 4 0X8ace
H 2 0X8bc8
H 8 0X8c86
H 1 0X8d30
H 9 0X8de4
H 5 0X8ed4
H O 0X8f56
H 7 0X901e
H E 0X9104
H T 0X91b8
B 3 0X9276
B 4 0X935c
B 6 0X9438
B 8 0X9514
B 2 0X9604
B 9 0X96a4
B 1 0X9758
B O 0X9848
B 5 0X98fc
B E 0X99ce
B 7 0X9a8c
B T 0X9b5e
H 4 0X9cf8
H 3 0X9e10
H 8 0X9ec4
H 6 0X9f96
H 9 0Xa040
H 2 0Xa11c
H O 0Xa202
H 1 0Xa2ac
H 5 0Xa360
H 7 0Xa46e
H E 0Xa536
H T 0Xa5f4
B 3 0Xa6a8
B 4 0Xa77a
B 8 0Xa84c
B 9 0Xa900
B 6 0Xa9be
B O 0Xaa90
B 2 0Xab76
B 5 0Xac3e
B 1 0Xacfc
B E 0Xade2
B 7 0Xae8c
B T 0Xaf7c
H 3 0Xb0f8
H 8 0Xb1ca
H 4 0Xb288
H 6 0Xb378
H 9 0Xb436
H 2 0Xb508
H O 0Xb5bc
H 1 0Xb670
H 5 0Xb760
H 7 0Xb846
H E 0Xb904
H T 0Xb9e0
B 8 0Xbab2
B 3 0Xbb7a
B 4 0Xbc06
B 9 0Xbcf6
B 6 0Xbdd2
B O 0Xbe86
B 2 0Xbf3a
B 5 0Xc00c
B 1 0Xc0d4
B E 0Xc1b0
B 7 0Xc282
B T 0Xc368
H 8 0Xc520
H 4 0Xc5e8
H 3 0Xc6ce
H 6 0Xc764
H 9 0Xc836
H 2 0Xc908
H O 0Xc9e4
H 1 0Xca84
H 5 0Xcb38
H 7 0Xcc1e
H E 0Xcce6
H T 0Xcdcc
B 4 0Xce9e
B 8 0Xcf70
B 3 0Xd060
B 9 0Xd100
B 6 0Xd1a0
B O 0Xd286
B 2 0Xd33a
B 5 0Xd3e4
B 1 0Xd4e8
B E 0Xd56a
B 7 0Xd65a
B T 0Xd740
H 8 0Xd920
H 4 0Xd9c0
H 9 0Xdaa6
H 3 0Xdb82
H O 0Xdc4a
H 6 0Xdd12
H 5 0Xddee
H 2 0Xdeac
H E 0Xdf56
H 1 0Xe014
H 7 0Xe0d2
H T 0Xe1a4
B 8 0Xe280
B 9 0Xe366
B 4 0Xe424
B O 0Xe4ce
B 3 0Xe5aa
B 5 0Xe6ae
B 6 0Xe776
B E 0Xe848
B 2 0Xe8f2
B 7 0Xe9ce
B 1 0Xea78
B T 0Xeb2c
H 9 0Xed2a
H 8 0Xedfc
H 4 0Xeea6
H 3 0Xef82
H O 0Xf040
H 6 0Xf0d6
H 5 0Xf1b2
H 2 0Xf2b6
H E 0Xf374
H 1 0Xf428
H 7 0Xf522
H T 0Xf5b8
B 9 0Xf676
B 4 0Xf748
B 8 0Xf82e
B O 0Xf8ec
B 3 0Xf9aa
B 5 0Xfa86
B 6 0Xfb6c
B E 0Xfc52
B 2 0Xfd10
B 7 0Xfdec
B 1 0Xfe8c
B T 0Xff54
H 4 0X0148
H 9 0X01ca
H 8 0X0292
H 3 0X0396
H O 0X042c
H 6 0X04fe
H 5 0X05d0
H 2 0X06ca
H E 0X0788
H 1 0X083c
H 7 0X092c
H T 0X09ea
B 4 0X0a9e
B 8 0X0b84
B 9 0X0c4c
B O 0X0d00
B 3 0X0dbe
B 5 0X0e90
B 6 0X0f6c
B E 0X107a
B 2 0X1106
B 7 0X11f6
B 1 0X12a0
B T 0X1386
H 8 0X1534
H 4 0X1606
H O 0X16c4
H 9 0X176e
H 5 0X1840
H 3 0X193a
H E 0X1a0c
H 6 0X1aca
H 7 0X1bb0
H 2 0X1c50
H 1 0X1d36
H T 0X1e1c
B 4 0X1ec6
B 8 0X1f84
B O 0X2038
B 5 0X2100
B 9 0X21d2
B E 0X22b8
B 3 0X239e
B 7 0X2448
B 6 0X2524
B 1 0X25d8
B 2 0X26b4
B T 0X279a
H 4 0X2934
H O 0X2a06
H 8 0X2ad8
H 9 0X2b64
H 5 0X2c4a
H 3 0X2d30
H E 0X2e0c
H 6 0X2ee8
H 7 0X2fa6
H 2 0X306e
H 1 0X312c
H T 0X3212
B O 0X32e4
B 4 0X3398
B 8 0X344c
B 5 0X351e
B 9 0X35fa
B E 0X36cc
B 3 0X37a8
B 7 0X3866
B 6 0X3942
B 1 0X39e2
B 2 0X3a96
B T 0X3b7c
H O 0X3d70
H 8 0X3e4c
H 4 0X3ed8
H 9 0X3fb4
H 5 0X4090
H 3 0X4162
H E 0X420c
H 6 0X42e8
H 7 0X43c4
H 2 0X4496
H 1 0X457c
H T 0X461c
B 8 0X46d0
B O 0X4798
B 4 0X4888
B 5 0X4946
B 9 0X4a22
B E 0X4afe
B 3 0X4bd0
B 7 0X4c7a
B 6 0X4d4c
B 1 0X4e00
B 2 0X4ed2
B T 0X4fa4
H O 0X5166
H 8 0X522e
H 5 0X52ec
H 4 0X53d2
H E 0X549a
H 9 0X5576
H 7 0X5666
H 3 0X5724
H 1 0X5800
H 6 0X58be
H 2 0X597c
H T 0X5a3a
B O 0X5aee
B 5 0X5bc0
B 8 0X5c7e
B E 0X5d96
B 4 0X5e2c
B 7 0X5efe
B 9 0X5fb2
B 1 0X607a
B 3 0X616a
B 2 0X621e
B 6 0X62dc
B T 0X63d6
H 5 0X658e
H O 0X6642
H 8 0X670a
H 4 0X67fa
H E 0X68b8
H 9 0X6980
H 7 0X6a3e
H 3 0X6b1a
H 1 0X6bec
H 6 0X6c82
H 2 0X6d54
H T 0X6e62
B 5 0X6f02
B 8 0X6fd4
B O 0X709c
B E 0X7182
B 4 0X7272
B 7 0X731c
B 9 0X73e4
B 1 0X747a
B 3 0X756a
B 2 0X7628
B 6 0X76dc
B T 0X77e0
H 8 0X7984
H 5 0X7a56
H O 0X7b0a
H 4 0X7be6
H E 0X7cb8
H 9 0X7d9e
H 7 0X7e84
H 3 0X7f56
H 1 0X8000
H 6 0X80aa
H 2 0X8168
H T 0X8244
B 8 0X830c
B O 0X83c0
B 5 0X84a6
B E 0X8582
B 4 0X8654
B 7 0X873a
B 9 0X87ee
B 1 0X88b6
B 3 0X8988
B 2 0X8a46
B 6 0X8b04
B T 0X8bd6
H O 0X8d98
H 8 0X8e56
H E 0X8f32
H 5 0X900e
H 7 0X9108
H 4 0X91b2
H 1 0X9270
H 9 0X932e
H 2 0X9414
H 3 0X94e6
H 6 0X9554
H T 0X966c
B 8 0X970c
B O 0X97c0
B E 0X98b0
B 7 0X998c
B 5 0X9a72
B 1 0X9b26
B 4 0X9c0c
B 2 0X9cca
B 9 0X9db0
B 6 0X9df6
B 3 0X9f18
B T 0X9fea
H 8 0Xa18e
H E 0Xa256
H O 0Xa30a
H 5 0Xa418
H 7 0Xa508
H 4 0Xa5a8
H 1 0Xa67a
H 9 0Xa76a
H 2 0Xa7ec
H 3 0Xa8dc
H 6 0Xa99a
H T 0Xaa80
B E 0Xab48
B 8 0Xac1a
B O 0Xac92
B 7 0Xadb4
B 5 0Xae72
B 1 0Xaf12
B 4 0Xafe4
B 2 0Xb0ca
B 9 0Xb1ce
B 6 0Xb282
B 3 0Xb340
B T 0Xb408
H E 0Xb5a2
H O 0Xb67e
H 8 0Xb764
H 5 0Xb822
H 7 0Xb8f4
H 4 0Xb99e
H 1 0Xba66
H 9 0Xbb74
H 2 0Xbc00
H 3 0Xbcfa
H 6 0Xbdae
H T 0Xbe9e
B O 0Xbf48
B E 0Xc042
B 8 0Xc10a
B 7 0Xc1e6
B 5 0Xc290
B 1 0Xc358
B 4 0Xc42a
B 2 0Xc4e8
B 9 0Xc5ba
B 6 0Xc65a
B 3 0Xc75e
B T 0Xc7fe
H E 0Xc9ac
H O 0Xca9c
H 7 0Xcb6e
H 8 0Xcc2c
H 1 0Xcd1c
H 5 0Xcde4
H 2 0Xceca
H 4 0Xcfa6
H 6 0Xd03c
H 9 0Xd10e
H 3 0Xd1f4
H T 0Xd294
B E 0Xd35c
B 7 0Xd44c
B O 0Xd4e2
B 1 0Xd5c8
B 8 0Xd672
B 2 0Xd758
B 5 0Xd820
B 6 0Xd91a
B 4 0Xd9ec
B 3 0Xdad2
B 9 0Xdb72
B T 0Xdc4e
H 7 0Xdde8
H E 0Xdec4
H O 0Xdfa0
H 8 0Xe068
H 1 0Xe144
H 5 0Xe1ee
H 2 0Xe2ac
H 4 0Xe36a
H 6 0Xe450
H 9 0Xe504
H 3 0Xe5d6
H T 0Xe6c6
B 7 0Xe770
B O 0Xe810
B E 0Xe914
B 1 0Xea18
B 8 0Xeaae
B 2 0Xeb94
B 5 0Xec16
B 6 0Xed06
B 4 0Xedba
B 3 0Xeeaa
B 9 0Xef7c
B T 0Xf058
H O 0Xf1e8
H 7 0Xf2ba
H E 0Xf36e
H 8 0Xf468
H 1 0Xf544
H 5 0Xf616
H 2 0Xf6ca
H 4 0Xf7b0
H 6 0Xf85a
H 9 0Xf92c
H 3 0Xf9fe
H T 0Xfab2
B O 0Xfb7a
B E 0Xfc60
B 7 0Xfd1e
B 1 0Xfddc
B 8 0Xfecc
B 2 0Xff94
B 5 0X0052
B 6 0X0124
B 4 0X020a
B 3 0X02e6
B 9 0X03ae
B T 0X0476
H E 0X0606
H O 0X06ce
H 1 0X07b4
H 7 0X08ae
H 2 0X094e
H 8 0X09f8
H 6 0X0ae8
H 5 0X0b9c
H 3 0X0c6e
H 4 0X0d18
H 9 0X0df4
H T 0X0f0c
B O 0X0f98
B E 0X1092
B 1 0X1132
B 2 0X1222
B 7 0X1312
B 6 0X138a
B 8 0X1470
B 3 0X1560
B 5 0X15e2
B 9 0X16c8
B 4 0X1786
B T 0X186c
H O 0X1a1a
H 1 0X1ae2
H E 0X1bd2
H 7 0X1c86
H 2 0X1d4e
H 8 0X1e0c
H 6 0X1f10
H 5 0X1fd8
H 3 0X20c8
H 4 0X2154
H 9 0X21f4
H T 0X22da
B 1 0X23ac
B O 0X2442
B E 0X253c
B 2 0X2618
B 7 0X26e0
B 6 0X27da
B 8 0X28a2
B 3 0X2956
B 5 0X29e2
B 9 0X2ad2
B 4 0X2bc2
B T 0X2c6c
H 1 0X2e42
H E 0X2eba
H O 0X2faa
H 7 0X307c
H 2 0X3126
H 8 0X3216
H 6 0X32fc
H 5 0X33d8
H 3 0X34d2
H 4 0X3586
H 9 0X3626
H T 0X36ee
B E 0X37de
B 1 0X3860
B O 0X3928
B 2 0X3a04
B 7 0X3afe
B 6 0X3bd0
B 8 0X3c98
B 3 0X3d60
B 5 0X3e14
B 9 0X3efa
B 4 0X3ff4
B T 0X4094
H 1 0X4238
H E 0X431e
H 2 0X4396
H O 0X449a
H 6 0X4580
H 7 0X4666
H 3 0X4724
H 8 0X47e2
H 9 0X4878
H 5 0X495e
H 4 0X4a3a
H T 0X4ae4
B 1 0X4bca
B 2 0X4c6a
B E 0X4d32
B 6 0X4e2c
B O 0X4eb8
B 3 0X4fbc
B 7 0X508e
B 9 0X514c
B 8 0X5200
B 4 0X52f0
B 5 0X5390
B T 0X549e
H 2 0X5656
H 1 0X571e
H E 0X57dc
H O 0X58a4
H 6 0X594e
H 7 0X5a5c
H 3 0X5b06
H 8 0X5bba
H 9 0X5c50
H 5 0X5d4a
H 4 0X5e3a
H T 0X5eee
B 2 0X5fac
B E 0X6092
B 1 0X6128
B 6 0X6240
B O 0X62b8
B 3 0X63bc
B 7 0X647a
B 9 0X6560
B 8 0X65f6
B 4 0X66e6
B 5 0X679a
B T 0X6880
H E 0X6a06
H 2 0X6b0a
H 1 0X6bdc
H O 0X6c90
H 6 0X6d62
H 7 0X6e34
H 3 0X6f10
H 8 0X6fec
H 9 0X7082
H 5 0X7140
H 4 0X7230
H T 0X72f8
B E 0X73f2
B 1 0X7474
B 2 0X7546
B 6 0X7604
B O 0X76ae
B 3 0X77bc
B 7 0X7898
B 9 0X796a
B 8 0X7a1e
B 4 0X7b0e
B 5 0X7bc2
B T 0X7c9e
H 1 0X7e42
H E 0X7f00
H 6 0X7faa
H 2 0X80ae
H 3 0X818a
H O 0X8248
H 9 0X82e8
H 7 0X83c4
H 4 0X84c8
H 8 0X8586
H 5 0X861c
H T 0X870c
B E 0X881a
B 1 0X887e
B 6 0X8932
B 3 0X89fa
B 2 0X8acc
B 9 0X8ba8
B O 0X8c52
B 4 0X8d38
B 7 0X8e1e
B 5 0X8ef0
B 8 0X8fc2
B T 0X908a
H E 0X927e
H 6 0X9314
H 1 0X93fa
H 2 0X94c2
H 3 0X958a
H O 0X9652
H 9 0X96d4
H 7 0X97b0
H 4 0X9896
H 8 0X9954
H 5 0X9a30
H T 0X9b0c
B 6 0X9bf2
B E 0X9d00
B 1 0X9d78
B 3 0X9e18
B 2 0X9ef4
B 9 0X9fe4
B O 0Xa0a2
B 4 0Xa142
B 7 0Xa214
B 5 0Xa2fa
B 8 0Xa3c2
B T 0Xa480
H 6 0Xa610
H 1 0Xa700
H E 0Xa822
H 2 0Xa8cc
H 3 0Xa99e
H O 0Xaa3e
H 9 0Xaae8
H 7 0Xabe2
H 4 0Xacb4
H 8 0Xad7c
H 5 0Xae44
H T 0Xaf16
B 1 0Xafb6
B 6 0Xb0a6
B E 0Xb1be
B 3 0Xb29a
B 2 0Xb2fe
B 9 0Xb3c6
B O 0Xb470
B 4 0Xb574
B 7 0Xb632
B 5 0Xb722
B 8 0Xb7ea
B T 0Xb8bc
H 6 0Xba6a
H 1 0Xbb46
H 3 0Xbc18
H E 0Xbcf4
H 9 0Xbd76
H 2 0Xbe48
H 4 0Xbf24
H O 0Xbfce
H 5 0Xc0aa
H 7 0Xc1a4
H 8 0Xc262
H T 0Xc352
B 6 0Xc3fc
B 3 0Xc4e2
B 1 0Xc582
B 9 0Xc64a
B E 0Xc726
B 4 0Xc7ee
B 2 0Xc8ac
B 5 0Xc96a
B O 0Xca1e
B 8 0Xcaf0
B 7 0Xcc08
B T 0Xccda
H 3 0Xceba
H 6 0Xcf64
H 1 0Xd05e
H E 0Xd0c2
H 9 0Xd1a8
H 2 0Xd27a
H 4 0Xd338
H O 0Xd3e2
H 5 0Xd496
H 7 0Xd590
H 8 0Xd662
H T 0Xd720
B 3 0Xd84c
B 1 0Xd900
B 6 0Xd9b4
B 9 0Xda86
B E 0Xdb3a
B 4 0Xdbe4
B 2 0Xdcc0
B 5 0Xdd92
B O 0Xde46
B 8 0Xdee6
B 7 0Xdffe
B T 0Xe0b2
H 1 0Xe27e
H 3 0Xe36e
H 6 0Xe47c
H E 0Xe512
H 9 0Xe5da
H 2 0Xe68e
H 4 0Xe77e
H O 0Xe814
H 5 0Xe8c8
H 7 0Xe9b8
H 8 0Xea76
H T 0Xeb16
B 1 0Xec06
B 6 0Xece2
B 3 0Xedd2
B 9 0Xee9a
B E 0Xefa8
B 4 0Xf016
B 2 0Xf0d4
B 5 0Xf1ba
B O 0Xf250
B 8 0Xf30e
B 7 0Xf408
B T 0Xf4c6
H 6 0Xf674
H 1 0Xf778
H 9 0Xf85e
H 3 0Xf8fe
H 4 0Xfa0c
H E 0Xfaac
H 5 0Xfb6a
H 2 0Xfc32
H 8 0Xfcfa
H O 0Xfdae
H 7 0Xfe80
H T 0Xff48
B 1 0X001a
B 6 0X00d8
B 9 0X01c8
B 4 0X0290
B 3 0X0380
B 5 0X0448
B E 0X051a
B 8 0X05d8
B 2 0X06b4
B 7 0X0754
B O 0X0808
B T 0X0902
H 1 0X0ad8
H 9 0X0b96
H 6 0X0c5e
H 3 0X0d08
H 4 0X0dee
H E 0X0eca
H 5 0X0f92
H 2 0X108c
H 8 0X1168
H O 0X1230
H 7 0X12d0
H T 0X1384
B 9 0X147e
B 1 0X151e
B 6 0X15e6
B 4 0X16ae
B 3 0X1794
B 5 0X1870
B E 0X194c
B 8 0X1a1e
B 2 0X1adc
B 7 0X1bc2
B O 0X1c6c
B T 0X1d52
H 9 0X1f28
H 6 0X1fc8
H 1 0X2090
H 3 0X213a
H 4 0X2220
H E 0X22ca
H 5 0X23b0
H 2 0X2496
H 8 0X2568
H O 0X2644
H 7 0X2716
H T 0X27c0
B 6 0X2888
B 9 0X29b4
B 1 0X2a22
B 4 0X2ad6
B 3 0X2bbc
B 5 0X2ca2
B E 0X2d42
B 8 0X2e5a
B 2 0X2ee6
B 7 0X2fd6
B O 0X309e
B T 0X3184
H 9 0X333c
H 6 0X342c
H 4 0X34b8
H 1 0X3594
H 5 0X3648
H 3 0X36fc
H 8 0X37e2
H E 0X38b4
H 2 0X3968
H O 0X3a3a
H 7 0X3b0c
H T 0X3bd4
B 9 0X3cb0
B 4 0X3d50
B 6 0X3e4a
B 5 0X3f58
B 1 0X3ff8
B 8 0X40a2
B 3 0X4188
B 2 0X423c
B E 0X42d2
B 7 0X439a
B O 0X4476
B T 0X457a
H 4 0X4750
H 9 0X47d2
H 6 0X48e0
H 1 0X49bc
H 5 0X4a70
H 3 0X4b56
H 8 0X4c28
H E 0X4cc8
H 2 0X4d36
H O 0X4e1c
H 7 0X4ef8
H T 0X4fde
B 4 0X5074
B 6 0X5196
B 9 0X5272
B 5 0X5358
B 1 0X5402
B 8 0X54ca
B 3 0X55ce
B 2 0X5650
B E 0X56f0
B 7 0X57a4
B O 0X588a
B T 0X5984
H 6 0X5b28
H 4 0X5bf0
H 9 0X5cea
H 1 0X5dc6
H 5 0X5e70
H 3 0X5f4c
H 8 0X601e
H E 0X60d2
H 2 0X617c
H O 0X6258
H 7 0X6316
H T 0X6424
B 6 0X64ba
B 9 0X65a0
B 4 0X665e
B 5 0X6730
B 1 0X6802
B 8 0X68d4
B 3 0X69a6
B 2 0X6a6e
B E 0X6b36
B 7 0X6be0
B O 0X6c9e
B T 0X6dc0
H 9 0X6f5a
H 6 0X702c
H 5 0X70fe
H 4 0X71c6
H 8 0X7284
H 1 0X7342
H 2 0X7450
H 3 0X74dc
H 7 0X75d6
H E 0X7644
H O 0X7748
H T 0X7824
B 6 0X7900
B 9 0X79c8
B 5 0X7aae
B 8 0X7b4e
B 4 0X7c3e
B 2 0X7d2e
B 1 0X7dec
B 7 0X7e96
B 3 0X7f5e
B O 0X7fea
B E 0X809e
B T 0X81a2
H 6 0X8382
H 5 0X845e
H 9 0X851c
H 4 0X8616
H 8 0X86ca
H 1 0X8792
H 2 0X8846
H 3 0X8918
H 7 0X8a08
H E 0X8a9e
H O 0X8b48
H T 0X8c1a
B 5 0X8d28
B 6 0X8df0
B 9 0X8eb8
B 8 0X8f6c
B 4 0X90ac
B 2 0X911a
B 1 0X91ce
B 7 0X92aa
B 3 0X935e
B O 0X9408
B E 0X94da
B T 0X95c0
H 5 0X9796
H 9 0X987c
H 6 0X9912
H 4 0X99ee
H 8 0X9aca
H 1 0X9bb0
H 2 0X9c32
H 3 0X9d0e
H 7 0X9e08
H E 0X9e9e
H O 0X9f70
H T 0Xa02e
B 9 0Xa128
B 5 0Xa20e
B 6 0Xa2b8
B 8 0Xa376
B 4 0Xa47a
B 2 0Xa52e
B 1 0Xa600
B 7 0Xa6d2
B 3 0Xa79a
B O 0Xa808
B E 0Xa8d0
B T 0Xa9b6
H 5 0Xabbe
H 9 0Xac7c
H 8 0Xad44
H 6 0Xae34
H 2 0Xaf1a
H 4 0Xafd8
H 7 0Xb0aa
H 1 0Xb168
H O 0Xb1c2
H 3 0Xb2d0
H E 0Xb35c
H T 0Xb438
B 5 0Xb53c
B 8 0Xb5fa
B 9 0Xb6d6
B 2 0Xb7d0
B 6 0Xb884
B 7 0Xb96a
B 4 0Xba32
B O 0Xbab4
B 1 0Xbb86
B E 0Xbc30
B 3 0Xbd5c
B T 0Xbde8
H 8 0Xbfc8
H 5 0Xc09a
H 9 0Xc14e
H 6 0Xc248
H 2 0Xc310
H 4 0Xc400
H 7 0Xc4c8
H 1 0Xc586
H O 0Xc608
H 3 0Xc6f8
H E 0Xc7ac
H T 0Xc860
B 8 0Xc91e
B 9 0Xca0e
B 5 0Xcae0
B 2 0Xcbc6
B 6 0Xcc7a
B 7 0Xcd74
B 4 0Xce1e
B O 0Xcef0
B 1 0Xcf9a
B E 0Xd06c
B 3 0Xd15c
B T 0Xd1fc
H 9 0Xd3d2
H 8 0Xd49a
H 5 0Xd562
H 6 0Xd65c
H 2 0Xd706
H 4 0Xd800
H 7 0Xd8dc
H 1 0Xd990
H O 0Xd9fe
H 3 0Xdb02
H E 0Xdba2
H T 0Xdc74
B 9 0Xdd3c
B 5 0Xde54
B 8 0Xdeea
B 2 0Xdfda
B 6 0Xe07a
B 7 0Xe188
B 4 0Xe232
B O 0Xe304
B 1 0Xe37c
B E 0Xe462
B 3 0Xe55c
B T 0Xe61a
H 5 0Xe7dc
H 9 0Xe8cc
H 2 0Xe980
H 8 0Xea3e
H 7 0Xeb2e
H 6 0Xebe2
H O 0Xecaa
H 4 0Xed86
H 1 0Xee58
H 3 0Xeee4
H E 0Xefac
H T 0Xf088
B 9 0Xf182
B 5 0Xf268
B 2 0Xf330
B 7 0Xf3ee
B 8 0Xf48e
B O 0Xf574
B 6 0Xf65a
B 1 0Xf6e6
B 4 0Xf790
B E 0Xf894
B 3 0Xf966
B T 0Xfa38
H 9 0Xfbfa
H 2 0Xfccc
H 5 0Xfd76
H 8 0Xfe52
H 7 0Xff2e
H 6 0Xfff6
H O 0X00c8
H 4 0X0140
H 1 0X021c
H 3 0X030c
H E 0X03b6
H T 0X049c
B 2 0X05a0
B 9 0X065e
B 5 0X0712
B 7 0X07f8
B 8 0X08ac
B O 0X096a
B 6 0X0a28
B 1 0X0ad2
B 4 0X0bae
B E 0X0c62
B 3 0X0d70
B T 0X0e24
H 2 0X0fdc
H 5 0X10a4
H 9 0X1194
H 8 0X1284
H 7 0X1356
H 6 0X1428
H O 0X14dc
H 4 0X157c
H 1 0X164e
H 3 0X172a
H E 0X17a2
H T 0X18b0
B 5 0X19c8
B 2 0X1a54
B 9 0X1b3a
B 7 0X1c02
B 8 0X1cb6
B O 0X1d9c
B 6 0X1e5a
B 1 0X1ef0
B 4 0X1fcc
B E 0X20c6
B 3 0X2184
B T 0X2242
H 2 0X240e
H 5 0X24d6
H 7 0X25b2
H 9 0X2666
H O 0X2738
H 8 0X2814
H 1 0X28e6
H 6 0X29a4
H E 0X2a58
H 4 0X2b2a
H 3 0X2c06
H T 0X2cd8
B 2 0X2da0
B 7 0X2e72
B 5 0X2f44
B O 0X2fe4
B 9 0X30ca
B 1 0X3156
B 8 0X321e
B E 0X3340
B 6 0X341c
B 3 0X34bc
B 4 0X3584
B T 0X367e
H 7 0X37fa
H 2 0X38e0
H 5 0X398a
H 9 0X3a8e
H O 0X3b56
H 8 0X3bec
H 1 0X3cc8
H 6 0X3da4
H E 0X3e76
H 4 0X3f20
H 3 0X3ff2
H T 0X40e2
B 7 0X41a0
B 5 0X4272
B 2 0X436c
B O 0X43da
B 9 0X452e
B 1 0X4592
B 8 0X461e
B E 0X470e
B 6 0X47e0
B 3 0X48bc
B 4 0X4970
B T 0X4a74
H 5 0X4c22
H 7 0X4d1c
H 2 0X4dee
H 9 0X4e84
H O 0X4f60
H 8 0X5014
H 1 0X50f0
H 6 0X51ae
H E 0X5230
H 4 0X5320
H 3 0X5406
H T 0X54f6
B 5 0X55aa
B 2 0X56ae
B 7 0X5762
B O 0X5802
B 9 0X5924
B 1 0X59a6
B 8 0X5a46
B E 0X5b2c
B 6 0X5c12
B 3 0X5cc6
B 4 0X5d84
B T 0X5e42
H 2 0X6036
H 5 0X60d6
H O 0X61e4
H 7 0X6284
H 1 0X6360
H 9 0X6446
H E 0X64d2
H 8 0X65cc
H 3 0X6680
H 6 0X6734
H 4 0X6810
H T 0X68f6
B 5 0X69a0
B 2 0X6a9a
B O 0X6b30
B 1 0X6c02
B 7 0X6cd4
B E 0X6d92
B 9 0X6e96
B 3 0X6f54
B 8 0X6ffe
B 4 0X70da
B 6 0X7198
B T 0X7292
H 5 0X7422
H O 0X74f4
H 2 0X75c6
H 7 0X7698
H 1 0X7774
H 9 0X780a
H E 0X78dc
H 8 0X79fe
H 3 0X7a8a
H 6 0X7b70
H 4 0X7c10
H T 0X7d0a
B O 0X7db4
B 5 0X7ea4
B 2 0X7f80
B 1 0X8016
B 7 0X80f2
B E 0X819c
B 9 0X8296
B 3 0X8354
B 8 0X841c
B 4 0X84ee
B 6 0X85d4
B T 0X869c
H O 0X8868
H 2 0X8912
H 5 0X89bc
H 7 0X8ac0
H 1 0X8b60
H 9 0X8c46
H E 0X8cf0
H 8 0X8e08
H 3 0X8ec6
H 6 0X8f7a
H 4 0X9038
H T 0X9128
B 2 0X920e
B O 0X92a4
B 5 0X9362
B 1 0X9416
B 7 0X94f2
B E 0X95c4
B 9 0X9696
B 3 0X9790
B 8 0X9830
B 4 0X98f8
B 6 0X99f2
B T 0X9ab0
H O 0X9c90
H 2 0X9d30
H 1 0X9df8
H 5 0X9e98
H E 0X9f56
H 7 0Xa01e
H 3 0Xa122
H 9 0Xa1e0
H 4 0Xa294
H 8 0Xa37a
H 6 0Xa44c
H T 0Xa550
B O 0Xa60e
B 1 0Xa690
B 2 0Xa78a
B E 0Xa816
B 5 0Xa910
B 3 0Xa9ec
B 7 0Xaa96
B 4 0Xab72
B 9 0Xac3a
B 6 0Xad16
B 8 0Xadd4
B T 0Xae92
H 1 0Xb07c
H O 0Xb112
H 2 0Xb1f8
H 5 0Xb2ca
H E 0Xb36a
H 7 0Xb446
H 3 0Xb518
H 9 0Xb5cc
H 4 0Xb6b2
H 8 0Xb78e
H 6 0Xb82e
H T 0Xb914
B 1 0Xb9f0
B 2 0Xbac2
B O 0Xbb4e
B E 0Xbc2a
B 5 0Xbd10
B 3 0Xbe00
B 7 0Xbebe
B 4 0Xbf4a
B 9 0Xc030
B 6 0Xc120
B 8 0Xc1d4
B T 0Xc27e
H 2 0Xc44a
H 1 0Xc526
H O 0Xc5b2
H 5 0Xc6a2
H E 0Xc742
H 7 0Xc832
H 3 0Xc904
H 9 0Xc9d6
H 4 0Xca76
H 8 0Xcb66
H 6 0Xcc56
H T 0Xcd46
B 2 0Xcde6
B O 0Xce5e
B 1 0Xcf1c
B E 0Xcfee
B 5 0Xd0de
B 3 0Xd1e2
B 7 0Xd278
B 4 0Xd336
B 9 0Xd430
B 6 0Xd4ee
B 8 0Xd5b6
B T 0Xd6b0
H O 0Xd854
H 2 0Xd8fe
H E 0Xd9b2
H 1 0Xda98
H 3 0Xdb74
H 5 0Xdc1e
H 4 0Xdd04
H 7 0Xddc2
H 6 0Xde6c
H 9 0Xdf66
H 8 0Xe024
H T 0Xe132
B 2 0Xe1e6
B O 0Xe254
B E 0Xe31c
B 3 0Xe40c
B 1 0Xe4d4
B 4 0Xe56a
B 5 0Xe646
B 6 0Xe74a
B 7 0Xe81c
B 8 0Xe8e4
B 9 0Xe998
B T 0Xea7e
H 2 0Xec54
H E 0Xecf4
H O 0Xedc6
H 1 0Xee98
H 3 0Xef74
H 5 0Xf014
H 4 0Xf0dc
H 7 0Xf190
H 6 0Xf24e
H 9 0Xf33e
H 8 0Xf424
H T 0Xf4d8
B E 0Xf5be
B 2 0Xf686
B O 0Xf6f4
B 3 0Xf7f8
B 1 0Xf8c0
B 4 0Xf99c
B 5 0Xfa6e
B 6 0Xfb4a
B 7 0Xfc1c
B 8 0Xfcc6
B 9 0Xfd8e
B T 0Xfe56
H E 0X002c
H O 0X0126
H 2 0X01bc
H 1 0X0284
H 3 0X036a
H 5 0X041e
H 4 0X04d2
H 7 0X05a4
H 6 0X063a
H 9 0X070c
H 8 0X07fc
H T 0X08d8
B O 0X0996
B E 0X0a7c
B 2 0X0b44
B 3 0X0c20
B 1 0X0cb6
B 4 0X0d92
B 5 0X0e46
B 6 0X0f4a
B 7 0X1026
B 8 0X10c6
B 9 0X1198
B T 0X124c
H E 0X140e
H O 0X1508
H 3 0X1594
H 2 0X167a
H 4 0X1756
H 1 0X1828
H 6 0X18e6
H 5 0X19ae
H 8 0X1a62
H 7 0X1b3e
H 9 0X1c10
H T 0X1cce
B E 0X1db4
B 3 0X1e86
B O 0X1f1c
B 4 0X200c
B 2 0X20e8
B 6 0X21ce
B 1 0X228c
B 8 0X2340
B 5 0X2408
B 9 0X24d0
B 7 0X25a2
B T 0X2660
H 3 0X2818
H E 0X28e0
H O 0X29a8
H 2 0X2ab6
H 4 0X2b60
H 1 0X2c50
H 6 0X2cc8
H 5 0X2dae
H 8 0X2e80
H 7 0X2f48
H 9 0X2ffc
H T 0X30e2
B 3 0X31c8
B O 0X3236
B E 0X3330
B 4 0X3420
B 2 0X34d4
B 6 0X35a6
B 1 0X3678
B 8 0X374a
B 5 0X3808
B 9 0X38d0
B 7 0X39b6
B T 0X3a4c
H O 0X3c2c
H 3 0X3cfe
H E 0X3dd0
H 2 0X3eca
H 4 0X3f74
H 1 0X4050
H 6 0X40d2
H 5 0X41ae
H 8 0X428a
H 7 0X433e
H 9 0X43fc
H T 0X44c4
B O 0X45b4
B E 0X465e
B 3 0X4758
B 4 0X483e
B 2 0X4906
B 6 0X49d8
B 1 0X4a96
B 8 0X4b4a
B 5 0X4c12
B 9 0X4cf8
B 7 0X4dac
B T 0X4e7e
H E 0X5022
H O 0X5112
H 4 0X51da
H 3 0X52a2
H 6 0X534c
H 2 0X546e
H 8 0X550e
H 1 0X55e0
H 9 0X5694
H 5 0X5766
H 7 0X5838
H T 0X5914
B O 0X5982
B E 0X5aae
B 4 0X5b76
B 6 0X5c16
B 3 0X5d06
B 8 0X5da6
B 2 0X5eaa
B 9 0X5f86
B 1 0X6012
B 7 0X60c6
B 5 0X61c0
B T 0X629c
H O 0X645e
H 4 0X64e0
H E 0X65bc
H 3 0X66ca
H 6 0X676a
H 2 0X6896
H 8 0X6940
H 1 0X69f4
H 9 0X6ab2
H 5 0X6b5c
H 7 0X6c38
H T 0X6d14
B 4 0X6dd2
B O 0X6e68
B E 0X6f8a
B 6 0X7066
B 3 0X7138
B 8 0X71c4
B 2 0X72aa
B 9 0X7386
B 1 0X741c
B 7 0X74ee
B 5 0X75ca
B T 0X7692
H 4 0X789a
H E 0X7944
H O 0X7a02
H 3 0X7ac0
H 6 0X7b56
H 2 0X7c78
H 8 0X7d40
H 1 0X7e12
H 9 0X7eb2
H 5 0X7fa2
H 7 0X807e
H T 0X811e
B E 0X8204
B 4 0X82ea
B O 0X8358
B 6 0X8452
B 3 0X8542
B 8 0X85e2
B 2 0X86b4
B 9 0X879a
B 1 0X883a
B 7 0X8902
B 5 0X89f2
B T 0X8ac4
H 4 0X8c4a
H E 0X8d44
H 6 0X8df8
H O 0X8ec0
H 8 0X8f92
H 3 0X9050
H 9 0X9140
H 2 0X9208
H 7 0X92e4
H 1 0X9398
H 5 0X9442
H T 0X953c
B 4 0X9618
B 6 0X96cc
B E 0X9762
B 8 0X983e
B O 0X98f2
B 9 0X99f6
B 3 0X9ac8
B 7 0X9b90
B 2 0X9c62
B 5 0X9d20
B 1 0X9de8
B T 0X9eba
H 6 0Xa086
H 4 0Xa16c
H E 0Xa1d0
H O 0Xa2ca
H 8 0Xa392
H 3 0Xa450
H 9 0Xa52c
H 2 0Xa630
H 7 0Xa6f8
H 1 0Xa7c0
H 5 0Xa86a
H T 0Xa96e
B 6 0Xa9f0
B E 0Xaaea
B 4 0Xabb2
B 8 0Xac70
B O 0Xad10
B 9 0Xadf6
B 3 0Xaed2
B 7 0Xafa4
B 2 0Xb058
B 5 0Xb134
B 1 0Xb1de
B T 0Xb2ce
H E 0Xb486
H 6 0Xb562
H 4 0Xb602
H O 0Xb6d4
H 8 0Xb7ba
H 3 0Xb88c
H 9 0Xb94a
H 2 0Xba30
H 7 0Xbaf8
H 1 0Xbbb6
H 5 0Xbc56
H T 0Xbd32
B E 0Xbe2c
B 4 0Xbed6
B 6 0Xbfa8
B 8 0Xc070
B O 0Xc142
B 9 0Xc228
B 3 0Xc30e
B 7 0Xc3c2
B 2 0Xc480
B 5 0Xc534
B 1 0Xc606
B T 0Xc6b0
H 4 0Xc84a
H E 0Xc930
H 8 0Xca2a
H 6 0Xcb06
H 9 0Xcb9c
H O 0Xcc82
H 7 0Xcd5e
H 3 0Xce30
H 5 0Xceda
H 2 0Xcfca
H 1 0Xd092
H T 0Xd164
B E 0Xd22c
B 4 0Xd2cc
B 8 0Xd39e
B 9 0Xd45c
B 6 0Xd51a
B 7 0Xd600
B O 0Xd6d2
B 5 0Xd7e0
B 3 0Xd8b2
B 1 0Xd90c
B 2 0Xd9fc
B T 0Xdaba
H E 0Xdc5e
H 8 0Xdd3a
H 4 0Xde3e
H 6 0Xdf1a
H 9 0Xdfa6
H O 0Xe06e
H 7 0Xe136
H 3 0Xe244
H 5 0Xe2da
H 2 0Xe3ca
H 1 0Xe488
H T 0Xe546
B 8 0Xe5d2
B E 0Xe6b8
B 4 0Xe7b2
B 9 0Xe870
B 6 0Xe94c
B 7 0Xea00
B O 0Xeac8
B 5 0Xeba4
B 3 0Xec6c
B 1 0Xed16
B 2 0Xede8
B T 0Xeea6
H 8 0Xf09a
H 4 0Xf14e
H E 0Xf1e4
H 6 0Xf2f2
H 9 0Xf39c
H O 0Xf48c
H 7 0Xf518
H 3 0Xf612
H 5 0Xf6da
H 2 0Xf7b6
H 1 0Xf89c
H T 0Xf950
B 4 0Xf9b4
B 8 0Xfa90
B E 0Xfb80
B 9 0Xfc5c
B 6 0Xfd4c
B 7 0Xfe1e
B O 0Xfed2
B 5 0Xff9a
B 3 0X0058
B 1 0X0120
B 2 0X01d4
B T 0X0292
H 8 0X0468
H 4 0X0526
H 9 0X05ee
H E 0X06b6
H 7 0X07a6
H 6 0X0878
H 5 0X0940
H O 0X0a12
H 1 0X0ada
H 3 0X0b98
H 2 0X0c60
H T 0X0d1e
B 8 0X0dbe
B 9 0X0ea4
B 4 0X0f76
B 7 0X105c
B E 0X10d4
B 5 0X11f6
B 6 0X12f0
B 1 0X1390
B O 0X1430
B 2 0X1534
B 3 0X15d4
B T 0X1692
H 9 0X1890
H 8 0X1958
H 4 0X1a02
H E 0X1aa2
H 7 0X1ba6
H 6 0X1c6e
H 5 0X1d4a
H O 0X1dea
H 1 0X1eb2
H 3 0X1f70
H 2 0X2060
H T 0X2100
B 9 0X2204
B 4 0X22ae
B 8 0X2362
B 7 0X2448
B E 0X2510
B 5 0X25ec
B 6 0X26a0
B 1 0X275e
B O 0X2808
B 2 0X292a
B 3 0X29de
B T 0X2a6a
H 4 0X2c5e
H 9 0X2d30
H 8 0X2de4
H E 0X2e98
H 7 0X2f6a
H 6 0X3050
H 5 0X3136
H O 0X31e0
H 1 0X32b2
H 3 0X337a
H 2 0X3442
H T 0X3500
B 4 0X35be
B 8 0X367c
B 9 0X3776
B 7 0X3848
B E 0X3910
B 5 0X39d8
B 6 0X3aaa
B 1 0X3b68
B O 0X3c30
B 2 0X3ce4
B 3 0X3da2
B T 0X3e6a
H 8 0X404a
H 4 0X4108
H 7 0X41ee
H 9 0X42a2
H 5 0X437e
H E 0X441e
H 1 0X4518
H 6 0X45e0
H 2 0X46d0
H O 0X472a
H 3 0X47de
H T 0X48e2
B 4 0X49be
B 8 0X4a72
B 7 0X4b58
B 5 0X4c52
B 9 0X4d10
B 1 0X4dce
B E 0X4eaa
B 2 0X4f7c
B 6 0X5030
B 3 0X50da
B O 0X5170
B T 0X5274
H 4 0X5454
H 7 0X551c
H 8 0X55da
H 9 0X5698
H 5 0X5788
H E 0X5846
H 1 0X5922
H 6 0X59b8
H 2 0X5abc
H O 0X5b66
H 3 0X5c2e
H T 0X5cec
B 7 0X5da0
B 4 0X5e5e
B 8 0X5f26
B 5 0X603e
B 9 0X60f2
B 1 0X61b0
B E 0X62a0
B 2 0X6368
B 6 0X63fe
B 3 0X64ee
B O 0X6598
B T 0X6660
H 7 0X6818
H 8 0X68e0
H 4 0X69b2
H 9 0X6a66
H 5 0X6b7e
H E 0X6c46
H 1 0X6ce6
H 6 0X6dc2
H 2 0X6e94
H O 0X6f34
H 3 0X6ff2
H T 0X70d8
B 8 0X71a0
B 7 0X727c
B 4 0X736c
B 5 0X742a
B 9 0X74e8
B 1 0X75ce
B E 0X765a
B 2 0X775e
B 6 0X781c
B 3 0X78d0
B O 0X7970
B T 0X7a4c
H 7 0X7c04
H 8 0X7cd6
H 5 0X7dbc
H 4 0X7ec0
H 1 0X7f9c
H 9 0X801e
H 2 0X8118
H E 0X8190
H 6 0X8276
H O 0X833e
H 3 0X83f2
H T 0X84c4
B 7 0X8582
B 5 0X8672
B 8 0X8744
B 1 0X87ee
B 4 0X88ac
B 2 0X89ba
B 9 0X8a96
B 6 0X8b54
B E 0X8c08
B 3 0X8ce4
B O 0X8d66
B T 0X8e42
H 5 0X9018
H 7 0X9108
H 8 0X91bc
H 4 0X925c
H 1 0X934c
H 9 0X941e
H 2 0X94be
H E 0X955e
H 6 0X9658
H O 0X972a
H 3 0X97fc
H T 0X98c4
B 5 0X9996
B 8 0X9a54
B 7 0X9b44
B 1 0X9be4
B 4 0X9cac
B 2 0X9d9c
B 9 0X9e28
B 6 0X9f40
B E 0X9fd6
B 3 0Xa0bc
B O 0Xa17a
B T 0Xa22e
H 8 0Xa40e
H 5 0Xa4e0
H 7 0Xa5d0
H 4 0Xa65c
H 1 0Xa74c
H 9 0Xa7ce
H 2 0Xa896
H E 0Xa968
H 6 0Xaa62
H O 0Xab3e
H 3 0Xac06
H T 0Xacb0
B 8 0Xadaa
B 7 0Xae86
B 5 0Xaf30
B 1 0Xafda
B 4 0Xb0f2
B 2 0Xb17e
B 9 0Xb23c
B 6 0Xb322
B E 0Xb3c2
B 3 0Xb4bc
B O 0Xb552
B T 0Xb62e
H 7 0Xb82c
H 8 0Xb8ea
H 1 0Xb9b2
H 5 0Xba70
H 2 0Xbb56
H 4 0Xbc46
H 6 0Xbcbe
H 9 0Xbd90
H 3 0Xbe58
H E 0Xbf02
H O 0Xbffc
H T 0Xc0b0
B 8 0Xc178
B 7 0Xc25e
B 1 0Xc308
B 2 0Xc3f8
B 5 0Xc4ac
B 6 0Xc57e
B 4 0Xc6a0
B 3 0Xc74a
B 9 0Xc7e0
B O 0Xc88a
B E 0Xc966
B T 0Xca2e
H 8 0Xcc22
H 1 0Xccd6
H 7 0Xcdc6
H 5 0Xce52
H 2 0Xcf38
H 4 0Xd000
H 6 0Xd0b4
H 9 0Xd172
H 3 0Xd226
H E 0Xd2f8
H O 0Xd3e8
H T 0Xd4a6
B 1 0Xd564
B 8 0Xd622
B 7 0Xd71c
B 2 0Xd80c
B 5 0Xd8b6
B 6 0Xd97e
B 4 0Xda5a
B 3 0Xdb18
B 9 0Xdbe0
B O 0Xdc9e
B E 0Xdd52
B T 0Xde2e
H 1 0Xdffa
H 7 0Xe0d6
H 8 0Xe176
H 5 0Xe270
H 2 0Xe34c
H 4 0Xe400
H 6 0Xe4a0
H 9 0Xe572
H 3 0Xe5fe
H E 0Xe6e4
H O 0Xe7de
H T 0Xe89c
B 7 0Xe978
B 1 0Xea18
B 8 0Xead6
B 2 0Xec02
B 5 0Xec7a
B 6 0Xed74
B 4 0Xee3c
B 3 0Xeefa
B 9 0Xefc2
B O 0Xf06c
B E 0Xf13e
B T 0Xf21a
H 1 0Xf40e
H 7 0Xf4ea
H 2 0Xf5a8
H 8 0Xf670
H 6 0Xf706
H 5 0Xf7ec
H 3 0Xf8aa
H 4 0Xf968
H O 0Xfa08
H 9 0Xfabc
H E 0Xfb8e
H T 0Xfc74
B 1 0Xfd64
B 2 0Xfe4a
B 7 0Xff3a
B 6 0X0002
B 8 0X00ac
B 3 0X0156
B 5 0X0228
B O 0X02d2
B 4 0X03b8
B E 0X043a
B 9 0X0534
B T 0X061a
H 2 0X07e6
H 1 0X089a
H 7 0X09b2
H 8 0X0a66
H 6 0X0b06
H 5 0X0c14
H 3 0X0caa
H 4 0X0d5e
H O 0X0e1c
H 9 0X0ec6
H E 0X0f7a
H T 0X107e
B 2 0X1146
B 7 0X124a
B 1 0X12ea
B 6 0X13da
B 8 0X14a2
B 3 0X1588
B 5 0X163c
B O 0X16c8
B 4 0X17b8
B E 0X1858
B 9 0X1948
B T 0X1a2e
H 7 0X1bf0
H 2 0X1cae
H 1 0X1d8a
H 8 0X1e3e
H 6 0X1f06
H 5 0X1fec
H 3 0X20aa
H 4 0X219a
H O 0X221c
H 9 0X22ee
H E 0X238e
H T 0X247e
B 7 0X2528
B 1 0X25f0
B 2 0X26d6
B 6 0X27b2
B 8 0X287a
B 3 0X296a
B 5 0X29ec
B O 0X2adc
B 4 0X2bd6
B E 0X2c44
B 9 0X2d7a
B T 0X2e24
H 1 0X2ff0
H 7 0X30c2
H 6 0X3158
H 2 0X3248
H 3 0X3310
H 8 0X3400
H O 0X34c8
H 5 0X3554
H 4 0X3658
H E 0X36ee
H 9 0X37a2
H T 0X384c
B 7 0X39a0
B 1 0X3a40
B 6 0X3acc
B 3 0X3bc6
B 2 0X3c70
B O 0X3d4c
B 8 0X3dec
B 4 0X3edc
B 5 0X3f90
B 9 0X4076
B E 0X4134
B T 0X422e
H 7 0X43e6
H 6 0X44b8
H 1 0X459e
H 2 0X467a
H 3 0X4738
H 8 0X47d8
H O 0X488c
H 5 0X4940
H 4 0X4a12
H E 0X4ac6
H 9 0X4b8e
H T 0X4c92
B 6 0X4d82
B 7 0X4e36
B 1 0X4eea
B 3 0X4fe4
B 2 0X50c0
B O 0X5142
B 8 0X5200
B 4 0X52f0
B 5 0X5390
B 9 0X5476
B E 0X553e
B T 0X561a
H 6 0X57c8
H 1 0X58ea
H 7 0X5994
H 2 0X5a98
H 3 0X5b1a
H 8 0X5bce
H O 0X5cb4
H 5 0X5d54
H 4 0X5e26
H E 0X5eee
H 9 0X5fd4
H T 0X6060
B 1 0X615a
B 6 0X6236
B 7 0X6308
B 3 0X63bc
B 2 0X64ac
B O 0X6560
B 8 0X65f6
B 4 0X66fa
B 5 0X67b8
B 9 0X6876
B E 0X6952
B T 0X6a24
H 6 0X6c18
H 1 0X6cfe
H 3 0X6d8a
H 7 0X6e48
H O 0X6f56
H 2 0X6fe2
H 4 0X70a0
H 8 0X7172
H 9 0X7230
H 5 0X730c
H E 0X73ca
H T 0X749c
B 6 0X755a
B 3 0X76ae
B 1 0X76fe
B O 0X77c6
B 7 0X7898
B 4 0X797e
B 2 0X7a28
B 9 0X7b04
B 8 0X7b9a
B E 0X7c8a
B 5 0X7d84
B T 0X7e42
H 3 0X7fbe
H 6 0X80b8
H 1 0X81a8
H 7 0X827a
H O 0X8324
H 2 0X83f6
H 4 0X84dc
H 8 0X85a4
H 9 0X8626
H 5 0X8716
H E 0X8798
H T 0X8892
B 3 0X898c
B 1 0X8a22
B 6 0X8aea
B O 0X8bc6
B 7 0X8c98
B 4 0X8d74
B 2 0X8e32
B 9 0X8f18
B 8 0X8f90
B E 0X9076
B 5 0X918e
B T 0X9238
H 1 0X9404
H 3 0X94cc
H 6 0X9576
H 7 0X9670
H O 0X9774
H 2 0X9814
H 4 0X988c
H 8 0X995e
H 9 0X9a26
H 5 0X9b2a
H E 0X9bde
H T 0X9c92
B 1 0X9d64
B 6 0X9e0e
B 3 0X9eea
B O 0X9ff8
B 7 0Xa0ac
B 4 0Xa19c
B 2 0Xa1f6
B 9 0Xa304
B 8 0Xa390
B E 0Xa462
B 5 0Xa584
B T 0Xa62e
H 6 0Xa804
H 1 0Xa8f4
H O 0Xa980
H 3 0Xaa02
H 4 0Xab38
H 7 0Xac00
H 9 0Xacaa
H 2 0Xad68
H 8 0Xae12
H E 0Xaee4
H 5 0Xafde
H T 0Xb0c4
B 1 0Xb164
B 6 0Xb222
B O 0Xb312
B 4 0Xb402
B 3 0Xb4ac
B 9 0Xb560
B 7 0Xb63c
B 8 0Xb6d2
B 2 0Xb790
B 5 0Xb8bc
B E 0Xb970
B T 0Xba42
H 1 0Xbc04
H O 0Xbccc
H 6 0Xbd6c
H 3 0Xbe34
H 4 0Xbefc
H 7 0Xbfec
H 9 0Xc0aa
H 2 0Xc168
H 8 0Xc23a
H E 0Xc2ee
H 5 0Xc3d4
H T 0Xc4b0
B O 0Xc578
B 1 0Xc62c
B 6 0Xc6fe
B 4 0Xc7b2
B 3 0Xc898
B 9 0Xc974
B 7 0Xca32
B 8 0Xcae6
B 2 0Xcb9a
B 5 0Xcc8a
B E 0Xcd48
B T 0Xce24
H O 0Xcffa
H 6 0Xd0a4
H 1 0Xd19e
H 3 0Xd20c
H 4 0Xd2f2
H 7 0Xd3e2
H 9 0Xd4aa
H 2 0Xd568
H 8 0Xd626
H E 0Xd6da
H 5 0Xd7a2
H T 0Xd87e
B 6 0Xd98c
B O 0Xda40
B 1 0Xdb08
B 4 0Xdbda
B 3 0Xdc98
B 9 0Xdd56
B 7 0Xde32
B 8 0Xdedc
B 2 0Xdf90
B 5 0Xe06c
B E 0Xe12a
B T 0Xe1fc
H O 0Xe3e6
H 6 0Xe49a
H 4 0Xe594
H 1 0Xe67a
H 9 0Xe710
H 3 0Xe7ce
H 8 0Xe8aa
H 7 0Xe986
H 5 0Xea26
H 2 0Xeb20
H E 0Xeb5c
H T 0Xec74
B O 0Xed6e
B 4 0Xee36
B 6 0Xeee0
B 9 0Xefee
B 1 0Xf07a
B 8 0Xf142
B 3 0Xf232
B 5 0Xf2f0
B 7 0Xf3e0
B E 0Xf480
B 2 0Xf520
B T 0Xf5f2
H 4 0Xf82c
H O 0Xf8ae
H 6 0Xf9a8
H 1 0Xfa66
H 9 0Xfb1a
H 3 0Xfbec
H 8 0Xfcaa
H 7 0Xfd68
H 5 0Xfe3a
H 2 0Xff0c
H E 0Xff8e
H T 0X0074
B 4 0X0178
B 6 0X0222
B O 0X02ea
B 9 0X03e4
B 1 0X048e
B 8 0X054c
B 3 0X0646
B 5 0X06e6
B 7 0X07cc
B E 0X084e
B 2 0X0920
B T 0X0a1a
H 6 0X0bc8
H 4 0X0cc2
H O 0X0d6c
H 1 0X0e48
H 9 0X0f1a
H 3 0X0fce
H 8 0X10a0
H 7 0X1136
H 5 0X1212
H 2 0X1316
H E 0X1370
H T 0X1456
B 6 0X1578
B O 0X1604
B 4 0X16cc
B 9 0X17b2
B 1 0X1866
B 8 0X1924
B 3 0X1a0a
B 5 0X1af0
B 7 0X1bb8
B E 0X1c08
B 2 0X1d0c
B T 0X1df2
H O 0X1f8c
H 6 0X2090
H 9 0X214e
H 4 0X2216
H 8 0X22ca
H 1 0X239c
H 5 0X246e
H 3 0X2536
H E 0X25d6
H 7 0X26c6
H 2 0X2798
H T 0X2838
B 6 0X2950
B O 0X29be
B 9 0X2ac2
B 8 0X2b94
B 4 0X2c52
B 5 0X2d60
B 1 0X2e00
B E 0X2ebe
B 3 0X2f90
B 2 0X3026
B 7 0X3116
B T 0X31c0
H 6 0X3350
H 9 0X344a
H O 0X3508
H 4 0X35e4
H 8 0X36ca
H 1 0X3792
H 5 0X385a
H 3 0X392c
H E 0X39cc
H 7 0X3a94
H 2 0X3b5c
H T 0X3c42
B 9 0X3d14
B 6 0X3dc8
B O 0X3e86
B 8 0X3f44
B 4 0X4020
B 5 0X40fc
B 1 0X41b0
B E 0X4278
B 3 0X435e
B 2 0X4426
B 7 0X44e4
B T 0X45ac
H 9 0X476e
H O 0X4818
H 6 0X48f4
H 4 0X49d0
H 8 0X4ac0
H 1 0X4b60
H 5 0X4c28
H 3 0X4cd2
H E 0X4d90
H 7 0X4e6c
H 2 0X4f3e
H T 0X4ffc
B O 0X50a6
B 9 0X51c8
B 6 0X527c
B 8 0X5358
B 4 0X5416
B 5 0X54de
B 1 0X55b0
B E 0X565a
B 3 0X5736
B 2 0X57f4
B 7 0X58c6
B T 0X5970
H 9 0X5b46
H O 0X5bf0
H 8 0X5cfe
H 6 0X5da8
H 5 0X5eac
H 4 0X5f88
H E 0X600a
H 1 0X60d2
H 2 0X61c2
H 3 0X6258
H 7 0X6352
H T 0X6406
B 9 0X64b0
B 8 0X6564
B O 0X6654
B 5 0X6744
B 6 0X6802
B E 0X68c0
B 4 0X69c4
B 2 0X6a78
B 1 0X6b36
B 7 0X6bf4
B 3 0X6cd0
B T 0X6d84
H 8 0X6f32
H 9 0X6fdc
H O 0X70e0
H 6 0X719e
H 5 0X727a
H 4 0X7360
H E 0X73f6
H 1 0X74b4
H 2 0X7590
H 3 0X763a
H 7 0X7720
H T 0X77de
B 8 0X7874
B O 0X7964
B 9 0X7a86
B 5 0X7b30
B 6 0X7c02
B E 0X7cac
B 4 0X7db0
B 2 0X7e46
B 1 0X7f0e
B 7 0X7fea
B 3 0X808a
B T 0X8152
H O 0X830a
H 8 0X83b4
H 9 0X84a4
H 6 0X859e
H 5 0X8684
H 4 0X877e
H E 0X87e2
H 1 0X88d2
H 2 0X8972
H 3 0X8a3a
H 7 0X8b16
H T 0X8bca
B O 0X8c92
B 9 0X8d64
B 8 0X8e0e
B 5 0X8f30
B 6 0X8fe4
B E 0X9070
B 4 0X9192
B 2 0X9246
B 1 0X9318
B 7 0X93d6
B 3 0X9494
B T 0X9552
H 9 0X970a
H O 0X97dc
H 5 0X98cc
H 8 0X9994
H E 0X9a48
H 6 0X9b2e
H 2 0X9c3c
H 4 0X9cfa
H 7 0X9dcc
H 1 0X9e76
H 3 0X9f34
H T 0X9fe8
B O 0Xa088
B 9 0Xa18c
B 5 0Xa25e
B E 0Xa2f4
B 8 0Xa3e4
B 2 0Xa4d4
B 6 0Xa588
B 7 0Xa68c
B 4 0Xa704
B 3 0Xa808
B 1 0Xa8a8
B T 0Xa984
H O 0Xab28
H 5 0Xabd2
H 9 0Xacc2
H 8 0Xad8a
H E 0Xae20
H 6 0Xaf2e
H 2 0Xb000
H 4 0Xb10e
H 7 0Xb1cc
H 1 0Xb280
H 3 0Xb33e
H T 0Xb3fc
B 5 0Xb4c4
B O 0Xb55a
B 9 0Xb622
B E 0Xb6cc
B 8 0Xb7d0
B 2 0Xb8ca
B 6 0Xb992
B 4 0Xba78
B 7 0Xba78
B 3 0Xbbea
B 1 0Xbca8
B T 0Xbd8e
H 5 0Xbf1e
H 9 0Xbff0
H O 0Xc0ae
H 8 0Xc158
H E 0Xc216
H 6 0Xc310
H 2 0Xc3e2
H 4 0Xc496
H 7 0Xc586
H 1 0Xc658
H 3 0Xc72a
H T 0Xc7f2
B 9 0Xc8b0
B 5 0Xc978
B O 0Xc9fa
B E 0Xcaf4
B 8 0Xcbc6
B 2 0Xccb6
B 6 0Xcd56
B 7 0Xce50
B 4 0Xcf04
B 3 0Xcfd6
B 1 0Xd076
B T 0Xd152
H 5 0Xd328
H 9 0Xd3dc
H E 0Xd49a
H O 0Xd558
H 2 0Xd652
H 8 0Xd710
H 7 0Xd7d8
H 6 0Xd8a0
H 3 0Xd97c
H 4 0Xda30
H 1 0Xdb20
H T 0Xdbb6
B 5 0Xdcba
B E 0Xdd64
B 9 0Xde40
B 2 0Xdf08
B O 0Xdf8a
B 7 0Xe08e
B 8 0Xe12e
B 3 0Xe232
B 6 0Xe2f0
B 1 0Xe3ae
B 4 0Xe48a
B T 0Xe53e
H E 0Xe6e2
H 5 0Xe7f0
H 9 0Xe8cc
H O 0Xe980
H 2 0Xea5c
H 8 0Xeb24
H 7 0Xebd8
H 6 0Xecaa
H 3 0Xed68
H 4 0Xee3a
H 1 0Xef0c
H T 0Xefac
B E 0Xf0b0
B 9 0Xf16e
B 5 0Xf240
B 2 0Xf31c
B O 0Xf3b2
B 7 0Xf466
B 8 0Xf51a
B 3 0Xf60a
B 6 0Xf6f0
B 1 0Xf7a4
B 4 0Xf862
B T 0Xf916
H 9 0Xfb14
H E 0Xfbdc
H 5 0Xfc9a
H O 0Xfd76
H 2 0Xfe48
H 8 0Xff10
H 7 0Xffec
H 6 0X00b4
H 3 0X015e
H 4 0X0230
H 1 0X032a
H T 0X0398
B 9 0X0474
B 5 0X0546
B E 0X060e
B 2 0X0726
B O 0X079e
B 7 0X0884
B 8 0X092e
B 3 0X0a3c
B 6 0X0af0
B 1 0X0bb8
B 4 0X0c3a
B T 0X0d2a
H 5 0X0f00
H 9 0X0fc8
H 2 0X109a
H E 0X113a
H 7 0X1252
H O 0X12fc
H 3 0X13e2
H 8 0X14b4
H 1 0X1568
H 6 0X161c
H 4 0X16d0
H T 0X178e
B 9 0X186a
B 5 0X1978
B 2 0X1a4a
B 7 0X1afe
B E 0X1b8a
B 3 0X1c7a
B O 0X1d1a
B 1 0X1dec
B 8 0X1eb4
B 4 0X1fa4
B 6 0X208a
B T 0X2148
H 9 0X231e
H 2 0X23dc
H 5 0X24a4
H E 0X256c
H 7 0X262a
H O 0X2710
H 3 0X2792
H 8 0X2864
H 1 0X2954
H 6 0X2a44
H 4 0X2ac6
H T 0X2bc0
B 2 0X2cb0
B 9 0X2d5a
B 5 0X2e22
B 7 0X2f12
B E 0X2fbc
B 3 0X3098
B O 0X311a
B 1 0X31ec
B 8 0X32aa
B 4 0X339a
B 6 0X34a8
B T 0X3548
H 2 0X370a
H 5 0X37be
H 9 0X3890
H E 0X3958
H 7 0X3a16
H O 0X3b1a
H 3 0X3bc4
H 8 0X3c82
H 1 0X3d54
H 6 0X3e30
H 4 0X3ef8
H T 0X3fca
B 5 0X4092
B 2 0X4178
B 9 0X4222
B 7 0X42e0
B E 0X43a8
B 3 0X447a
B O 0X454c
B 1 0X4614
B 8 0X46aa
B 4 0X4790
B 6 0X4858
B T 0X4948
H 2 0X4af6
H 5 0X4baa
H 7 0X4c86
H 9 0X4d44
H 3 0X4e20
H E 0X4eca
H 1 0X4fba
H O 0X5078
H 4 0X514a
H 8 0X521c
H 6 0X52d0
H T 0X53b6
B 2 0X5474
B 7 0X5532
B 5 0X55f0
B 3 0X56d6
B 9 0X578a
B 1 0X585c
B E 0X58fc
B 4 0X59f6
B O 0X5abe
B 6 0X5bae
B 8 0X5c58
B T 0X5d34
H 7 0X5ece
H 2 0X5faa
H 5 0X605e
H 9 0X6144
H 3 0X61e4
H E 0X62ac
H 1 0X6388
H O 0X645a
H 4 0X6536
H 8 0X65f4
H 6 0X66d0
H T 0X67ac
B 7 0X686a
B 5 0X6950
B 2 0X6a22
B 3 0X6ac2
B 9 0X6b94
B 1 0X6c20
B E 0X6cde
B 4 0X6d92
B O 0X6e78
B 6 0X6fa4
B 8 0X7058
B T 0X7116
H 5 0X72ce
H 7 0X73aa
H 2 0X747c
H 9 0X754e
H 3 0X7602
H E 0X76c0
H 1 0X7792
H O 0X7846
H 4 0X7904
H 8 0X79d6
H 6 0X7ad0
H T 0X7b84
B 5 0X7c60
B 2 0X7d3c
B 7 0X7df0
B 3 0X7ee0
B 9 0X7fa8
B 1 0X8052
B E 0X8110
B 4 0X81e2
B O 0X8296
B 6 0X83a4
B 8 0X8426
B T 0X84ee
H 2 0X86ce
H 5 0X878c
H 3 0X8868
H 7 0X8944
H 1 0X89f8
H 9 0X8ade
H 4 0X8b92
H E 0X8c3c
H 6 0X8d0e
H O 0X8de0
H 8 0X8eb2
H T 0X8f70
B 5 0X9074
B 2 0X9150
B 3 0X91f0
B 1 0X929a
B 7 0X936c
B 4 0X9416
B 9 0X94f2
B 6 0X95e2
B E 0X96a0
B 8 0X975e
B O 0X9844
B T 0X992a
H 5 0X9ac4
H 3 0X9ba0
H 2 0X9c72
H 7 0X9d44
H 1 0X9e0c
H 9 0X9ea2
H 4 0X9f56
H E 0Xa01e
H 6 0Xa104
H O 0Xa1f4
H 8 0Xa2bc
H T 0Xa37a
B 3 0Xa44c
B 5 0Xa528
B 2 0Xa5f0
B 1 0Xa6ae
B 7 0Xa776
B 4 0Xa816
B 9 0Xa8f2
B 6 0Xa9d8
B E 0Xaab4
B 8 0Xab5e
B O 0Xac12
B T 0Xad02
H 3 0Xae7e
H 2 0Xaf6e
H 5 0Xb022
H 7 0Xb112
H 1 0Xb1e4
H 9 0Xb2b6
H 4 0Xb360
H E 0Xb432
H 6 0Xb504
H O 0Xb5e0
H 8 0Xb6da
H T 0Xb770
B 2 0Xb856
B 3 0Xb8ec
B 5 0Xb9c8
B 1 0Xbaa4
B 7 0Xbb3a
B 4 0Xbbee
B 9 0Xbcca
B 6 0Xbda6
B E 0Xbe78
B 8 0Xbf40
B O 0Xc01c
B T 0Xc0f8
H 3 0Xc288
H 2 0Xc364
H 1 0Xc440
H 5 0Xc4fe
H 4 0Xc5d0
H 7 0Xc670
H 6 0Xc74c
H 9 0Xc7e2
H 8 0Xc8e6
H E 0Xc990
H O 0Xca6c
H T 0Xcb52
B 3 0Xcc24
B 1 0Xccce
B 2 0Xcd64
B 4 0Xce54
B 5 0Xcf44
B 6 0Xcfda
B 7 0Xd0b6
B 8 0Xd174
B 9 0Xd246
B O 0Xd2fa
B E 0Xd3b8
B T 0Xd4a8
H 1 0Xd692
H 3 0Xd70a
H 2 0Xd7f0
H 5 0Xd8a4
H 4 0Xd96c
H 7 0Xda2a
H 6 0Xdb10
H 9 0Xdbb0
H 8 0Xdcb4
H E 0Xdd72
H O 0Xde62
H T 0Xdf0c
B 1 0Xdfc0
B 2 0Xe0a6
B 3 0Xe132
B 4 0Xe204
B 5 0Xe2cc
B 6 0Xe3b2
B 7 0Xe48e
B 8 0Xe52e
B 9 0Xe600
B O 0Xe6be
B E 0Xe79a
B T 0Xe862
H 1 0Xea38
H 2 0Xeb00
H 3 0Xeba0
H 4 0Xec5e
H 5 0Xecf4
H 6 0Xee0c
H 7 0Xeeb6
H 8 0Xef88
H 9 0Xf028
H O 0Xf104
H E 0Xf1c2
H T 0Xf29e
B 1 0Xf366
B 2 0Xf438
B 3 0Xf4e2
B 4 0Xf5b4
B 5 0Xf668
B 6 0Xf758
B 7 0Xf82a
B 8 0Xf8e8
B 9 0Xf9ba
B O 0Xfa64
B E 0Xfb40
B T 0Xfbfe
H 1 0Xfdac
H 2 0Xfe7e
H 3 0Xff1e
H 4 0X0004
H 5 0X009a
H 6 0X01a8
H 7 0X0266
H 8 0X0338
H 9 0X03e2
H O 0X04d2
H E 0X059a
H T 0X064e
B 1 0X06ee
B 2 0X07ac
B 3 0X084c
B 4 0X08ec
B 5 0X09f0
B 6 0X0acc
B 7 0X0bb2
B 8 0X0c8e
B 9 0X0d60
B O 0X0e28
B E 0X0f04
B T 0X0fae
H 1 0X1148
H 2 0X122e
H 3 0X12ba
H 4 0X1364
H 5 0X140e
H 6 0X1512
H 7 0X15ee
H 8 0X16ac
H 9 0X176a
H O 0X1878
H E 0X190e
H T 0X19cc
B 1 0X1a76
B 2 0X1b70
B 3 0X1c10
B 4 0X1cd8
B 5 0X1d96
B 6 0X1e72
B 7 0X1f58
B 8 0X200c
B 9 0X20d4
B O 0X219c
B E 0X22c8
B T 0X2390
