#. Lowndes: Version 2
#. SourceFilename: C:\Users\Guildford Ringers\Documents\guildfordcathedralbells.bitbucket.io\Recordings\Guildford\Guildford.20220422-2105.s12t12.6.mp3
#. Tower: Guildford Cathedral
#. RingingName: Touch 6
#. RingingDateTime: 20220422-2105
#. Rungon: 
#. Tenor: 12
#. NumBellsRinging: 12
#. Creator: HawkEar Team Edition V1 for Guildford Cathedral
#. CreatorVersion: 1.1.0.3
#. TranscribedFor: Guildford band
#. TranscriptionDateTime: 20220423-0020
#. FirstBlowMs: 2430
#. Touchdb: -9.38456
#. TraindB: -9.73, -8.5, -6.1, -3.11, -3.16, -3.1, -3.98, -4.12, -5.95, -5.43, -4.92, -3
#. TrainedOn: 20220102-1438
#. TrainDataRecordedOn: 20210813-1741
#. TrainParams: -ft:y -ws:0.05 -hs:0.01 -co:0.9 -sw:40 -ts:
#. GainParams: -fh:6000 -fl:200
#. OnsetParams: -mb:80 -mf:10 -ng:0.3 -oo:0
#. WriteParams: -hb:y
#. AnalParams: -au:y -xp:n -sg:n -hsg:-1
#. ExpString: 
#. Association: 
#. Calling: 
#. Compositionname: 
#. Method: 
#. Footnotes: 
#. Ringers: 
#. Stage: 
H 1 0X097e
H 2 0X0a50
H 3 0X0b0e
H 4 0X0bb8
H 5 0X0c6c
H 6 0X0d20
H 7 0X0e42
H 8 0X0ed8
H 9 0X0fc8
H O 0X10c2
H E 0X1162
H T 0X1252
B 1 0X13b0
B 2 0X146e
B 3 0X1504
B 4 0X1590
B 5 0X166c
B 6 0X1720
B 7 0X1810
B 8 0X18a6
B 9 0X19aa
B O 0X1a68
B E 0X1b6c
B T 0X1c84
H 1 0X1de2
H 2 0X1eaa
H 3 0X1f72
H 4 0X2044
H 5 0X20da
H 6 0X218e
H 7 0X227e
H 8 0X235a
H 9 0X242c
H O 0X2508
H E 0X25b2
H T 0X26a2
B 1 0X2792
B 2 0X285a
B 3 0X2904
B 4 0X29b8
B 5 0X2a80
B 6 0X2b48
B 7 0X2c06
B 8 0X2cc4
B 9 0X2d82
B O 0X2e72
B E 0X2f4e
B T 0X302a
H 1 0X31f6
H 2 0X32be
H 3 0X3386
H 4 0X3426
H 5 0X34e4
H 6 0X3570
H 7 0X3656
H 8 0X3728
H 9 0X37f0
H O 0X38e0
H E 0X39b2
H T 0X3a84
B 1 0X3b88
B 2 0X3c3c
B 3 0X3cdc
B 4 0X3d68
B 5 0X3e4e
B 6 0X3f02
B 7 0X3fd4
B 8 0X407e
B 9 0X4150
B O 0X4218
B E 0X42f4
B T 0X43f8
H 1 0X45c4
H 2 0X4682
H 3 0X4736
H 4 0X4808
H 5 0X48a8
H 6 0X4952
H 7 0X4a24
H 8 0X4af6
H 9 0X4bb4
H O 0X4c5e
H E 0X4d30
H T 0X4e02
B 1 0X4efc
B 2 0X4fba
B 3 0X5078
B 4 0X5136
B 5 0X51fe
B 6 0X52c6
B 7 0X537a
B 8 0X542e
B 9 0X54e2
B O 0X5596
B E 0X5672
B T 0X5762
H 1 0X5910
H 2 0X59ec
H 3 0X5a96
H 4 0X5b5e
H 5 0X5bf4
H 6 0X5cda
H 7 0X5d98
H 8 0X5e88
H 9 0X5f32
H O 0X5ff0
H E 0X60cc
H T 0X6176
B 1 0X6248
B 2 0X6324
B 3 0X63ec
B 4 0X6482
B 5 0X6540
B 6 0X663a
B 7 0X66e4
B 8 0X67ac
B 9 0X6856
B O 0X6928
B E 0X6a04
B T 0X6ad6
H 1 0X6c84
H 2 0X6d4c
H 3 0X6e0a
H 4 0X6eb4
H 5 0X6f4a
H 6 0X7030
H 7 0X70ee
H 8 0X71ac
H 9 0X7274
H O 0X7346
H E 0X7404
H T 0X74f4
B 1 0X75e4
B 2 0X7698
B 3 0X7742
B 4 0X77e2
B 5 0X78b4
B 6 0X795e
B 7 0X7a1c
B 8 0X7af8
B 9 0X7bac
B O 0X7c74
B E 0X7d50
B T 0X7e4a
H 1 0X7fda
H 2 0X80a2
H 3 0X8160
H 4 0X821e
H 5 0X82be
H 6 0X837c
H 7 0X844e
H 8 0X8502
H 9 0X85d4
H O 0X86a6
H E 0X8778
H T 0X884a
B 1 0X8944
B 2 0X89da
B 3 0X8a84
B 4 0X8b4c
B 5 0X8c14
B 6 0X8cdc
B 7 0X8d86
B 8 0X8e44
B 9 0X8f16
B O 0X8fca
B E 0X90c4
B T 0X91a0
H 2 0X9362
H 1 0X9448
H 3 0X9506
H 5 0X95ba
H 4 0X968c
H 7 0X9722
H 6 0X97cc
H 9 0X98b2
H 8 0X9984
H E 0X9a1a
H O 0X9b0a
H T 0X9be6
B 2 0X9cae
B 3 0X9d76
B 1 0X9e3e
B 4 0X9efc
B 5 0X9fd8
B 6 0Xa078
B 7 0Xa122
B 8 0Xa1ea
B 9 0Xa2bc
B O 0Xa370
B E 0Xa456
B T 0Xa532
H 3 0Xa71c
H 2 0Xa7da
H 4 0Xa8b6
H 1 0Xa974
H 6 0Xaa00
H 5 0Xaabe
H 8 0Xab9a
H 7 0Xac44
H 9 0Xacf8
H E 0Xadb6
H O 0Xae88
H T 0Xaf6e
B 2 0Xb07c
B 3 0Xb126
B 4 0Xb1b2
B 6 0Xb2ac
B 1 0Xb37e
B 8 0Xb41e
B 5 0Xb4f0
B 9 0Xb5b8
B 7 0Xb662
B O 0Xb6f8
B E 0Xb7fc
B T 0Xb8c4
H 2 0Xbac2
H 4 0Xbb76
H 3 0Xbc34
H 1 0Xbd10
H 6 0Xbd92
H 5 0Xbe6e
H 8 0Xbf4a
H 7 0Xbff4
H 9 0Xc0c6
H E 0Xc152
H O 0Xc21a
H T 0Xc30a
B 4 0Xc3e6
B 2 0Xc4e0
B 3 0Xc594
B 6 0Xc652
B 1 0Xc71a
B 8 0Xc7ce
B 5 0Xc8b4
B 9 0Xc968
B 7 0Xca1c
B O 0Xca8a
B E 0Xcbac
B T 0Xcc6a
H 4 0Xce40
H 3 0Xcf1c
H 2 0Xcfda
H 1 0Xd0c0
H 6 0Xd12e
H 5 0Xd232
H 8 0Xd30e
H 7 0Xd3cc
H 9 0Xd46c
H E 0Xd520
H O 0Xd5de
H T 0Xd6c4
B 3 0Xd7aa
B 4 0Xd85e
B 2 0Xd944
B 6 0Xda0c
B 1 0Xdaca
B 8 0Xdb88
B 5 0Xdc78
B 9 0Xdd18
B 7 0Xddc2
B O 0Xde6c
B E 0Xdf70
B T 0Xe02e
H 4 0Xe1fa
H 3 0Xe2c2
H 6 0Xe38a
H 2 0Xe498
H 8 0Xe556
H 1 0Xe614
H 9 0Xe682
H 5 0Xe786
H O 0Xe7f4
H 7 0Xe89e
H E 0Xe970
H T 0Xea74
B 4 0Xeb1e
B 6 0Xec22
B 3 0Xecf4
B 8 0Xedbc
B 2 0Xeea2
B 9 0Xef60
B 1 0Xf028
B O 0Xf078
B 5 0Xf17c
B E 0Xf226
B 7 0Xf2e4
B T 0Xf3de
H 6 0Xf596
H 4 0Xf6a4
H 3 0Xf758
H 2 0Xf816
H 8 0Xf8de
H 1 0Xf9a6
H 9 0Xfa3c
H 5 0Xfb22
H O 0Xfb9a
H 7 0Xfc58
H E 0Xfd20
H T 0Xfde8
B 6 0Xff1e
B 3 0Xffe6
B 4 0X00d6
B 8 0X018a
B 2 0X0252
B 9 0X0306
B 1 0X03ba
B O 0X045a
B 5 0X054a
B E 0X05fe
B 7 0X06a8
B T 0X0784
H 3 0X095a
H 6 0X0a18
H 4 0X0b08
H 2 0X0c16
H 8 0X0cb6
H 1 0X0d42
H 9 0X0e0a
H 5 0X0ef0
H O 0X0f90
H 7 0X1008
H E 0X10c6
H T 0X11b6
B 3 0X12ba
B 4 0X138c
B 6 0X1436
B 8 0X1544
B 2 0X1620
B 9 0X16de
B 1 0X1774
B O 0X183c
B 5 0X190e
B E 0X19b8
B 7 0X1a58
B T 0X1b34
H 4 0X1d14
H 3 0X1dc8
H 8 0X1eb8
H 6 0X1f6c
H 9 0X203e
H 2 0X2106
H O 0X21c4
H 1 0X22a0
H 5 0X2354
H 7 0X241c
H E 0X24c6
H T 0X25ca
B 3 0X2692
B 4 0X2746
B 8 0X27fa
B 9 0X28c2
B 6 0X2980
B O 0X2a3e
B 2 0X2b42
B 5 0X2c28
B 1 0X2cc8
B E 0X2d86
B 7 0X2e58
B T 0X2f66
H 3 0X30c4
H 8 0X31aa
H 4 0X3272
H 6 0X3344
H 9 0X33d0
H 2 0X34b6
H O 0X352e
H 1 0X3632
H 5 0X370e
H 7 0X37ea
H E 0X3876
H T 0X3966
B 8 0X3a74
B 3 0X3b32
B 4 0X3baa
B 9 0X3c9a
B 6 0X3d76
B O 0X3e20
B 2 0X3f06
B 5 0X3fc4
B 1 0X40a0
B E 0X414a
B 7 0X4226
B T 0X42d0
H 8 0X44e2
H 4 0X458c
H 3 0X4654
H 6 0X471c
H 9 0X47a8
H 2 0X488e
H O 0X4974
H 1 0X4a3c
H 5 0X4af0
H 7 0X4bcc
H E 0X4c4e
H T 0X4d34
B 4 0X4e06
B 8 0X4ee2
B 3 0X4fe6
B 9 0X5086
B 6 0X5144
B O 0X5216
B 2 0X52e8
B 5 0X53ba
B 1 0X5478
B E 0X5536
B 7 0X5630
B T 0X56da
H 8 0X58b0
H 4 0X595a
H 9 0X5a22
H 3 0X5b08
H O 0X5ba8
H 6 0X5c98
H 5 0X5d74
H 2 0X5e5a
H E 0X5ed2
H 1 0X5f9a
H 7 0X606c
H T 0X612a
B 8 0X61f2
B 9 0X62e2
B 4 0X63aa
B O 0X644a
B 3 0X6558
B 5 0X662a
B 6 0X66c0
B E 0X67a6
B 2 0X6864
B 7 0X692c
B 1 0X69f4
B T 0X6ac6
H 9 0X6c88
H 8 0X6d3c
H 4 0X6df0
H 3 0X6ef4
H O 0X6f94
H 6 0X7066
H 5 0X7160
H 2 0X7246
H E 0X72aa
H 1 0X7390
H 7 0X7430
H T 0X74f8
B 9 0X75e8
B 4 0X769c
B 8 0X776e
B O 0X7840
B 3 0X791c
B 5 0X79f8
B 6 0X7ab6
B E 0X7b74
B 2 0X7c32
B 7 0X7d2c
B 1 0X7dea
B T 0X7e80
H 4 0X8060
H 9 0X80ec
H 8 0X81be
H 3 0X82b8
H O 0X838a
H 6 0X845c
H 5 0X852e
H 2 0X8600
H E 0X8696
H 1 0X875e
H 7 0X881c
H T 0X88da
B 4 0X89a2
B 8 0X8a60
B 9 0X8b5a
B O 0X8c18
B 3 0X8d1c
B 5 0X8dda
B 6 0X8e8e
B E 0X8f60
B 2 0X9028
B 7 0X90f0
B 1 0X9190
B T 0X9276
H 8 0X942e
H 4 0X94ec
H O 0X95a0
H 9 0X9672
H 5 0X9762
H 3 0X982a
H E 0X98e8
H 6 0X999c
H 7 0X9aa0
H 2 0X9b7c
H 1 0X9c3a
H T 0X9cb2
B 4 0X9d70
B 8 0X9e60
B O 0X9f28
B 5 0X9ffa
B 9 0Xa0b8
B E 0Xa180
B 3 0Xa284
B 7 0Xa306
B 6 0Xa3f6
B 1 0Xa4d2
B 2 0Xa590
B T 0Xa64e
H 4 0Xa7fc
H O 0Xa87e
H 8 0Xa96e
H 9 0Xaa4a
H 5 0Xab1c
H 3 0Xabda
H E 0Xac98
H 6 0Xad6a
H 7 0Xae3c
H 2 0Xaf18
H 1 0Xaff4
H T 0Xb0a8
B O 0Xb166
B 4 0Xb224
B 8 0Xb2ce
B 5 0Xb3be
B 9 0Xb490
B E 0Xb56c
B 3 0Xb652
B 7 0Xb6c0
B 6 0Xb7e2
B 1 0Xb8be
B 2 0Xb92c
B T 0Xba12
H O 0Xbbd4
H 8 0Xbcce
H 4 0Xbd78
H 9 0Xbe22
H 5 0Xbee0
H 3 0Xbfb2
H E 0Xc052
H 6 0Xc192
H 7 0Xc250
H 2 0Xc318
H 1 0Xc3fe
H T 0Xc476
B 8 0Xc570
B O 0Xc62e
B 4 0Xc6e2
B 5 0Xc796
B 9 0Xc868
B E 0Xc94e
B 3 0Xca16
B 7 0Xcac0
B 6 0Xcbba
B 1 0Xccc8
B 2 0Xcd72
B T 0Xce12
H O 0Xcfb6
H 8 0Xd092
H 5 0Xd13c
H 4 0Xd254
H E 0Xd2b8
H 9 0Xd376
H 7 0Xd484
H 3 0Xd524
H 1 0Xd5ec
H 6 0Xd68c
H 2 0Xd772
H T 0Xd88a
B O 0Xd93e
B 5 0Xda1a
B 8 0Xdac4
B E 0Xdb82
B 4 0Xdc90
B 7 0Xdd26
B 9 0Xdde4
B 1 0Xdea2
B 3 0Xdf6a
B 2 0Xe014
B 6 0Xe104
B T 0Xe1cc
H 5 0Xe3ac
H O 0Xe44c
H 8 0Xe532
H 4 0Xe622
H E 0Xe690
H 9 0Xe762
H 7 0Xe834
H 3 0Xe91a
H 1 0Xe9f6
H 6 0Xea78
H 2 0Xeb4a
H T 0Xec30
B 5 0Xed0c
B 8 0Xedd4
B O 0Xee9c
B E 0Xef82
B 4 0Xf02c
B 7 0Xf0f4
B 9 0Xf1b2
B 1 0Xf2b6
B 3 0Xf360
B 2 0Xf41e
B 6 0Xf4fa
B T 0Xf5a4
H 8 0Xf77a
H 5 0Xf856
H O 0Xf8f6
H 4 0Xfa0e
H E 0Xfa86
H 9 0Xfb58
H 7 0Xfc34
H 3 0Xfd06
H 1 0Xfdce
H 6 0Xfe8c
H 2 0Xff72
H T 0X0008
B 8 0X00f8
B O 0X01a2
B 5 0X029c
B E 0X036e
B 4 0X044a
B 7 0X04ea
B 9 0X05a8
B 1 0X0634
B 3 0X074c
B 2 0X0832
B 6 0X08fa
B T 0X0990
H O 0X0b48
H 8 0X0c24
H E 0X0d0a
H 5 0X0dfa
H 7 0X0ea4
H 4 0X0f8a
H 1 0X1052
H 9 0X10f2
H 2 0X11ce
H 3 0X1278
H 6 0X130e
H T 0X13fe
B 8 0X14ee
B O 0X15a2
B E 0X16b0
B 7 0X1778
B 5 0X1836
B 1 0X1908
B 4 0X19c6
B 2 0X1a98
B 9 0X1b60
B 6 0X1c14
B 3 0X1cdc
B T 0X1d7c
H 8 0X1f66
H E 0X201a
H O 0X20d8
H 5 0X21f0
H 7 0X22ae
H 4 0X2380
H 1 0X2434
H 9 0X24fc
H 2 0X2592
H 3 0X2682
H 6 0X2722
H T 0X27ea
B E 0X28da
B 8 0X29de
B O 0X2a6a
B 7 0X2b5a
B 5 0X2c22
B 1 0X2cea
B 4 0X2d80
B 2 0X2e52
B 9 0X2f56
B 6 0X300a
B 3 0X30dc
B T 0X3190
H E 0X332a
H O 0X3424
H 8 0X350a
H 5 0X35d2
H 7 0X3690
H 4 0X3762
H 1 0X382a
H 9 0X38ca
H 2 0X3992
H 3 0X3a64
H 6 0X3b0e
H T 0X3c12
B O 0X3cc6
B E 0X3d98
B 8 0X3e60
B 7 0X3f6e
B 5 0X4022
B 1 0X40e0
B 4 0X4176
B 2 0X4266
B 9 0X432e
B 6 0X43f6
B 3 0X44b4
B T 0X45a4
H O 0X4810
H E 0X481a
H 7 0X4900
H 8 0X49b4
H 1 0X4aa4
H 5 0X4b3a
H 2 0X4c0c
H 4 0X4cd4
H 6 0X4da6
H 9 0X4e64
H 3 0X4f22
H T 0X5012
B E 0X5134
B 7 0X51fc
B O 0X527e
B 1 0X5364
B 8 0X5404
B 2 0X54d6
B 5 0X556c
B 6 0X5670
B 4 0X5756
B 3 0X5828
B 9 0X5882
B T 0X5986
H 7 0X5b52
H E 0X5c42
H O 0X5d28
H 8 0X5db4
H 1 0X5e9a
H 5 0X5f44
H 2 0X5ff8
H 4 0X612e
H 6 0X6188
H 9 0X625a
H 3 0X6318
H T 0X63f4
B 7 0X64da
B O 0X6584
B E 0X66ba
B 1 0X6764
B 8 0X67f0
B 2 0X68ea
B 5 0X698a
B 6 0X6a52
B 4 0X6b38
B 3 0X6c00
B 9 0X6cb4
B T 0X6d72
H O 0X6f3e
H 7 0X6ff2
H E 0X70b0
H 8 0X71c8
H 1 0X729a
H 5 0X7330
H 2 0X73f8
H 4 0X74de
H 6 0X7574
H 9 0X765a
H 3 0X772c
H T 0X77f4
B O 0X78b2
B E 0X7998
B 7 0X7a56
B 1 0X7b50
B 8 0X7bf0
B 2 0X7ccc
B 5 0X7d76
B 6 0X7e5c
B 4 0X7f1a
B 3 0X800a
B 9 0X80a0
B T 0X8172
H E 0X8320
H O 0X83fc
H 1 0X84d8
H 7 0X8564
H 2 0X862c
H 8 0X874e
H 6 0X87e4
H 5 0X88d4
H 3 0X89a6
H 4 0X8a64
H 9 0X8b22
H T 0X8c12
B O 0X8c94
B E 0X8d70
B 1 0X8e4c
B 2 0X8f0a
B 7 0X8fa0
B 6 0X90c2
B 8 0X9176
B 3 0X9266
B 5 0X9324
B 9 0X93d8
B 4 0X94c8
B T 0X9590
H O 0X9702
H 1 0X97ca
H E 0X9888
H 7 0X996e
H 2 0X9a36
H 8 0X9b44
H 6 0X9bbc
H 5 0X9cd4
H 3 0X9d92
H 4 0X9e32
H 9 0X9f04
H T 0X9fcc
B 1 0Xa08a
B O 0Xa116
B E 0Xa260
B 2 0Xa300
B 7 0Xa3be
B 6 0Xa486
B 8 0Xa558
B 3 0Xa616
B 5 0Xa706
B 9 0Xa7c4
B 4 0Xa8aa
B T 0Xa954
H 1 0Xaaee
H E 0Xabb6
H O 0Xaca6
H 7 0Xad50
H 2 0Xae04
H 8 0Xaf30
H 6 0Xaf62
H 5 0Xb0a2
H 3 0Xb14c
H 4 0Xb23c
H 9 0Xb2be
H T 0Xb3b8
B E 0Xb4bc
B 1 0Xb548
B O 0Xb5e8
B 2 0Xb6ce
B 7 0Xb782
B 6 0Xb840
B 8 0Xb944
B 3 0Xba02
B 5 0Xbaca
B 9 0Xbb74
B 4 0Xbc8c
B T 0Xbd36
H 1 0Xbeb2
H E 0Xbfa2
H 2 0Xc04c
H O 0Xc132
H 6 0Xc204
H 7 0Xc2e0
H 3 0Xc3b2
H 8 0Xc466
H 9 0Xc542
H 5 0Xc5f6
H 4 0Xc6fa
H T 0Xc790
B 1 0Xc826
B 2 0Xc902
B E 0Xc9b6
B 6 0Xcad8
B O 0Xcb46
B 3 0Xcc5e
B 7 0Xccf4
B 9 0Xcdd0
B 8 0Xcede
B 4 0Xcf9c
B 5 0Xd046
B T 0Xd10e
H 2 0Xd2c6
H 1 0Xd3a2
H E 0Xd42e
H O 0Xd51e
H 6 0Xd5dc
H 7 0Xd6d6
H 3 0Xd78a
H 8 0Xd866
H 9 0Xd906
H 5 0Xd9c4
H 4 0Xdaa0
H T 0Xdb68
B 2 0Xdc44
B E 0Xdce4
B 1 0Xddb6
B 6 0Xde9c
B O 0Xdf46
B 3 0Xe04a
B 7 0Xe0e0
B 9 0Xe1a8
B 8 0Xe28e
B 4 0Xe388
B 5 0Xe41e
B T 0Xe4f0
H E 0Xe6bc
H 2 0Xe766
H 1 0Xe84c
H O 0Xe8ec
H 6 0Xe9b4
H 7 0Xea86
H 3 0Xeb62
H 8 0Xec3e
H 9 0Xecd4
H 5 0Xedc4
H 4 0Xee78
H T 0Xef68
B E 0Xf06c
B 1 0Xf120
B 2 0Xf1c0
B 6 0Xf288
B O 0Xf33c
B 3 0Xf422
B 7 0Xf4ea
B 9 0Xf580
B 8 0Xf670
B 4 0Xf74c
B 5 0Xf828
B T 0Xf8dc
H 1 0Xfa9e
H E 0Xfb7a
H 6 0Xfc10
H 2 0Xfce2
H 3 0Xfdd2
H O 0Xfe7c
H 9 0Xff4e
H 7 0X0016
H 4 0X00f2
H 8 0X019c
H 5 0X0250
H T 0X034a
B E 0X0458
B 1 0X0502
B 6 0X05ca
B 3 0X0692
B 2 0X075a
B 9 0X0818
B O 0X08d6
B 4 0X0980
B 7 0X0a34
B 5 0X0b1a
B 8 0X0c00
B T 0X0cd2
H E 0X0eb2
H 6 0X0f66
H 1 0X102e
H 2 0X10e2
H 3 0X11a0
H O 0X127c
H 9 0X1344
H 7 0X13ee
H 4 0X14e8
H 8 0X15b0
H 5 0X165a
H T 0X174a
B 6 0X184e
B E 0X1916
B 1 0X19b6
B 3 0X1a88
B 2 0X1b1e
B 9 0X1bfa
B O 0X1ccc
B 4 0X1d94
B 7 0X1e02
B 5 0X1f1a
B 8 0X200a
B T 0X20c8
H 6 0X2280
H 1 0X237a
H E 0X23f2
H 2 0X24ec
H 3 0X25aa
H O 0X264a
H 9 0X2708
H 7 0X27e4
H 4 0X28b6
H 8 0X299c
H 5 0X2a5a
H T 0X2b22
B 1 0X2c30
B 6 0X2ce4
B E 0X2de8
B 3 0X2e60
B 2 0X2f32
B 9 0X2ffa
B O 0X30c2
B 4 0X3176
B 7 0X3234
B 5 0X32fc
B 8 0X33e2
B T 0X3496
H 6 0X368a
H 1 0X375c
H 3 0X3824
H E 0X38e2
H 9 0X398c
H 2 0X3a4a
H 4 0X3b1c
H O 0X3bda
H 5 0X3ca2
H 7 0X3d6a
H 8 0X3e46
H T 0X3f04
B 6 0X3ff4
B 3 0X40e4
B 1 0X4184
B 9 0X4274
B E 0X4332
B 4 0X4404
B 2 0X44b8
B 5 0X4576
B O 0X4634
B 8 0X4710
B 7 0X47e2
B T 0X4896
H 3 0X4a6c
H 6 0X4b20
H 1 0X4bf2
H E 0X4cd8
H 9 0X4da0
H 2 0X4e72
H 4 0X4f76
H O 0X4fe4
H 5 0X50a2
H 7 0X516a
H 8 0X5246
H T 0X5318
B 3 0X53cc
B 1 0X54c6
B 6 0X5566
B 9 0X5642
B E 0X5714
B 4 0X57d2
B 2 0X58a4
B 5 0X599e
B O 0X5a34
B 8 0X5b1a
B 7 0X5bd8
B T 0X5caa
H 1 0X5e44
H 3 0X5f0c
H 6 0X5fe8
H E 0X6092
H 9 0X6178
H 2 0X624a
H 4 0X6312
H O 0X63da
H 5 0X6498
H 7 0X6588
H 8 0X6664
H T 0X672c
B 1 0X67c2
B 6 0X688a
B 3 0X697a
B 9 0X6a1a
B E 0X6ae2
B 4 0X6bbe
B 2 0X6c72
B 5 0X6d4e
B O 0X6e2a
B 8 0X6f1a
B 7 0X6fe2
B T 0X7082
H 6 0X7244
H 1 0X733e
H 9 0X73d4
H 3 0X7474
H 4 0X756e
H E 0X7640
H 5 0X7712
H 2 0X77d0
H 8 0X78c0
H O 0X7988
H 7 0X7a46
H T 0X7adc
B 1 0X7bcc
B 6 0X7c9e
B 9 0X7d66
B 4 0X7e42
B 3 0X7f00
B 5 0X7fbe
B E 0X80a4
B 8 0X8194
B 2 0X8220
B 7 0X8310
B O 0X83e2
B T 0X8496
H 1 0X8612
H 9 0X86ee
H 6 0X87ac
H 3 0X88c4
H 4 0X896e
H E 0X8a36
H 5 0X8b26
H 2 0X8c02
H 8 0X8cca
H O 0X8d7e
H 7 0X8e6e
H T 0X8efa
B 9 0X8fb8
B 1 0X908a
B 6 0X9152
B 4 0X924c
B 3 0X9314
B 5 0X93dc
B E 0X94cc
B 8 0X959e
B 2 0X963e
B 7 0X972e
B O 0X97e2
B T 0X9896
H 9 0X9a80
H 6 0X9b3e
H 1 0X9bf2
H 3 0X9cb0
H 4 0X9d64
H E 0X9e4a
H 5 0X9f12
H 2 0X9ff8
H 8 0Xa0c0
H O 0Xa1a6
H 7 0Xa25a
H T 0Xa30e
B 6 0Xa3fe
B 9 0Xa4e4
B 1 0Xa5a2
B 4 0Xa624
B 3 0Xa700
B 5 0Xa804
B E 0Xa886
B 8 0Xa976
B 2 0Xaa20
B 7 0Xaafc
B O 0Xabec
B T 0Xacbe
H 9 0Xae6c
H 6 0Xaf48
H 4 0Xb006
H 1 0Xb0ec
H 5 0Xb1aa
H 3 0Xb25e
H 8 0Xb33a
H E 0Xb3c6
H 2 0Xb47a
H O 0Xb57e
H 7 0Xb61e
H T 0Xb6fa
B 9 0Xb7ea
B 4 0Xb8bc
B 6 0Xb97a
B 5 0Xba88
B 1 0Xbb32
B 8 0Xbc40
B 3 0Xbccc
B 2 0Xbd58
B E 0Xbe2a
B 7 0Xbf06
B O 0Xbfb0
B T 0Xc0a0
H 4 0Xc23a
H 9 0Xc334
H 6 0Xc3f2
H 1 0Xc4d8
H 5 0Xc56e
H 3 0Xc65e
H 8 0Xc758
H E 0Xc7ee
H 2 0Xc87a
H O 0Xc938
H 7 0Xca28
H T 0Xcaf0
B 4 0Xcbae
B 6 0Xcc94
B 9 0Xcd8e
B 5 0Xce4c
B 1 0Xcf0a
B 8 0Xcffa
B 3 0Xd0cc
B 2 0Xd176
B E 0Xd20c
B 7 0Xd2ca
B O 0Xd39c
B T 0Xd496
H 6 0Xd63a
H 4 0Xd72a
H 9 0Xd806
H 1 0Xd8ba
H 5 0Xd96e
H 3 0Xda5e
H 8 0Xdb4e
H E 0Xdc02
H 2 0Xdc7a
H O 0Xdd42
H 7 0Xde00
H T 0Xdee6
B 6 0Xdfc2
B 9 0Xe08a
B 4 0Xe170
B 5 0Xe242
B 1 0Xe300
B 8 0Xe422
B 3 0Xe4e0
B 2 0Xe59e
B E 0Xe62a
B 7 0Xe6d4
B O 0Xe792
B T 0Xe86e
H 9 0Xea30
H 6 0Xeb0c
H 5 0Xebfc
H 4 0Xece2
H 8 0Xed96
H 1 0Xee68
H 2 0Xef30
H 3 0Xf002
H 7 0Xf0de
H E 0Xf156
H O 0Xf250
H T 0Xf304
B 6 0Xf3ae
B 9 0Xf49e
B 5 0Xf584
B 8 0Xf642
B 4 0Xf728
B 2 0Xf804
B 1 0Xf8c2
B 7 0Xf976
B 3 0Xfa2a
B O 0Xfaf2
B E 0Xfbba
B T 0Xfcaa
H 6 0Xfe4e
H 5 0Xff2a
H 9 0Xffb6
H 4 0X00a6
H 8 0X0182
H 1 0X0268
H 2 0X031c
H 3 0X03d0
H 7 0X048e
H E 0X0524
H O 0X0600
H T 0X06fa
B 5 0X07ea
B 6 0X089e
B 9 0X097a
B 8 0X0a38
B 4 0X0b00
B 2 0X0bc8
B 1 0X0c90
B 7 0X0d58
B 3 0X0e2a
B O 0X0eb6
B E 0X0fa6
B T 0X1078
H 5 0X1230
H 9 0X130c
H 6 0X13c0
H 4 0X14ba
H 8 0X1564
H 1 0X1654
H 2 0X16e0
H 3 0X17bc
H 7 0X1870
H E 0X192e
H O 0X1a0a
H T 0X1ae6
B 9 0X1bb8
B 5 0X1c94
B 6 0X1d5c
B 8 0X1e2e
B 4 0X1f14
B 2 0X1fd2
B 1 0X2090
B 7 0X213a
B 3 0X220c
B O 0X22ac
B E 0X23b0
B T 0X246e
H 5 0X263a
H 9 0X270c
H 8 0X27d4
H 6 0X2892
H 2 0X2978
H 4 0X2a54
H 7 0X2b30
H 1 0X2bda
H O 0X2c7a
H 3 0X2d24
H E 0X2dba
H T 0X2eb4
B 5 0X2fcc
B 8 0X3094
B 9 0X3152
B 2 0X3238
B 6 0X32ce
B 7 0X33d2
B 4 0X347c
B O 0X3530
B 1 0X360c
B E 0X36d4
B 3 0X3792
B T 0X3846
H 8 0X3a62
H 5 0X3b20
H 9 0X3bd4
H 6 0X3c74
H 2 0X3d46
H 4 0X3e4a
H 7 0X3ef4
H 1 0X3fbc
H O 0X4048
H 3 0X412e
H E 0X41ce
H T 0X42b4
B 8 0X43c2
B 9 0X449e
B 5 0X4552
B 2 0X4624
B 6 0X46ce
B 7 0X47b4
B 4 0X4872
B O 0X4926
B 1 0X49ee
B E 0X4ade
B 3 0X4b74
B T 0X4c1e
H 9 0X4e30
H 8 0X4f02
H 5 0X4fd4
H 6 0X5092
H 2 0X515a
H 4 0X5218
H 7 0X52ea
H 1 0X53b2
H O 0X543e
H 3 0X5510
H E 0X55c4
H T 0X568c
B 9 0X57b8
B 5 0X58a8
B 8 0X5948
B 2 0X5a1a
B 6 0X5ae2
B 7 0X5bbe
B 4 0X5c68
B O 0X5d1c
B 1 0X5de4
B E 0X5ea2
B 3 0X5f60
B T 0X6028
H 5 0X623a
H 9 0X62ee
H 2 0X63b6
H 8 0X6488
H 7 0X6582
H 6 0X660e
H O 0X66d6
H 4 0X6794
H 1 0X6884
H 3 0X692e
H E 0X69ba
H T 0X6a8c
B 9 0X6b90
B 5 0X6c94
B 2 0X6d48
B 7 0X6e24
B 8 0X6eba
B O 0X6faa
B 6 0X704a
B 1 0X713a
B 4 0X71ee
B E 0X72b6
B 3 0X7388
B T 0X741e
H 9 0X75ea
H 2 0X76bc
H 5 0X7798
H 8 0X7892
H 7 0X793c
H 6 0X7a04
H O 0X7ab8
H 4 0X7b94
H 1 0X7c70
H 3 0X7d38
H E 0X7df6
H T 0X7eaa
B 2 0X7f72
B 9 0X8062
B 5 0X810c
B 7 0X81de
B 8 0X8288
B O 0X838c
B 6 0X845e
B 1 0X8512
B 4 0X85a8
B E 0X8706
B 3 0X87a6
B T 0X8846
H 2 0X89d6
H 5 0X8aa8
H 9 0X8b5c
H 8 0X8c42
H 7 0X8d3c
H 6 0X8ddc
H O 0X8eb8
H 4 0X8f3a
H 1 0X9048
H 3 0X9138
H E 0X91e2
H T 0X92b4
B 5 0X93b8
B 2 0X9462
B 9 0X952a
B 7 0X95e8
B 8 0X966a
B O 0X976e
B 6 0X9822
B 1 0X9912
B 4 0X999e
B E 0X9ac0
B 3 0X9b7e
B T 0X9c50
H 2 0X9de0
H 5 0X9ec6
H 7 0X9fa2
H 9 0Xa04c
H O 0Xa100
H 8 0Xa1dc
H 1 0Xa2b8
H 6 0Xa358
H E 0Xa466
H 4 0Xa4f2
H 3 0Xa5ce
H T 0Xa6aa
B 2 0Xa786
B 7 0Xa83a
B 5 0Xa920
B O 0Xa9ac
B 9 0Xaaa6
B 1 0Xab78
B 8 0Xac36
B E 0Xad26
B 6 0Xadc6
B 3 0Xae98
B 4 0Xaf56
B T 0Xb028
H 7 0Xb226
H 2 0Xb2d0
H 5 0Xb398
H 9 0Xb46a
H O 0Xb51e
H 8 0Xb62c
H 1 0Xb6cc
H 6 0Xb762
H E 0Xb83e
H 4 0Xb8b6
H 3 0Xb992
H T 0Xba82
B 7 0Xbb7c
B 5 0Xbc62
B 2 0Xbd20
B O 0Xbdd4
B 9 0Xbed8
B 1 0Xbfa0
B 8 0Xc040
B E 0Xc13a
B 6 0Xc1da
B 3 0Xc2b6
B 4 0Xc310
B T 0Xc3ec
H 5 0Xc630
H 7 0Xc6f8
H 2 0Xc7a2
H 9 0Xc84c
H O 0Xc950
H 8 0Xca2c
H 1 0Xcaea
H 6 0Xcb80
H E 0Xcc5c
H 4 0Xcce8
H 3 0Xcdb0
H T 0Xce64
B 5 0Xcf90
B 2 0Xd06c
B 7 0Xd152
B O 0Xd1e8
B 9 0Xd2ce
B 1 0Xd3be
B 8 0Xd454
B E 0Xd54e
B 6 0Xd60c
B 3 0Xd6c0
B 4 0Xd76a
B T 0Xd800
H 2 0Xd9d6
H 5 0Xdab2
H O 0Xdb98
H 7 0Xdc56
H 1 0Xdd50
H 9 0Xddd2
H E 0Xdf12
H 8 0Xdfe4
H 3 0Xe098
H 6 0Xe110
H 4 0Xe20a
H T 0Xe28c
B 5 0Xe390
B 2 0Xe462
B O 0Xe502
B 1 0Xe5e8
B 7 0Xe6c4
B E 0Xe80e
B 9 0Xe89a
B 3 0Xe94e
B 8 0Xe9f8
B 4 0Xeaca
B 6 0Xeb6a
B T 0Xec50
H 5 0Xee26
H O 0Xeec6
H 2 0Xef84
H 7 0Xf038
H 1 0Xf114
H 9 0Xf1fa
H E 0Xf2a4
H 8 0Xf3a8
H 3 0Xf498
H 6 0Xf52e
H 4 0Xf628
H T 0Xf6dc
B O 0Xf7ae
B 5 0Xf86c
B 2 0Xf948
B 1 0Xfa10
B 7 0Xfab0
B E 0Xfb6e
B 9 0Xfc72
B 3 0Xfd4e
B 8 0Xfde4
B 4 0Xfefc
B 6 0Xff7e
B T 0X0064
H O 0X023a
H 2 0X02da
H 5 0X0384
H 7 0X047e
H 1 0X0528
H 9 0X05d2
H E 0X069a
H 8 0X07d0
H 3 0X088e
H 6 0X0938
H 4 0X0a0a
H T 0X0ae6
B 2 0X0bc2
B O 0X0c62
B 5 0X0d2a
B 1 0X0e1a
B 7 0X0ec4
B E 0X0fbe
B 9 0X1068
B 3 0X1176
B 8 0X11f8
B 4 0X12e8
B 6 0X137e
B T 0X1464
H O 0X161c
H 2 0X16da
H 1 0X17d4
H 5 0X1888
H E 0X195a
H 7 0X19f0
H 3 0X1b08
H 9 0X1bc6
H 4 0X1c66
H 8 0X1d24
H 6 0X1e0a
H T 0X1ef0
B O 0X1fa4
B 1 0X206c
B 2 0X2134
B E 0X221a
B 5 0X2300
B 3 0X23d2
B 7 0X2436
B 4 0X2526
B 9 0X260c
B 6 0X26b6
B 8 0X2788
B T 0X285a
H 1 0X2a12
H O 0X2ab2
H 2 0X2b8e
H 5 0X2c88
H E 0X2d0a
H 7 0X2e04
H 3 0X2ed6
H 9 0X2f8a
H 4 0X3066
H 8 0X314c
H 6 0X319c
H T 0X32d2
B 1 0X33ae
B 2 0X3480
B O 0X3520
B E 0X35e8
B 5 0X36c4
B 3 0X37aa
B 7 0X384a
B 4 0X3912
B 9 0X39e4
B 6 0X3aac
B 8 0X3b6a
B T 0X3c3c
H 2 0X3e30
H 1 0X3f3e
H O 0X3fac
H 5 0X4088
H E 0X4146
H 7 0X4204
H 3 0X42ea
H 9 0X4380
H 4 0X4470
H 8 0X452e
H 6 0X4592
H T 0X46aa
B 2 0X47c2
B O 0X4858
B 1 0X4952
B E 0X4a2e
B 5 0X4ae2
B 3 0X4bd2
B 7 0X4c40
B 4 0X4d3a
B 9 0X4e02
B 6 0X4e7a
B 8 0X4f60
B T 0X501e
H O 0X51ea
H 2 0X52a8
H E 0X53ac
H 1 0X5488
H 3 0X5550
H 5 0X5604
H 4 0X56fe
H 7 0X5794
H 6 0X5852
H 9 0X58fc
H 8 0X59d8
H T 0X5a96
B 2 0X5ba4
B O 0X5bf4
B E 0X5d02
B 3 0X5e06
B 1 0X5ece
B 4 0X5f78
B 5 0X6036
B 6 0X60fe
B 7 0X61da
B 8 0X627a
B 9 0X6342
B T 0X6428
H 2 0X65fe
H E 0X6694
H O 0X6766
H 1 0X6860
H 3 0X6914
H 5 0X69b4
H 4 0X6ab8
H 7 0X6b58
H 6 0X6be4
H 9 0X6cb6
H 8 0X6dba
H T 0X6e78
B E 0X6f5e
B 2 0X703a
B O 0X70c6
B 3 0X71b6
B 1 0X72a6
B 4 0X7350
B 5 0X7418
B 6 0X74e0
B 7 0X7594
B 8 0X7652
B 9 0X772e
B T 0X77ce
H E 0X799a
H O 0X7a76
H 2 0X7b20
H 1 0X7c42
H 3 0X7d0a
H 5 0X7da0
H 4 0X7e9a
H 7 0X7f30
H 6 0X7fd0
H 9 0X80c0
H 8 0X819c
H T 0X823c
B O 0X8318
B E 0X83ea
B 2 0X849e
B 3 0X85a2
B 1 0X866a
B 4 0X8728
B 5 0X87e6
B 6 0X88b8
B 7 0X899e
B 8 0X8a52
B 9 0X8b24
B T 0X8bc4
H E 0X8d68
H O 0X8e4e
H 3 0X8eda
H 2 0X9006
H 4 0X90d8
H 1 0X91c8
H 6 0X922c
H 5 0X92fe
H 8 0X93e4
H 7 0X94a2
H 9 0X9588
H T 0X9632
B E 0X9718
B 3 0X9812
B O 0X9880
B 4 0X9952
B 2 0X9a42
B 6 0X9b00
B 1 0X9c0e
B 8 0X9c90
B 5 0X9d4e
B 9 0X9e2a
B 7 0X9ee8
B T 0X9fba
H 3 0Xa1a4
H E 0Xa262
H O 0Xa320
H 2 0Xa410
H 4 0Xa4b0
H 1 0Xa5b4
H 6 0Xa636
H 5 0Xa6fe
H 8 0Xa7d0
H 7 0Xa884
H 9 0Xa938
H T 0Xaa1e
B 3 0Xab40
B O 0Xabd6
B E 0Xacb2
B 4 0Xad84
B 2 0Xae60
B 6 0Xaeec
B 1 0Xaffa
B 8 0Xb086
B 5 0Xb158
B 9 0Xb234
B 7 0Xb2ca
B T 0Xb39c
H O 0Xb572
H 3 0Xb64e
H E 0Xb6da
H 2 0Xb806
H 4 0Xb8d8
H 1 0Xb9c8
H 6 0Xba22
H 5 0Xbb08
H 8 0Xbbf8
H 7 0Xbc98
H 9 0Xbd4c
H T 0Xbe1e
B O 0Xbef0
B E 0Xbfe0
B 3 0Xc0bc
B 4 0Xc17a
B 2 0Xc24c
B 6 0Xc2ec
B 1 0Xc40e
B 8 0Xc4ae
B 5 0Xc580
B 9 0Xc648
B 7 0Xc6fc
B T 0Xc7ba
H E 0Xc972
H O 0Xca58
H 4 0Xcb20
H 3 0Xcbfc
H 6 0Xccb0
H 2 0Xcda0
H 8 0Xce68
H 1 0Xcf58
H 9 0Xcfee
H 5 0Xd0b6
H 7 0Xd17e
H T 0Xd232
B O 0Xd2fa
B E 0Xd3d6
B 4 0Xd4c6
B 6 0Xd584
B 3 0Xd660
B 8 0Xd73c
B 2 0Xd7f0
B 9 0Xd8c2
B 1 0Xd98a
B 7 0Xda3e
B 5 0Xdb06
B T 0Xdbce
H O 0Xdd5e
H 4 0Xde08
H E 0Xdf16
H 3 0Xe01a
H 6 0Xe0c4
H 2 0Xe1dc
H 8 0Xe268
H 1 0Xe330
H 9 0Xe3e4
H 5 0Xe4b6
H 7 0Xe574
H T 0Xe61e
B 4 0Xe6be
B O 0Xe79a
B E 0Xe880
B 6 0Xe998
B 3 0Xea6a
B 8 0Xeb14
B 2 0Xec04
B 9 0Xeccc
B 1 0Xed6c
B 7 0Xee16
B 5 0Xeef2
B T 0Xefce
H 4 0Xf168
H E 0Xf226
H O 0Xf320
H 3 0Xf3f2
H 6 0Xf4c4
H 2 0Xf5c8
H 8 0Xf67c
H 1 0Xf758
H 9 0Xf7ee
H 5 0Xf88e
H 7 0Xf94c
H T 0Xfa32
B E 0Xfb18
B 4 0Xfbe0
B O 0Xfc94
B 6 0Xfd66
B 3 0Xfe60
B 8 0Xff28
B 2 0Xfff0
B 9 0X00b8
B 1 0X01bc
B 7 0X0248
B 5 0X02f2
B T 0X03ce
H 4 0X059a
H E 0X066c
H 6 0X0716
H O 0X07de
H 8 0X08e2
H 3 0X09c8
H 9 0X0a68
H 2 0X0b4e
H 7 0X0bee
H 1 0X0cd4
H 5 0X0d7e
H T 0X0e3c
B 4 0X0ec8
B 6 0X0fcc
B E 0X10a8
B 8 0X11ac
B O 0X124c
B 9 0X1346
B 3 0X13f0
B 7 0X14ae
B 2 0X1594
B 5 0X1652
B 1 0X1738
B T 0X17ec
H 6 0X19ae
H 4 0X1a8a
H E 0X1b3e
H O 0X1c38
H 8 0X1d00
H 3 0X1da0
H 9 0X1e5e
H 2 0X1f3a
H 7 0X1fee
H 1 0X20de
H 5 0X217e
H T 0X2278
B 6 0X232c
B E 0X2426
B 4 0X24c6
B 8 0X2598
B O 0X26ba
B 9 0X2732
B 3 0X2836
B 7 0X28b8
B 2 0X2980
B 5 0X2a5c
B 1 0X2b4c
B T 0X2c00
H E 0X2db8
H 6 0X2e62
H 4 0X2f20
H O 0X3006
H 8 0X30ce
H 3 0X31b4
H 9 0X3268
H 2 0X334e
H 7 0X33ee
H 1 0X34e8
H 5 0X359c
H T 0X3650
B E 0X3754
B 4 0X37d6
B 6 0X38a8
B 8 0X39a2
B O 0X3a4c
B 9 0X3b3c
B 3 0X3c36
B 7 0X3cd6
B 2 0X3d76
B 5 0X3e5c
B 1 0X3f4c
B T 0X3fce
H 4 0X41a4
H E 0X4280
H 8 0X435c
H 6 0X4406
H 9 0X44d8
H O 0X4578
H 7 0X465e
H 3 0X473a
H 5 0X480c
H 2 0X48d4
H 1 0X49d8
H T 0X4a46
B E 0X4b72
B 4 0X4c26
B 8 0X4ce4
B 9 0X4dac
B 6 0X4e4c
B 7 0X4f5a
B O 0X4ffa
B 5 0X50f4
B 3 0X51b2
B 1 0X528e
B 2 0X5324
B T 0X53ce
H E 0X55b8
H 8 0X56a8
H 4 0X5766
H 6 0X5824
H 9 0X58d8
H O 0X5996
H 7 0X5a7c
H 3 0X5b62
H 5 0X5c0c
H 2 0X5ce8
H 1 0X5de2
H T 0X5e50
B 8 0X5f68
B E 0X6030
B 4 0X60da
B 9 0X61a2
B 6 0X6274
B 7 0X6364
B O 0X640e
B 5 0X64d6
B 3 0X65c6
B 1 0X66b6
B 2 0X6738
B T 0X67e2
H 8 0X69a4
H 4 0X6a6c
H E 0X6b52
H 6 0X6c2e
H 9 0X6cf6
H O 0X6db4
H 7 0X6e86
H 3 0X6f76
H 5 0X7016
H 2 0X70fc
H 1 0X7200
H T 0X726e
B 4 0X734a
B 8 0X73f4
B E 0X74da
B 9 0X75ac
B 6 0X767e
B 7 0X776e
B O 0X782c
B 5 0X78d6
B 3 0X79a8
B 1 0X7aac
B 2 0X7b60
B T 0X7bf6
H 8 0X7dea
H 4 0X7e8a
H 9 0X7f52
H E 0X8024
H 7 0X813c
H 6 0X81c8
H 5 0X82a4
H O 0X836c
H 1 0X843e
H 3 0X84de
H 2 0X85a6
H T 0X86a0
B 8 0X8740
B 9 0X8826
B 4 0X8916
B 7 0X89c0
B E 0X8aba
B 5 0X8b5a
B 6 0X8c36
B 1 0X8d26
B O 0X8dbc
B 2 0X8e84
B 3 0X8f4c
B T 0X9000
H 9 0X91e0
H 8 0X92bc
H 4 0X937a
H E 0X9438
H 7 0X951e
H 6 0X95dc
H 5 0X96c2
H O 0X974e
H 1 0X982a
H 3 0X98de
H 2 0X99b0
H T 0X9a64
B 9 0X9b4a
B 4 0X9c4e
B 8 0X9d02
B 7 0X9dca
B E 0X9e88
B 5 0X9f78
B 6 0Xa04a
B 1 0Xa126
B O 0Xa19e
B 2 0Xa28e
B 3 0Xa360
B T 0Xa3e2
H 4 0Xa5ea
H 9 0Xa694
H 8 0Xa798
H E 0Xa874
H 7 0Xa8f6
H 6 0Xa9dc
H 5 0Xaab8
H O 0Xab8a
H 1 0Xacca
H 3 0Xad10
H 2 0Xadd8
H T 0Xae5a
B 4 0Xaf36
B 8 0Xb026
B 9 0Xb116
B 7 0Xb1e8
B E 0Xb29c
B 5 0Xb382
B 6 0Xb454
B 1 0Xb530
B O 0Xb5c6
B 2 0Xb6a2
B 3 0Xb760
B T 0Xb7ec
H 8 0Xb9cc
H 4 0Xba9e
H 7 0Xbb98
H 9 0Xbc38
H 5 0Xbd1e
H E 0Xbd82
H 1 0Xbeae
H 6 0Xbf8a
H 2 0Xc07a
H O 0Xc106
H 3 0Xc1b0
H T 0Xc278
B 4 0Xc34a
B 8 0Xc412
B 7 0Xc4d0
B 5 0Xc5f2
B 9 0Xc692
B 1 0Xc764
B E 0Xc804
B 2 0Xc8d6
B 6 0Xc9ee
B 3 0Xcab6
B O 0Xcb56
B T 0Xcc32
H 4 0Xcde0
H 7 0Xcea8
H 8 0Xcf84
H 9 0Xd024
H 5 0Xd114
H E 0Xd1e6
H 1 0Xd29a
H 6 0Xd33a
H 2 0Xd402
H O 0Xd510
H 3 0Xd5d8
H T 0Xd682
B 7 0Xd74a
B 4 0Xd86c
B 8 0Xd8da
B 5 0Xd9d4
B 9 0Xdaa6
B 1 0Xdbb4
B E 0Xdc40
B 2 0Xdccc
B 6 0Xdd6c
B 3 0Xde5c
B O 0Xdf10
B T 0Xe000
H 7 0Xe1c2
H 8 0Xe28a
H 4 0Xe3c0
H 9 0Xe41a
H 5 0Xe50a
H E 0Xe618
H 1 0Xe6e0
H 6 0Xe726
H 2 0Xe820
H O 0Xe8a2
H 3 0Xe960
H T 0Xea32
B 8 0Xeb22
B 7 0Xebfe
B 4 0Xecda
B 5 0Xedd4
B 9 0Xee92
B 1 0Xef8c
B E 0Xf054
B 2 0Xf0ea
B 6 0Xf194
B 3 0Xf248
B O 0Xf2f2
B T 0Xf3d8
H 7 0Xf5b8
H 8 0Xf694
H 5 0Xf75c
H 4 0Xf856
H 1 0Xf932
H 9 0Xf9c8
H 2 0Xfa9a
H E 0Xfb58
H 6 0Xfbee
H O 0Xfc84
H 3 0Xfd60
H T 0Xfe28
B 7 0Xff04
B 5 0Xfffe
B 8 0X00f8
B 1 0X01d4
B 4 0X029c
B 2 0X0364
B 9 0X0436
B 6 0X04cc
B E 0X05a8
B 3 0X063e
B O 0X06b6
B T 0X07a6
H 5 0X09c2
H 7 0X0a80
H 8 0X0b3e
H 4 0X0c1a
H 1 0X0ce2
H 9 0X0db4
H 2 0X0e54
H E 0X0f26
H 6 0X0fee
H O 0X10ac
H 3 0X116a
H T 0X1214
B 5 0X1354
B 8 0X1412
B 7 0X14ee
B 1 0X15b6
B 4 0X1638
B 2 0X1714
B 9 0X180e
B 6 0X18d6
B E 0X198a
B 3 0X1a48
B O 0X1ae8
B T 0X1bb0
H 8 0X1db8
H 5 0X1e8a
H 7 0X1f52
H 4 0X1fde
H 1 0X20d8
H 9 0X21aa
H 2 0X224a
H E 0X233a
H 6 0X23d0
H O 0X247a
H 3 0X2556
H T 0X2600
B 8 0X2736
B 7 0X281c
B 5 0X28d0
B 1 0X2998
B 4 0X2a38
B 2 0X2b1e
B 9 0X2be6
B 6 0X2cae
B E 0X2d94
B 3 0X2e34
B O 0X2ed4
B T 0X2fb0
H 7 0X3186
H 8 0X326c
H 1 0X3366
H 5 0X33e8
H 2 0X34ec
H 4 0X35c8
H 6 0X3654
H 9 0X3712
H 3 0X37f8
H E 0X38a2
H O 0X3974
H T 0X3a14
B 8 0X3b04
B 7 0X3bc2
B 1 0X3c9e
B 2 0X3d70
B 5 0X3e42
B 6 0X3f1e
B 4 0X400e
B 3 0X40d6
B 9 0X414e
B O 0X423e
B E 0X4306
B T 0X43c4
H 8 0X45a4
H 1 0X4676
H 7 0X4720
H 5 0X47de
H 2 0X4892
H 4 0X49a0
H 6 0X4a54
H 9 0X4afe
H 3 0X4bda
H E 0X4c84
H O 0X4d6a
H T 0X4e32
B 1 0X4f2c
B 8 0X4fcc
B 7 0X5094
B 2 0X5152
B 5 0X5206
B 6 0X5300
B 4 0X53e6
B 3 0X54c2
B 9 0X556c
B O 0X563e
B E 0X5706
B T 0X57ce
H 1 0X597c
H 7 0X5a80
H 8 0X5b2a
H 5 0X5bd4
H 2 0X5cb0
H 4 0X5d96
H 6 0X5e2c
H 9 0X5efe
H 3 0X5fee
H E 0X607a
H O 0X6160
H T 0X6228
B 7 0X62fa
B 1 0X63c2
B 8 0X6462
B 2 0X6570
B 5 0X6638
B 6 0X66f6
B 4 0X67be
B 3 0X689a
B 9 0X696c
B O 0X6a34
B E 0X6af2
B T 0X6bd8
H 1 0X6d90
H 7 0X6e30
H 2 0X6ee4
H 8 0X6fc0
H 6 0X709c
H 5 0X718c
H 3 0X725e
H 4 0X7308
H O 0X73bc
H 9 0X7470
H E 0X7524
H T 0X7614
B 1 0X7704
B 2 0X77b8
B 7 0X7880
B 6 0X798e
B 8 0X7a1a
B 3 0X7af6
B 5 0X7bb4
B O 0X7c72
B 4 0X7d76
B E 0X7e16
B 9 0X7ed4
B T 0X7f9c
H 2 0X8168
H 1 0X8262
H 7 0X82ee
H 8 0X83c0
H 6 0X8488
H 5 0X8582
H 3 0X8636
H 4 0X8726
H O 0X8794
H 9 0X8852
H E 0X892e
H T 0X89ec
B 2 0X8af0
B 7 0X8bae
B 1 0X8c8a
B 6 0X8d20
B 8 0X8dfc
B 3 0X8ece
B 5 0X8fb4
B O 0X905e
B 4 0X9162
B E 0X922a
B 9 0X92c0
B T 0X937e
H 7 0X9590
H 2 0X9658
H 1 0X972a
H 8 0X97ac
H 6 0X986a
H 5 0X996e
H 3 0X9a36
H 4 0X9b08
H O 0X9b80
H 9 0X9c48
H E 0X9cf2
H T 0X9dec
B 7 0X9ee6
B 1 0X9fb8
B 2 0Xa080
B 6 0Xa148
B 8 0Xa206
B 3 0Xa2ec
B 5 0Xa3be
B O 0Xa454
B 4 0Xa53a
B E 0Xa5e4
B 9 0Xa6b6
B T 0Xa788
H 1 0Xa972
H 7 0Xaa30
H 6 0Xaada
H 2 0Xabb6
H 3 0Xac9c
H 8 0Xad78
H O 0Xadfa
H 5 0Xaef4
H 4 0Xafda
H E 0Xb03e
H 9 0Xb11a
H T 0Xb1ec
B 7 0Xb2e6
B 1 0Xb39a
B 6 0Xb48a
B 3 0Xb566
B 2 0Xb606
B O 0Xb6a6
B 8 0Xb78c
B 4 0Xb868
B 5 0Xb944
B 9 0Xb9e4
B E 0Xbaac
B T 0Xbb88
H 7 0Xbd54
H 6 0Xbe26
H 1 0Xbf02
H 2 0Xbfac
H 3 0Xc09c
H 8 0Xc146
H O 0Xc1f0
H 5 0Xc2ea
H 4 0Xc3da
H E 0Xc452
H 9 0Xc524
H T 0Xc5f6
B 6 0Xc718
B 7 0Xc7ae
B 1 0Xc88a
B 3 0Xc916
B 2 0Xca1a
B O 0Xcaa6
B 8 0Xcb6e
B 4 0Xcc5e
B 5 0Xcd30
B 9 0Xcdf8
B E 0Xce8e
B T 0Xcf74
H 6 0Xd15e
H 1 0Xd258
H 7 0Xd2f8
H 2 0Xd3c0
H 3 0Xd47e
H 8 0Xd500
H O 0Xd5f0
H 5 0Xd6cc
H 4 0Xd7c6
H E 0Xd85c
H 9 0Xd910
H T 0Xd9e2
B 1 0Xdb0e
B 6 0Xdb86
B 7 0Xdc8a
B 3 0Xdd48
B 2 0Xde06
B O 0Xdeb0
B 8 0Xdf82
B 4 0Xe09a
B 5 0Xe13a
B 9 0Xe1e4
B E 0Xe2a2
B T 0Xe37e
H 6 0Xe55e
H 1 0Xe644
H 3 0Xe716
H 7 0Xe7f2
H O 0Xe86a
H 2 0Xe950
H 4 0Xea36
H 8 0Xead6
H 9 0Xebb2
H 5 0Xec98
H E 0Xed06
H T 0Xede2
B 6 0Xeef0
B 3 0Xefd6
B 1 0Xf0a8
B O 0Xf12a
B 7 0Xf1e8
B 4 0Xf2ce
B 2 0Xf3c8
B 9 0Xf490
B 8 0Xf54e
B E 0Xf602
B 5 0Xf6f2
B T 0Xf7c4
H 3 0Xf972
H 6 0Xfa3a
H 1 0Xfb16
H 7 0Xfb98
H O 0Xfc7e
H 2 0Xfd3c
H 4 0Xfe04
H 8 0Xfed6
H 9 0Xffb2
H 5 0X00a2
H E 0X012e
H T 0X020a
B 3 0X02e6
B 1 0X03ea
B 6 0X0476
B O 0X053e
B 7 0X05f2
B 4 0X06a6
B 2 0X0796
B 9 0X0872
B 8 0X0944
B E 0X0a16
B 5 0X0afc
B T 0X0bb0
H 1 0X0d4a
H 3 0X0e30
H 6 0X0f02
H 7 0X0ffc
H O 0X10c4
H 2 0X1146
H 4 0X11d2
H 8 0X12ea
H 9 0X13c6
H 5 0X1484
H E 0X151a
H T 0X15f6
B 1 0X16be
B 6 0X17a4
B 3 0X1894
B O 0X195c
B 7 0X1a2e
B 4 0X1af6
B 2 0X1bb4
B 9 0X1c90
B 8 0X1d6c
B E 0X1e0c
B 5 0X1f10
B T 0X1fc4
H 6 0X217c
H 1 0X223a
H O 0X22ee
H 3 0X23ca
H 4 0X2492
H 7 0X2564
H 9 0X2640
H 2 0X2726
H 8 0X27d0
H E 0X2866
H 5 0X2974
H T 0X2a5a
B 1 0X2af0
B 6 0X2bc2
B O 0X2c6c
B 4 0X2d34
B 3 0X2e2e
B 9 0X2ef6
B 7 0X2fbe
B 8 0X307c
B 2 0X3144
B 5 0X323e
B E 0X32ca
B T 0X33d8
H 1 0X354a
H O 0X3608
H 6 0X36ee
H 3 0X37e8
H 4 0X38a6
H 7 0X39aa
H 9 0X3a4a
H 2 0X3b26
H 8 0X3bb2
H E 0X3c66
H 5 0X3d56
H T 0X3e3c
B O 0X3f04
B 1 0X3fcc
B 6 0X4094
B 4 0X417a
B 3 0X4238
B 9 0X431e
B 7 0X43dc
B 8 0X445e
B 2 0X453a
B 5 0X462a
B E 0X46ac
B T 0X479c
H O 0X4968
H 6 0X4a6c
H 1 0X4b2a
H 3 0X4be8
H 4 0X4ca6
H 7 0X4da0
H 9 0X4e54
H 2 0X4f26
H 8 0X4fd0
H E 0X505c
H 5 0X5156
H T 0X5200
B 6 0X532c
B O 0X53f4
B 1 0X54d0
B 4 0X555c
B 3 0X5656
B 9 0X573c
B 7 0X5818
B 8 0X58b8
B 2 0X596c
B 5 0X5a3e
B E 0X5ade
B T 0X5ba6
H O 0X5d90
H 6 0X5e6c
H 4 0X5f34
H 1 0X6038
H 9 0X60f6
H 3 0X61aa
H 8 0X625e
H 7 0X634e
H 5 0X63f8
H 2 0X64e8
H E 0X6588
H T 0X6646
B O 0X672c
B 4 0X67fe
B 6 0X68bc
B 9 0X69ca
B 1 0X6a92
B 8 0X6b32
B 3 0X6c2c
B 5 0X6cb8
B 7 0X6d94
B E 0X6e48
B 2 0X6f1a
B T 0X6fe2
H 4 0X71b8
H O 0X7276
H 6 0X733e
H 1 0X742e
H 9 0X74c4
H 3 0X75dc
H 8 0X7690
H 7 0X774e
H 5 0X7820
H 2 0X78e8
H E 0X796a
H T 0X7a32
B 4 0X7b0e
B 6 0X7c1c
B O 0X7ce4
B 9 0X7da2
B 1 0X7e7e
B 8 0X7f64
B 3 0X8022
B 5 0X80ea
B 7 0X81b2
B E 0X8252
B 2 0X82fc
B T 0X83d8
H 6 0X85e0
H 4 0X86b2
H O 0X8752
H 1 0X87f2
H 9 0X88c4
H 3 0X89be
H 8 0X8a72
H 7 0X8b30
H 5 0X8bee
H 2 0X8ce8
H E 0X8d6a
H T 0X8e46
B 6 0X8f4a
B 4 0X90e4
B O 0X9198
B 9 0X91c0
B 1 0X9274
B 8 0X9364
B 3 0X9436
B 5 0X94f4
B 7 0X95b2
B E 0X9652
B 2 0X9724
B T 0X97f6
H 6 0X9a80
H 9 0X9b70
H 4 0X9c74
H O 0X9cec
H 8 0X9d28
H 1 0X9df0
H 5 0X9e9a
H 3 0X9f6c
H E 0Xa020
H 7 0Xa0de
H 2 0Xa1a6
H T 0Xa278
B 6 0Xa372
B 9 0Xa4f8
B 8 0Xa61a
B 4 0Xa6a6
B O 0Xa70a
B 5 0Xa7b4
B 1 0Xa854
B E 0Xa944
B 3 0Xa9ee
B 2 0Xaa84
B 7 0Xab6a
B T 0Xac3c
H 6 0Xade0
H 9 0Xae26
H O 0Xb07e
H 4 0Xb09c
H 8 0Xb13c
H 1 0Xb1f0
H 5 0Xb2c2
H 3 0Xb394
H E 0Xb452
H 7 0Xb506
H 2 0Xb5c4
H T 0Xb6a0
B 9 0Xb768
B 6 0Xb812
B O 0Xb8f8
B 8 0Xb9f2
B 4 0Xbab0
B 5 0Xbb78
B 1 0Xbc72
B E 0Xbd1c
B 3 0Xbe20
B 2 0Xbeb6
B 7 0Xbf4c
B T 0Xc028
H 9 0Xc1c2
H 6 0Xc320
H O 0Xc320
H 4 0Xc41a
H 8 0Xc514
H 1 0Xc618
H 5 0Xc6ae
H 3 0Xc7a8
H E 0Xc80c
H 7 0Xc8b6
H 2 0Xc99c
H T 0Xca96
B O 0Xcbf4
B 9 0Xcc8a
B 6 0Xcd02
B 8 0Xcdc0
B 4 0Xce7e
B 5 0Xcf64
B 1 0Xd04a
B E 0Xd0ea
B 3 0Xd202
B 2 0Xd27a
B 7 0Xd310
B T 0Xd3ec
H 9 0Xd5cc
H O 0Xd694
H 8 0Xd73e
H 6 0Xd86a
H 5 0Xd928
H 4 0Xd9d2
H E 0Xda90
H 1 0Xdb3a
H 2 0Xdc34
H 3 0Xdd06
H 7 0Xdda6
H T 0Xde6e
B 9 0Xdf22
B 8 0Xe012
B O 0Xe0c6
B 5 0Xe1f2
B 6 0Xe2a6
B E 0Xe3a0
B 4 0Xe3f0
B 2 0Xe4ea
B 1 0Xe59e
B 7 0Xe67a
B 3 0Xe74c
B T 0Xe814
H 8 0Xe9ae
H 9 0Xea80
H O 0Xeb34
H 6 0Xebf2
H 5 0Xecf6
H 4 0Xedaa
H E 0Xee54
H 1 0Xef44
H 2 0Xf002
H 3 0Xf0f2
H 7 0Xf19c
H T 0Xf278
B 8 0Xf322
B O 0Xf44e
B 9 0Xf516
B 5 0Xf5c0
B 6 0Xf638
B E 0Xf714
B 4 0Xf7c8
B 2 0Xf8a4
B 1 0Xf98a
B 7 0Xfa48
B 3 0Xfb2e
B T 0Xfc00
H O 0Xfd90
H 8 0Xfe94
H 9 0Xff3e
H 6 0Xffe8
H 5 0X00e2
H 4 0X01b4
H E 0X0236
H 1 0X0308
H 2 0X03bc
H 3 0X04a2
H 7 0X0588
H T 0X0632
B O 0X075e
B 9 0X0812
B 8 0X090c
B 5 0X09c0
B 6 0X0a60
B E 0X0b14
B 4 0X0bbe
B 2 0X0c90
B 1 0X0d8a
B 7 0X0e34
B 3 0X0ef2
B T 0X0fc4
H 9 0X1190
H O 0X1230
H 5 0X1366
H 8 0X1442
H E 0X14f6
H 6 0X158c
H 2 0X165e
H 4 0X171c
H 7 0X17da
H 1 0X18c0
H 3 0X19ba
H T 0X1a1e
B O 0X1af0
B 9 0X1c08
B 5 0X1cee
B E 0X1db6
B 8 0X1e9c
B 2 0X1f46
B 6 0X2004
B 7 0X20d6
B 4 0X2158
B 3 0X2266
B 1 0X2324
B T 0X23c4
H O 0X2554
H 5 0X2680
H 9 0X2734
H 8 0X286a
H E 0X28ce
H 6 0X29a0
H 2 0X2a54
H 4 0X2b1c
H 7 0X2bd0
H 1 0X2cca
H 3 0X2d9c
H T 0X2e1e
B 5 0X2f4a
B O 0X2fea
B 9 0X30f8
B E 0X3184
B 8 0X3256
B 2 0X3328
B 6 0X33dc
B 7 0X34b8
B 4 0X354e
B 3 0X365c
B 1 0X3724
B T 0X37c4
H 5 0X399a
H 9 0X3a62
H O 0X3b34
H 8 0X3c06
H E 0X3c92
H 6 0X3d6e
H 2 0X3e68
H 4 0X3f58
H 7 0X3fe4
H 1 0X40b6
H 3 0X4174
H T 0X4246
B 9 0X4336
B 5 0X4408
B O 0X449e
B E 0X4584
B 8 0X462e
B 2 0X471e
B 6 0X47b4
B 7 0X48b8
B 4 0X4980
B 3 0X4a52
B 1 0X4b2e
B T 0X4bd8
H 5 0X4d9a
H 9 0X4e4e
H E 0X4f16
H O 0X4ffc
H 2 0X50ba
H 8 0X51be
H 7 0X527c
H 6 0X52ea
H 3 0X53f8
H 4 0X54a2
H 1 0X5588
H T 0X5632
B 5 0X5722
B E 0X57d6
B 9 0X58d0
B 2 0X5966
B O 0X5a1a
B 7 0X5b1e
B 8 0X5bc8
B 3 0X5cd6
B 6 0X5d4e
B 1 0X5e52
B 4 0X5ede
B T 0X5fb0
H E 0X619a
H 5 0X6262
H 9 0X6316
H O 0X63de
H 2 0X6488
H 8 0X65aa
H 7 0X6622
H 6 0X671c
H 3 0X67f8
H 4 0X68ca
H 1 0X6988
H T 0X6a3c
B E 0X6b36
B 9 0X6bea
B 5 0X6c9e
B 2 0X6d84
B O 0X6df2
B 7 0X6ee2
B 8 0X6fb4
B 3 0X70cc
B 6 0X7176
B 1 0X7266
B 4 0X72fc
B T 0X73c4
H 9 0X7586
H E 0X7658
H 5 0X76ee
H O 0X77c0
H 2 0X7892
H 8 0X798c
H 7 0X7a2c
H 6 0X7b30
H 3 0X7c02
H 4 0X7cca
H 1 0X7da6
H T 0X7e46
B 9 0X7f22
B 5 0X7fea
B E 0X80bc
B 2 0X8166
B O 0X81fc
B 7 0X82e2
B 8 0X83aa
B 3 0X84b8
B 6 0X8580
B 1 0X8670
B 4 0X871a
B T 0X87ce
H 5 0X8986
H 9 0X8a4e
H 2 0X8b20
H E 0X8c10
H 7 0X8c92
H O 0X8d3c
H 3 0X8e4a
H 8 0X8eea
H 1 0X8fee
H 6 0X9084
H 4 0X9174
H T 0X925a
B 9 0X930e
B 5 0X93fe
B 2 0X94c6
B 7 0X957a
B E 0X961a
B 3 0X970a
B O 0X978c
B 1 0X98ae
B 8 0X9962
B 4 0X9a16
B 6 0X9aac
B T 0X9bba
H 9 0X9d72
H 2 0X9e1c
H 5 0X9f16
H E 0X9ff2
H 7 0Xa0ba
H O 0Xa164
H 3 0Xa236
H 8 0Xa33a
H 1 0Xa3c6
H 6 0Xa484
H 4 0Xa52e
H T 0Xa632
B 2 0Xa6f0
B 9 0Xa7ae
B 5 0Xa88a
B 7 0Xa998
B E 0Xaa2e
B 3 0Xab1e
B O 0Xab8c
B 1 0Xac86
B 8 0Xad58
B 4 0Xade4
B 6 0Xaef2
B T 0Xafba
H 2 0Xb190
H 5 0Xb226
H 9 0Xb302
H E 0Xb3ca
H 7 0Xb47e
H O 0Xb53c
H 3 0Xb636
H 8 0Xb71c
H 1 0Xb7e4
H 6 0Xb884
H 4 0Xb974
H T 0Xba1e
B 5 0Xbb18
B 2 0Xbbf4
B 9 0Xbc8a
B 7 0Xbd48
B E 0Xbe24
B 3 0Xbf1e
B O 0Xbfaa
B 1 0Xc0ae
B 8 0Xc126
B 4 0Xc202
B 6 0Xc2ac
B T 0Xc388
H 2 0Xc572
H 5 0Xc63a
H 7 0Xc720
H 9 0Xc7d4
H 3 0Xc8c4
H E 0Xc96e
H 1 0Xca2c
H O 0Xcac2
H 4 0Xcb94
H 8 0Xcc5c
H 6 0Xcd4c
H T 0Xce0a
B 2 0Xcf18
B 7 0Xcfcc
B 5 0Xd080
B 3 0Xd184
B 9 0Xd22e
B 1 0Xd2e2
B E 0Xd3be
B 4 0Xd422
B O 0Xd526
B 6 0Xd602
B 8 0Xd6de
B T 0Xd792
H 7 0Xd986
H 2 0Xda1c
H 5 0Xdae4
H 9 0Xdbfc
H 3 0Xdcce
H E 0Xdd96
H 1 0Xde36
H O 0Xdeea
H 4 0Xdfd0
H 8 0Xe066
H 6 0Xe106
H T 0Xe232
B 7 0Xe2fa
B 5 0Xe3d6
B 2 0Xe49e
B 3 0Xe552
B 9 0Xe64c
B 1 0Xe70a
B E 0Xe7a0
B 4 0Xe89a
B O 0Xe958
B 6 0Xe9f8
B 8 0Xeaac
B T 0Xeb92
H 5 0Xed86
H 7 0Xee62
H 2 0Xef16
H 9 0Xeff2
H 3 0Xf0c4
H E 0Xf1a0
H 1 0Xf254
H O 0Xf2e0
H 4 0Xf3c6
H 8 0Xf470
H 6 0Xf51a
H T 0Xf628
B 5 0Xf704
B 2 0Xf7ea
B 7 0Xf8a8
B 3 0Xf984
B 9 0Xfa56
B 1 0Xfb0a
B E 0Xfbdc
B 4 0Xfc68
B O 0Xfd62
B 6 0Xfe16
B 8 0Xfed4
B T 0Xffb0
H 2 0X01a4
H 5 0X0244
H 3 0X032a
H 7 0X03f2
H 1 0X04ce
H 9 0X058c
H 4 0X05fa
H E 0X06b8
H 6 0X07c6
H O 0X088e
H 8 0X0960
H T 0X0a50
B 5 0X0b22
B 2 0X0bea
B 3 0X0ca8
B 1 0X0d7a
B 7 0X0e24
B 4 0X0ed8
B 9 0X0fd2
B 6 0X10b8
B E 0X1158
B 8 0X1202
B O 0X12fc
B T 0X13e2
H 5 0X1586
H 3 0X1662
H 2 0X1720
H 7 0X17d4
H 1 0X18ba
H 9 0X196e
H 4 0X1a0e
H E 0X1aea
H 6 0X1bb2
H O 0X1c8e
H 8 0X1d56
H T 0X1e28
B 3 0X1f22
B 5 0X1ffe
B 2 0X20d0
B 1 0X2198
B 7 0X2210
B 4 0X22d8
B 9 0X23d2
B 6 0X249a
B E 0X256c
B 8 0X2620
B O 0X26e8
B T 0X27c4
H 3 0X29ae
H 2 0X2a6c
H 5 0X2b02
H 7 0X2c06
H 1 0X2c9c
H 9 0X2d6e
H 4 0X2e54
H E 0X2ef4
H 6 0X2fda
H O 0X3084
H 8 0X3142
H T 0X3214
B 2 0X332c
B 3 0X33e0
B 5 0X3494
B 1 0X3566
B 7 0X362e
B 4 0X370a
B 9 0X37dc
B 6 0X3890
B E 0X3958
B 8 0X3a2a
B O 0X3ae8
B T 0X3bb0
H 3 0X3d86
H 2 0X3e4e
H 1 0X3f48
H 5 0X3ff2
H 4 0X40d8
H 7 0X4164
H 6 0X4268
H 9 0X4312
H 8 0X43ee
H E 0X448e
H O 0X4556
H T 0X4632
B 3 0X4718
B 1 0X47e0
B 2 0X488a
B 4 0X492a
B 5 0X4a24
B 6 0X4ad8
B 7 0X4baa
B 8 0X4c72
B 9 0X4d3a
B O 0X4e0c
B E 0X4ed4
B T 0X4fb0
H 1 0X5190
H 3 0X5258
H 2 0X52f8
H 5 0X53de
H 4 0X54ba
H 7 0X5564
H 6 0X55f0
H 9 0X56ae
H 8 0X5780
H E 0X585c
H O 0X591a
H T 0X5a00
B 1 0X5ae6
B 2 0X5bae
B 3 0X5c76
B 4 0X5d16
B 5 0X5e10
B 6 0X5ece
B 7 0X5f78
B 8 0X6036
B 9 0X611c
B O 0X61f8
B E 0X62a2
B T 0X6356
H 1 0X64f0
H 2 0X65c2
H 3 0X668a
H 4 0X6770
H 5 0X6806
H 6 0X68f6
H 7 0X69f0
H 8 0X6aae
H 9 0X6b76
H O 0X6c16
H E 0X6cc0
H T 0X6da6
B 1 0X6e46
B 2 0X6f0e
B 3 0X6fe0
B 4 0X7062
B 5 0X7148
B 6 0X7260
B 7 0X733c
B 8 0X73f0
B 9 0X74cc
B O 0X7562
B E 0X765c
B T 0X7706
H 1 0X78a0
H 2 0X795e
H 3 0X7a26
H 4 0X7aee
H 5 0X7b7a
H 6 0X7c74
H 7 0X7d64
H 8 0X7e36
H 9 0X7f08
H O 0X7fb2
H E 0X8098
H T 0X8174
B 1 0X821e
B 2 0X82e6
B 3 0X83b8
B 4 0X8412
B 5 0X84e4
B 6 0X85de
B 7 0X86a6
B 8 0X878c
B 9 0X8868
B O 0X8958
B E 0X8a20
B T 0X8afc
