#. Lowndes: Version 2
#. SourceFilename: C:\Users\Guildford Ringers\Documents\guildfordcathedralbells.bitbucket.io\Recordings\Guildford\Guildford.20220511-2029.s0t0.2.wav
#. Tower: Guildford Cathedral
#. RingingName: Touch 2
#. RingingDateTime: 20220511-2029
#. Rungon: 
#. Tenor: 12
#. NumBellsRinging: 12
#. Creator: HawkEar Team Edition V1 for Guildford Cathedral
#. CreatorVersion: 1.1.0.3
#. TranscribedFor: Guildford band
#. TranscriptionDateTime: 20220511-2032
#. FirstBlowMs: 2430
#. Touchdb: -8.29952
#. TraindB: -9.73, -8.5, -6.1, -3.11, -3.16, -3.1, -3.98, -4.12, -5.95, -5.43, -4.92, -3
#. TrainedOn: 20220102-1438
#. TrainDataRecordedOn: 20210813-1741
#. TrainParams: -ft:y -ws:0.05 -hs:0.01 -co:0.9 -sw:40 -ts:
#. GainParams: -fh:6000 -fl:200
#. OnsetParams: -mb:80 -mf:10 -ng:0.3 -oo:0
#. WriteParams: -hb:y
#. AnalParams: -au:y -xp:n -sg:n -hsg:-1
#. ExpString: 
#. Association: 
#. Calling: 
#. Compositionname: 
#. Method: 
#. Footnotes: 
#. Ringers: 
#. Stage: 
H 1 0X097e
H 2 0X0a3c
H 3 0X0afa
H 4 0X0bb8
H 5 0X0c76
H 6 0X0d48
H 7 0X0e42
H 8 0X0f14
H 9 0X1040
H O 0X1144
H E 0X11da
H T 0X12a2
B 1 0X1360
B 2 0X1446
B 3 0X1522
B 4 0X15e0
B 5 0X169e
B 6 0X1766
B 7 0X184c
B 8 0X193c
B 9 0X1a22
B O 0X1afe
B E 0X1bda
B T 0X1cc0
H 1 0X1e46
H 2 0X1f0e
H 3 0X1fe0
H 4 0X2094
H 5 0X213e
H 6 0X2206
H 7 0X230a
H 8 0X23c8
H 9 0X24d6
H O 0X2594
H E 0X263e
H T 0X272e
B 1 0X2800
B 2 0X28d2
B 3 0X2990
B 4 0X2a44
B 5 0X2af8
B 6 0X2bca
B 7 0X2cba
B 8 0X2d96
B 9 0X2e72
B O 0X2f44
B E 0X3002
B T 0X30e8
H 1 0X328c
H 2 0X3336
H 3 0X33ea
H 4 0X34a8
H 5 0X357a
H 6 0X3624
H 7 0X3714
H 8 0X37f0
H 9 0X3908
H O 0X39bc
H E 0X3a66
H T 0X3b56
B 1 0X3c0a
B 2 0X3cc8
B 3 0X3d9a
B 4 0X3e4e
B 5 0X3f0c
B 6 0X3fca
B 7 0X40b0
B 8 0X418c
B 9 0X427c
B O 0X434e
B E 0X440c
B T 0X44de
H 1 0X466e
H 2 0X4722
H 3 0X47ea
H 4 0X48bc
H 5 0X4970
H 6 0X4a42
H 7 0X4b3c
H 8 0X4bfa
H 9 0X4cae
H O 0X4d80
H E 0X4e3e
H T 0X4f38
B 1 0X4ff6
B 2 0X50aa
B 3 0X517c
B 4 0X5230
B 5 0X530c
B 6 0X53fc
B 7 0X54ce
B 8 0X55a0
B 9 0X5672
B O 0X5708
B E 0X57d0
B T 0X58ac
H 1 0X5a5a
H 2 0X5afa
H 3 0X5be0
H 4 0X5c94
H 5 0X5d5c
H 6 0X5e1a
H 7 0X5f14
H 8 0X5fc8
H 9 0X60d6
H O 0X619e
H E 0X6252
H T 0X6338
B 1 0X63f6
B 2 0X6496
B 3 0X6568
B 4 0X65ea
B 5 0X66da
B 6 0X67a2
B 7 0X6892
B 8 0X6964
B 9 0X6a4a
B O 0X6b1c
B E 0X6be4
B T 0X6cb6
H 1 0X6e5a
H 2 0X6efa
H 3 0X6fd6
H 4 0X706c
H 5 0X7148
H 6 0X7206
H 7 0X72f6
H 8 0X7396
H 9 0X7486
H O 0X7544
H E 0X760c
H T 0X7706
B 1 0X77d8
B 2 0X7878
B 3 0X794a
B 4 0X79f4
B 5 0X7ae4
B 6 0X7ba2
B 7 0X7c92
B 8 0X7d46
B 9 0X7dfa
B O 0X7eae
B E 0X7f94
B T 0X8070
H 1 0X823c
H 2 0X82dc
H 3 0X83c2
H 4 0X843a
H 5 0X8516
H 6 0X85d4
H 7 0X86ba
H 8 0X8778
H 9 0X8854
H O 0X8962
H E 0X89e4
H T 0X8ae8
B 1 0X8ba6
B 2 0X8c50
B 3 0X8d22
B 4 0X8de0
B 5 0X8ea8
B 6 0X8f7a
B 7 0X904c
B 8 0X9114
B 9 0X91f0
B O 0X92b8
B E 0X9380
B T 0X9466
H 1 0X9600
H 2 0X96aa
H 3 0X9786
H 4 0X9844
H 5 0X98ee
H 6 0X99c0
H 7 0X9a92
H 8 0X9b46
H 9 0X9c36
H O 0X9d44
H E 0X9db2
H T 0X9eb6
B 1 0X9f88
B 2 0Xa028
B 3 0Xa0dc
B 4 0Xa1a4
B 5 0Xa280
B 6 0Xa370
B 7 0Xa460
B 8 0Xa514
B 9 0Xa5d2
B O 0Xa6ae
B E 0Xa758
B T 0Xa820
H 1 0Xa9d8
H 2 0Xaa82
H 3 0Xab5e
H 4 0Xac08
H 5 0Xacda
H 6 0Xada2
H 7 0Xae92
H 8 0Xaf46
H 9 0Xb02c
H O 0Xb112
H E 0Xb1b2
H T 0Xb2ac
B 1 0Xb356
B 2 0Xb3e2
B 3 0Xb4d2
B 4 0Xb54a
B 5 0Xb630
B 6 0Xb734
B 7 0Xb82e
B 8 0Xb8f6
B 9 0Xb9a0
B O 0Xba86
B E 0Xbb6c
B T 0Xbc2a
H 1 0Xbdc4
H 2 0Xbe82
H 3 0Xbf36
H 4 0Xbfea
H 5 0Xc09e
H 6 0Xc170
H 7 0Xc260
H 8 0Xc300
H 9 0Xc3c8
H O 0Xc4d6
H E 0Xc58a
H T 0Xc68e
B 1 0Xc74c
B 2 0Xc7f6
B 3 0Xc8b4
B 4 0Xc95e
B 5 0Xca44
B 6 0Xcb16
B 7 0Xcbf2
B 8 0Xccba
B 9 0Xcd6e
B O 0Xce5e
B E 0Xcf26
B T 0Xcff8
H 1 0Xd192
H 2 0Xd246
H 3 0Xd32c
H 4 0Xd3cc
H 5 0Xd494
H 6 0Xd570
H 7 0Xd66a
H 8 0Xd728
H 9 0Xd7be
H O 0Xd8c2
H E 0Xd994
H T 0Xda84
B 1 0Xdb42
B 2 0Xdbce
B 3 0Xdc8c
B 4 0Xdd40
B 5 0Xde1c
B 6 0Xdf0c
B 7 0Xdfe8
B 8 0Xe0a6
B 9 0Xe182
B O 0Xe268
B E 0Xe326
B T 0Xe3f8
H 1 0Xe588
H 2 0Xe650
H 3 0Xe70e
H 4 0Xe7c2
H 5 0Xe88a
H 6 0Xe952
H 7 0Xea2e
H 8 0Xeae2
H 9 0Xebc8
H O 0Xeccc
H E 0Xed80
H T 0Xee5c
B 1 0Xef10
B 2 0Xefce
B 3 0Xf08c
B 4 0Xf14a
B 5 0Xf230
B 6 0Xf30c
B 7 0Xf3d4
B 8 0Xf49c
B 9 0Xf55a
B O 0Xf65e
B E 0Xf73a
B T 0Xf802
H 2 0Xf988
H 1 0Xfa46
H 3 0Xfb04
H 5 0Xfbf4
H 4 0Xfcb2
H 7 0Xfd66
H 6 0Xfe2e
H 9 0Xff1e
H 8 0Xffd2
H E 0X00b8
H O 0X0194
H T 0X0270
B 2 0X0342
B 3 0X03f6
B 1 0X04aa
B 4 0X0568
B 5 0X0630
B 6 0X0702
B 7 0X07d4
B 8 0X08a6
B 9 0X0978
B O 0X0a4a
B E 0X0b26
B T 0X0c02
H 3 0X0dba
H 2 0X0e64
H 4 0X0f22
H 1 0X0ff4
H 6 0X10b2
H 5 0X1184
H 8 0X1224
H 7 0X1314
H 9 0X1422
H E 0X14b8
H O 0X1594
H T 0X1698
B 2 0X174c
B 3 0X17ec
B 4 0X18c8
B 6 0X197c
B 1 0X1a4e
B 8 0X1b16
B 5 0X1c06
B 9 0X1cba
B 7 0X1d8c
B O 0X1e36
B E 0X1f30
B T 0X1ff8
H 2 0X21d8
H 4 0X22aa
H 3 0X2368
H 1 0X241c
H 6 0X24d0
H 5 0X25a2
H 8 0X2660
H 7 0X273c
H 9 0X27dc
H E 0X28b8
H O 0X2980
H T 0X2a8e
B 4 0X2b4c
B 2 0X2c32
B 3 0X2cf0
B 6 0X2dcc
B 1 0X2ebc
B 8 0X2f84
B 5 0X306a
B 9 0X30d8
B 7 0X31c8
B O 0X3272
B E 0X3358
B T 0X342a
H 4 0X35d8
H 3 0X36b4
H 2 0X375e
H 1 0X3830
H 6 0X38f8
H 5 0X39de
H 8 0X3af6
H 7 0X3b96
H 9 0X3c5e
H E 0X3cfe
H O 0X3dbc
H T 0X3eb6
B 3 0X3fa6
B 4 0X4064
B 2 0X4136
B 6 0X4226
B 1 0X4302
B 8 0X43c0
B 5 0X447e
B 9 0X4550
B 7 0X4622
B O 0X46cc
B E 0X47a8
B T 0X4884
H 4 0X4a64
H 3 0X4b0e
H 6 0X4bfe
H 2 0X4cd0
H 8 0X4d70
H 1 0X4e4c
H 9 0X4eec
H 5 0X4fbe
H O 0X509a
H 7 0X5194
H E 0X5216
H T 0X5310
B 4 0X53f6
B 6 0X54be
B 3 0X55a4
B 8 0X5662
B 2 0X573e
B 9 0X5806
B 1 0X58d8
B O 0X598c
B 5 0X5a5e
B E 0X5b12
B 7 0X5c02
B T 0X5cde
H 6 0X5eb4
H 4 0X5f86
H 3 0X6044
H 2 0X6120
H 8 0X61ca
H 1 0X627e
H 9 0X6328
H 5 0X6436
H O 0X64d6
H 7 0X658a
H E 0X6670
H T 0X6742
B 6 0X6850
B 3 0X6922
B 4 0X69ea
B 8 0X6ab2
B 2 0X6b70
B 9 0X6c7e
B 1 0X6d1e
B O 0X6ddc
B 5 0X6eb8
B E 0X6f62
B 7 0X703e
B T 0X711a
H 3 0X730e
H 6 0X73e0
H 4 0X749e
H 2 0X7598
H 8 0X7642
H 1 0X76f6
H 9 0X77be
H 5 0X7872
H O 0X791c
H 7 0X7a02
H E 0X7aa2
H T 0X7b9c
B 3 0X7cbe
B 4 0X7d90
B 6 0X7e58
B 8 0X7f34
B 2 0X801a
B 9 0X80b0
B 1 0X818c
B O 0X825e
B 5 0X8312
B E 0X83c6
B 7 0X84b6
B T 0X8592
H 4 0X8754
H 3 0X883a
H 8 0X88da
H 6 0X89ca
H 9 0X8a88
H 2 0X8b5a
H O 0X8c4a
H 1 0X8cd6
H 5 0X8d94
H 7 0X8e8e
H E 0X8f38
H T 0X901e
B 3 0X912c
B 4 0X91d6
B 8 0X92a8
B 9 0X9384
B 6 0X9456
B O 0X951e
B 2 0X95d2
B 5 0X96c2
B 1 0X9780
B E 0X9852
B 7 0X9906
B T 0X99e2
H 3 0X9ba4
H 8 0X9c58
H 4 0X9d34
H 6 0X9dfc
H 9 0X9eec
H 2 0X9fc8
H O 0Xa086
H 1 0Xa14e
H 5 0Xa202
H 7 0Xa2de
H E 0Xa388
H T 0Xa482
B 8 0Xa572
B 3 0Xa63a
B 4 0Xa6d0
B 9 0Xa7b6
B 6 0Xa874
B O 0Xa96e
B 2 0Xaa4a
B 5 0Xab30
B 1 0Xabd0
B E 0Xac84
B 7 0Xad60
B T 0Xae46
H 8 0Xafea
H 4 0Xb0a8
H 3 0Xb184
H 6 0Xb24c
H 9 0Xb33c
H 2 0Xb418
H O 0Xb4c2
H 1 0Xb58a
H 5 0Xb652
H 7 0Xb74c
H E 0Xb7ec
H T 0Xb8c8
B 4 0Xb990
B 8 0Xba62
B 3 0Xbb5c
B 9 0Xbc42
B 6 0Xbce2
B O 0Xbdc8
B 2 0Xbe7c
B 5 0Xbf62
B 1 0Xc020
B E 0Xc0e8
B 7 0Xc1ce
B T 0Xc2a0
H 8 0Xc458
H 4 0Xc520
H 9 0Xc5e8
H 3 0Xc6a6
H O 0Xc796
H 6 0Xc854
H 5 0Xc91c
H 2 0Xca02
H E 0Xca98
H 1 0Xcb10
H 7 0Xcc46
H T 0Xcd04
B 8 0Xce12
B 9 0Xceee
B 4 0Xcfc0
B O 0Xd09c
B 3 0Xd16e
B 5 0Xd222
B 6 0Xd2b8
B E 0Xd3c6
B 2 0Xd470
B 7 0Xd54c
B 1 0Xd600
B T 0Xd6e6
H 9 0Xd8c6
H 8 0Xd984
H 4 0Xda56
H 3 0Xdb1e
H O 0Xdbdc
H 6 0Xdca4
H 5 0Xdd76
H 2 0Xde84
H E 0Xdf24
H 1 0Xdfa6
H 7 0Xe0d2
H T 0Xe186
B 9 0Xe24e
B 4 0Xe352
B 8 0Xe406
B O 0Xe4e2
B 3 0Xe5d2
B 5 0Xe67c
B 6 0Xe744
B E 0Xe816
B 2 0Xe8e8
B 7 0Xea00
B 1 0Xea96
B T 0Xeb5e
H 4 0Xed2a
H 9 0Xedf2
H 8 0Xee88
H 3 0Xefb4
H O 0Xf04a
H 6 0Xf0e0
H 5 0Xf1e4
H 2 0Xf2e8
H E 0Xf388
H 1 0Xf41e
H 7 0Xf55e
H T 0Xf608
B 4 0Xf6c6
B 8 0Xf78e
B 9 0Xf87e
B O 0Xf950
B 3 0Xfa22
B 5 0Xfafe
B 6 0Xfbee
B E 0Xfc98
B 2 0Xfd42
B 7 0Xfe5a
B 1 0Xfefa
B T 0Xffe0
H 8 0X0152
H 4 0X024c
H O 0X02f6
H 9 0X03c8
H 5 0X04a4
H 3 0X0594
H E 0X0652
H 6 0X072e
H 7 0X083c
H 2 0X08be
H 1 0X0972
H T 0X0a58
B 4 0X0b66
B 8 0X0c10
B O 0X0cec
B 5 0X0d96
B 9 0X0e5e
B E 0X0f6c
B 3 0X1016
B 7 0X1106
B 6 0X11ec
B 1 0X1296
B 2 0X135e
B T 0X1430
H 4 0X15ca
H O 0X16b0
H 8 0X178c
H 9 0X185e
H 5 0X1930
H 3 0X19f8
H E 0X1ac0
H 6 0X1b88
H 7 0X1c8c
H 2 0X1d4a
H 1 0X1de0
H T 0X1eee
B O 0X1fe8
B 4 0X2092
B 8 0X2114
B 5 0X2222
B 9 0X22f4
B E 0X23e4
B 3 0X247a
B 7 0X257e
B 6 0X2650
B 1 0X270e
B 2 0X27cc
B T 0X289e
H O 0X2a60
H 8 0X2b1e
H 4 0X2bf0
H 9 0X2cfe
H 5 0X2dbc
H 3 0X2e7a
H E 0X2f56
H 6 0X300a
H 7 0X3104
H 2 0X31c2
H 1 0X3280
H T 0X335c
B 8 0X3424
B O 0X350a
B 4 0X35c8
B 5 0X36a4
B 9 0X376c
B E 0X387a
B 3 0X391a
B 7 0X3a0a
B 6 0X3ac8
B 1 0X3ba4
B 2 0X3c62
B T 0X3d20
H O 0X3ece
H 8 0X3fa0
H 5 0X404a
H 4 0X4144
H E 0X4234
H 9 0X42de
H 7 0X43ec
H 3 0X4496
H 1 0X455e
H 6 0X463a
H 2 0X4716
H T 0X47e8
B O 0X48ba
B 5 0X498c
B 8 0X4a54
B E 0X4b30
B 4 0X4bd0
B 7 0X4cac
B 9 0X4d7e
B 1 0X4e50
B 3 0X4f18
B 2 0X501c
B 6 0X50da
B T 0X51ac
H 5 0X533c
H O 0X540e
H 8 0X54f4
H 4 0X55b2
H E 0X568e
H 9 0X576a
H 7 0X5832
H 3 0X5918
H 1 0X59cc
H 6 0X5ac6
H 2 0X5b7a
H T 0X5c4c
B 5 0X5d32
B 8 0X5de6
B O 0X5ee0
B E 0X5fa8
B 4 0X607a
B 7 0X6160
B 9 0X6200
B 1 0X62c8
B 3 0X63a4
B 2 0X6476
B 6 0X6548
B T 0X6624
H 8 0X67c8
H 5 0X68ae
H O 0X6976
H 4 0X6a52
H E 0X6b24
H 9 0X6bf6
H 7 0X6cbe
H 3 0X6da4
H 1 0X6e76
H 6 0X6f66
H 2 0X6ff2
H T 0X70ba
B 8 0X718c
B O 0X725e
B 5 0X734e
B E 0X742a
B 4 0X74f2
B 7 0X75ba
B 9 0X76be
B 1 0X777c
B 3 0X7826
B 2 0X7916
B 6 0X79b6
B T 0X7aba
H O 0X7c4a
H 8 0X7d3a
H E 0X7df8
H 5 0X7ec0
H 7 0X7fce
H 4 0X805a
H 1 0X8154
H 9 0X8244
H 2 0X8302
H 3 0X83b6
H 6 0X8474
H T 0X8582
B 8 0X8622
B O 0X86ea
B E 0X87ee
B 7 0X88ac
B 5 0X8992
B 1 0X8a5a
B 4 0X8b22
B 2 0X8bea
B 9 0X8cd0
B 6 0X8d5c
B 3 0X8e56
B T 0X8f28
H 8 0X90e0
H E 0X91bc
H O 0X928e
H 5 0X934c
H 7 0X9428
H 4 0X950e
H 1 0X95ae
H 9 0X96d0
H 2 0X9752
H 3 0X982e
H 6 0X9900
H T 0X99dc
B E 0X9ab8
B 8 0X9b94
B O 0X9c70
B 7 0X9d24
B 5 0X9df6
B 1 0X9edc
B 4 0X9fa4
B 2 0Xa062
B 9 0Xa148
B 6 0Xa21a
B 3 0Xa2ce
B T 0Xa3b4
H E 0Xa576
H O 0Xa63e
H 8 0Xa710
H 5 0Xa7d8
H 7 0Xa8be
H 4 0Xa972
H 1 0Xaa1c
H 9 0Xab3e
H 2 0Xabac
H 3 0Xac7e
H 6 0Xad6e
H T 0Xae68
B O 0Xaf44
B E 0Xb016
B 8 0Xb0de
B 7 0Xb1e2
B 5 0Xb2aa
B 1 0Xb368
B 4 0Xb41c
B 2 0Xb4ee
B 9 0Xb5ca
B 6 0Xb688
B 3 0Xb746
B T 0Xb80e
H E 0Xb9da
H O 0Xbaa2
H 7 0Xbb9c
H 8 0Xbc50
H 1 0Xbd18
H 5 0Xbdea
H 2 0Xbebc
H 4 0Xbf98
H 6 0Xc060
H 9 0Xc13c
H 3 0Xc1e6
H T 0Xc2e0
B E 0Xc3d0
B 7 0Xc498
B O 0Xc56a
B 1 0Xc632
B 8 0Xc6e6
B 2 0Xc7d6
B 5 0Xc894
B 6 0Xc952
B 4 0Xca4c
B 3 0Xcb28
B 9 0Xcbd2
B T 0Xcca4
H 7 0Xce8e
H E 0Xcf42
H O 0Xcfec
H 8 0Xd0c8
H 1 0Xd19a
H 5 0Xd262
H 2 0Xd33e
H 4 0Xd442
H 6 0Xd4f6
H 9 0Xd5b4
H 3 0Xd668
H T 0Xd74e
B 7 0Xd85c
B O 0Xd910
B E 0Xda0a
B 1 0Xdab4
B 8 0Xdb72
B 2 0Xdc58
B 5 0Xdd0c
B 6 0Xddb6
B 4 0Xdec4
B 3 0Xdfa0
B 9 0Xe054
B T 0Xe112
H O 0Xe2f2
H 7 0Xe3b0
H E 0Xe4a0
H 8 0Xe54a
H 1 0Xe612
H 5 0Xe6e4
H 2 0Xe7ac
H 4 0Xe8b0
H 6 0Xe96e
H 9 0Xea5e
H 3 0Xeaf4
H T 0Xebe4
B O 0Xecca
B E 0Xedba
B 7 0Xee5a
B 1 0Xef36
B 8 0Xeff4
B 2 0Xf0c6
B 5 0Xf17a
B 6 0Xf26a
B 4 0Xf350
B 3 0Xf436
B 9 0Xf4ea
B T 0Xf5bc
H E 0Xf788
H O 0Xf846
H 1 0Xf922
H 7 0Xfa1c
H 2 0Xfab2
H 8 0Xfb66
H 6 0Xfc60
H 5 0Xfd0a
H 3 0Xfde6
H 4 0Xfeb8
H 9 0Xffa8
H T 0X0084
B O 0X0138
B E 0X0264
B 1 0X030e
B 2 0X03e0
B 7 0X04bc
B 6 0X055c
B 8 0X061a
B 3 0X06f6
B 5 0X07aa
B 9 0X0886
B 4 0X098a
B T 0X0a52
H O 0X0bec
H 1 0X0c96
H E 0X0dae
H 7 0X0eb2
H 2 0X0f5c
H 8 0X1024
H 6 0X10c4
H 5 0X11a0
H 3 0X1272
H 4 0X1344
H 9 0X1416
H T 0X14e8
B 1 0X15c4
B O 0X163c
B E 0X177c
B 2 0X1862
B 7 0X193e
B 6 0X19de
B 8 0X1aec
B 3 0X1b8c
B 5 0X1c22
B 9 0X1d44
B 4 0X1e2a
B T 0X1ec0
H 1 0X2078
H E 0X2140
H O 0X21e0
H 7 0X22da
H 2 0X2398
H 8 0X247e
H 6 0X2578
H 5 0X2640
H 3 0X26ea
H 4 0X27bc
H 9 0X28c0
H T 0X296a
B E 0X2a3c
B 1 0X2adc
B O 0X2b54
B 2 0X2c80
B 7 0X2d7a
B 6 0X2e6a
B 8 0X2f28
B 3 0X3004
B 5 0X30d6
B 9 0X31a8
B 4 0X32c0
B T 0X3338
H 1 0X34dc
H E 0X35c2
H 2 0X3658
H O 0X36e4
H 6 0X3810
H 7 0X390a
H 3 0X39e6
H 8 0X3a7c
H 9 0X3b76
H 5 0X3c34
H 4 0X3d38
H T 0X3dd8
B 1 0X3ec8
B 2 0X3f86
B E 0X4062
B 6 0X40f8
B O 0X41a2
B 3 0X42ce
B 7 0X4382
B 9 0X4440
B 8 0X4512
B 4 0X45ee
B 5 0X46ca
B T 0X4792
H 2 0X4986
H 1 0X4a3a
H E 0X4b0c
H O 0X4ba2
H 6 0X4c7e
H 7 0X4d64
H 3 0X4e2c
H 8 0X4ee0
H 9 0X4fd0
H 5 0X5070
H 4 0X516a
H T 0X5232
B 2 0X534a
B E 0X5426
B 1 0X54c6
B 6 0X558e
B O 0X5660
B 3 0X5728
B 7 0X5804
B 9 0X58e0
B 8 0X5994
B 4 0X5a52
B 5 0X5b24
B T 0X5c00
H E 0X5df4
H 2 0X5ebc
H 1 0X5f84
H O 0X6010
H 6 0X6114
H 7 0X61e6
H 3 0X62c2
H 8 0X6358
H 9 0X6466
H 5 0X6510
H 4 0X65e2
H T 0X66b4
B E 0X67b8
B 1 0X6862
B 2 0X695c
B 6 0X6a1a
B O 0X6ac4
B 3 0X6bbe
B 7 0X6ca4
B 9 0X6d4e
B 8 0X6e20
B 4 0X6ee8
B 5 0X6fc4
B T 0X7096
H 1 0X7244
H E 0X732a
H 6 0X73e8
H 2 0X74ce
H 3 0X7596
H O 0X7640
H 9 0X7744
H 7 0X782a
H 4 0X78de
H 8 0X799c
H 5 0X7a50
H T 0X7b5e
B E 0X7c3a
B 1 0X7d2a
B 6 0X7da2
B 3 0X7e9c
B 2 0X7f64
B 9 0X8040
B O 0X8112
B 4 0X8194
B 7 0X8284
B 5 0X8392
B 8 0X8464
B T 0X852c
H E 0X86e4
H 6 0X878e
H 1 0X8874
H 2 0X8964
H 3 0X8a2c
H O 0X8afe
H 9 0X8b8a
H 7 0X8c52
H 4 0X8d38
H 8 0X8e00
H 5 0X8ee6
H T 0X8fea
B 6 0X90d0
B E 0X91ac
B 1 0X9260
B 3 0X930a
B 2 0X93f0
B 9 0X94cc
B O 0X959e
B 4 0X963e
B 7 0X9710
B 5 0X981e
B 8 0X98c8
B T 0X99ae
H 6 0X9b7a
H 1 0X9c38
H E 0X9d14
H 2 0X9ddc
H 3 0X9e9a
H O 0X9f3a
H 9 0Xa020
H 7 0Xa0fc
H 4 0Xa1b0
H 8 0Xa264
H 5 0Xa34a
H T 0Xa444
B 1 0Xa534
B 6 0Xa5f2
B E 0Xa6f6
B 3 0Xa7aa
B 2 0Xa87c
B 9 0Xa944
B O 0Xaa20
B 4 0Xaae8
B 7 0Xabce
B 5 0Xac8c
B 8 0Xad36
B T 0Xae26
H 6 0Xb010
H 1 0Xb0ce
H 3 0Xb1aa
H E 0Xb27c
H 9 0Xb330
H 2 0Xb402
H 4 0Xb4ca
H O 0Xb538
H 5 0Xb664
H 7 0Xb768
H 8 0Xb812
H T 0Xb8c6
B 6 0Xb9ca
B 3 0Xba9c
B 1 0Xbb78
B 9 0Xbc54
B E 0Xbcd6
B 4 0Xbdd0
B 2 0Xbea2
B 5 0Xbf6a
B O 0Xc028
B 8 0Xc118
B 7 0Xc208
B T 0Xc2c6
H 3 0Xc492
H 6 0Xc550
H 1 0Xc622
H E 0Xc708
H 9 0Xc7da
H 2 0Xc88e
H 4 0Xc96a
H O 0Xca28
H 5 0Xcac8
H 7 0Xcbcc
H 8 0Xcc6c
H T 0Xcd66
B 3 0Xce60
B 1 0Xcf3c
B 6 0Xcfb4
B 9 0Xd0d6
B E 0Xd1bc
B 4 0Xd284
B 2 0Xd34c
B 5 0Xd41e
B O 0Xd4be
B 8 0Xd586
B 7 0Xd694
B T 0Xd734
H 1 0Xd90a
H 3 0Xd9f0
H 6 0Xda9a
H E 0Xdb8a
H 9 0Xdc66
H 2 0Xdd24
H 4 0Xdde2
H O 0Xdeaa
H 5 0Xdf72
H 7 0Xe08a
H 8 0Xe12a
H T 0Xe1f2
B 1 0Xe2ec
B 6 0Xe38c
B 3 0Xe47c
B 9 0Xe558
B E 0Xe634
B 4 0Xe6d4
B 2 0Xe7b0
B 5 0Xe8be
B O 0Xe986
B 8 0Xea58
B 7 0Xeb48
B T 0Xebfc
H 6 0Xedb4
H 1 0Xee90
H 9 0Xef44
H 3 0Xf016
H 4 0Xf0de
H E 0Xf1c4
H 5 0Xf278
H 2 0Xf35e
H 8 0Xf3f4
H O 0Xf502
H 7 0Xf5d4
H T 0Xf6a6
B 1 0Xf782
B 6 0Xf84a
B 9 0Xf958
B 4 0Xfa02
B 3 0Xfad4
B 5 0Xfb88
B E 0Xfc64
B 8 0Xfd0e
B 2 0Xfdea
B 7 0Xfec6
B O 0Xffc0
B T 0X009c
H 1 0X0240
H 9 0X0344
H 6 0X03bc
H 3 0X0498
H 4 0X057e
H E 0X0650
H 5 0X072c
H 2 0X081c
H 8 0X08c6
H O 0X09c0
H 7 0X0a74
H T 0X0b14
B 9 0X0bf0
B 1 0X0cf4
B 6 0X0da8
B 4 0X0e5c
B 3 0X0f6a
B 5 0X1046
B E 0X110e
B 8 0X11ea
B 2 0X1294
B 7 0X1398
B O 0X1474
B T 0X1550
H 9 0X16d6
H 6 0X17bc
H 1 0X1884
H 3 0X1960
H 4 0X19e2
H E 0X1afa
H 5 0X1bae
H 2 0X1cbc
H 8 0X1d7a
H O 0X1e74
H 7 0X1f28
H T 0X1fe6
B 6 0X20b8
B 9 0X21a8
B 1 0X2270
B 4 0X2356
B 3 0X2400
B 5 0X24d2
B E 0X25ae
B 8 0X2680
B 2 0X2734
B 7 0X282e
B O 0X291e
B T 0X29e6
H 9 0X2bbc
H 6 0X2c8e
H 4 0X2d38
H 1 0X2e14
H 5 0X2eb4
H 3 0X2f90
H 8 0X3076
H E 0X3170
H 2 0X31fc
H O 0X32ce
H 7 0X33be
H T 0X3490
B 9 0X359e
B 4 0X3652
B 6 0X36fc
B 5 0X37f6
B 1 0X38c8
B 8 0X3986
B 3 0X3a44
B 2 0X3af8
B E 0X3be8
B 7 0X3cd8
B O 0X3dc8
B T 0X3e72
H 4 0X402a
H 9 0X411a
H 6 0X41ec
H 1 0X42aa
H 5 0X4354
H 3 0X441c
H 8 0X4502
H E 0X45e8
H 2 0X466a
H O 0X476e
H 7 0X485e
H T 0X491c
B 4 0X49ee
B 6 0X4ade
B 9 0X4be2
B 5 0X4c96
B 1 0X4d68
B 8 0X4e1c
B 3 0X4ebc
B 2 0X4f98
B E 0X5088
B 7 0X515a
B O 0X522c
B T 0X5326
H 6 0X54fc
H 4 0X5588
H 9 0X566e
H 1 0X574a
H 5 0X57f4
H 3 0X58d0
H 8 0X5984
H E 0X5a88
H 2 0X5b1e
H O 0X5bf0
H 7 0X5cb8
H T 0X5da8
B 6 0X5e70
B 9 0X5f74
B 4 0X6064
B 5 0X6118
B 1 0X61fe
B 8 0X62b2
B 3 0X6398
B 2 0X6442
B E 0X651e
B 7 0X65d2
B O 0X66c2
B T 0X679e
H 9 0X699c
H 6 0X6a28
H 5 0X6b04
H 4 0X6bcc
H 8 0X6c8a
H 1 0X6d48
H 2 0X6e2e
H 3 0X6f0a
H 7 0X700e
H E 0X70b8
H O 0X716c
H T 0X7266
B 6 0X7310
B 9 0X7414
B 5 0X74dc
B 8 0X759a
B 4 0X76a8
B 2 0X7752
B 1 0X7824
B 7 0X78ec
B 3 0X798c
B O 0X7a72
B E 0X7b44
B T 0X7c5c
H 6 0X7dd8
H 5 0X7eb4
H 9 0X7f7c
H 4 0X8030
H 8 0X8102
H 1 0X81fc
H 2 0X82a6
H 3 0X836e
H 7 0X8486
H E 0X8526
H O 0X8602
H T 0X86de
B 5 0X87ba
B 6 0X8850
B 9 0X8954
B 8 0X8a26
B 4 0X8b02
B 2 0X8bca
B 1 0X8c9c
B 7 0X8d78
B 3 0X8e22
B O 0X8ecc
B E 0X8fbc
B T 0X90c0
H 5 0X926e
H 9 0X9368
H 6 0X9412
H 4 0X94bc
H 8 0X958e
H 1 0X9660
H 2 0X9700
H 3 0X97e6
H 7 0X98d6
H E 0X9994
H O 0X9a5c
H T 0X9b38
B 9 0X9c3c
B 5 0X9d2c
B 6 0X9dea
B 8 0X9ea8
B 4 0X9fac
B 2 0Xa060
B 1 0Xa128
B 7 0Xa1f0
B 3 0Xa2a4
B O 0Xa358
B E 0Xa420
B T 0Xa4fc
H 5 0Xa6dc
H 9 0Xa7c2
H 8 0Xa86c
H 6 0Xa97a
H 2 0Xaa4c
H 4 0Xab28
H 7 0Xac22
H 1 0Xac72
H O 0Xad58
H 3 0Xae16
H E 0Xaede
H T 0Xafba
B 5 0Xb0c8
B 8 0Xb154
B 9 0Xb258
B 2 0Xb352
B 6 0Xb410
B 7 0Xb514
B 4 0Xb5dc
B O 0Xb686
B 1 0Xb744
B E 0Xb820
B 3 0Xb8f2
B T 0Xb99c
H 8 0Xbb5e
H 5 0Xbc58
H 9 0Xbd3e
H 6 0Xbdfc
H 2 0Xbeba
H 4 0Xbf8c
H 7 0Xc086
H 1 0Xc13a
H O 0Xc1e4
H 3 0Xc306
H E 0Xc3a6
H T 0Xc45a
B 8 0Xc55e
B 9 0Xc626
B 5 0Xc6f8
B 2 0Xc7e8
B 6 0Xc892
B 7 0Xc98c
B 4 0Xca2c
B O 0Xcb30
B 1 0Xcbee
B E 0Xccd4
B 3 0Xcdb0
B T 0Xce46
H 9 0Xd01c
H 8 0Xd0e4
H 5 0Xd1a2
H 6 0Xd29c
H 2 0Xd36e
H 4 0Xd42c
H 7 0Xd51c
H 1 0Xd5bc
H O 0Xd670
H 3 0Xd76a
H E 0Xd83c
H T 0Xd904
B 9 0Xd9ea
B 5 0Xdac6
B 8 0Xdb5c
B 2 0Xdc92
B 6 0Xdd0a
B 7 0Xde2c
B 4 0Xdef4
B O 0Xdfbc
B 1 0Xe070
B E 0Xe14c
B 3 0Xe214
B T 0Xe2c8
H 5 0Xe4bc
H 9 0Xe5ac
H 2 0Xe656
H 8 0Xe71e
H 7 0Xe80e
H 6 0Xe8cc
H O 0Xe99e
H 4 0Xea70
H 1 0Xeb24
H 3 0Xec0a
H E 0Xecb4
H T 0Xed7c
B 9 0Xee6c
B 5 0Xef7a
B 2 0Xf04c
B 7 0Xf114
B 8 0Xf1d2
B O 0Xf2c2
B 6 0Xf38a
B 1 0Xf43e
B 4 0Xf506
B E 0Xf5ce
B 3 0Xf682
B T 0Xf75e
H 9 0Xf934
H 2 0Xfa24
H 5 0Xfad8
H 8 0Xfb96
H 7 0Xfc9a
H 6 0Xfd76
H O 0Xfe2a
H 4 0Xfea2
H 1 0Xff92
H 3 0X0050
H E 0X0122
H T 0X01fe
B 2 0X030c
B 9 0X03c0
B 5 0X049c
B 7 0X0596
B 8 0X0654
B O 0X0744
B 6 0X0802
B 1 0X08c0
B 4 0X099c
B E 0X0a8c
B 3 0X0b18
B T 0X0bd6
H 2 0X0dc0
H 5 0X0e74
H 9 0X0f5a
H 8 0X1022
H 7 0X1126
H 6 0X11ee
H O 0X12c0
H 4 0X1374
H 1 0X141e
H 3 0X1504
H E 0X15ae
H T 0X168a
B 5 0X1798
B 2 0X1874
B 9 0X193c
B 7 0X1a04
B 8 0X1ac2
B O 0X1ba8
B 6 0X1c66
B 1 0X1d4c
B 4 0X1e46
B E 0X1ef0
B 3 0X1fc2
B T 0X204e
H 2 0X2242
H 5 0X2300
H 7 0X2404
H 9 0X24c2
H O 0X2580
H 8 0X265c
H 1 0X2706
H 6 0X27e2
H E 0X28e6
H 4 0X297c
H 3 0X2a3a
H T 0X2b16
B 2 0X2c24
B 7 0X2cec
B 5 0X2dc8
B O 0X2e9a
B 9 0X2f44
B 1 0X303e
B 8 0X30de
B E 0X31e2
B 6 0X32aa
B 3 0X3372
B 4 0X3462
B T 0X350c
H 7 0X36ce
H 2 0X37a0
H 5 0X385e
H 9 0X3944
H O 0X3a20
H 8 0X3ac0
H 1 0X3b7e
H 6 0X3c8c
H E 0X3d40
H 4 0X3e1c
H 3 0X3ed0
H T 0X3fca
B 7 0X4088
B 5 0X4182
B 2 0X425e
B O 0X42f4
B 9 0X43e4
B 1 0X44ca
B 8 0X4574
B E 0X4646
B 6 0X4722
B 3 0X4808
B 4 0X48f8
B T 0X49a2
H 5 0X4b64
H 7 0X4c5e
H 2 0X4d26
H 9 0X4de4
H O 0X4ec0
H 8 0X4f92
H 1 0X5028
H 6 0X512c
H E 0X51e0
H 4 0X52da
H 3 0X5370
H T 0X5460
B 5 0X5532
B 2 0X562c
B 7 0X56fe
B O 0X57d0
B 9 0X5898
B 1 0X596a
B 8 0X5a1e
B E 0X5afa
B 6 0X5bc2
B 3 0X5ca8
B 4 0X5d8e
B T 0X5e42
H 2 0X6004
H 5 0X60c2
H O 0X61b2
H 7 0X6270
H 1 0X632e
H 9 0X641e
H E 0X64f0
H 8 0X65cc
H 3 0X6680
H 6 0X672a
H 4 0X682e
H T 0X690a
B 5 0X69c8
B 2 0X6ab8
B O 0X6b58
B 1 0X6c52
B 7 0X6d2e
B E 0X6df6
B 9 0X6e96
B 3 0X6f90
B 8 0X704e
B 4 0X7152
B 6 0X71ca
B T 0X72ce
H 5 0X7472
H O 0X7544
H 2 0X7616
H 7 0X76fc
H 1 0X77ba
H 9 0X78a0
H E 0X795e
H 8 0X7a26
H 3 0X7ada
H 6 0X7bfc
H 4 0X7cb0
H T 0X7d96
B O 0X7e72
B 5 0X7f58
B 2 0X800c
B 1 0X80d4
B 7 0X81e2
B E 0X8282
B 9 0X834a
B 3 0X8412
B 8 0X84c6
B 4 0X85c0
B 6 0X86ba
B T 0X8782
H O 0X8944
H 2 0X89f8
H 5 0X8aac
H 7 0X8bc4
H 1 0X8c64
H 9 0X8d40
H E 0X8dea
H 8 0X8ec6
H 3 0X8f98
H 6 0X90c4
H 4 0X9178
H T 0X9254
B 2 0X931c
B O 0X93da
B 5 0X94ca
B 1 0X95ba
B 7 0X966e
B E 0X9722
B 9 0X97fe
B 3 0X98c6
B 8 0X998e
B 4 0X9a88
B 6 0X9b6e
B T 0X9c4a
H O 0X9de4
H 2 0X9ea2
H 1 0X9f56
H 5 0Xa028
H E 0Xa0fa
H 7 0Xa1ea
H 3 0Xa2e4
H 9 0Xa3ac
H 4 0Xa442
H 8 0Xa51e
H 6 0Xa5dc
H T 0Xa6fe
B O 0Xa80c
B 1 0Xa8c0
B 2 0Xa94c
B E 0Xaa00
B 5 0Xab04
B 3 0Xabea
B 7 0Xaca8
B 4 0Xad98
B 9 0Xae56
B 6 0Xaef6
B 8 0Xafc8
B T 0Xb0b8
H 1 0Xb28e
H O 0Xb342
H 2 0Xb414
H 5 0Xb4e6
H E 0Xb5c2
H 7 0Xb6b2
H 3 0Xb770
H 9 0Xb842
H 4 0Xb93c
H 8 0Xb9be
H 6 0Xbaa4
H T 0Xbb6c
B 1 0Xbc52
B 2 0Xbd42
B O 0Xbde2
B E 0Xbedc
B 5 0Xbfcc
B 3 0Xc094
B 7 0Xc166
B 4 0Xc260
B 9 0Xc300
B 6 0Xc3c8
B 8 0Xc486
B T 0Xc558
H 2 0Xc756
H 1 0Xc80a
H O 0Xc896
H 5 0Xc9c2
H E 0Xca58
H 7 0Xcb3e
H 3 0Xcc10
H 9 0Xcce2
H 4 0Xcdbe
H 8 0Xce86
H 6 0Xcf62
H T 0Xd03e
B 2 0Xd124
B O 0Xd1f6
B 1 0Xd2a0
B E 0Xd386
B 5 0Xd476
B 3 0Xd548
B 7 0Xd624
B 4 0Xd6f6
B 9 0Xd7aa
B 6 0Xd868
B 8 0Xd94e
B T 0Xda2a
H O 0Xdc1e
H 2 0Xdcc8
H E 0Xdd86
H 1 0Xde12
H 3 0Xdf20
H 5 0Xdfca
H 4 0Xe0ec
H 7 0Xe1c8
H 6 0Xe24a
H 9 0Xe33a
H 8 0Xe3ee
H T 0Xe506
B 2 0Xe5c4
B O 0Xe696
B E 0Xe790
B 3 0Xe826
B 1 0Xe8f8
B 4 0Xe9b6
B 5 0Xea9c
B 6 0Xeb82
B 7 0Xec72
B 8 0Xed12
B 9 0Xedda
B T 0Xeed4
H 2 0Xf0aa
H E 0Xf15e
H O 0Xf21c
H 1 0Xf2b2
H 3 0Xf3a2
H 5 0Xf456
H 4 0Xf55a
H 7 0Xf622
H 6 0Xf6cc
H 9 0Xf7e4
H 8 0Xf88e
H T 0Xf974
B E 0Xfab4
B 2 0Xfb68
B O 0Xfbfe
B 3 0Xfcd0
B 1 0Xfd8e
B 4 0Xfe42
B 5 0Xff1e
B 6 0X000e
B 7 0X00e0
B 8 0X019e
B 9 0X0266
B T 0X0342
H E 0X052c
H O 0X05f4
H 2 0X0694
H 1 0X075c
H 3 0X084c
H 5 0X08f6
H 4 0X09f0
H 7 0X0aa4
H 6 0X0b94
H 9 0X0c66
H 8 0X0d1a
H T 0X0df6
B O 0X0f18
B E 0X0fea
B 2 0X108a
B 3 0X1170
B 1 0X1242
B 4 0X1300
B 5 0X13aa
B 6 0X1490
B 7 0X1576
B 8 0X163e
B 9 0X1706
B T 0X17e2
H E 0X19ae
H O 0X1a80
H 3 0X1b52
H 2 0X1c1a
H 4 0X1cf6
H 1 0X1db4
H 6 0X1e90
H 5 0X1f44
H 8 0X2002
H 7 0X20fc
H 9 0X21ec
H T 0X22b4
B E 0X237c
B 3 0X246c
B O 0X2516
B 4 0X25ca
B 2 0X26b0
B 6 0X278c
B 1 0X2890
B 8 0X294e
B 5 0X2a02
B 9 0X2ad4
B 7 0X2be2
B T 0X2c96
H 3 0X2e4e
H E 0X2f3e
H O 0X2fd4
H 2 0X30c4
H 4 0X3196
H 1 0X3268
H 6 0X3326
H 5 0X3402
H 8 0X34ca
H 7 0X35ba
H 9 0X3664
H T 0X3722
B 3 0X3844
B O 0X38ee
B E 0X39ca
B 4 0X3aba
B 2 0X3b82
B 6 0X3c18
B 1 0X3d12
B 8 0X3de4
B 5 0X3eb6
B 9 0X3f88
B 7 0X4064
B T 0X4118
H O 0X42da
H 3 0X43d4
H E 0X4488
H 2 0X45aa
H 4 0X4672
H 1 0X4712
H 6 0X47b2
H 5 0X48ac
H 8 0X4974
H 7 0X4a3c
H 9 0X4b22
H T 0X4bcc
B O 0X4ce4
B E 0X4db6
B 3 0X4e7e
B 4 0X4f8c
B 2 0X5054
B 6 0X50e0
B 1 0X51bc
B 8 0X5284
B 5 0X5374
B 9 0X543c
B 7 0X552c
B T 0X55e0
H E 0X577a
H O 0X5838
H 4 0X595a
H 3 0X5a22
H 6 0X5afe
H 2 0X5be4
H 8 0X5c8e
H 1 0X5d56
H 9 0X5e28
H 5 0X5f0e
H 7 0X5fea
H T 0X609e
B O 0X6148
B E 0X6256
B 4 0X6350
B 6 0X6436
B 3 0X64fe
B 8 0X65b2
B 2 0X667a
B 9 0X672e
B 1 0X67f6
B 7 0X68e6
B 5 0X69cc
B T 0X6a9e
H O 0X6c24
H 4 0X6d1e
H E 0X6ddc
H 3 0X6eea
H 6 0X6fbc
H 2 0X7098
H 8 0X7142
H 1 0X71ec
H 9 0X72f0
H 5 0X73b8
H 7 0X749e
H T 0X755c
B 4 0X7642
B O 0X76ec
B E 0X77e6
B 6 0X78b8
B 3 0X79d0
B 8 0X7a66
B 2 0X7b2e
B 9 0X7c00
B 1 0X7cc8
B 7 0X7dae
B 5 0X7e76
B T 0X7f52
H 4 0X811e
H E 0X81d2
H O 0X8290
H 3 0X83bc
H 6 0X8484
H 2 0X856a
H 8 0X8614
H 1 0X86be
H 9 0X8790
H 5 0X886c
H 7 0X8952
H T 0X8a10
B E 0X8af6
B 4 0X8c18
B O 0X8cae
B 6 0X8d8a
B 3 0X8ea2
B 8 0X8f38
B 2 0X8fe2
B 9 0X908c
B 1 0X917c
B 7 0X9276
B 5 0X932a
B T 0X93fc
H 4 0X9604
H E 0X96c2
H 6 0X9762
H O 0X9848
H 8 0X9924
H 3 0X9a1e
H 9 0X9ac8
H 2 0X9b90
H 7 0X9c9e
H 1 0X9d2a
H 5 0X9dd4
H T 0X9ed8
B 4 0Xa022
B 6 0Xa086
B E 0Xa18a
B 8 0Xa220
B O 0Xa2d4
B 9 0Xa3ce
B 3 0Xa4be
B 7 0Xa5ae
B 2 0Xa658
B 5 0Xa720
B 1 0Xa7f2
B T 0Xa8c4
H 6 0Xaab8
H 4 0Xab9e
H E 0Xac2a
H O 0Xacca
H 8 0Xada6
H 3 0Xaeaa
H 9 0Xaf72
H 2 0Xb058
H 7 0Xb12a
H 1 0Xb1b6
H 5 0Xb274
H T 0Xb36e
B 6 0Xb45e
B E 0Xb54e
B 4 0Xb62a
B 8 0Xb6c0
B O 0Xb7b0
B 9 0Xb878
B 3 0Xb954
B 7 0Xba30
B 2 0Xbaf8
B 5 0Xbbd4
B 1 0Xbc92
B T 0Xbd46
H E 0Xbf12
H 6 0Xc016
H 4 0Xc0de
H O 0Xc1b0
H 8 0Xc278
H 3 0Xc37c
H 9 0Xc412
H 2 0Xc502
H 7 0Xc5de
H 1 0Xc66a
H 5 0Xc746
H T 0Xc804
B E 0Xc8e0
B 4 0Xc9c6
B 6 0Xca98
B 8 0Xcb7e
B O 0Xcc64
B 9 0Xcd22
B 3 0Xce44
B 7 0Xcef8
B 2 0Xcfac
B 5 0Xd088
B 1 0Xd150
B T 0Xd1f0
H 4 0Xd3bc
H E 0Xd48e
H 8 0Xd542
H 6 0Xd68c
H 9 0Xd70e
H O 0Xd808
H 7 0Xd8e4
H 3 0Xd9a2
H 5 0Xda4c
H 2 0Xdb32
H 1 0Xdbfa
H T 0Xdcb8
B E 0Xdd94
B 4 0Xde66
B 8 0Xdf24
B 9 0Xdfec
B 6 0Xe0e6
B 7 0Xe1d6
B O 0Xe2c6
B 5 0Xe370
B 3 0Xe460
B 1 0Xe50a
B 2 0Xe5be
B T 0Xe672
H E 0Xe848
H 8 0Xe8e8
H 4 0Xe9f6
H 6 0Xeafa
H 9 0Xeb9a
H O 0Xec94
H 7 0Xed66
H 3 0Xee24
H 5 0Xeeec
H 2 0Xefc8
H 1 0Xf05e
H T 0Xf14e
B 8 0Xf1da
B E 0Xf2fc
B 4 0Xf3ba
B 9 0Xf4b4
B 6 0Xf57c
B 7 0Xf658
B O 0Xf734
B 5 0Xf810
B 3 0Xf8d8
B 1 0Xf98c
B 2 0Xfa40
B T 0Xfafe
H 8 0Xfcca
H 4 0Xfdb0
H E 0Xfea0
H 6 0Xff54
H 9 0X003a
H O 0X0116
H 7 0X01fc
H 3 0X02d8
H 5 0X0378
H 2 0X045e
H 1 0X0508
H T 0X05ee
B 4 0X06a2
B 8 0X076a
B E 0X088c
B 9 0X0936
B 6 0X0a08
B 7 0X0aee
B O 0X0bd4
B 5 0X0c6a
B 3 0X0d50
B 1 0X0e22
B 2 0X0ed6
B T 0X0fbc
H 8 0X1156
H 4 0X1232
H 9 0X12fa
H E 0X13fe
H 7 0X14da
H 6 0X1584
H 5 0X1660
H O 0X176e
H 1 0X180e
H 3 0X18c2
H 2 0X199e
H T 0X1a52
B 8 0X1b24
B 9 0X1c1e
B 4 0X1d0e
B 7 0X1de0
B E 0X1eb2
B 5 0X1f7a
B 6 0X2056
B 1 0X213c
B O 0X21fa
B 2 0X22c2
B 3 0X2376
B T 0X2420
H 9 0X2632
H 8 0X26dc
H 4 0X2790
H E 0X288a
H 7 0X2984
H 6 0X2a56
H 5 0X2b14
H O 0X2bf0
H 1 0X2c7c
H 3 0X2d62
H 2 0X2e20
H T 0X2efc
B 9 0X2fce
B 4 0X3096
B 8 0X3168
B 7 0X3258
B E 0X333e
B 5 0X3424
B 6 0X34ec
B 1 0X3596
B O 0X3668
B 2 0X3730
B 3 0X3802
B T 0X38c0
H 4 0X3a96
H 9 0X3b5e
H 8 0X3c26
H E 0X3d2a
H 7 0X3df2
H 6 0X3ea6
H 5 0X3fa0
H O 0X405e
H 1 0X40f4
H 3 0X41f8
H 2 0X42b6
H T 0X4374
B 4 0X446e
B 8 0X452c
B 9 0X45fe
B 7 0X46da
B E 0X47e8
B 5 0X48a6
B 6 0X498c
B 1 0X4a68
B O 0X4ad6
B 2 0X4bd0
B 3 0X4c84
B T 0X4d2e
H 8 0X4f04
H 4 0X5026
H 7 0X50f8
H 9 0X5198
H 5 0X526a
H E 0X535a
H 1 0X53fa
H 6 0X54e0
H 2 0X55d0
H O 0X5634
H 3 0X5738
H T 0X580a
B 4 0X5918
B 8 0X59d6
B 7 0X5ab2
B 5 0X5b98
B 9 0X5c4c
B 1 0X5d0a
B E 0X5de6
B 2 0X5ecc
B 6 0X5f76
B 3 0X6066
B O 0X6124
B T 0X61e2
H 4 0X63e0
H 7 0X64bc
H 8 0X6548
H 9 0X662e
H 5 0X6714
H E 0X67dc
H 1 0X6872
H 6 0X6976
H 2 0X6a20
H O 0X6ae8
H 3 0X6ba6
H T 0X6cb4
B 7 0X6d7c
B 4 0X6ea8
B 8 0X6f2a
B 5 0X7010
B 9 0X70ec
B 1 0X71d2
B E 0X7286
B 2 0X731c
B 6 0X73f8
B 3 0X74fc
B O 0X7574
B T 0X7678
H 7 0X7876
H 8 0X78f8
H 4 0X79f2
H 9 0X7ace
H 5 0X7b96
H E 0X7c7c
H 1 0X7d1c
H 6 0X7e02
H 2 0X7ed4
H O 0X7f92
H 3 0X8050
H T 0X8122
B 8 0X8212
B 7 0X8316
B 4 0X83f2
B 5 0X84ce
B 9 0X8582
B 1 0X860e
B E 0X8708
B 2 0X87e4
B 6 0X8884
B 3 0X896a
B O 0X8a5a
B T 0X8b0e
H 7 0X8d0c
H 8 0X8dc0
H 5 0X8e88
H 4 0X8faa
H 1 0X905e
H 9 0X90f4
H 2 0X91d0
H E 0X928e
H 6 0X9356
H O 0X941e
H 3 0X94be
H T 0X95b8
B 7 0X969e
B 5 0X9784
B 8 0X984c
B 1 0X991e
B 4 0X9a18
B 2 0X9afe
B 9 0X9ba8
B 6 0X9c8e
B E 0X9d6a
B 3 0X9e1e
B O 0X9ed2
B T 0X9f9a
H 5 0Xa184
H 7 0Xa274
H 8 0Xa300
H 4 0Xa3be
H 1 0Xa468
H 9 0Xa58a
H 2 0Xa648
H E 0Xa756
H 6 0Xa800
H O 0Xa8c8
H 3 0Xa990
H T 0Xaa58
B 5 0Xab70
B 8 0Xac1a
B 7 0Xacf6
B 1 0Xadb4
B 4 0Xae7c
B 2 0Xaf62
B 9 0Xb020
B 6 0Xb110
B E 0Xb1ec
B 3 0Xb2dc
B O 0Xb37c
B T 0Xb444
H 8 0Xb5e8
H 5 0Xb6ec
H 7 0Xb7d2
H 4 0Xb868
H 1 0Xb930
H 9 0Xba0c
H 2 0Xbaac
H E 0Xbbba
H 6 0Xbc82
H O 0Xbd40
H 3 0Xbe26
H T 0Xbeee
B 8 0Xc006
B 7 0Xc0ce
B 5 0Xc1b4
B 1 0Xc286
B 4 0Xc326
B 2 0Xc3f8
B 9 0Xc4b6
B 6 0Xc5b0
B E 0Xc65a
B 3 0Xc754
B O 0Xc7d6
B T 0Xc8d0
H 7 0Xcace
H 8 0Xcb78
H 1 0Xcc54
H 5 0Xcd30
H 2 0Xce0c
H 4 0Xcef2
H 6 0Xcfa6
H 9 0Xd064
H 3 0Xd12c
H E 0Xd1ea
H O 0Xd2c6
H T 0Xd384
B 8 0Xd488
B 7 0Xd550
B 1 0Xd622
B 2 0Xd6ea
B 5 0Xd7bc
B 6 0Xd8c0
B 4 0Xd9c4
B 3 0Xda82
B 9 0Xdb22
B O 0Xdc08
B E 0Xdca8
B T 0Xdd70
H 8 0Xdf3c
H 1 0Xe004
H 7 0Xe0fe
H 5 0Xe1a8
H 2 0Xe270
H 4 0Xe360
H 6 0Xe432
H 9 0Xe504
H 3 0Xe5e0
H E 0Xe676
H O 0Xe766
H T 0Xe84c
B 1 0Xe932
B 8 0Xea04
B 7 0Xeaae
B 2 0Xeba8
B 5 0Xec48
B 6 0Xed10
B 4 0Xee14
B 3 0Xeed2
B 9 0Xefae
B O 0Xf076
B E 0Xf12a
B T 0Xf206
H 1 0Xf3b4
H 7 0Xf4a4
H 8 0Xf56c
H 5 0Xf670
H 2 0Xf72e
H 4 0Xf828
H 6 0Xf8aa
H 9 0Xf9ae
H 3 0Xfa6c
H E 0Xfb0c
H O 0Xfbe8
H T 0Xfcb0
B 7 0Xfd82
B 1 0Xfe5e
B 8 0Xff4e
B 2 0X0034
B 5 0X00de
B 6 0X01ba
B 4 0X02b4
B 3 0X0386
B 9 0X0462
B O 0X0516
B E 0X05d4
B T 0X06a6
H 1 0X0868
H 7 0X0962
H 2 0X0a0c
H 8 0X0ade
H 6 0X0bb0
H 5 0X0c8c
H 3 0X0d5e
H 4 0X0e30
H O 0X0ee4
H 9 0X0fb6
H E 0X107e
H T 0X1178
B 1 0X1218
B 2 0X12cc
B 7 0X13f8
B 6 0X14ac
B 8 0X1574
B 3 0X1650
B 5 0X1718
B O 0X17f4
B 4 0X18ee
B E 0X19a2
B 9 0X1a60
B T 0X1b28
H 2 0X1ce0
H 1 0X1dc6
H 7 0X1ec0
H 8 0X1f4c
H 6 0X2028
H 5 0X210e
H 3 0X21f4
H 4 0X229e
H O 0X235c
H 9 0X2438
H E 0X251e
H T 0X25dc
B 2 0X26cc
B 7 0X27b2
B 1 0X2852
B 6 0X28f2
B 8 0X29d8
B 3 0X2ae6
B 5 0X2bb8
B O 0X2c76
B 4 0X2dac
B E 0X2e6a
B 9 0X2eec
B T 0X2fc8
H 7 0X31e4
H 2 0X328e
H 1 0X3324
H 8 0X3400
H 6 0X34be
H 5 0X359a
H 3 0X368a
H 4 0X378e
H O 0X3810
H 9 0X3914
H E 0X39be
H T 0X3a86
B 7 0X3b4e
B 1 0X3bf8
B 2 0X3d06
B 6 0X3de2
B 8 0X3ec8
B 3 0X3f86
B 5 0X404e
B O 0X4116
B 4 0X41f2
B E 0X42f6
B 9 0X4404
B T 0X447c
H 1 0X45f8
H 7 0X4710
H 6 0X47a6
H 2 0X48aa
H 3 0X495e
H 8 0X4a4e
H O 0X4b02
H 5 0X4bd4
H 4 0X4ca6
H E 0X4d46
H 9 0X4e5e
H T 0X4f3a
B 7 0X5016
B 1 0X50d4
B 6 0X51b0
B 3 0X526e
B 2 0X532c
B O 0X5412
B 8 0X54e4
B 4 0X55b6
B 5 0X56a6
B 9 0X575a
B E 0X582c
B T 0X58ea
H 7 0X5afc
H 6 0X5b6a
H 1 0X5c64
H 2 0X5d5e
H 3 0X5e12
H 8 0X5ed0
H O 0X5fd4
H 5 0X60a6
H 4 0X616e
H E 0X6236
H 9 0X62fe
H T 0X63a8
B 6 0X64a2
B 7 0X6574
B 1 0X6646
B 3 0X6704
B 2 0X67d6
B O 0X689e
B 8 0X697a
B 4 0X6a7e
B 5 0X6b46
B 9 0X6c18
B E 0X6ccc
B T 0X6d9e
H 6 0X6f60
H 1 0X7028
H 7 0X7104
H 2 0X71e0
H 3 0X72a8
H 8 0X7366
H O 0X7424
H 5 0X7514
H 4 0X7618
H E 0X76c2
H 9 0X7794
H T 0X787a
B 1 0X7938
B 6 0X7a1e
B 7 0X7af0
B 3 0X7bc2
B 2 0X7c80
B O 0X7d16
B 8 0X7df2
B 4 0X7f14
B 5 0X7fb4
B 9 0X8086
B E 0X816c
B T 0X8234
H 6 0X841e
H 1 0X84fa
H 3 0X85a4
H 7 0X866c
H O 0X873e
H 2 0X87f2
H 4 0X88f6
H 8 0X89be
H 9 0X8aa4
H 5 0X8b58
H E 0X8c2a
H T 0X8d10
B 6 0X8dec
B 3 0X8ea0
B 1 0X8f5e
B O 0X901c
B 7 0X9120
B 4 0X91c0
B 2 0X92b0
B 9 0X938c
B 8 0X9454
B E 0X9558
B 5 0X9652
B T 0X9706
H 3 0X98c8
H 6 0X997c
H 1 0X9a44
H 7 0X9b48
H O 0X9c1a
H 2 0X9cc4
H 4 0X9d5a
H 8 0X9e4a
H 9 0X9f26
H 5 0Xa020
H E 0Xa0f2
H T 0Xa1ce
B 3 0Xa28c
B 1 0Xa354
B 6 0Xa41c
B O 0Xa4da
B 7 0Xa5a2
B 4 0Xa688
B 2 0Xa778
B 9 0Xa85e
B 8 0Xa908
B E 0Xa9f8
B 5 0Xaafc
B T 0Xabba
H 1 0Xad4a
H 3 0Xae30
H 6 0Xaee4
H 7 0Xafe8
H O 0Xb0ba
H 2 0Xb164
H 4 0Xb22c
H 8 0Xb2ea
H 9 0Xb3c6
H 5 0Xb4de
H E 0Xb57e
H T 0Xb650
B 1 0Xb6fa
B 6 0Xb7e0
B 3 0Xb902
B O 0Xb998
B 7 0Xba88
B 4 0Xbb5a
B 2 0Xbc04
B 9 0Xbce0
B 8 0Xbda8
B E 0Xbea2
B 5 0Xbfa6
B T 0Xc03c
H 6 0Xc212
H 1 0Xc2d0
H O 0Xc35c
H 3 0Xc44c
H 4 0Xc528
H 7 0Xc622
H 9 0Xc6d6
H 2 0Xc7bc
H 8 0Xc834
H E 0Xc938
H 5 0Xca3c
H T 0Xcb04
B 1 0Xcbcc
B 6 0Xcca8
B O 0Xcd66
B 4 0Xce60
B 3 0Xcf28
B 9 0Xcfc8
B 7 0Xd0a4
B 8 0Xd158
B 2 0Xd234
B 5 0Xd34c
B E 0Xd3ec
B T 0Xd4e6
H 1 0Xd676
H O 0Xd734
H 6 0Xd84c
H 3 0Xd928
H 4 0Xd9c8
H 7 0Xdac2
H 9 0Xdb6c
H 2 0Xdc52
H 8 0Xdcfc
H E 0Xddf6
H 5 0Xdea0
H T 0Xdf90
B O 0Xe08a
B 1 0Xe148
B 6 0Xe21a
B 4 0Xe314
B 3 0Xe3dc
B 9 0Xe4b8
B 7 0Xe562
B 8 0Xe602
B 2 0Xe6f2
B 5 0Xe7ce
B E 0Xe8a0
B T 0Xe968
H O 0Xeb34
H 6 0Xebfc
H 1 0Xecce
H 3 0Xeda0
H 4 0Xee72
H 7 0Xef76
H 9 0Xf020
H 2 0Xf0fc
H 8 0Xf1d8
H E 0Xf26e
H 5 0Xf34a
H T 0Xf43a
B 6 0Xf520
B O 0Xf606
B 1 0Xf6ba
B 4 0Xf796
B 3 0Xf854
B 9 0Xf91c
B 7 0Xf9f8
B 8 0Xfaca
B 2 0Xfba6
B 5 0Xfc78
B E 0Xfd2c
B T 0Xfe08
H O 0Xffb6
H 6 0X00ce
H 4 0X01a0
H 1 0X0254
H 9 0X02fe
H 3 0X03ee
H 8 0X04c0
H 7 0X05a6
H 5 0X063c
H 2 0X0736
H E 0X07f4
H T 0X08bc
B O 0X09d4
B 4 0X0a7e
B 6 0X0b6e
B 9 0X0c5e
B 1 0X0d1c
B 8 0X0dee
B 3 0X0eca
B 5 0X0f92
B 7 0X106e
B E 0X112c
B 2 0X11f4
B T 0X1280
H 4 0X1492
H O 0X1546
H 6 0X1622
H 1 0X16fe
H 9 0X1802
H 3 0X1898
H 8 0X197e
H 7 0X1a46
H 5 0X1af0
H 2 0X1c08
H E 0X1c8a
H T 0X1d48
B 4 0X1e6a
B 6 0X1f46
B O 0X2004
B 9 0X20e0
B 1 0X21b2
B 8 0X22a2
B 3 0X2392
B 5 0X2450
B 7 0X2518
B E 0X25cc
B 2 0X2694
B T 0X2720
H 6 0X2946
H 4 0X2a40
H O 0X2ab8
H 1 0X2b80
H 9 0X2c70
H 3 0X2d60
H 8 0X2e3c
H 7 0X2f04
H 5 0X2fcc
H 2 0X30b2
H E 0X313e
H T 0X31f2
B 6 0X3328
B O 0X33fa
B 4 0X34a4
B 9 0X356c
B 1 0X3670
B 8 0X374c
B 3 0X3832
B 5 0X38fa
B 7 0X39c2
B E 0X3a8a
B 2 0X3b2a
B T 0X3bd4
H O 0X3d96
H 6 0X3eae
H 9 0X3f6c
H 4 0X4048
H 8 0X4110
H 1 0X41ce
H 5 0X42aa
H 3 0X4390
H E 0X4476
H 7 0X4552
H 2 0X4606
H T 0X46d8
B 6 0X47b4
B O 0X487c
B 9 0X4944
B 8 0X4a2a
B 4 0X4afc
B 5 0X4bba
B 1 0X4c96
B E 0X4d7c
B 3 0X4e58
B 2 0X4ef8
B 7 0X4ff2
B T 0X50ce
H 6 0X5272
H 9 0X531c
H O 0X5416
H 4 0X54ca
H 8 0X5588
H 1 0X5646
H 5 0X572c
H 3 0X5830
H E 0X5916
H 7 0X59ca
H 2 0X5a88
H T 0X5b78
B 9 0X5c54
B 6 0X5d1c
B O 0X5dda
B 8 0X5e98
B 4 0X5f7e
B 5 0X606e
B 1 0X6136
B E 0X6212
B 3 0X62ee
B 2 0X63d4
B 7 0X649c
B T 0X6550
H 9 0X6708
H O 0X67a8
H 6 0X6898
H 4 0X6974
H 8 0X6a46
H 1 0X6b04
H 5 0X6bcc
H 3 0X6cb2
H E 0X6d98
H 7 0X6e74
H 2 0X6f46
H T 0X6ffa
B O 0X70cc
B 9 0X71e4
B 6 0X7284
B 8 0X737e
B 4 0X7464
B 5 0X7518
B 1 0X75e0
B E 0X76b2
B 3 0X7784
B 2 0X7860
B 7 0X7932
B T 0X79d2
H 9 0X7b8a
H O 0X7c66
H 8 0X7d42
H 6 0X7e3c
H 5 0X7f22
H 4 0X8012
H E 0X80a8
H 1 0X812a
H 2 0X8242
H 3 0X82f6
H 7 0X83f0
H T 0X8486
B 9 0X8576
B 8 0X8652
B O 0X8738
B 5 0X8832
B 6 0X88dc
B E 0X89c2
B 4 0X8a8a
B 2 0X8b34
B 1 0X8c1a
B 7 0X8d00
B 3 0X8dbe
B T 0X8e68
H 8 0X9066
H 9 0X912e
H O 0X920a
H 6 0X92e6
H 5 0X93ae
H 4 0X9494
H E 0X955c
H 1 0X95c0
H 2 0X96ba
H 3 0X9796
H 7 0X987c
H T 0X994e
B 8 0X9a0c
B O 0X9b06
B 9 0X9c00
B 5 0X9cc8
B 6 0X9d86
B E 0X9e6c
B 4 0X9eee
B 2 0X9fd4
B 1 0Xa09c
B 7 0Xa196
B 3 0Xa236
B T 0Xa312
H O 0Xa4e8
H 8 0Xa5ce
H 9 0Xa6a0
H 6 0Xa790
H 5 0Xa84e
H 4 0Xa916
H E 0Xa9b6
H 1 0Xaa24
H 2 0Xab32
H 3 0Xac0e
H 7 0Xacea
H T 0Xade4
B O 0Xaec0
B 9 0Xafa6
B 8 0Xb06e
B 5 0Xb17c
B 6 0Xb208
B E 0Xb30c
B 4 0Xb3a2
B 2 0Xb474
B 1 0Xb53c
B 7 0Xb636
B 3 0Xb6cc
B T 0Xb79e
H 9 0Xb974
H O 0Xba46
H 5 0Xbb40
H 8 0Xbc08
H E 0Xbd02
H 6 0Xbdde
H 2 0Xbec4
H 4 0Xbf5a
H 7 0Xc036
H 1 0Xc072
H 3 0Xc19e
H T 0Xc270
B O 0Xc34c
B 9 0Xc43c
B 5 0Xc522
B E 0Xc630
B 8 0Xc6e4
B 2 0Xc7e8
B 6 0Xc860
B 7 0Xc950
B 4 0Xca04
B 3 0Xcaea
B 1 0Xcba8
B T 0Xcc5c
H O 0Xce0a
H 5 0Xcee6
H 9 0Xcfea
H 8 0Xd0b2
H E 0Xd198
H 6 0Xd274
H 2 0Xd332
H 4 0Xd436
H 7 0Xd4d6
H 1 0Xd51c
H 3 0Xd652
H T 0Xd71a
B 5 0Xd832
B O 0Xd8aa
B 9 0Xd968
B E 0Xdabc
B 8 0Xdb66
B 2 0Xdc60
B 6 0Xdd0a
B 7 0Xde04
B 4 0Xde9a
B 3 0Xdfc6
B 1 0Xe066
B T 0Xe110
H 5 0Xe2fa
H 9 0Xe390
H O 0Xe41c
H 8 0Xe534
H E 0Xe624
H 6 0Xe728
H 2 0Xe7aa
H 4 0Xe89a
H 7 0Xe96c
H 1 0Xea2a
H 3 0Xeb06
H T 0Xebd8
B 9 0Xec78
B 5 0Xeda4
B O 0Xee12
B E 0Xef34
B 8 0Xf01a
B 2 0Xf0f6
B 6 0Xf196
B 7 0Xf286
B 4 0Xf33a
B 3 0Xf416
B 1 0Xf4ac
B T 0Xf5ba
H 5 0Xf754
H 9 0Xf83a
H E 0Xf920
H O 0Xf9d4
H 2 0Xfaec
H 8 0Xfbaa
H 7 0Xfc7c
H 6 0Xfd1c
H 3 0Xfe20
H 4 0Xfed4
H 1 0Xff88
H T 0X006e
B 5 0X0168
B E 0X0226
B 9 0X02ee
B 2 0X03f2
B O 0X0460
B 7 0X055a
B 8 0X062c
B 3 0X0744
B 6 0X07ee
B 1 0X08e8
B 4 0X09a6
B T 0X0a46
H E 0X0c08
H 5 0X0cee
H 9 0X0dde
H O 0X0e6a
H 2 0X0f46
H 8 0X1018
H 7 0X10ea
H 6 0X11e4
H 3 0X12ca
H 4 0X137e
H 1 0X1446
H T 0X1522
B E 0X15f4
B 9 0X169e
B 5 0X1798
B 2 0X1874
B O 0X190a
B 7 0X19c8
B 8 0X1aae
B 3 0X1bb2
B 6 0X1c84
B 1 0X1d74
B 4 0X1e14
B T 0X1ed2
H 9 0X2094
H E 0X2170
H 5 0X221a
H O 0X22ec
H 2 0X23dc
H 8 0X24a4
H 7 0X258a
H 6 0X2684
H 3 0X272e
H 4 0X2828
H 1 0X28c8
H T 0X299a
B 9 0X2a58
B 5 0X2b5c
B E 0X2c38
B 2 0X2d32
B O 0X2d8c
B 7 0X2e7c
B 8 0X2f4e
B 3 0X3020
B 6 0X3124
B 1 0X3214
B 4 0X32be
B T 0X3354
H 5 0X352a
H 9 0X361a
H 2 0X36ec
H E 0X37e6
H 7 0X38cc
H O 0X3958
H 3 0X3a2a
H 8 0X3af2
H 1 0X3bc4
H 6 0X3cc8
H 4 0X3d90
H T 0X3e26
B 9 0X3ef8
B 5 0X4010
B 2 0X40e2
B 7 0X41b4
B E 0X4272
B 3 0X433a
B O 0X43ee
B 1 0X44e8
B 8 0X4592
B 4 0X468c
B 6 0X474a
B T 0X481c
H 9 0X49b6
H 2 0X4ab0
H 5 0X4b6e
H E 0X4c68
H 7 0X4d3a
H O 0X4df8
H 3 0X4ec0
H 8 0X4f60
H 1 0X5046
H 6 0X5154
H 4 0X521c
H T 0X52e4
B 2 0X53e8
B 9 0X549c
B 5 0X5546
B 7 0X5618
B E 0X5708
B 3 0X57e4
B O 0X5898
B 1 0X5992
B 8 0X5a32
B 4 0X5b22
B 6 0X5be0
B T 0X5cbc
H 2 0X5e6a
H 5 0X5f32
H 9 0X6040
H E 0X611c
H 7 0X61bc
H O 0X628e
H 3 0X6374
H 8 0X6432
H 1 0X64f0
H 6 0X65f4
H 4 0X66a8
H T 0X6798
B 5 0X6874
B 2 0X6950
B 9 0X6a40
B 7 0X6afe
B E 0X6bd0
B 3 0X6c98
B O 0X6d4c
B 1 0X6e46
B 8 0X6efa
B 4 0X6fcc
B 6 0X706c
B T 0X7152
H 2 0X7346
H 5 0X73fa
H 7 0X74f4
H 9 0X75da
H 3 0X76de
H E 0X7756
H 1 0X780a
H O 0X78b4
H 4 0X79cc
H 8 0X7a8a
H 6 0X7b7a
H T 0X7c38
B 2 0X7d28
B 7 0X7dfa
B 5 0X7ec2
B 3 0X7fc6
B 9 0X8084
B 1 0X80fc
B E 0X81ce
B 4 0X82c8
B O 0X83a4
B 6 0X846c
B 8 0X8548
B T 0X8610
H 7 0X8804
H 2 0X88c2
H 5 0X8962
H 9 0X8a8e
H 3 0X8b38
H E 0X8be2
H 1 0X8ca0
H O 0X8d4a
H 4 0X8e4e
H 8 0X8f16
H 6 0X9006
H T 0X9100
B 7 0X91aa
B 5 0X9290
B 2 0X9362
B 3 0X943e
B 9 0X9510
B 1 0X95f6
B E 0X9682
B 4 0X977c
B O 0X983a
B 6 0X98f8
B 8 0X99f2
B T 0X9ad8
H 5 0X9c9a
H 7 0X9d76
H 2 0X9e3e
H 9 0X9f06
H 3 0X9fce
H E 0Xa08c
H 1 0Xa154
H O 0Xa1fe
H 4 0Xa2f8
H 8 0Xa3c0
H 6 0Xa4e2
H T 0Xa578
B 5 0Xa690
B 2 0Xa780
B 7 0Xa816
B 3 0Xa8ca
B 9 0Xa9c4
B 1 0Xaaa0
B E 0Xab36
B 4 0Xac12
B O 0Xacee
B 6 0Xadde
B 8 0Xaeb0
B T 0Xaf6e
H 2 0Xb158
H 5 0Xb216
H 3 0Xb2de
H 7 0Xb3ba
H 1 0Xb446
H 9 0Xb586
H 4 0Xb644
H E 0Xb6d0
H 6 0Xb7ac
H O 0Xb856
H 8 0Xb93c
H T 0Xba2c
B 5 0Xbb30
B 2 0Xbc02
B 3 0Xbcb6
B 1 0Xbdb0
B 7 0Xbe64
B 4 0Xbf2c
B 9 0Xbfea
B 6 0Xc0bc
B E 0Xc1a2
B 8 0Xc274
B O 0Xc35a
B T 0Xc404
H 5 0Xc5da
H 3 0Xc6a2
H 2 0Xc760
H 7 0Xc850
H 1 0Xc90e
H 9 0Xc9e0
H 4 0Xcad0
H E 0Xcb98
H 6 0Xcc6a
H O 0Xcd0a
H 8 0Xce04
H T 0Xcee0
B 3 0Xcfda
B 5 0Xd0a2
B 2 0Xd16a
B 1 0Xd246
B 7 0Xd30e
B 4 0Xd3b8
B 9 0Xd4a8
B 6 0Xd55c
B E 0Xd64c
B 8 0Xd70a
B O 0Xd7fa
B T 0Xd8cc
H 3 0Xda98
H 2 0Xdb4c
H 5 0Xdbf6
H 7 0Xdce6
H 1 0Xddcc
H 9 0Xdee4
H 4 0Xdf84
H E 0Xe042
H 6 0Xe10a
H O 0Xe1dc
H 8 0Xe2cc
H T 0Xe380
B 2 0Xe48e
B 3 0Xe52e
B 5 0Xe60a
B 1 0Xe6fa
B 7 0Xe7ae
B 4 0Xe8a8
B 9 0Xe97a
B 6 0Xe9f2
B E 0Xeaf6
B 8 0Xebb4
B O 0Xecb8
B T 0Xed80
H 3 0Xef38
H 2 0Xeff6
H 1 0Xf0c8
H 5 0Xf17c
H 4 0Xf29e
H 7 0Xf33e
H 6 0Xf406
H 9 0Xf500
H 8 0Xf5aa
H E 0Xf690
H O 0Xf730
H T 0Xf834
B 3 0Xf91a
B 1 0Xf9f6
B 2 0Xfa8c
B 4 0Xfb5e
B 5 0Xfc44
B 6 0Xfd02
B 7 0Xfdde
B 8 0Xfe9c
B 9 0Xff5a
B O 0X0040
B E 0X011c
B T 0X01f8
H 1 0X03b0
H 3 0X0482
H 2 0X0536
H 5 0X061c
H 4 0X06f8
H 7 0X07b6
H 6 0X0888
H 9 0X0978
H 8 0X0a2c
H E 0X0af4
H O 0X0bb2
H T 0X0ca2
B 1 0X0d74
B 2 0X0e5a
B 3 0X0f22
B 4 0X0fe0
B 5 0X10b2
B 6 0X1166
B 7 0X124c
B 8 0X131e
B 9 0X1404
B O 0X14c2
B E 0X1580
B T 0X1652
H 1 0X1800
H 2 0X18be
H 3 0X1972
H 4 0X1a4e
H 5 0X1b0c
H 6 0X1bf2
H 7 0X1cc4
H 8 0X1d82
H 9 0X1e86
H O 0X1f3a
H E 0X200c
H T 0X2106
B 1 0X21d8
B 2 0X228c
B 3 0X234a
B 4 0X23cc
B 5 0X24bc
B 6 0X25a2
B 7 0X269c
B 8 0X275a
B 9 0X284a
B O 0X2908
B E 0X29e4
B T 0X2ac0
H 1 0X2c5a
H 2 0X2d22
H 3 0X2de0
H 4 0X2eb2
H 5 0X2f52
H 6 0X3024
H 7 0X3100
H 8 0X31c8
H 9 0X32ae
H O 0X3380
H E 0X3470
H T 0X3542
B 1 0X3600
B 2 0X36be
B 3 0X377c
B 4 0X3844
B 5 0X390c
B 6 0X39f2
B 7 0X3ad8
B 8 0X3b96
B 9 0X3c7c
B O 0X3d44
B E 0X3e02
B T 0X3ef2
H 1 0X4096
H 2 0X4140
H 3 0X4212
H 4 0X42da
H 5 0X43a2
H 6 0X4460
H 7 0X4564
H 8 0X4622
H 9 0X46fe
H O 0X47d0
H E 0X488e
H T 0X497e
B 1 0X4a50
B 2 0X4b04
B 3 0X4bc2
B 4 0X4c9e
B 5 0X4d70
B 6 0X4e38
B 7 0X4f28
B 8 0X5004
B 9 0X50d6
B O 0X51bc
B E 0X527a
B T 0X5360
