   *** Text-formatted Bell Statistics
       ------------------------------------------------------------------------------
         Bell Number:       1    2    3    4    5    6    7    8    9    0    E    T  
       ------------------------------------------------------------------------------
         Mean Error: All    19    9   -5   11   -7  -11   -6  -13  -14   14    9   -7 
                      Hs     6    9  -15   10  -15   -8    2  -11  -21   23   -1  -18 
                      Bs    31    9    4   12    2  -13  -14  -15   -8    6   19    4 
        
         Std  Error: All    34   29   27   34   27   25   27   29   28   33   32   26 
                      Hs    34   30   26   35   27   23   26   27   28   31   33   24 
                      Bs    28   28   25   32   24   26   25   30   25   32   27   23 
        
         Rms  Error: All    38   30   28   35   28   27   27   31   31   36   33   27 
                      Hs    34   31   30   36   31   24   26   29   35   39   33   30 
                      Bs    42   29   25   34   23   29   29   33   26   32   33   23 
       ------------------------------------------------------------------------------
