Bell No,Actual Time,Contest Model,HawkEar Model,RWP Model,Metronomic Model
1,2510,2510,2510,2657.21,2510
2,2740,2733.91,2733.91,2867.49,2719.88
3,2940,2957.83,2957.83,3077.77,2929.75
4,3180,3181.74,3181.74,3288.05,3139.63
5,3400,3405.65,3405.65,3498.32,3349.5
6,3620,3629.57,3629.57,3708.6,3559.38
7,3830,3853.48,3853.48,3918.88,3769.25
8,4040,4077.39,4077.39,4129.16,3979.13
9,4330,4301.3,4301.3,4339.44,4189
10,4560,4525.22,4525.22,4549.72,4398.88
11,4780,4749.13,4749.13,4760,4608.76
12,5060,4973.04,4973.04,4970.28,4818.63
1,5270,5196.96,5196.96,5180.56,5028.51
2,5500,5420.87,5420.87,5390.84,5238.38
3,5650,5644.78,5644.78,5601.11,5448.26
4,5820,5868.7,5868.7,5811.39,5658.13
5,6020,6092.61,6092.61,6021.67,5868.01
6,6250,6316.52,6316.52,6231.95,6077.88
7,6490,6540.43,6540.43,6442.23,6287.76
8,6700,6764.35,6764.35,6652.51,6497.63
9,6930,6988.26,6988.26,6862.79,6707.51
10,7160,7212.17,7212.17,7073.07,6917.39
11,7370,7436.09,7436.09,7283.35,7127.26
12,7660,7660,7660,7493.62,7337.14
1,8080,8072.9,8084.54,8028.04,7756.89
2,8310,8279.49,8290.38,8238.32,7966.76
3,8510,8486.08,8496.22,8448.6,8176.64
4,8660,8692.66,8702.07,8658.88,8386.51
5,8830,8899.25,8907.91,8869.16,8596.39
6,9050,9105.84,9113.75,9079.44,8806.27
7,9280,9312.42,9319.6,9289.72,9016.14
8,9480,9519.01,9525.44,9499.99,9226.02
9,9740,9725.6,9731.29,9710.27,9435.89
10,9970,9932.18,9937.13,9920.55,9645.77
11,10170,10138.8,10143,10130.8,9855.64
12,10370,10345.4,10348.8,10341.1,10065.5
1,10590,10551.9,10554.7,10551.4,10275.4
2,10770,10758.5,10760.5,10761.7,10485.3
3,10970,10965.1,10966.3,10971.9,10695.1
4,11170,11171.7,11172.2,11182.2,10905
5,11330,11378.3,11378,11392.5,11114.9
6,11560,11584.9,11583.9,11602.8,11324.8
7,11770,11791.5,11789.7,11813.1,11534.6
8,12000,11998,11995.6,12023.3,11744.5
9,12220,12204.6,12201.4,12233.6,11954.4
10,12450,12411.2,12407.3,12443.9,12164.3
11,12610,12617.8,12613.1,12654.2,12374.1
12,12820,12824.4,12818.9,12864.5,12584
1,13330,13270.2,13255,13275.5,13003.8
2,13530,13475.6,13461.4,13480.7,13213.7
3,13670,13681.1,13667.9,13685.8,13423.5
4,13900,13886.5,13874.3,13890.9,13633.4
5,14040,14092,14080.7,14096.1,13843.3
6,14260,14297.4,14287.1,14301.2,14053.2
7,14520,14502.8,14493.5,14506.3,14263
8,14690,14708.3,14699.9,14711.5,14472.9
9,14930,14913.7,14906.3,14916.6,14682.8
10,15170,15119.1,15112.7,15121.7,14892.7
11,15340,15324.6,15319.1,15326.9,15102.5
12,15550,15530,15525.5,15532,15312.4
1,15770,15735.5,15731.9,15737.2,15522.3
2,15930,15940.9,15938.3,15942.3,15732.2
3,16120,16146.3,16144.7,16147.4,15942
4,16300,16351.8,16351.1,16352.6,16151.9
5,16480,16557.2,16557.5,16557.7,16361.8
6,16700,16762.7,16763.9,16762.8,16571.7
7,16930,16968.1,16970.4,16968,16781.5
8,17160,17173.5,17176.8,17173.1,16991.4
9,17420,17379,17383.2,17378.2,17201.3
10,17610,17584.4,17589.6,17583.4,17411.2
11,17830,17789.9,17796,17788.5,17621
12,18050,17995.3,18002.4,17993.6,17830.9
1,18490,18403.3,18404.4,18399.1,18250.7
2,18650,18607.3,18608.3,18603.3,18460.5
3,18790,18811.3,18812.3,18807.5,18670.4
4,19000,19015.3,19016.2,19011.6,18880.3
5,19120,19219.4,19220.1,19215.8,19090.2
6,19340,19423.4,19424.1,19420,19300
7,19590,19627.4,19628,19624.1,19509.9
8,19770,19831.4,19832,19828.3,19719.8
9,20040,20035.4,20035.9,20032.5,19929.7
10,20280,20239.4,20239.8,20236.7,20139.5
11,20470,20443.4,20443.8,20440.8,20349.4
12,20660,20647.4,20647.7,20645,20559.3
1,20930,20851.4,20851.6,20849.2,20769.2
2,21070,21055.4,21055.6,21053.3,20979
3,21260,21259.4,21259.5,21257.5,21188.9
4,21460,21463.4,21463.4,21461.7,21398.8
5,21600,21667.4,21667.4,21665.9,21608.7
6,21880,21871.4,21871.3,21870,21818.5
7,22070,22075.4,22075.3,22074.2,22028.4
8,22250,22279.4,22279.2,22278.4,22238.3
9,22470,22483.4,22483.1,22482.5,22448.2
10,22700,22687.4,22687.1,22686.7,22658
11,22910,22891.4,22891,22890.9,22867.9
12,23130,23095.4,23094.9,23095.1,23077.8
1,23650,23532.6,23521.7,23528.2,23497.6
2,23840,23736.7,23726.1,23733.3,23707.4
3,23990,23940.8,23930.5,23938.5,23917.3
4,24170,24144.9,24134.9,24143.6,24127.2
5,24290,24349.1,24339.3,24348.7,24337.1
6,24560,24553.2,24543.7,24553.8,24546.9
7,24780,24757.3,24748,24758.9,24756.8
8,24910,24961.4,24952.4,24964.1,24966.7
9,25120,25165.6,25156.8,25169.2,25176.6
10,25350,25369.7,25361.2,25374.3,25386.4
11,25580,25573.8,25565.6,25579.4,25596.3
12,25750,25777.9,25770,25784.5,25806.2
1,26030,25982.1,25974.4,25989.6,26016.1
2,26200,26186.2,26178.8,26194.8,26225.9
3,26380,26390.3,26383.2,26399.9,26435.8
4,26610,26594.4,26587.6,26605,26645.7
5,26740,26798.6,26792,26810.1,26855.6
6,26980,27002.7,26996.4,27015.2,27065.4
7,27210,27206.8,27200.8,27220.3,27275.3
8,27410,27410.9,27405.2,27425.5,27485.2
9,27640,27615.1,27609.6,27630.6,27695.1
10,27810,27819.2,27814,27835.7,27904.9
11,28050,28023.3,28018.4,28040.8,28114.8
12,28240,28227.5,28222.8,28245.9,28324.7
2,28700,28665,28663.9,28683.9,28744.4
1,28910,28871.7,28869.2,28889.4,28954.3
4,29150,29078.5,29074.6,29094.9,29164.2
3,29310,29285.2,29279.9,29300.4,29374.1
6,29480,29492,29485.2,29505.9,29583.9
5,29660,29698.7,29690.6,29711.4,29793.8
8,29870,29905.5,29895.9,29916.9,30003.7
7,30120,30112.2,30101.2,30122.4,30213.6
10,30350,30319,30306.6,30327.9,30423.4
9,30520,30525.7,30511.9,30533.4,30633.3
11,30690,30732.5,30717.2,30738.8,30843.2
12,30920,30939.2,30922.6,30944.3,31053.1
2,31140,31146,31127.9,31149.8,31262.9
4,31350,31352.7,31333.3,31355.3,31472.8
1,31560,31559.4,31538.6,31560.8,31682.7
6,31760,31766.2,31743.9,31766.3,31892.6
3,32010,31972.9,31949.3,31971.8,32102.4
8,32170,32179.7,32154.6,32177.3,32312.3
5,32380,32386.4,32359.9,32382.8,32522.2
10,32570,32593.2,32565.3,32588.3,32732.1
7,32840,32799.9,32770.6,32793.8,32942
11,33010,33006.7,32975.9,32999.3,33151.8
9,33240,33213.4,33181.3,33204.7,33361.7
12,33420,33420.2,33386.6,33410.2,33571.6
4,33850,33833.2,33820.9,33832.1,33991.3
2,34010,34039.7,34026.9,34038.5,34201.2
6,34170,34246.3,34233,34244.9,34411.1
1,34440,34452.8,34439,34451.3,34621
8,34650,34659.4,34645,34657.7,34830.8
3,34850,34865.9,34851.1,34864.2,35040.7
10,35140,35072.4,35057.1,35070.6,35250.6
5,35220,35279,35263.2,35277,35460.5
11,35520,35485.5,35469.2,35483.4,35670.3
7,35730,35692.1,35675.3,35689.8,35880.2
9,35850,35898.6,35881.3,35896.2,36090.1
12,36100,36105.2,36087.3,36102.6,36300
4,36430,36311.7,36293.4,36309,36509.8
6,36490,36518.3,36499.4,36515.5,36719.7
2,36720,36724.8,36705.5,36721.9,36929.6
8,36900,36931.4,36911.5,36928.3,37139.5
1,37130,37137.9,37117.6,37134.7,37349.3
10,37330,37344.4,37323.6,37341.1,37559.2
3,37530,37551,37529.6,37547.5,37769.1
11,37770,37757.5,37735.7,37753.9,37979
5,37980,37964.1,37941.7,37960.3,38188.8
9,38160,38170.6,38147.8,38166.8,38398.7
7,38380,38377.2,38353.8,38373.2,38608.6
12,38590,38583.7,38559.8,38579.6,38818.5
6,39020,39024.4,39006.6,39029.4,39238.2
4,39280,39231.5,39213.6,39236.6,39448.1
8,39480,39438.6,39420.6,39443.8,39658
2,39670,39645.7,39627.5,39650.9,39867.8
10,39900,39852.8,39834.5,39858.1,40077.7
1,40110,40059.9,40041.5,40065.3,40287.6
11,40230,40267,40248.5,40272.5,40497.5
3,40450,40474.1,40455.4,40479.7,40707.3
9,40660,40681.2,40662.4,40686.9,40917.2
5,40820,40888.3,40869.4,40894.1,41127.1
7,41070,41095.4,41076.4,41101.3,41337
12,41270,41302.5,41283.3,41308.5,41546.8
6,41570,41509.6,41490.3,41515.7,41756.7
8,41760,41716.7,41697.3,41722.9,41966.6
4,41980,41923.8,41904.3,41930.1,42176.5
10,42170,42130.9,42111.2,42137.3,42386.3
2,42370,42338,42318.2,42344.4,42596.2
11,42580,42545.1,42525.2,42551.6,42806.1
1,42810,42752.2,42732.2,42758.8,43016
9,42930,42959.3,42939.1,42966,43225.9
3,43160,43166.4,43146.1,43173.2,43435.7
7,43290,43373.5,43353.1,43380.4,43645.6
5,43520,43580.6,43560.1,43587.6,43855.5
12,43790,43787.7,43767,43794.8,44065.4
8,44230,44227.3,44204.7,44234,44485.1
6,44460,44434.1,44412.3,44440.6,44695
10,44700,44640.8,44619.9,44647.2,44904.9
4,44880,44847.6,44827.4,44853.8,45114.7
11,45090,45054.4,45035,45060.4,45324.6
2,45310,45261.2,45242.6,45267,45534.5
9,45460,45468,45450.1,45473.6,45744.4
1,45690,45674.8,45657.7,45680.2,45954.2
7,45900,45881.6,45865.3,45886.9,46164.1
3,46080,46088.3,46072.8,46093.5,46374
5,46190,46295.1,46280.4,46300.1,46583.9
12,46460,46501.9,46488,46506.7,46793.7
8,46650,46708.7,46695.6,46713.3,47003.6
10,46920,46915.5,46903.1,46919.9,47213.5
6,47140,47122.3,47110.7,47126.5,47423.4
11,47390,47329,47318.3,47333.1,47633.2
4,47560,47535.8,47525.8,47539.8,47843.1
9,47750,47742.6,47733.4,47746.4,48053
2,47970,47949.4,47941,47953,48262.9
7,48160,48156.2,48148.6,48159.6,48472.7
1,48390,48363,48356.1,48366.2,48682.6
5,48530,48569.8,48563.7,48572.8,48892.5
3,48750,48776.5,48771.3,48779.4,49102.4
12,48980,48983.3,48978.8,48986,49312.2
10,49420,49410.5,49396.8,49415.8,49732
8,49580,49617.2,49604.4,49622,49941.9
11,49830,49823.9,49812,49828.2,50151.7
6,50050,50030.6,50019.6,50034.4,50361.6
9,50280,50237.3,50227.3,50240.6,50571.5
4,50450,50443.9,50434.9,50446.8,50781.4
7,50690,50650.6,50642.5,50653,50991.2
2,50850,50857.3,50850.1,50859.2,51201.1
5,51020,51064,51057.7,51065.4,51411
1,51210,51270.7,51265.4,51271.6,51620.9
3,51430,51477.4,51473,51477.8,51830.7
12,51640,51684,51680.6,51684,52040.6
10,51890,51890.7,51888.2,51890.2,52250.5
11,52140,52097.4,52095.8,52096.4,52460.4
8,52350,52304.1,52303.5,52302.6,52670.2
9,52520,52510.8,52511.1,52508.8,52880.1
6,52720,52717.4,52718.7,52715,53090
7,52980,52924.1,52926.3,52921.2,53299.9
4,53130,53130.8,53133.9,53127.4,53509.8
5,53320,53337.5,53341.6,53333.6,53719.6
2,53540,53544.2,53549.2,53539.8,53929.5
3,53720,53750.8,53756.8,53746,54139.4
1,53970,53957.5,53964.4,53952.1,54349.3
12,54160,54164.2,54172,54158.3,54559.1
11,54550,54591.5,54581.7,54584.3,54978.9
10,54870,54797.8,54789.2,54791.3,55188.8
9,54990,55004.2,54996.6,54998.2,55398.6
8,55210,55210.5,55204,55205.1,55608.5
7,55420,55416.8,55411.4,55412.1,55818.4
6,55610,55623.1,55618.8,55619,56028.3
5,55820,55829.5,55826.3,55826,56238.1
4,56040,56035.8,56033.7,56032.9,56448
3,56230,56242.1,56241.1,56239.9,56657.9
2,56440,56448.5,56448.5,56446.8,56867.8
1,56670,56654.8,56656,56653.8,57077.6
12,56850,56861.1,56863.4,56860.7,57287.5
11,57040,57067.4,57070.8,57067.6,57497.4
9,57250,57273.8,57278.2,57274.6,57707.3
10,57490,57480.1,57485.6,57481.5,57917.1
7,57730,57686.4,57693.1,57688.5,58127
8,57930,57892.7,57900.5,57895.4,58336.9
5,58110,58099.1,58107.9,58102.4,58546.8
6,58320,58305.4,58315.3,58309.3,58756.6
3,58520,58511.7,58522.8,58516.2,58966.5
4,58670,58718,58730.2,58723.2,59176.4
1,58960,58924.4,58937.6,58930.1,59386.3
2,59090,59130.7,59145,59137.1,59596.1
12,59330,59337,59352.5,59344,59806
9,59780,59781.3,59780.1,59783,60225.8
11,60000,59989.4,59987.9,59991.3,60435.6
7,60210,60197.5,60195.7,60199.6,60645.5
10,60450,60405.6,60403.5,60408,60855.4
5,60650,60613.8,60611.2,60616.3,61065.3
8,60870,60821.9,60819,60824.6,61275.1
3,61030,61030,61026.8,61032.9,61485
6,61200,61238.1,61234.5,61241.3,61694.9
1,61470,61446.2,61442.3,61449.6,61904.8
4,61660,61654.3,61650.1,61657.9,62114.6
2,61830,61862.4,61857.9,61866.3,62324.5
12,62040,62070.5,62065.6,62074.6,62534.4
9,62230,62278.6,62273.4,62282.9,62744.3
7,62470,62486.7,62481.2,62491.2,62954.1
11,62700,62694.9,62689,62699.6,63164
5,62920,62903,62896.7,62907.9,63373.9
10,63100,63111.1,63104.5,63116.2,63583.8
3,63350,63319.2,63312.3,63324.6,63793.7
8,63580,63527.3,63520,63532.9,64003.5
1,63810,63735.4,63727.8,63741.2,64213.4
6,63920,63943.5,63935.6,63949.5,64423.3
2,64120,64151.6,64143.4,64157.9,64633.2
4,64360,64359.7,64351.1,64366.2,64843
12,64540,64567.8,64558.9,64574.5,65052.9
7,64960,65006.4,65005.3,65017.7,65472.7
9,65180,65216.6,65214,65227.1,65682.5
5,65400,65426.8,65422.7,65436.4,65892.4
11,65710,65637,65631.4,65645.8,66102.3
3,65890,65847.3,65840.1,65855.2,66312.2
10,66120,66057.5,66048.8,66064.5,66522
1,66300,66267.7,66257.5,66273.9,66731.9
8,66470,66477.9,66466.2,66483.3,66941.8
2,66690,66688.2,66674.9,66692.6,67151.7
6,66870,66898.4,66883.6,66902,67361.5
4,67130,67108.6,67092.3,67111.4,67571.4
12,67270,67318.9,67301,67320.7,67781.3
7,67470,67529.1,67509.7,67530.1,67991.2
5,67700,67739.3,67718.4,67739.5,68201
9,67950,67949.5,67927,67948.8,68410.9
3,68160,68159.8,68135.7,68158.2,68620.8
11,68390,68370,68344.4,68367.6,68830.7
1,68640,68580.2,68553.1,68576.9,69040.5
10,68780,68790.4,68761.8,68786.3,69250.4
2,69020,69000.7,68970.5,68995.7,69460.3
8,69220,69210.9,69179.2,69205,69670.2
4,69450,69421.1,69387.9,69414.4,69880
6,69640,69631.3,69596.6,69623.8,70089.9
12,69800,69841.6,69805.3,69833.1,70299.8
5,70270,70275.7,70257.1,70286.1,70719.5
7,70510,70485.8,70466.7,70495.3,70929.4
3,70680,70695.8,70676.4,70704.5,71139.3
9,70920,70905.8,70886.1,70913.7,71349.2
1,71130,71115.9,71095.7,71123,71559
11,71310,71325.9,71305.4,71332.2,71768.9
2,71550,71536,71515.1,71541.4,71978.8
10,71760,71746,71724.8,71750.6,72188.7
4,71980,71956,71934.4,71959.8,72398.5
8,72140,72166.1,72144.1,72169,72608.4
6,72330,72376.1,72353.8,72378.3,72818.3
12,72590,72586.2,72563.4,72587.5,73028.2
5,72810,72796.2,72773.1,72796.7,73238
3,73000,73006.2,72982.8,73005.9,73447.9
7,73210,73216.3,73192.4,73215.1,73657.8
1,73400,73426.3,73402.1,73424.3,73867.7
9,73690,73636.4,73611.8,73633.6,74077.6
2,73900,73846.4,73821.5,73842.8,74287.4
11,74060,74056.4,74031.1,74052,74497.3
4,74250,74266.5,74240.8,74261.2,74707.2
10,74480,74476.5,74450.5,74470.4,74917.1
6,74630,74686.5,74660.1,74679.6,75126.9
8,74870,74896.6,74869.8,74888.9,75336.8
12,75140,75106.6,75079.5,75098.1,75546.7
3,75560,75533.7,75509,75533.7,75966.4
5,75730,75742.3,75718.9,75742.2,76176.3
1,75950,75950.9,75928.8,75950.7,76386.2
7,76170,76159.4,76138.8,76159.2,76596.1
2,76410,76368,76348.7,76367.7,76805.9
9,76610,76576.5,76558.6,76576.1,77015.8
4,76750,76785.1,76768.5,76784.6,77225.7
11,76940,76993.7,76978.4,76993.1,77435.6
6,77150,77202.2,77188.3,77201.6,77645.4
10,77410,77410.8,77398.2,77410.1,77855.3
8,77570,77619.3,77608.1,77618.5,78065.2
12,77840,77827.9,77818,77827,78275.1
3,78070,78036.5,78027.9,78035.5,78484.9
1,78310,78245,78237.8,78244,78694.8
5,78410,78453.6,78447.8,78452.4,78904.7
2,78660,78662.1,78657.7,78660.9,79114.6
7,78890,78870.7,78867.6,78869.4,79324.4
4,79070,79079.3,79077.5,79077.9,79534.3
9,79290,79287.8,79287.4,79286.4,79744.2
6,79490,79496.4,79497.3,79494.8,79954.1
11,79720,79704.9,79707.2,79703.3,80163.9
8,79890,79913.5,79917.1,79911.8,80373.8
10,80120,80122,80127,80120.3,80583.7
12,80340,80330.6,80336.9,80328.8,80793.6
1,80860,80762,80751.6,80759.8,81213.3
3,80980,80970.6,80961.4,80968.6,81423.2
2,81170,81179.2,81171.1,81177.4,81633.1
5,81320,81387.8,81380.8,81386.2,81842.9
4,81570,81596.4,81590.6,81594.9,82052.8
7,81790,81805,81800.3,81803.7,82262.7
6,81980,82013.6,82010,82012.5,82472.6
9,82190,82222.3,82219.7,82221.3,82682.4
8,82380,82430.9,82429.5,82430.1,82892.3
11,82630,82639.5,82639.2,82638.9,83102.2
10,82900,82848.1,82848.9,82847.7,83312.1
12,83100,83056.7,83058.7,83056.4,83522
1,83340,83265.3,83268.4,83265.2,83731.8
2,83520,83473.9,83478.1,83474,83941.7
3,83700,83682.5,83687.8,83682.8,84151.6
4,83890,83891.1,83897.6,83891.6,84361.5
5,84070,84099.8,84107.3,84100.4,84571.3
6,84240,84308.4,84317,84309.2,84781.2
7,84490,84517,84526.8,84517.9,84991.1
8,84680,84725.6,84736.5,84726.7,85201
9,84930,84934.2,84946.2,84935.5,85410.8
10,85170,85142.8,85155.9,85144.3,85620.7
11,85350,85351.4,85365.7,85353.1,85830.6
12,85610,85560,85575.4,85561.9,86040.5
2,85990,85998.5,85999.2,86010.6,86460.2
1,86200,86208.6,86209,86219.7,86670.1
4,86430,86418.6,86418.9,86428.8,86880
3,86630,86628.6,86628.7,86637.9,87089.8
6,86870,86838.7,86838.6,86847,87299.7
5,87060,87048.7,87048.4,87056.2,87509.6
8,87260,87258.8,87258.3,87265.3,87719.5
7,87510,87468.8,87468.2,87474.4,87929.3
10,87730,87678.8,87678,87683.5,88139.2
9,87840,87888.9,87887.9,87892.6,88349.1
11,88030,88098.9,88097.7,88101.7,88559
12,88320,88308.9,88307.6,88310.9,88768.8
2,88520,88519,88517.4,88520,88978.7
4,88720,88729,88727.3,88729.1,89188.6
1,88930,88939,88937.1,88938.2,89398.5
6,89140,89149.1,89147,89147.3,89608.3
3,89350,89359.1,89356.8,89356.4,89818.2
8,89560,89569.1,89566.7,89565.6,90028.1
5,89780,89779.2,89776.6,89774.7,90238
10,90010,89989.2,89986.4,89983.8,90447.8
7,90240,90199.2,90196.3,90192.9,90657.7
11,90380,90409.3,90406.1,90402,90867.6
9,90620,90619.3,90616,90611.1,91077.5
12,90850,90829.3,90825.8,90820.3,91287.3
4,91260,91258.1,91246.8,91250.1,91707.1
2,91480,91467.2,91456.6,91459.8,91917
6,91680,91676.2,91666.5,91669.5,92126.8
1,91940,91885.3,91876.3,91879.2,92336.7
8,92090,92094.4,92086.2,92088.9,92546.6
3,92230,92303.4,92296.1,92298.6,92756.5
10,92520,92512.5,92505.9,92508.3,92966.3
5,92700,92721.6,92715.8,92718,93176.2
11,92910,92930.7,92925.6,92927.7,93386.1
7,93140,93139.7,93135.5,93137.4,93596
9,93320,93348.8,93345.4,93347.1,93805.9
12,93540,93557.9,93555.2,93556.8,94015.7
4,93800,93766.9,93765.1,93766.5,94225.6
6,93950,93976,93974.9,93976.2,94435.5
2,94240,94185.1,94184.8,94185.9,94645.4
8,94420,94394.1,94394.7,94395.6,94855.2
1,94640,94603.2,94604.5,94605.3,95065.1
10,94830,94812.3,94814.4,94815,95275
3,94970,95021.4,95024.2,95024.7,95484.9
11,95220,95230.4,95234.1,95234.4,95694.7
5,95450,95439.5,95444,95444.1,95904.6
9,95610,95648.6,95653.8,95653.8,96114.5
7,95880,95857.6,95863.7,95863.5,96324.4
12,96060,96066.7,96073.5,96073.2,96534.2
6,96530,96518.6,96512.3,96525.7,96954
4,96750,96729.1,96722.6,96736.1,97163.9
8,96970,96939.7,96933,96946.5,97373.7
2,97210,97150.3,97143.4,97156.9,97583.6
10,97410,97360.8,97353.7,97367.3,97793.5
1,97600,97571.4,97564.1,97577.7,98003.4
11,97810,97782,97774.5,97788.2,98213.2
3,97950,97992.5,97984.8,97998.6,98423.1
9,98180,98203.1,98195.2,98209,98633
5,98370,98413.6,98405.6,98419.4,98842.9
7,98590,98624.2,98615.9,98629.8,99052.7
12,98790,98834.8,98826.3,98840.2,99262.6
6,99080,99045.3,99036.7,99050.6,99472.5
8,99270,99255.9,99247,99261,99682.4
4,99460,99466.5,99457.4,99471.4,99892.2
10,99680,99677,99667.8,99681.9,100102
2,99910,99887.6,99878.1,99892.3,100312
11,100120,100098,100088,100103,100522
1,100330,100309,100299,100313,100732
9,100550,100519,100509,100524,100942
3,100710,100730,100720,100734,101151
7,100910,100940,100930,100944,101361
5,101140,101151,101140,101155,101571
12,101370,101362,101351,101365,101781
8,101790,101803,101790,101810,102201
6,102050,102014,102000,102020,102411
10,102200,102225,102211,102230,102621
4,102370,102435,102422,102441,102830
11,102690,102646,102633,102651,103040
2,102870,102857,102844,102861,103250
9,103140,103067,103055,103071,103460
1,103350,103278,103266,103282,103670
7,103540,103489,103476,103492,103880
3,103650,103699,103687,103702,104090
5,103790,103910,103898,103912,104300
12,104100,104120,104109,104122,104510
8,104280,104331,104320,104333,104719
10,104520,104542,104531,104543,104929
6,104760,104752,104741,104753,105139
11,105040,104963,104952,104963,105349
4,105200,105174,105163,105173,105559
9,105430,105384,105374,105384,105769
2,105620,105595,105585,105594,105979
7,105860,105805,105796,105804,106189
1,106050,106016,106007,106014,106398
5,106160,106227,106217,106225,106608
3,106380,106437,106428,106435,106818
12,106620,106648,106639,106645,107028
10,107070,107081,107069,107093,107448
8,107280,107292,107280,107302,107658
11,107510,107502,107491,107512,107868
6,107720,107713,107702,107721,108077
9,107910,107923,107913,107931,108287
4,108160,108134,108124,108140,108497
7,108370,108345,108335,108350,108707
2,108570,108555,108546,108559,108917
5,108770,108766,108757,108768,109127
1,108980,108976,108968,108978,109337
3,109170,109187,109179,109187,109547
12,109370,109397,109390,109397,109756
10,109560,109608,109601,109606,109966
11,109790,109818,109812,109815,110176
8,110010,110029,110023,110025,110386
9,110220,110239,110234,110234,110596
6,110440,110450,110445,110444,110806
7,110710,110660,110657,110653,111016
4,110860,110871,110868,110862,111226
5,111050,111081,111079,111072,111435
2,111330,111292,111290,111281,111645
3,111530,111502,111501,111491,111855
1,111740,111713,111712,111700,112065
12,111910,111923,111923,111909,112275
11,112310,112345,112330,112332,112695
10,112580,112554,112541,112541,112905
9,112720,112762,112752,112751,113114
8,112960,112971,112962,112961,113324
7,113150,113180,113173,113170,113534
6,113370,113389,113383,113380,113744
5,113580,113598,113594,113590,113954
4,113820,113807,113805,113799,114164
3,114020,114016,114015,114009,114374
2,114230,114225,114226,114219,114584
1,114440,114434,114436,114428,114793
12,114690,114642,114647,114638,115003
11,114860,114851,114858,114848,115213
9,115060,115060,115068,115057,115423
10,115290,115269,115279,115267,115633
7,115450,115478,115489,115477,115843
8,115630,115687,115700,115686,116053
5,115890,115896,115911,115896,116263
6,116100,116105,116121,116106,116472
3,116300,116314,116332,116316,116682
4,116550,116522,116543,116525,116892
1,116760,116731,116753,116735,117102
2,116920,116940,116964,116945,117312
12,117150,117149,117174,117154,117522
9,117630,117597,117602,117604,117942
11,117790,117808,117813,117815,118151
7,118030,118020,118024,118026,118361
10,118250,118231,118234,118237,118571
5,118460,118442,118445,118448,118781
8,118670,118654,118656,118659,118991
3,118840,118865,118867,118870,119201
6,119050,119076,119078,119081,119411
1,119280,119288,119288,119292,119621
4,119500,119499,119499,119503,119830
2,119720,119710,119710,119714,120040
12,119870,119922,119921,119925,120250
9,120140,120133,120132,120136,120460
7,120380,120344,120342,120347,120670
11,120580,120556,120553,120558,120880
5,120780,120767,120764,120769,121090
10,120990,120978,120975,120980,121300
3,121200,121190,121186,121191,121509
8,121400,121401,121396,121402,121719
1,121650,121612,121607,121613,121929
6,121800,121824,121818,121824,122139
2,122070,122035,122029,122035,122349
4,122250,122246,122240,122246,122559
12,122400,122458,122450,122457,122769
7,122890,122897,122893,122906,123188
9,123070,123109,123104,123117,123398
5,123300,123321,123315,123329,123608
11,123560,123533,123527,123540,123818
3,123770,123746,123738,123752,124028
10,123990,123958,123950,123963,124238
1,124210,124170,124161,124175,124448
8,124420,124382,124372,124386,124658
2,124680,124594,124584,124597,124867
6,124800,124806,124795,124809,125077
4,124970,125018,125007,125020,125287
12,125180,125231,125218,125232,125497
7,125370,125443,125429,125443,125707
5,125620,125655,125641,125655,125917
9,125820,125867,125852,125866,126127
3,126090,126079,126064,126078,126337
11,126290,126291,126275,126289,126546
1,126520,126504,126486,126500,126756
10,126710,126716,126698,126712,126966
2,126980,126928,126909,126923,127176
8,127170,127140,127121,127135,127386
4,127360,127352,127332,127346,127596
6,127570,127564,127543,127558,127806
12,127760,127776,127755,127769,128016
5,128190,128208,128197,128216,128435
7,128430,128420,128409,128428,128645
3,128630,128633,128621,128639,128855
9,128830,128845,128833,128851,129065
1,129060,129057,129045,129062,129275
11,129200,129269,129257,129274,129485
2,129510,129482,129469,129485,129695
10,129690,129694,129681,129696,129904
4,129920,129906,129893,129908,130114
8,130100,130119,130105,130119,130324
6,130330,130331,130317,130331,130534
12,130520,130543,130529,130542,130744
5,130780,130755,130741,130754,130954
3,130990,130968,130953,130965,131164
7,131190,131180,131165,131176,131374
1,131420,131392,131377,131388,131583
9,131600,131605,131589,131599,131793
2,131850,131817,131801,131811,132003
11,132040,132029,132013,132022,132213
4,132240,132241,132225,132234,132423
10,132420,132454,132437,132445,132633
6,132640,132666,132649,132657,132843
8,132850,132878,132861,132868,133053
12,133120,133091,133073,133079,133262
3,133560,133527,133506,133533,133682
5,133730,133738,133718,133743,133892
1,133930,133949,133931,133954,134102
7,134190,134160,134143,134165,134312
2,134390,134371,134355,134375,134522
9,134600,134582,134567,134586,134732
4,134820,134793,134779,134796,134941
11,134960,135004,134992,135007,135151
6,135190,135215,135204,135218,135361
10,135430,135426,135416,135428,135571
8,135600,135637,135628,135639,135781
12,135910,135848,135840,135849,135991
3,136080,136059,136053,136060,136201
1,136310,136270,136265,136270,136411
5,136430,136481,136477,136481,136620
2,136670,136692,136689,136692,136830
7,136880,136903,136901,136902,137040
4,137100,137115,137114,137113,137250
9,137330,137326,137326,137323,137460
6,137510,137537,137538,137534,137670
11,137730,137748,137750,137745,137880
8,137970,137959,137962,137955,138090
10,138180,138170,138175,138166,138299
12,138410,138381,138387,138376,138509
1,138860,138815,138797,138815,138929
3,139050,139024,139008,139025,139139
2,139240,139233,139220,139234,139349
5,139400,139443,139432,139443,139559
4,139670,139652,139643,139653,139769
7,139840,139862,139855,139862,139978
6,140040,140071,140067,140071,140188
9,140240,140281,140278,140281,140398
8,140480,140490,140490,140490,140608
11,140680,140699,140702,140700,140818
10,140970,140909,140913,140909,141028
12,141120,141118,141125,141118,141238
1,141390,141328,141337,141328,141448
2,141580,141537,141549,141537,141657
3,141770,141747,141760,141746,141867
4,141940,141956,141972,141956,142077
5,142110,142165,142184,142165,142287
6,142340,142375,142395,142374,142497
7,142560,142584,142607,142584,142707
8,142770,142794,142819,142793,142917
9,142990,143003,143030,143002,143127
10,143220,143212,143242,143212,143336
11,143410,143422,143454,143421,143546
12,143680,143631,143665,143631,143756
1,144150,144071,144061,144064,144176
2,144340,144279,144271,144273,144386
3,144500,144487,144482,144482,144596
4,144700,144696,144693,144691,144806
5,144860,144904,144904,144900,145015
6,145100,145112,145114,145109,145225
7,145320,145321,145325,145318,145435
8,145510,145529,145536,145527,145645
9,145700,145737,145747,145736,145855
10,145920,145945,145958,145945,146065
11,146130,146154,146168,146154,146275
12,146370,146362,146379,146363,146485
1,146600,146570,146590,146572,146694
2,146790,146779,146801,146781,146904
3,146980,146987,147012,146990,147114
4,147160,147195,147222,147199,147324
5,147380,147403,147433,147408,147534
6,147620,147612,147644,147617,147744
7,147850,147820,147855,147826,147954
8,148030,148028,148065,148035,148164
9,148240,148237,148276,148244,148373
10,148400,148445,148487,148453,148583
11,148660,148653,148698,148662,148793
12,148910,148862,148909,148871,149003
1,149370,149303,149311,149313,149423
2,149570,149513,149521,149522,149633
3,149720,149723,149732,149731,149843
4,149940,149932,149942,149940,150052
5,150080,150142,150152,150149,150262
6,150340,150352,150362,150358,150472
7,150560,150562,150573,150567,150682
8,150750,150771,150783,150776,150892
9,150940,150981,150993,150984,151102
10,151210,151191,151203,151193,151312
11,151390,151401,151413,151402,151522
12,151620,151610,151624,151611,151731
1,151850,151820,151834,151820,151941
2,152030,152030,152044,152029,152151
3,152190,152240,152254,152238,152361
4,152420,152449,152465,152447,152571
5,152650,152659,152675,152656,152781
6,152830,152869,152885,152865,152991
7,153060,153079,153095,153074,153201
8,153270,153288,153306,153283,153410
9,153490,153498,153516,153492,153620
10,153740,153708,153726,153701,153830
11,153910,153917,153936,153910,154040
12,154250,154127,154147,154119,154250
