   1     1  1234567890ET                                                                                                                                                  
   2    13  1234567890ET                                                                                                                                                  =
   3    25  1234567890ET                                                                                                                                                  =
   4    37  1234567890ET                                                                                                                                                  =
   5    49  1234567890ET                                                                                                                                                  =
   6    61  1234567890ET                                                                                                                                                  =
   7    73  1234567890ET                                                                                                                                                  =
   8    85  1234567890ET                                                                                                                                                  =
   9    97  213547698E0T                                                                                                                                                  3
  10   109  2314567890ET                                                                                                                                                  1
  11   121  324165879E0T                                                                                                                                                  9
  12   133  2346185970ET                                                                                                                                                  3
  13   145  243165879E0T                                                                                                                                                  1
  14   157  4236185970ET                                                                                                                                                  3
  15   169  432165879E0T                                                                                                                                                  1
  16   181  3426185970ET                                                                                                                                                  3
  17   193  4362819507ET                                                                                                                                                  E
  18   205  463829105E7T                                                                                                                                                  1
  19   217  6432819507ET                                                                                                                                                  3
  20   229  634829105E7T                                                                                                                                                  1
  21   241  3642819507ET                                                                                                                                                  3
  22   253  346829105E7T                                                                                                                                                  1
  23   265  386920157ET4                                                                                                                                                  ?
  24   277  386902157TE4                                                                                                                                                  234789
  25   289  123567890ET4                                                                                                                                                  ?
  26   301  123567890ET4                                                                                                                                                  =
  27   313  123567890ET4                                                                                                                                                  =
  28   325  123567890ET4                                                                                                                                                  =
  29   337  123567890ET4                                                                                                                                                  =
  30   349  123567890ET4                                                                                                                                                  =
  31   361  123567890ET4                                                                                                                                                  =
  32   373  123567890ET4                                                                                                                                                  =
  33   385  21357698E0T4                                                                                                                                                  34E
  34   397  231567890ET4                                                                                                                                                  4E
  35   409  32165879E0T4                                                                                                                                                  38E
  36   421  236185970ET4                                                                                                                                                  E
  37   433  23165879E0T4                                                                                                                                                  2E
  38   445  236185970ET4                                                                                                                                                  2E
  39   457  32165879E0T4                                                                                                                                                  E
  40   469  326185970ET4                                                                                                                                                  2E
  41   481  362819507ET4                                                                                                                                                  0E
  42   493  63829105E7T4                                                                                                                                                  E
  43   505  632819507ET4                                                                                                                                                  2E
  44   517  63829105E7T4                                                                                                                                                  2E
