   *** Text-formatted Bell Statistics
       ------------------------------------------------------------------------------
         Bell Number:       1    2    3    4    5    6    7    8    9    0    E    T  
       ------------------------------------------------------------------------------
         Mean Error: All  -141 -173 -145 2470 -184 -149 -203 -164 -194 -233 -290 -319 
                      Hs    58   19   54 2664    8   43  -24   23  -20  -54 -110 -157 
                      Bs  -340 -365 -344 2277 -376 -342 -383 -351 -368 -412 -471 -481 
        
         Std  Error: All  1404 1316 1164 4135 1219 1026 1075  907  875  871  993  965 
                      Hs  1772 1667 1556 4475 1470 1347 1242 1117 1004  894  835  757 
                      Bs   911  841  534 3886  906  525  878  612  710  834 1125 1135 
        
         Rms  Error: All  1391 1309 1157 4767 1216 1023 1080  910  884  890 1021 1003 
                      Hs  1724 1620 1513 5100 1429 1310 1207 1085  976  870  819  753 
                      Bs   948  895  623 4410  957  614  936  690  782  910 1190 1203 
       ------------------------------------------------------------------------------
