Tower Id,YYMMDD,HHMM,Touch Name,Num Rows,Touch SD (SF/IM Model),Bell No,Ringer,Mean Both,Mean Hand,Mean Back,Std Both,Std Hand,Std Back,Rms Both,Rms Hand,Rms Back
Guildford,220511,2016,1,44,35.1,1,-,9.6,8.8,10.5,30.9,32.8,29.6,32.0,33.2,30.8
Guildford,220511,2016,1,44,35.1,2,-,31.7,31.1,32.4,28.1,22.0,33.7,42.2,37.8,46.2
Guildford,220511,2016,1,44,35.1,3,-,17.8,16.2,19.5,34.1,40.8,26.8,38.2,43.0,32.6
Guildford,220511,2016,1,44,35.1,4,-,7.5,9.5,5.5,35.5,39.3,32.0,35.9,39.6,31.7
Guildford,220511,2016,1,44,35.1,5,-,11.6,11.2,12.0,27.4,27.4,28.0,29.4,29.0,29.9
Guildford,220511,2016,1,44,35.1,6,-,1.0,0.2,1.9,28.6,29.4,28.5,28.3,28.8,27.9
Guildford,220511,2016,1,44,35.1,7,-,24.2,28.0,20.4,28.3,25.9,30.7,37.0,37.8,36.3
Guildford,220511,2016,1,44,35.1,8,-,-9.1,-9.6,-8.6,31.5,32.1,31.7,32.5,32.8,32.2
Guildford,220511,2016,1,44,35.1,9,-,12.1,13.9,10.2,35.8,37.9,34.3,37.4,39.5,35.1
Guildford,220511,2016,1,44,35.1,10,-,-3.4,-2.4,-4.4,36.6,39.5,34.4,36.4,38.7,33.9
Guildford,220511,2016,1,44,35.1,11,-,-3.8,-22.5,14.8,33.8,22.4,33.4,33.7,31.4,35.9
Guildford,220511,2016,1,44,35.1,12,-,5.8,-0.0,11.6,26.3,22.0,29.3,26.6,21.5,30.9
