Tower Id,YYMMDD,HHMM,Touch Name,Num Rows,Touch SD (SF/IM Model),Bell No,Ringer,Mean Both,Mean Hand,Mean Back,Std Both,Std Hand,Std Back,Rms Both,Rms Hand,Rms Back
Guildford,220610,2030,2,252,38.0,1,-,7.1,24.2,-10.0,46.2,40.1,45.6,46.6,46.7,46.5
Guildford,220610,2030,2,252,38.0,2,-,9.7,13.8,5.5,44.6,49.5,38.9,45.6,51.2,39.1
Guildford,220610,2030,2,252,38.0,3,-,7.3,6.5,8.2,28.0,28.8,27.2,28.9,29.4,28.3
Guildford,220610,2030,2,252,38.0,4,-,9.9,12.9,7.0,37.8,37.4,38.1,39.0,39.5,38.6
Guildford,220610,2030,2,252,38.0,5,-,-1.0,-1.5,-0.5,36.6,33.5,39.6,36.6,33.4,39.4
Guildford,220610,2030,2,252,38.0,6,-,-2.2,3.4,-7.7,27.7,29.7,24.4,27.7,29.7,25.5
Guildford,220610,2030,2,252,38.0,7,-,16.4,28.3,4.6,39.9,39.6,36.8,43.1,48.5,36.9
Guildford,220610,2030,2,252,38.0,8,-,-1.5,12.3,-15.3,35.8,29.7,36.1,35.7,32.0,39.1
Guildford,220610,2030,2,252,38.0,9,-,-6.5,-5.7,-7.2,30.5,31.1,29.9,31.1,31.5,30.7
Guildford,220610,2030,2,252,38.0,10,-,14.1,24.8,3.4,33.5,32.5,31.0,36.3,40.8,31.1
Guildford,220610,2030,2,252,38.0,11,-,2.6,-14.4,19.6,47.2,49.6,37.8,47.2,51.4,42.5
Guildford,220610,2030,2,252,38.0,12,-,-23.4,-24.4,-22.3,25.8,28.6,22.8,34.8,37.5,31.8
