Tower Id,YYMMDD,HHMM,Touch Name,Num Rows,Touch SD (SF/IM Model),Bell No,Ringer,Mean Both,Mean Hand,Mean Back,Std Both,Std Hand,Std Back,Rms Both,Rms Hand,Rms Back
Guildford,220621,2128,3,110,52.9,1,-,31.4,48.7,14.2,56.6,63.0,43.4,64.5,79.2,45.3
Guildford,220621,2128,3,110,52.9,2,-,24.2,31.9,16.4,35.0,30.1,38.0,42.4,43.7,41.1
Guildford,220621,2128,3,110,52.9,3,-,33.3,14.6,51.9,74.3,80.8,62.5,81.1,81.4,80.8
Guildford,220621,2128,3,110,52.9,4,-,-10.6,-8.5,-12.6,41.5,37.2,45.6,42.6,37.8,46.9
Guildford,220621,2128,3,110,52.9,5,-,-19.3,-5.8,-32.7,49.9,53.3,42.7,53.3,53.1,53.5
Guildford,220621,2128,3,110,52.9,6,-,-10.3,-3.6,-16.9,43.7,45.4,41.3,44.7,45.2,44.3
Guildford,220621,2128,3,110,52.9,7,-,22.5,30.6,14.5,31.5,28.3,32.8,38.7,41.5,35.6
Guildford,220621,2128,3,110,52.9,8,-,5.4,17.1,-6.3,36.0,34.6,33.8,36.3,38.3,34.1
Guildford,220621,2128,3,110,52.9,9,-,-9.3,-3.0,-15.6,40.7,43.4,37.3,41.6,43.1,40.1
Guildford,220621,2128,3,110,52.9,10,-,42.9,64.9,20.8,47.1,45.4,37.8,63.5,79.0,42.9
Guildford,220621,2128,3,110,52.9,11,-,-19.9,-23.4,-16.3,41.9,42.9,41.0,46.2,48.5,43.7
Guildford,220621,2128,3,110,52.9,12,-,-34.9,-44.4,-25.4,35.4,28.7,39.1,49.6,52.8,46.3
