Tower Id,YYMMDD,HHMM,Touch Name,Num Rows,Touch SD (SF/IM Model),Bell No,Ringer,Mean Both,Mean Hand,Mean Back,Std Both,Std Hand,Std Back,Rms Both,Rms Hand,Rms Back
Guildford,220610,2115,2,132,33.9,1,-,20.0,29.1,10.9,38.2,41.5,32.4,43.0,50.5,34.0
Guildford,220610,2115,2,132,33.9,2,-,11.9,11.7,12.1,31.8,31.4,32.3,33.8,33.3,34.2
Guildford,220610,2115,2,132,33.9,3,-,2.7,-1.5,6.9,30.2,30.2,29.8,30.2,30.0,30.3
Guildford,220610,2115,2,132,33.9,4,-,11.3,22.9,-0.2,36.4,37.5,31.5,38.0,43.7,31.3
Guildford,220610,2115,2,132,33.9,5,-,-3.1,-1.1,-5.2,30.5,35.2,24.9,30.5,35.0,25.3
Guildford,220610,2115,2,132,33.9,6,-,-1.0,-2.0,-0.1,26.0,26.8,25.4,26.0,26.7,25.2
Guildford,220610,2115,2,132,33.9,7,-,6.3,13.6,-1.0,33.1,35.6,28.9,33.5,37.8,28.6
Guildford,220610,2115,2,132,33.9,8,-,-4.9,-1.2,-8.6,32.1,35.0,28.7,32.4,34.8,29.7
Guildford,220610,2115,2,132,33.9,9,-,0.0,-1.6,1.6,25.3,26.3,24.2,25.2,26.2,24.1
Guildford,220610,2115,2,132,33.9,10,-,10.4,28.5,-7.7,31.8,26.0,26.4,33.4,38.5,27.3
Guildford,220610,2115,2,132,33.9,11,-,0.1,-15.8,15.9,39.8,35.5,37.6,39.6,38.6,40.6
Guildford,220610,2115,2,132,33.9,12,-,-13.2,-13.1,-13.3,25.9,27.8,24.1,29.0,30.6,27.3
