Tower Id,YYMMDD,HHMM,Touch Name,Num Rows,Touch SD (SF/IM Model),Bell No,Ringer,Mean Both,Mean Hand,Mean Back,Std Both,Std Hand,Std Back,Rms Both,Rms Hand,Rms Back
Guildford,220619,1755,6,36,38.7,1,-,-0.2,23.0,-23.4,31.4,20.7,21.4,30.9,30.6,31.3
Guildford,220619,1755,6,36,38.7,2,-,-2.9,-1.9,-3.9,34.0,34.4,34.6,33.6,33.5,33.8
Guildford,220619,1755,6,36,38.7,3,-,-23.5,-26.4,-20.5,26.4,27.8,25.3,35.0,37.8,32.1
Guildford,220619,1755,6,36,38.7,4,-,2.2,11.2,-6.9,35.6,27.3,41.1,35.2,28.8,40.6
Guildford,220619,1755,6,36,38.7,5,-,-18.8,-20.3,-17.3,24.9,21.9,28.1,30.9,29.4,32.3
Guildford,220619,1755,6,36,38.7,6,-,-20.5,-18.7,-22.3,23.9,24.5,23.8,31.2,30.3,32.1
Guildford,220619,1755,6,36,38.7,7,-,-8.8,-9.8,-7.9,26.0,24.5,28.2,27.1,25.7,28.5
Guildford,220619,1755,6,36,38.7,8,-,-1.5,12.8,-15.8,26.5,25.5,19.1,26.2,27.9,24.4
Guildford,220619,1755,6,36,38.7,9,-,-13.9,-17.0,-10.7,37.0,36.6,38.2,39.0,39.4,38.6
Guildford,220619,1755,6,36,38.7,10,-,31.0,66.7,-4.7,50.5,36.4,35.2,58.7,75.5,34.5
Guildford,220619,1755,6,36,38.7,11,-,28.9,10.1,47.6,45.8,18.5,56.9,53.6,20.6,73.0
Guildford,220619,1755,6,36,38.7,12,-,22.3,22.8,21.9,38.0,29.6,45.8,43.6,36.7,49.6
