Tower Id,YYMMDD,HHMM,Touch Name,Num Rows,Touch SD (SF/IM Model),Bell No,Ringer,Mean Both,Mean Hand,Mean Back,Std Both,Std Hand,Std Back,Rms Both,Rms Hand,Rms Back
Guildford,220529,1721,6,252,32.4,1,-,12.1,34.2,-9.9,33.7,26.0,25.0,35.8,42.9,26.8
Guildford,220529,1721,6,252,32.4,2,-,1.1,12.7,-10.6,34.4,32.4,32.4,34.3,34.7,33.9
Guildford,220529,1721,6,252,32.4,3,-,-0.9,6.2,-8.0,30.4,29.8,29.4,30.4,30.4,30.4
Guildford,220529,1721,6,252,32.4,4,-,-4.9,-7.4,-2.3,34.0,35.1,32.9,34.3,35.7,32.8
Guildford,220529,1721,6,252,32.4,5,-,9.0,11.2,6.8,25.4,25.0,25.7,26.9,27.3,26.5
Guildford,220529,1721,6,252,32.4,6,-,15.6,23.7,7.6,34.0,32.0,34.2,37.4,39.7,34.9
Guildford,220529,1721,6,252,32.4,7,-,16.2,25.7,6.7,29.5,27.8,28.1,33.6,37.8,28.8
Guildford,220529,1721,6,252,32.4,8,-,5.4,10.9,-0.1,28.3,29.4,26.1,28.7,31.2,26.0
Guildford,220529,1721,6,252,32.4,9,-,7.9,13.9,1.9,29.0,29.4,27.5,30.0,32.4,27.4
Guildford,220529,1721,6,252,32.4,10,-,11.6,21.6,1.6,28.5,29.9,23.0,30.7,36.8,23.0
Guildford,220529,1721,6,252,32.4,11,-,-1.1,0.5,-2.6,33.7,32.2,35.2,33.7,32.1,35.2
Guildford,220529,1721,6,252,32.4,12,-,-24.4,-22.2,-26.7,25.6,24.8,26.2,35.3,33.2,37.3
