Tower Id,YYMMDD,HHMM,Touch Name,Num Rows,Touch SD (SF/IM Model),Bell No,Ringer,Mean Both,Mean Hand,Mean Back,Std Both,Std Hand,Std Back,Rms Both,Rms Hand,Rms Back
Guildford,220422,2122,7,252,35.8,1,-,20.5,25.5,15.5,31.3,32.5,29.3,37.3,41.2,33.0
Guildford,220422,2122,7,252,35.8,2,-,17.2,24.3,10.1,31.7,30.4,31.5,36.0,38.8,33.0
Guildford,220422,2122,7,252,35.8,3,-,24.0,27.0,21.0,29.4,30.1,28.6,37.9,40.3,35.4
Guildford,220422,2122,7,252,35.8,4,-,8.9,29.1,-11.3,43.6,38.7,38.7,44.4,48.3,40.2
Guildford,220422,2122,7,252,35.8,5,-,12.4,12.4,12.5,27.6,26.7,28.6,30.2,29.4,31.1
Guildford,220422,2122,7,252,35.8,6,-,4.2,3.6,4.9,26.5,30.4,22.1,26.8,30.5,22.5
Guildford,220422,2122,7,252,35.8,7,-,-5.0,5.3,-15.3,36.6,37.4,32.9,36.9,37.6,36.1
Guildford,220422,2122,7,252,35.8,8,-,3.9,14.2,-6.4,31.2,31.7,27.1,31.4,34.7,27.8
Guildford,220422,2122,7,252,35.8,9,-,8.7,12.0,5.3,30.5,31.0,29.8,31.7,33.1,30.1
Guildford,220422,2122,7,252,35.8,10,-,-17.4,-7.0,-27.8,34.2,38.0,26.3,38.4,38.5,38.2
Guildford,220422,2122,7,252,35.8,11,-,-11.6,-14.5,-8.7,33.8,36.7,30.4,35.6,39.3,31.5
Guildford,220422,2122,7,252,35.8,12,-,-21.6,-16.9,-26.3,28.1,29.0,26.4,35.4,33.5,37.2
