Tower Id,YYMMDD,HHMM,Touch Name,Num Rows,Touch SD (SF/IM Model),Bell No,Ringer,Mean Both,Mean Hand,Mean Back,Std Both,Std Hand,Std Back,Rms Both,Rms Hand,Rms Back
Guildford,220621,2115,3,252,36.0,1,-,11.7,28.1,-4.7,32.8,31.5,24.9,34.7,42.1,25.3
Guildford,220621,2115,3,252,36.0,2,-,26.8,40.6,12.9,34.3,31.9,31.0,43.4,51.5,33.5
Guildford,220621,2115,3,252,36.0,3,-,9.0,7.4,10.6,28.8,31.5,25.9,30.1,32.3,27.9
Guildford,220621,2115,3,252,36.0,4,-,4.8,16.5,-6.9,35.0,33.9,32.0,35.2,37.6,32.7
Guildford,220621,2115,3,252,36.0,5,-,5.9,14.8,-3.0,30.0,25.0,32.0,30.5,28.9,32.0
Guildford,220621,2115,3,252,36.0,6,-,-13.0,-6.7,-19.2,34.6,34.2,34.1,36.9,34.7,39.0
Guildford,220621,2115,3,252,36.0,7,-,26.4,38.8,14.1,31.8,33.1,25.0,41.3,50.9,28.6
Guildford,220621,2115,3,252,36.0,8,-,16.1,24.1,8.1,29.8,28.3,29.2,33.8,37.1,30.2
Guildford,220621,2115,3,252,36.0,9,-,3.4,1.2,5.7,29.0,31.1,26.7,29.1,31.0,27.1
Guildford,220621,2115,3,252,36.0,10,-,-8.3,8.7,-25.4,37.3,33.6,32.7,38.1,34.6,41.3
Guildford,220621,2115,3,252,36.0,11,-,-19.2,-18.7,-19.7,38.9,39.6,38.4,43.3,43.7,43.0
Guildford,220621,2115,3,252,36.0,12,-,-17.1,-16.5,-17.8,28.0,29.1,26.9,32.8,33.3,32.2
