Tower Id,YYMMDD,HHMM,Touch Name,Num Rows,Touch SD (SF/IM Model),Bell No,Ringer,Mean Both,Mean Hand,Mean Back,Std Both,Std Hand,Std Back,Rms Both,Rms Hand,Rms Back
Guildford,220619,1730,4,252,36.5,1,-,-0.4,26.2,-27.1,41.8,29.5,34.6,41.7,39.4,43.9
Guildford,220619,1730,4,252,36.5,2,-,15.1,23.9,6.3,33.0,31.9,31.8,36.2,39.8,32.3
Guildford,220619,1730,4,252,36.5,3,-,9.4,15.4,3.4,28.2,26.6,28.5,29.6,30.6,28.6
Guildford,220619,1730,4,252,36.5,4,-,6.8,22.0,-8.4,37.9,35.4,34.2,38.5,41.6,35.1
Guildford,220619,1730,4,252,36.5,5,-,-1.0,3.3,-5.4,29.1,29.0,28.8,29.1,29.0,29.2
Guildford,220619,1730,4,252,36.5,6,-,7.4,10.9,3.8,27.7,28.9,26.0,28.6,30.8,26.2
Guildford,220619,1730,4,252,36.5,7,-,13.4,21.4,5.4,34.3,35.8,30.9,36.8,41.5,31.3
Guildford,220619,1730,4,252,36.5,8,-,-3.1,11.3,-17.4,31.7,27.9,28.7,31.8,30.0,33.5
Guildford,220619,1730,4,252,36.5,9,-,-4.2,-2.1,-6.2,26.5,26.8,26.2,26.8,26.8,26.8
Guildford,220619,1730,4,252,36.5,10,-,10.1,50.4,-30.2,48.9,27.9,27.5,49.9,57.6,40.7
Guildford,220619,1730,4,252,36.5,11,-,5.8,-2.2,13.8,39.7,30.9,45.5,40.0,30.9,47.4
Guildford,220619,1730,4,252,36.5,12,-,-13.7,-11.2,-16.1,27.2,27.8,26.5,30.4,29.9,30.9
