Tower Id,YYMMDD,HHMM,Touch Name,Num Rows,Touch SD (SF/IM Model),Bell No,Ringer,Mean Both,Mean Hand,Mean Back,Std Both,Std Hand,Std Back,Rms Both,Rms Hand,Rms Back
Guildford,220506,2126,4,252,32.6,1,-,14.8,2.7,27.0,27.5,26.2,23.2,31.2,26.2,35.5
Guildford,220506,2126,4,252,32.6,2,-,15.3,21.2,9.5,31.6,33.9,28.1,35.1,39.8,29.5
Guildford,220506,2126,4,252,32.6,3,-,9.8,7.9,11.8,29.8,30.8,28.6,31.3,31.7,30.9
Guildford,220506,2126,4,252,32.6,4,-,13.7,18.3,9.1,32.4,32.9,31.3,35.1,37.5,32.5
Guildford,220506,2126,4,252,32.6,5,-,7.2,7.4,7.1,31.3,33.1,29.6,32.1,33.8,30.3
Guildford,220506,2126,4,252,32.6,6,-,0.9,2.5,-0.7,28.4,30.0,26.8,28.4,30.0,26.7
Guildford,220506,2126,4,252,32.6,7,-,-10.0,0.5,-20.4,29.9,26.5,29.5,31.4,26.4,35.8
Guildford,220506,2126,4,252,32.6,8,-,-8.1,-0.4,-15.9,31.1,30.3,30.0,32.1,30.2,33.8
Guildford,220506,2126,4,252,32.6,9,-,-14.2,-15.9,-12.5,26.2,24.7,27.5,29.7,29.3,30.1
Guildford,220506,2126,4,252,32.6,10,-,19.5,34.3,4.7,34.7,32.0,30.8,39.7,46.8,31.1
Guildford,220506,2126,4,252,32.6,11,-,3.8,1.7,5.8,32.9,32.3,33.5,33.0,32.2,33.9
Guildford,220506,2126,4,252,32.6,12,-,-14.0,-15.2,-12.8,27.4,27.1,27.7,30.7,31.0,30.4
