Tower Id,YYMMDD,HHMM,Touch Name,Num Rows,Touch SD (SF/IM Model),Bell No,Ringer,Mean Both,Mean Hand,Mean Back,Std Both,Std Hand,Std Back,Rms Both,Rms Hand,Rms Back
Guildford,220511,2115,5,252,31.3,1,-,-4.5,-4.3,-4.6,29.8,34.1,24.9,30.1,34.3,25.2
Guildford,220511,2115,5,252,31.3,2,-,11.0,14.2,7.9,31.1,34.5,27.0,32.9,37.1,28.0
Guildford,220511,2115,5,252,31.3,3,-,17.5,16.9,18.0,30.3,30.6,30.1,34.9,34.8,35.0
Guildford,220511,2115,5,252,31.3,4,-,10.1,14.6,5.5,32.1,33.4,30.1,33.6,36.4,30.5
Guildford,220511,2115,5,252,31.3,5,-,-0.1,-0.7,0.6,30.0,31.4,28.7,30.0,31.3,28.6
Guildford,220511,2115,5,252,31.3,6,-,8.6,17.5,-0.3,31.5,29.5,31.1,32.6,34.2,31.0
Guildford,220511,2115,5,252,31.3,7,-,9.0,9.0,9.0,27.6,28.0,27.3,29.0,29.3,28.6
Guildford,220511,2115,5,252,31.3,8,-,-3.8,0.3,-8.0,29.0,29.9,27.5,29.2,29.8,28.5
Guildford,220511,2115,5,252,31.3,9,-,-5.8,-3.1,-8.5,27.6,30.3,24.5,28.2,30.3,25.9
Guildford,220511,2115,5,252,31.3,10,-,22.1,31.8,12.3,29.1,29.2,25.5,36.4,43.1,28.3
Guildford,220511,2115,5,252,31.3,11,-,-1.2,-2.7,0.3,29.7,31.4,27.9,29.6,31.4,27.8
Guildford,220511,2115,5,252,31.3,12,-,-21.2,-21.4,-20.9,25.6,25.6,25.7,33.2,33.3,33.1
