Tower Id,YYMMDD,HHMM,Touch Name,Num Rows,Touch SD (SF/IM Model),Bell No,Ringer,Mean Both,Mean Hand,Mean Back,Std Both,Std Hand,Std Back,Rms Both,Rms Hand,Rms Back
Guildford,220610,2015,2,252,34.9,1,-,13.1,34.4,-8.2,42.6,36.0,37.8,44.5,49.7,38.6
Guildford,220610,2015,2,252,34.9,2,-,6.6,11.3,1.9,34.5,35.8,32.7,35.1,37.4,32.6
Guildford,220610,2015,2,252,34.9,3,-,7.5,5.2,9.9,33.3,31.3,35.2,34.1,31.6,36.4
Guildford,220610,2015,2,252,34.9,4,-,15.6,18.6,12.5,34.2,33.3,34.9,37.5,38.0,37.0
Guildford,220610,2015,2,252,34.9,5,-,0.6,0.8,0.4,30.6,33.4,27.6,30.5,33.3,27.5
Guildford,220610,2015,2,252,34.9,6,-,-2.9,4.2,-9.9,27.8,27.8,26.1,27.9,28.0,27.8
Guildford,220610,2015,2,252,34.9,7,-,7.7,19.6,-4.2,40.6,41.8,35.8,41.3,46.0,35.9
Guildford,220610,2015,2,252,34.9,8,-,-2.9,9.4,-15.2,32.5,28.2,32.0,32.6,29.6,35.3
Guildford,220610,2015,2,252,34.9,9,-,-6.4,-0.8,-12.1,24.9,23.6,25.0,25.7,23.5,27.6
Guildford,220610,2015,2,252,34.9,10,-,14.9,26.6,3.3,31.3,29.3,28.8,34.6,39.5,28.9
Guildford,220610,2015,2,252,34.9,11,-,4.4,-7.5,16.2,38.6,35.1,38.4,38.7,35.8,41.5
Guildford,220610,2015,2,252,34.9,12,-,-16.0,-13.1,-19.0,23.4,26.1,20.0,28.3,29.1,27.5
