Tower Id,YYMMDD,HHMM,Touch Name,Num Rows,Touch SD (SF/IM Model),Bell No,Ringer,Mean Both,Mean Hand,Mean Back,Std Both,Std Hand,Std Back,Rms Both,Rms Hand,Rms Back
Guildford,220610,2000,2,24,36.9,1,-,3.8,33.4,-25.7,54.3,49.2,43.0,53.3,57.7,48.5
Guildford,220610,2000,2,24,36.9,2,-,22.1,36.0,8.1,35.7,31.2,35.6,41.3,46.8,35.0
Guildford,220610,2000,2,24,36.9,3,-,4.4,2.1,6.6,35.4,41.7,29.5,34.9,40.0,29.0
Guildford,220610,2000,2,24,36.9,4,-,28.9,34.5,23.4,30.8,25.9,35.4,41.8,42.5,41.2
Guildford,220610,2000,2,24,36.9,5,-,2.2,16.7,-12.3,35.6,39.9,24.6,34.9,41.6,26.6
Guildford,220610,2000,2,24,36.9,6,-,2.0,16.8,-12.7,28.6,28.4,20.8,28.1,31.9,23.6
Guildford,220610,2000,2,24,36.9,7,-,1.7,14.1,-10.8,35.9,35.7,32.8,35.2,37.0,33.2
Guildford,220610,2000,2,24,36.9,8,-,-0.8,1.2,-2.8,37.6,31.2,44.4,36.8,29.9,42.6
Guildford,220610,2000,2,24,36.9,9,-,-8.3,-14.5,-2.1,33.0,36.2,29.7,33.4,37.5,28.6
Guildford,220610,2000,2,24,36.9,10,-,31.4,23.5,39.3,30.6,29.7,30.6,43.4,36.9,49.0
Guildford,220610,2000,2,24,36.9,11,-,13.6,-5.9,33.0,40.6,34.9,37.5,42.0,33.9,48.8
Guildford,220610,2000,2,24,36.9,12,-,-16.9,-17.5,-16.4,21.8,25.0,19.2,27.3,29.7,24.6
