Tower Id,YYMMDD,HHMM,Touch Name,Num Rows,Touch SD (SF/IM Model),Bell No,Ringer,Mean Both,Mean Hand,Mean Back,Std Both,Std Hand,Std Back,Rms Both,Rms Hand,Rms Back
Guildford,220529,1728,7,36,2011.5,1,-,-8.0,256.1,-272.1,1891.9,2154.7,1605.9,1865.5,2109.6,1584.2
Guildford,220529,1728,7,36,2011.5,2,-,-72.9,177.2,-323.0,1852.0,2109.7,1574.3,1827.6,2057.9,1563.7
Guildford,220529,1728,7,36,2011.5,3,-,-116.7,145.4,-378.8,1800.0,2037.5,1540.7,1778.6,1985.4,1544.4
Guildford,220529,1728,7,36,2011.5,4,-,2424.0,2681.6,2166.4,4710.2,4848.7,4693.2,5238.8,5421.7,5049.3
Guildford,220529,1728,7,36,2011.5,5,-,-102.1,153.5,-357.8,1779.9,2015.8,1523.3,1757.9,1965.0,1523.0
Guildford,220529,1728,7,36,2011.5,6,-,-144.8,110.3,-399.9,1730.3,1953.0,1487.3,1712.2,1901.2,1499.7
Guildford,220529,1728,7,36,2011.5,7,-,-152.9,91.8,-397.6,1687.3,1884.2,1478.0,1670.7,1833.4,1490.4
Guildford,220529,1728,7,36,2011.5,8,-,-214.3,35.5,-464.1,1659.9,1834.9,1474.4,1650.7,1783.5,1506.2
Guildford,220529,1728,7,36,2011.5,9,-,-242.1,-3.8,-480.4,1625.9,1781.9,1465.4,1621.4,1731.7,1503.0
Guildford,220529,1728,7,36,2011.5,10,-,-288.8,-41.5,-536.1,1607.6,1745.0,1465.0,1611.2,1696.4,1521.3
Guildford,220529,1728,7,36,2011.5,11,-,-309.2,-69.2,-549.2,1586.4,1696.1,1477.4,1594.5,1649.7,1537.2
Guildford,220529,1728,7,36,2011.5,12,-,-361.0,-129.8,-592.1,1562.5,1657.5,1471.6,1582.3,1616.1,1547.9
