Tower Id,YYMMDD,HHMM,Touch Name,Num Rows,Touch SD (SF/IM Model),Bell No,Ringer,Mean Both,Mean Hand,Mean Back,Std Both,Std Hand,Std Back,Rms Both,Rms Hand,Rms Back
Guildford,220619,1710,3,252,34.8,1,-,-7.5,20.8,-35.9,43.6,32.0,34.1,44.1,38.1,49.4
Guildford,220619,1710,3,252,34.8,2,-,11.1,22.6,-0.3,34.2,30.3,34.1,35.9,37.7,33.9
Guildford,220619,1710,3,252,34.8,3,-,9.9,14.7,5.2,28.4,29.2,27.0,30.1,32.6,27.4
Guildford,220619,1710,3,252,34.8,4,-,10.3,16.6,4.0,34.2,33.7,33.8,35.7,37.4,33.9
Guildford,220619,1710,3,252,34.8,5,-,7.4,10.5,4.4,26.5,25.9,26.9,27.5,27.9,27.2
Guildford,220619,1710,3,252,34.8,6,-,4.2,8.2,0.1,27.8,29.0,25.9,28.0,30.1,25.8
Guildford,220619,1710,3,252,34.8,7,-,11.8,24.4,-0.8,30.2,29.6,25.3,32.4,38.3,25.2
Guildford,220619,1710,3,252,34.8,8,-,2.6,22.4,-17.2,34.5,27.3,29.1,34.5,35.3,33.7
Guildford,220619,1710,3,252,34.8,9,-,-4.1,-1.4,-6.9,27.4,28.3,26.2,27.6,28.2,27.0
Guildford,220619,1710,3,252,34.8,10,-,10.2,41.8,-21.5,44.2,30.8,30.7,45.2,51.9,37.4
Guildford,220619,1710,3,252,34.8,11,-,1.7,-12.6,16.1,41.2,33.0,43.7,41.2,35.2,46.4
Guildford,220619,1710,3,252,34.8,12,-,-11.5,-11.7,-11.2,29.5,33.7,24.8,31.6,35.6,27.1
