   *** Text-formatted Bell Statistics
       ------------------------------------------------------------------------------
         Bell Number:       1    2    3    4    5    6    7    8    9    0    E    T  
       ------------------------------------------------------------------------------
         Mean Error: All    18   10   16    0    5    2   11    3   -4  -35  -13  -15 
                      Hs    22    5    6    6   -8   -3    7    8  -12  -39  -23  -16 
                      Bs    15   15   26   -6   17    6   16   -2    4  -32   -2  -13 
        
         Std  Error: All    30   27   28   36   29   26   30   27   26   29   41   20 
                      Hs    30   28   27   35   28   27   30   29   25   28   38   21 
                      Bs    29   26   24   37   25   24   28   24   25   29   41   18 
        
         Rms  Error: All    35   29   32   36   29   26   32   27   27   45   42   24 
                      Hs    37   28   28   35   29   27   31   30   27   48   44   26 
                      Bs    33   30   36   37   30   24   32   24   26   43   41   22 
       ------------------------------------------------------------------------------
