   *** Text-formatted Bell Statistics
       ------------------------------------------------------------------------------
         Bell Number:       1    2    3    4    5    6    7    8    9    0    E    T  
       ------------------------------------------------------------------------------
         Mean Error: All    14   13   17   -2    7    1    7    7  -13  -27  -11  -13 
                      Hs    10    8    8    4   -5   -6    3   18  -20  -26  -20  -18 
                      Bs    17   17   27   -8   19    9   11   -3   -7  -27   -1   -9 
        
         Std  Error: All    30   27   28   34   29   28   30   30   24   30   36   24 
                      Hs    33   27   27   34   30   29   31   30   24   31   37   26 
                      Bs    26   27   24   34   24   25   28   26   23   28   33   20 
        
         Rms  Error: All    33   30   32   34   30   28   31   31   28   40   38   27 
                      Hs    35   28   28   34   30   30   31   35   31   41   43   31 
                      Bs    31   32   36   34   31   27   30   26   23   39   32   22 
       ------------------------------------------------------------------------------
