Bell No,Actual Time,Contest Model,HawkEar Model,RWP Model,Metronomic Model
1,3310,3310,3310,3432.4,3310
2,3520,3521.74,3521.74,3632.88,3509.31
3,3770,3733.48,3733.48,3833.36,3708.62
4,3930,3945.22,3945.22,4033.84,3907.93
5,4190,4156.96,4156.96,4234.32,4107.24
6,4390,4368.7,4368.7,4434.8,4306.55
7,4610,4580.43,4580.43,4635.28,4505.86
8,4780,4792.17,4792.17,4835.76,4705.18
9,4980,5003.91,5003.91,5036.24,4904.49
10,5220,5215.65,5215.65,5236.72,5103.8
11,5350,5427.39,5427.39,5437.2,5303.11
12,5590,5639.13,5639.13,5637.68,5502.42
1,5850,5850.87,5850.87,5838.16,5701.73
2,6100,6062.61,6062.61,6038.64,5901.04
3,6270,6274.35,6274.35,6239.12,6100.35
4,6470,6486.09,6486.09,6439.6,6299.66
5,6660,6697.83,6697.83,6640.08,6498.97
6,6820,6909.57,6909.57,6840.56,6698.28
7,7110,7121.3,7121.3,7041.04,6897.59
8,7330,7333.04,7333.04,7241.52,7096.9
9,7530,7544.78,7544.78,7442,7296.22
10,7760,7756.52,7756.52,7642.48,7495.53
11,7990,7968.26,7968.26,7842.96,7694.84
12,8180,8180,8180,8043.44,7894.15
1,8590,8548.19,8566.77,8524.9,8292.77
2,8780,8746.98,8764.37,8725.38,8492.08
3,8990,8945.76,8961.97,8925.86,8691.39
4,9080,9144.55,9159.57,9126.34,8890.7
5,9300,9343.33,9357.17,9326.82,9090.01
6,9490,9542.12,9554.77,9527.3,9289.32
7,9710,9740.9,9752.37,9727.78,9488.63
8,9870,9939.69,9949.97,9928.26,9687.94
9,10140,10138.5,10147.6,10128.7,9887.26
10,10330,10337.3,10345.2,10329.2,10086.6
11,10530,10536,10542.8,10529.7,10285.9
12,10790,10734.8,10740.4,10730.2,10485.2
1,10970,10933.6,10938,10930.7,10684.5
2,11160,11132.4,11135.6,11131.1,10883.8
3,11300,11331.2,11333.2,11331.6,11083.1
4,11500,11530,11530.8,11532.1,11282.4
5,11690,11728.8,11728.4,11732.6,11481.7
6,11860,11927.5,11926,11933.1,11681.1
7,12130,12126.3,12123.6,12133.5,11880.4
8,12320,12325.1,12321.2,12334,12079.7
9,12500,12523.9,12518.7,12534.5,12279
10,12740,12722.7,12716.3,12735,12478.3
11,12990,12921.5,12913.9,12935.5,12677.6
12,13170,13120.3,13111.5,13135.9,12876.9
1,13590,13538.8,13529.1,13538.2,13275.5
2,13770,13735.7,13726.7,13735.4,13474.8
3,13970,13932.6,13924.2,13932.7,13674.2
4,14130,14129.6,14121.7,14129.9,13873.5
5,14310,14326.5,14319.3,14327.1,14072.8
6,14510,14523.4,14516.8,14524.3,14272.1
7,14700,14720.3,14714.4,14721.5,14471.4
8,14880,14917.3,14911.9,14918.8,14670.7
9,15110,15114.2,15109.5,15116,14870
10,15320,15311.1,15307,15313.2,15069.3
11,15540,15508,15504.6,15510.4,15268.6
12,15730,15705,15702.1,15707.6,15468
1,15930,15901.9,15899.6,15904.9,15667.3
2,16110,16098.8,16097.2,16102.1,15866.6
3,16280,16295.8,16294.7,16299.3,16065.9
4,16450,16492.7,16492.3,16496.5,16265.2
5,16660,16689.6,16689.8,16693.7,16464.5
6,16840,16886.5,16887.4,16891,16663.8
7,17100,17083.5,17084.9,17088.2,16863.1
8,17290,17280.4,17282.4,17285.4,17062.4
9,17460,17477.3,17480,17482.6,17261.8
10,17670,17674.3,17677.5,17679.8,17461.1
11,17910,17871.2,17875.1,17877.1,17660.4
12,18090,18068.1,18072.6,18074.3,17859.7
1,18560,18494,18483.4,18481.2,18258.3
2,18730,18688.8,18678.8,18677.2,18457.6
3,18920,18883.6,18874.3,18873.2,18656.9
4,19060,19078.3,19069.8,19069.1,18856.2
5,19240,19273.1,19265.2,19265.1,19055.6
6,19420,19467.9,19460.7,19461.1,19254.9
7,19630,19662.7,19656.2,19657.1,19454.2
8,19790,19857.5,19851.6,19853.1,19653.5
9,20030,20052.3,20047.1,20049.1,19852.8
10,20260,20247.1,20242.6,20245,20052.1
11,20480,20441.8,20438,20441,20251.4
12,20660,20636.6,20633.5,20637,20450.7
1,20880,20831.4,20828.9,20833,20650
2,21080,21026.2,21024.4,21029,20849.3
3,21230,21221,21219.9,21225,21048.7
4,21390,21415.8,21415.3,21420.9,21248
5,21580,21610.6,21610.8,21616.9,21447.3
6,21770,21805.4,21806.3,21812.9,21646.6
7,21960,22000.1,22001.7,22008.9,21845.9
8,22170,22194.9,22197.2,22204.9,22045.2
9,22370,22389.7,22392.7,22400.9,22244.5
10,22590,22584.5,22588.1,22596.8,22443.8
11,22830,22779.3,22783.6,22792.8,22643.1
12,23010,22974.1,22979.1,22988.8,22842.5
1,23460,23402.1,23385.1,23391.1,23241.1
2,23650,23597.4,23581,23587.4,23440.4
3,23850,23792.6,23776.9,23783.8,23639.7
4,23980,23987.9,23972.7,23980.1,23839
5,24170,24183.1,24168.6,24176.4,24038.3
6,24370,24378.4,24364.4,24372.7,24237.6
7,24560,24573.7,24560.3,24569,24436.9
8,24730,24768.9,24756.2,24765.3,24636.3
9,24940,24964.2,24952,24961.6,24835.6
10,25140,25159.4,25147.9,25158,25034.9
11,25360,25354.7,25343.8,25354.3,25234.2
12,25540,25550,25539.6,25550.6,25433.5
1,25740,25745.2,25735.5,25746.9,25632.8
2,25930,25940.5,25931.4,25943.2,25832.1
3,26120,26135.7,26127.2,26139.5,26031.4
4,26290,26331,26323.1,26335.9,26230.7
5,26480,26526.3,26518.9,26532.2,26430.1
6,26680,26721.5,26714.8,26728.5,26629.4
7,26930,26916.8,26910.7,26924.8,26828.7
8,27100,27112,27106.5,27121.1,27028
9,27330,27307.3,27302.4,27317.4,27227.3
10,27510,27502.5,27498.3,27513.7,27426.6
11,27760,27697.8,27694.1,27710.1,27625.9
12,27950,27893.1,27890,27906.4,27825.2
2,28390,28329.5,28311.3,28331.3,28223.8
1,28600,28526.2,28508,28528.1,28423.2
4,28690,28722.8,28704.7,28724.8,28622.5
3,28870,28919.5,28901.4,28921.6,28821.8
6,29100,29116.1,29098,29118.4,29021.1
5,29330,29312.8,29294.7,29315.2,29220.4
8,29510,29509.5,29491.4,29511.9,29419.7
7,29750,29706.1,29688.1,29708.7,29619
10,29930,29902.8,29884.8,29905.5,29818.3
9,30150,30099.4,30081.4,30102.2,30017.6
12,30240,30296.1,30278.1,30299,30217
11,30510,30492.7,30474.8,30495.8,30416.3
1,30690,30689.4,30671.5,30692.6,30615.6
2,30890,30886,30868.2,30889.3,30814.9
3,31060,31082.7,31064.8,31086.1,31014.2
4,31220,31279.4,31261.5,31282.9,31213.5
6,31410,31476,31458.2,31479.6,31412.8
8,31610,31672.7,31654.9,31676.4,31612.1
5,31890,31869.3,31851.6,31873.2,31811.4
10,32090,32066,32048.3,32070,32010.8
7,32300,32262.6,32244.9,32266.7,32210.1
12,32430,32459.3,32441.6,32463.5,32409.4
9,32670,32656,32638.3,32660.3,32608.7
11,32930,32852.6,32835,32857,32808
2,33290,33274.1,33248.3,33266.3,33206.6
1,33540,33470.4,33445.6,33463.3,33405.9
4,33630,33666.8,33642.8,33660.2,33605.2
3,33850,33863.1,33840,33857.1,33804.5
8,34040,34059.5,34037.3,34054,34003.9
6,34210,34255.9,34234.5,34250.9,34203.2
10,34440,34452.2,34431.7,34447.8,34402.5
5,34670,34648.6,34628.9,34644.7,34601.8
12,34810,34844.9,34826.2,34841.6,34801.1
7,35000,35041.3,35023.4,35038.6,35000.4
11,35230,35237.7,35220.6,35235.5,35199.7
9,35450,35434,35417.8,35432.4,35399
2,35670,35630.4,35615.1,35629.3,35598.3
4,35820,35826.7,35812.3,35826.2,35797.7
1,36040,36023.1,36009.5,36023.1,35997
3,36250,36219.5,36206.7,36220,36196.3
6,36420,36415.8,36404,36416.9,36395.6
8,36580,36612.2,36601.2,36613.9,36594.9
5,36840,36808.6,36798.4,36810.8,36794.2
10,36980,37004.9,36995.7,37007.7,36993.5
7,37190,37201.3,37192.9,37204.6,37192.8
12,37310,37397.6,37390.1,37401.5,37392.1
9,37630,37594,37587.3,37598.4,37591.5
11,37850,37790.4,37784.6,37795.3,37790.8
4,38180,38223.6,38196.5,38224.4,38189.4
2,38400,38419.9,38394.2,38420.8,38388.7
3,38630,38616.2,38591.8,38617.2,38588
1,38890,38812.5,38789.5,38813.7,38787.3
6,39070,39008.7,38987.1,39010.1,38986.6
5,39250,39205,39184.8,39206.5,39185.9
8,39440,39401.3,39382.4,39403,39385.3
7,39630,39597.6,39580.1,39599.4,39584.6
10,39790,39793.9,39777.7,39795.8,39783.9
9,39950,39990.2,39975.4,39992.3,39983.2
12,40170,40186.5,40173,40188.7,40182.5
11,40340,40382.8,40370.7,40385.1,40381.8
2,40590,40579.1,40568.3,40581.5,40581.1
4,40720,40775.4,40766,40778,40780.4
1,40930,40971.6,40963.6,40974.4,40979.7
3,41170,41167.9,41161.3,41170.8,41179
5,41370,41364.2,41358.9,41367.3,41378.4
6,41570,41560.5,41556.6,41563.7,41577.7
7,41760,41756.8,41754.2,41760.1,41777
8,41940,41953.1,41951.9,41956.6,41976.3
9,42140,42149.4,42149.5,42153,42175.6
10,42330,42345.7,42347.2,42349.4,42374.9
11,42560,42542,42544.8,42545.9,42574.2
12,42780,42738.2,42742.5,42742.3,42773.5
4,43100,43149.6,43130.3,43134.3,43172.2
2,43320,43345.3,43327.7,43331,43371.5
3,43530,43541,43525.1,43527.6,43570.8
1,43750,43736.8,43722.5,43724.3,43770.1
5,43930,43932.5,43920,43920.9,43969.4
7,44130,44128.2,44117.4,44117.6,44168.7
6,44310,44323.9,44314.8,44314.2,44368
9,44510,44519.7,44512.2,44510.9,44567.3
8,44680,44715.4,44709.6,44707.5,44766.6
11,44890,44911.1,44907,44904.2,44966
10,45100,45106.9,45104.5,45100.9,45165.3
12,45310,45302.6,45301.9,45297.5,45364.6
2,45530,45498.3,45499.3,45494.2,45563.9
4,45670,45694,45696.7,45690.8,45763.2
3,45880,45889.8,45894.1,45887.5,45962.5
5,46120,46085.5,46091.6,46084.1,46161.8
1,46300,46281.2,46289,46280.8,46361.1
6,46480,46476.9,46486.4,46477.4,46560.4
7,46680,46672.7,46683.8,46674.1,46759.7
8,46850,46868.4,46881.2,46870.7,46959.1
9,47060,47064.1,47078.6,47067.4,47158.4
11,47240,47259.9,47276.1,47264.1,47357.7
12,47450,47455.6,47473.5,47460.7,47557
10,47680,47651.3,47670.9,47657.4,47756.3
2,48130,48086.8,48077.2,48092.6,48154.9
3,48330,48284.2,48275,48289.7,48354.2
4,48480,48481.6,48472.7,48486.9,48553.5
5,48650,48679,48670.4,48684,48752.9
6,48850,48876.4,48868.1,48881.1,48952.2
1,49060,49073.7,49065.8,49078.2,49151.5
8,49220,49271.1,49263.5,49275.4,49350.8
7,49490,49468.5,49461.3,49472.5,49550.1
11,49670,49665.9,49659,49669.6,49749.4
9,49870,49863.3,49856.7,49866.8,49948.7
10,50070,50060.6,50054.4,50063.9,50148
12,50230,50258,50252.1,50261,50347.3
3,50480,50455.4,50449.9,50458.1,50546.7
2,50680,50652.8,50647.6,50655.3,50746
5,50860,50850.2,50845.3,50852.4,50945.3
4,51090,51047.6,51043,51049.5,51144.6
1,51270,51244.9,51240.7,51246.7,51343.9
6,51480,51442.3,51438.4,51443.8,51543.2
7,51650,51639.7,51636.2,51640.9,51742.5
8,51810,51837.1,51833.9,51838,51941.8
9,51990,52034.5,52031.6,52035.2,52141.1
11,52240,52231.8,52229.3,52232.3,52340.5
12,52410,52429.2,52427,52429.4,52539.8
10,52620,52626.6,52624.8,52626.6,52739.1
2,53080,53045.9,53020.7,53033.9,53137.7
3,53260,53241.6,53218.4,53230.6,53337
4,53440,53437.4,53416.1,53427.3,53536.3
5,53620,53633.1,53613.7,53624,53735.6
6,53790,53828.9,53811.4,53820.7,53934.9
1,54030,54024.7,54009.1,54017.4,54134.2
7,54250,54220.4,54206.7,54214,54333.6
9,54400,54416.2,54404.4,54410.7,54532.9
8,54580,54611.9,54602.1,54607.4,54732.2
11,54780,54807.7,54799.7,54804.1,54931.5
10,55000,55003.5,54997.4,55000.8,55130.8
12,55180,55199.2,55195.1,55197.5,55330.1
2,55450,55395,55392.7,55394.2,55529.4
4,55540,55590.7,55590.4,55590.9,55728.7
3,55800,55786.5,55788,55787.6,55928
6,55950,55982.2,55985.7,55984.2,56127.4
5,56190,56178,56183.4,56180.9,56326.7
7,56410,56373.8,56381,56377.6,56526
1,56590,56569.5,56578.7,56574.3,56725.3
8,56750,56765.3,56776.4,56771,56924.6
9,56950,56961,56974,56967.7,57123.9
10,57140,57156.8,57171.7,57164.4,57323.2
11,57370,57352.6,57369.4,57361.1,57522.5
12,57550,57548.3,57567,57557.8,57721.8
4,57930,57971.5,57963.4,57976.8,58120.5
2,58160,58168.6,58161.1,58173.4,58319.8
3,58380,58365.8,58358.8,58370,58519.1
5,58550,58562.9,58556.5,58566.6,58718.4
6,58760,58760.1,58754.1,58763.1,58917.7
7,58990,58957.2,58951.8,58959.7,59117
8,59140,59154.4,59149.5,59156.3,59316.3
1,59350,59351.5,59347.2,59352.9,59515.6
10,59540,59548.6,59544.9,59549.5,59714.9
9,59750,59745.8,59742.6,59746,59914.3
12,59910,59942.9,59940.3,59942.6,60113.6
11,60120,60140.1,60138,60139.2,60312.9
2,60370,60337.2,60335.7,60335.8,60512.2
4,60480,60534.4,60533.4,60532.4,60711.5
5,60750,60731.5,60731.1,60729,60910.8
3,60980,60928.7,60928.8,60925.5,61110.1
7,61120,61125.8,61126.5,61122.1,61309.4
6,61340,61322.9,61324.2,61318.7,61508.7
1,61540,61520.1,61521.9,61515.3,61708.1
8,61700,61717.2,61719.6,61711.9,61907.4
9,61910,61914.4,61917.3,61908.4,62106.7
10,62110,62111.5,62115,62105,62306
11,62320,62308.7,62312.7,62301.6,62505.3
12,62500,62505.8,62510.4,62498.2,62704.6
4,62880,62917.4,62900.2,62904.5,63103.2
2,63080,63113.4,63097.7,63101.4,63302.5
3,63330,63309.4,63295.2,63298.2,63501.9
5,63510,63505.4,63492.7,63495.1,63701.2
6,63700,63701.5,63690.2,63691.9,63900.5
7,63910,63897.5,63887.7,63888.8,64099.8
8,64070,64093.5,64085.2,64085.6,64299.1
1,64270,64289.5,64282.7,64282.5,64498.4
9,64490,64485.5,64480.2,64479.3,64697.7
11,64650,64681.5,64677.7,64676.2,64897
10,64920,64877.5,64875.2,64873.1,65096.3
12,65070,65073.6,65072.8,65069.9,65295.7
2,65300,65269.6,65270.3,65266.8,65495
4,65450,65465.6,65467.8,65463.6,65694.3
3,65650,65661.6,65665.3,65660.5,65893.6
6,65850,65857.6,65862.8,65857.3,66092.9
5,66050,66053.6,66060.3,66054.2,66292.2
8,66230,66249.6,66257.8,66251,66491.5
7,66440,66445.6,66455.3,66447.9,66690.8
9,66660,66641.7,66652.8,66644.7,66890.1
1,66850,66837.7,66850.3,66841.6,67089.4
11,66990,67033.7,67047.8,67038.5,67288.8
12,67230,67229.7,67245.3,67235.3,67488.1
10,67460,67425.7,67442.8,67432.2,67687.4
2,67900,67857,67844.8,67844.8,68086
3,68080,68053.9,68042.5,68042.9,68285.3
4,68280,68250.8,68240.1,68241.1,68484.6
5,68430,68447.7,68437.8,68439.3,68683.9
6,68610,68644.5,68635.4,68637.4,68883.2
7,68840,68841.4,68833.1,68835.6,69082.6
8,68980,69038.3,69030.8,69033.8,69281.9
9,69180,69235.2,69228.4,69232,69481.2
11,69440,69432.1,69426.1,69430.1,69680.5
1,69670,69628.9,69623.7,69628.3,69879.8
10,69830,69825.8,69821.4,69826.5,70079.1
12,70000,70022.7,70019.1,70024.7,70278.4
3,70280,70219.6,70216.7,70222.8,70477.7
2,70450,70416.5,70414.4,70421,70677
5,70660,70613.4,70612,70619.2,70876.4
4,70870,70810.2,70809.7,70817.4,71075.7
7,71020,71007.1,71007.4,71015.5,71275
6,71190,71204,71205,71213.7,71474.3
9,71370,71400.9,71402.7,71411.9,71673.6
8,71550,71597.8,71600.3,71610.1,71872.9
1,71800,71794.7,71798,71808.2,72072.2
11,71990,71991.5,71995.7,72006.4,72271.5
12,72160,72188.4,72193.3,72204.6,72470.8
10,72390,72385.3,72391,72402.7,72670.2
3,72890,72833.3,72816.4,72832.9,73068.8
5,73060,73031.7,73014.8,73031.8,73268.1
2,73270,73230,73213.3,73230.8,73467.4
7,73530,73428.3,73411.7,73429.7,73666.7
4,73640,73626.6,73610.2,73628.7,73866
9,73810,73824.9,73808.6,73827.6,74065.3
6,74010,74023.2,74007.1,74026.6,74264.6
8,74180,74221.5,74205.5,74225.5,74463.9
11,74400,74419.8,74404,74424.5,74663.3
1,74580,74618.1,74602.4,74623.4,74862.6
10,74760,74816.5,74800.9,74822.4,75061.9
12,74940,75014.8,74999.3,75021.4,75261.2
5,75250,75213.1,75197.8,75220.3,75460.5
3,75460,75411.4,75396.2,75419.3,75659.8
7,75660,75609.7,75594.7,75618.2,75859.1
2,75860,75808,75793.1,75817.2,76058.4
9,76050,76006.3,75991.6,76016.1,76257.7
4,76220,76204.6,76190,76215.1,76457.1
8,76390,76403,76388.5,76414,76656.4
6,76620,76601.3,76586.9,76613,76855.7
11,76800,76799.6,76785.4,76811.9,77055
10,77040,76997.9,76983.8,77010.9,77254.3
1,77160,77196.2,77182.3,77209.8,77453.6
12,77320,77394.5,77380.7,77408.8,77652.9
3,77880,77839.7,77804.5,77838.7,78051.5
5,78060,78037.2,78003.6,78036.7,78250.9
2,78290,78234.6,78202.7,78234.7,78450.2
7,78510,78432,78401.7,78432.6,78649.5
4,78620,78629.4,78600.8,78630.6,78848.8
9,78810,78826.8,78799.9,78828.6,79048.1
6,79000,79024.2,78999,79026.6,79247.4
8,79210,79221.6,79198.1,79224.5,79446.7
10,79420,79419,79397.2,79422.5,79646
11,79630,79616.4,79596.3,79620.5,79845.3
12,79770,79813.8,79795.4,79818.5,80044.6
1,80010,80011.2,79994.5,80016.4,80244
3,80250,80208.6,80193.6,80214.4,80443.3
2,80450,80406,80392.7,80412.4,80642.6
5,80580,80603.4,80591.8,80610.4,80841.9
4,80830,80800.9,80790.8,80808.3,81041.2
7,81000,80998.3,80989.9,81006.3,81240.5
6,81200,81195.7,81189,81204.3,81439.8
9,81410,81393.1,81388.1,81402.3,81639.1
8,81520,81590.5,81587.2,81600.2,81838.4
11,81780,81787.9,81786.3,81798.2,82037.8
10,82000,81985.3,81985.4,81996.2,82237.1
1,82170,82182.7,82184.5,82194.1,82436.4
12,82370,82380.1,82383.6,82392.1,82635.7
2,82790,82801.7,82777.6,82790.5,83034.3
3,83020,82998.6,82976.5,82988.2,83233.6
4,83200,83195.6,83175.4,83185.8,83432.9
5,83360,83392.5,83374.4,83383.4,83632.2
6,83560,83589.5,83573.3,83581.1,83831.6
7,83780,83786.4,83772.2,83778.7,84030.9
8,83940,83983.4,83971.2,83976.3,84230.2
9,84190,84180.3,84170.1,84174,84429.5
10,84380,84377.3,84369,84371.6,84628.8
11,84580,84574.2,84567.9,84569.2,84828.1
12,84740,84771.2,84766.9,84766.9,85027.4
1,84980,84968.1,84965.8,84964.5,85226.7
2,85200,85165.1,85164.7,85162.2,85426
4,85350,85362,85363.7,85359.8,85625.4
3,85570,85559,85562.6,85557.4,85824.7
6,85750,85755.9,85761.5,85755.1,86024
5,85960,85952.9,85960.5,85952.7,86223.3
8,86120,86149.8,86159.4,86150.3,86422.6
7,86320,86346.8,86358.3,86348,86621.9
10,86550,86543.7,86557.3,86545.6,86821.2
9,86720,86740.7,86756.2,86743.2,87020.5
12,86900,86937.6,86955.1,86940.9,87219.8
11,87160,87134.6,87154.1,87138.5,87419.1
1,87400,87331.5,87353,87336.1,87618.5
4,87780,87763.8,87751.8,87755.9,88017.1
2,87970,87961.8,87950.8,87954.6,88216.4
6,88170,88159.8,88149.7,88153.3,88415.7
3,88390,88357.8,88348.6,88352,88615
8,88520,88555.7,88547.6,88550.7,88814.3
5,88750,88753.7,88746.5,88749.4,89013.6
10,88920,88951.7,88945.4,88948,89212.9
7,89110,89149.7,89144.4,89146.7,89412.3
12,89280,89347.7,89343.3,89345.4,89611.6
9,89560,89545.7,89542.2,89544.1,89810.9
1,89770,89743.7,89741.2,89742.8,90010.2
11,89940,89941.7,89940.1,89941.5,90209.5
4,90160,90139.7,90139,90140.2,90408.8
6,90330,90337.7,90338,90338.9,90608.1
2,90560,90535.7,90536.9,90537.6,90807.4
8,90730,90733.7,90735.8,90736.2,91006.7
3,90970,90931.7,90934.8,90934.9,91206.1
10,91180,91129.7,91133.7,91133.6,91405.4
5,91330,91327.7,91332.6,91332.3,91604.7
7,91540,91525.7,91531.6,91531,91804
9,91690,91723.7,91730.5,91729.7,92003.3
12,91880,91921.7,91929.4,91928.4,92202.6
11,92110,92119.7,92128.4,92127.1,92401.9
1,92340,92317.7,92327.3,92325.7,92601.2
6,92790,92759.1,92739,92755.9,92999.8
4,92950,92957.3,92938.3,92954.7,93199.2
8,93130,93155.5,93137.5,93153.4,93398.5
2,93400,93353.7,93336.8,93352.2,93597.8
10,93570,93551.9,93536.1,93550.9,93797.1
3,93760,93750.1,93735.3,93749.7,93996.4
7,93970,93948.3,93934.6,93948.5,94195.7
5,94150,94146.5,94133.8,94147.2,94395
12,94340,94344.7,94333.1,94346,94594.3
9,94550,94542.9,94532.4,94544.8,94793.6
1,94790,94741.1,94731.6,94743.5,94993
11,94900,94939.3,94930.9,94942.3,95192.3
4,95120,95137.5,95130.1,95141,95391.6
6,95300,95335.7,95329.4,95339.8,95590.9
2,95550,95533.9,95528.7,95538.6,95790.2
8,95720,95732.1,95727.9,95737.3,95989.5
3,95950,95930.3,95927.2,95936.1,96188.8
10,96160,96128.5,96126.4,96134.9,96388.1
5,96320,96326.7,96325.7,96333.6,96587.4
7,96550,96524.9,96525,96532.4,96786.8
12,96700,96723.1,96724.2,96731.1,96986.1
1,96900,96921.3,96923.5,96929.9,97185.4
9,97110,97119.5,97122.7,97128.7,97384.7
11,97320,97317.7,97322,97327.4,97584
4,97750,97747.9,97725.6,97741.7,97982.6
2,97970,97945.8,97925,97940.1,98181.9
6,98130,98143.7,98124.3,98138.5,98381.2
3,98340,98341.6,98323.7,98336.8,98580.6
8,98480,98539.4,98523.1,98535.2,98779.9
5,98750,98737.3,98722.4,98733.5,98979.2
10,98940,98935.2,98921.8,98931.9,99178.5
7,99170,99133.1,99121.1,99130.3,99377.8
1,99320,99331,99320.5,99328.6,99577.1
12,99480,99528.9,99519.8,99527,99776.4
11,99750,99726.7,99719.2,99725.4,99975.7
9,99960,99924.6,99918.6,99923.7,100175
2,100140,100123,100118,100122,100374
4,100320,100320,100317,100320,100574
3,100520,100518,100517,100519,100773
6,100690,100716,100716,100717,100972
5,100930,100914,100915,100916,101172
8,101080,101112,101115,101114,101371
7,101320,101310,101314,101312,101570
10,101500,101508,101513,101511,101770
12,101680,101706,101713,101709,101969
1,101870,101903,101912,101907,102168
9,102100,102101,102111,102106,102367
11,102360,102299,102311,102304,102567
2,102750,102728,102710,102720,102965
3,102940,102926,102909,102918,103165
4,103130,103124,103109,103117,103364
5,103290,103322,103308,103316,103563
6,103490,103520,103508,103514,103763
7,103710,103718,103707,103713,103962
8,103860,103916,103906,103911,104161
10,104120,104114,104106,104110,104361
1,104310,104312,104305,104309,104560
12,104500,104510,104504,104507,104759
11,104730,104708,104704,104706,104958
9,104940,104906,104903,104904,105158
3,105090,105104,105102,105103,105357
2,105300,105302,105302,105302,105556
4,105540,105500,105501,105500,105756
6,105710,105698,105700,105699,105955
5,105910,105896,105900,105897,106154
8,106060,106094,106099,106096,106354
7,106270,106292,106298,106295,106553
1,106470,106490,106498,106493,106752
10,106690,106688,106697,106692,106952
12,106880,106886,106896,106890,107151
9,107090,107084,107096,107089,107350
11,107310,107282,107295,107288,107550
2,107700,107713,107699,107717,107948
3,107910,107912,107898,107916,108147
6,108120,108111,108098,108114,108347
4,108350,108309,108297,108312,108546
8,108490,108508,108497,108510,108745
5,108690,108706,108696,108708,108945
1,108900,108905,108896,108907,109144
7,109110,109103,109095,109105,109343
10,109270,109302,109294,109303,109543
9,109530,109500,109494,109501,109742
12,109700,109699,109693,109699,109941
11,109900,109898,109893,109898,110141
3,110060,110096,110092,110096,110340
2,110300,110295,110292,110294,110539
4,110480,110493,110491,110492,110739
6,110670,110692,110691,110690,110938
5,110920,110890,110890,110889,111137
8,111120,111089,111090,111087,111336
7,111290,111288,111289,111285,111536
1,111470,111486,111488,111483,111735
9,111680,111685,111688,111681,111934
10,111870,111883,111887,111879,112134
11,112090,112082,112087,112078,112333
12,112300,112280,112286,112276,112532
2,112680,112690,112674,112677,112931
3,112890,112888,112874,112875,113130
4,113070,113085,113073,113074,113330
5,113240,113283,113272,113272,113529
6,113450,113481,113471,113470,113728
8,113650,113678,113670,113668,113927
1,113860,113876,113869,113867,114127
7,114110,114074,114068,114065,114326
10,114260,114271,114268,114263,114525
9,114490,114469,114467,114461,114725
12,114670,114667,114666,114660,114924
11,114860,114864,114865,114858,115123
2,115070,115062,115064,115056,115323
4,115200,115260,115263,115254,115522
3,115440,115457,115463,115453,115721
6,115650,115655,115662,115651,115921
5,115750,115853,115861,115849,116120
1,116070,116051,116060,116047,116319
8,116220,116248,116259,116246,116519
10,116460,116446,116458,116444,116718
7,116650,116644,116657,116642,116917
12,116830,116841,116857,116841,117116
9,117080,117039,117056,117039,117316
11,117320,117237,117255,117237,117515
4,117630,117664,117658,117660,117914
2,117870,117863,117857,117859,118113
6,118040,118062,118057,118059,118312
3,118260,118261,118256,118258,118512
1,118490,118460,118455,118457,118711
5,118610,118659,118655,118657,118910
8,118800,118859,118854,118856,119110
7,119090,119058,119053,119056,119309
10,119270,119257,119253,119255,119508
12,119430,119456,119452,119455,119707
11,119670,119655,119651,119654,119907
9,119900,119854,119850,119854,120106
2,120120,120053,120050,120053,120305
4,120280,120252,120249,120253,120505
3,120490,120451,120448,120452,120704
6,120660,120651,120648,120651,120903
5,120810,120850,120847,120851,121103
1,121040,121049,121046,121050,121302
7,121240,121248,121246,121250,121501
8,121430,121447,121445,121449,121701
12,121580,121646,121644,121649,121900
10,121830,121845,121843,121848,122099
9,122060,122044,122043,122048,122299
11,122280,122243,122242,122247,122498
2,122710,122682,122661,122678,122896
3,122920,122881,122860,122878,123096
4,123090,123080,123060,123077,123295
6,123370,123279,123260,123277,123494
1,123480,123478,123460,123476,123694
5,123660,123677,123660,123676,123893
8,123850,123876,123859,123876,124092
7,124020,124075,124059,124075,124292
10,124260,124273,124259,124275,124491
12,124430,124472,124459,124475,124690
11,124660,124671,124659,124674,124890
9,124910,124870,124858,124874,125089
3,125110,125069,125058,125074,125288
2,125330,125268,125258,125273,125488
4,125460,125467,125458,125473,125687
1,125680,125666,125658,125672,125886
6,125880,125865,125857,125872,126085
8,126020,126064,126057,126072,126285
5,126270,126263,126257,126271,126484
10,126460,126462,126457,126471,126683
7,126650,126661,126657,126671,126883
12,126800,126860,126856,126870,127082
9,127060,127059,127056,127070,127281
11,127290,127258,127256,127270,127481
2,127730,127698,127668,127692,127879
3,127900,127896,127868,127891,128079
1,128110,128095,128068,128090,128278
4,128330,128293,128268,128289,128477
6,128510,128491,128468,128488,128676
5,128720,128689,128668,128687,128876
8,128900,128887,128868,128885,129075
7,129090,129085,129068,129084,129274
10,129310,129283,129268,129283,129474
9,129450,129481,129468,129482,129673
12,129640,129679,129668,129681,129872
11,129860,129877,129868,129880,130072
3,130100,130075,130068,130079,130271
2,130290,130273,130268,130278,130470
4,130450,130471,130468,130477,130670
1,130660,130669,130668,130676,130869
5,130890,130867,130868,130875,131068
6,131090,131065,131068,131074,131268
7,131240,131263,131268,131273,131467
8,131410,131461,131469,131472,131666
9,131640,131659,131669,131670,131865
10,131860,131857,131869,131869,132065
11,132070,132055,132069,132068,132264
12,132260,132253,132269,132267,132463
2,132720,132689,132666,132683,132862
3,132900,132886,132866,132881,133061
1,133130,133084,133066,133080,133261
4,133350,133282,133265,133278,133460
5,133440,133480,133465,133476,133659
7,133650,133677,133665,133675,133859
6,133830,133875,133865,133873,134058
9,134040,134073,134065,134071,134257
8,134200,134271,134265,134270,134456
11,134450,134469,134465,134468,134656
10,134690,134666,134664,134667,134855
12,134880,134864,134864,134865,135054
2,135090,135062,135064,135063,135254
1,135270,135260,135264,135262,135453
3,135480,135457,135464,135460,135652
4,135670,135655,135664,135659,135852
7,135890,135853,135864,135857,136051
5,136070,136051,136063,136055,136250
9,136210,136249,136263,136254,136450
6,136420,136446,136463,136452,136649
11,136640,136644,136663,136650,136848
8,136840,136842,136863,136849,137048
12,137010,137040,137063,137047,137247
10,137270,137237,137263,137246,137446
1,137670,137671,137653,137655,137845
2,137890,137868,137852,137854,138044
4,138070,138066,138052,138053,138243
3,138290,138263,138251,138252,138443
5,138420,138461,138451,138451,138642
7,138650,138658,138651,138650,138841
6,138840,138856,138850,138848,139041
9,139020,139053,139050,139047,139240
8,139200,139251,139249,139246,139439
11,139460,139449,139449,139445,139639
10,139670,139646,139648,139644,139838
12,139840,139844,139848,139843,140037
2,140100,140041,140047,140042,140237
1,140280,140239,140247,140241,140436
3,140460,140436,140446,140440,140635
4,140670,140634,140646,140639,140834
5,140800,140831,140845,140838,141034
6,141020,141029,141045,141037,141233
7,141240,141227,141244,141235,141432
8,141360,141424,141444,141434,141632
9,141590,141622,141643,141633,141831
10,141840,141819,141843,141832,142030
11,142030,142017,142042,142031,142230
12,142210,142214,142242,142230,142429
1,142700,142664,142650,142655,142828
2,142850,142863,142850,142855,143027
4,143080,143062,143049,143055,143226
3,143290,143260,143249,143255,143425
6,143460,143459,143449,143455,143625
5,143670,143658,143648,143655,143824
8,143850,143857,143848,143855,144023
7,144090,144055,144048,144055,144223
10,144270,144254,144248,144255,144422
9,144460,144453,144447,144454,144621
12,144610,144652,144647,144654,144821
11,144850,144850,144847,144854,145020
1,145070,145049,145046,145054,145219
2,145280,145248,145246,145254,145419
4,145410,145446,145446,145454,145618
3,145640,145645,145645,145654,145817
5,145870,145844,145845,145854,146017
6,146080,146043,146045,146054,146216
7,146230,146241,146245,146253,146415
8,146420,146440,146444,146453,146614
9,146600,146639,146644,146653,146814
10,146830,146838,146844,146853,147013
11,147060,147036,147043,147053,147212
12,147230,147235,147243,147253,147412
2,147690,147691,147663,147694,147810
1,147920,147890,147863,147892,148010
3,148120,148089,148063,148091,148209
4,148350,148287,148263,148290,148408
6,148500,148486,148463,148489,148608
5,148730,148684,148664,148688,148807
8,148920,148883,148864,148887,149006
7,149120,149082,149064,149086,149205
10,149260,149280,149264,149285,149405
9,149440,149479,149464,149484,149604
12,149660,149677,149664,149683,149803
11,149880,149876,149865,149882,150003
1,150080,150075,150065,150081,150202
2,150250,150273,150265,150280,150401
3,150470,150472,150465,150479,150601
4,150670,150670,150665,150678,150800
5,150880,150869,150865,150876,150999
6,151070,151068,151066,151075,151199
7,151250,151266,151266,151274,151398
8,151440,151465,151466,151473,151597
9,151650,151663,151666,151672,151797
10,151860,151862,151866,151871,151996
11,152060,152061,152066,152070,152195
12,152280,152259,152267,152269,152394
1,152730,152684,152654,152659,152793
2,152880,152881,152854,152858,152992
3,153070,153078,153054,153057,153192
4,153280,153275,153254,153256,153391
5,153440,153472,153453,153454,153590
6,153600,153669,153653,153653,153790
7,153850,153866,153853,153852,153989
8,153990,154063,154053,154050,154188
9,154200,154260,154252,154249,154388
10,154460,154457,154452,154448,154587
11,154710,154653,154652,154647,154786
12,154850,154850,154852,154845,154986
1,155070,155047,155051,155044,155185
2,155280,155244,155251,155243,155384
3,155470,155441,155451,155441,155583
4,155630,155638,155651,155640,155783
5,155820,155835,155850,155839,155982
6,156030,156032,156050,156037,156181
7,156230,156229,156250,156236,156381
8,156370,156426,156450,156435,156580
9,156600,156622,156649,156634,156779
10,156820,156819,156849,156832,156979
11,157050,157016,157049,157031,157178
12,157240,157213,157249,157230,157377
1,157720,157661,157656,157675,157776
2,157910,157861,157856,157874,157975
3,158100,158061,158056,158073,158174
4,158260,158261,158256,158271,158374
5,158430,158460,158455,158470,158573
6,158610,158660,158655,158669,158772
7,158820,158860,158855,158868,158972
8,159000,159060,159055,159066,159171
9,159230,159259,159255,159265,159370
10,159450,159459,159455,159464,159570
11,159720,159659,159655,159662,159769
12,159850,159859,159855,159861,159968
1,160070,160059,160055,160060,160168
2,160280,160258,160255,160258,160367
3,160460,160458,160455,160457,160566
4,160650,160658,160655,160656,160766
5,160840,160858,160855,160855,160965
6,161040,161057,161055,161053,161164
7,161270,161257,161255,161252,161363
8,161450,161457,161455,161451,161563
9,161620,161657,161655,161649,161762
10,161860,161857,161855,161848,161961
11,162050,162056,162055,162047,162161
12,162360,162256,162255,162246,162360
